This is BibTeX, Version 0.99d (TeX Live 2022/dev/Debian)
Capacity: max_strings=200000, hash_size=200000, hash_prime=170003
The top-level auxiliary file: main.aux
The style file: biblatex.bst
A level-1 auxiliary file: Chapters/Chapter1.aux
A level-1 auxiliary file: Chapters/Chapter2.aux
A level-1 auxiliary file: Chapters/Chapter3.aux
A level-1 auxiliary file: Chapters/Chapter4.aux
A level-1 auxiliary file: Chapters/Chapter5.aux
A level-1 auxiliary file: Appendices/AppendixA.aux
Reallocated glb_str_ptr (elt_size=4) to 20 items from 10.
Reallocated global_strs (elt_size=200001) to 20 items from 10.
Reallocated glb_str_end (elt_size=4) to 20 items from 10.
Reallocated singl_function (elt_size=4) to 100 items from 50.
Reallocated singl_function (elt_size=4) to 100 items from 50.
Reallocated singl_function (elt_size=4) to 100 items from 50.
Reallocated wiz_functions (elt_size=4) to 6000 items from 3000.
Reallocated singl_function (elt_size=4) to 100 items from 50.
Reallocated singl_function (elt_size=4) to 100 items from 50.
Reallocated singl_function (elt_size=4) to 100 items from 50.
Reallocated singl_function (elt_size=4) to 100 items from 50.
Reallocated singl_function (elt_size=4) to 100 items from 50.
Reallocated singl_function (elt_size=4) to 100 items from 50.
Reallocated singl_function (elt_size=4) to 100 items from 50.
Reallocated singl_function (elt_size=4) to 100 items from 50.
Database file #1: main-blx.bib
Database file #2: References.bib
Biblatex version: 3.17
Reallocated wiz_functions (elt_size=4) to 9000 items from 6000.
Reallocated singl_function (elt_size=4) to 100 items from 50.
You've used 31 entries,
            6399 wiz_defined-function locations,
            1459 strings with 17357 characters,
and the built_in function-call counts, 228967 in all, are:
= -- 15410
> -- 9002
< -- 1254
+ -- 10260
- -- 6233
* -- 14276
:= -- 26345
add.period$ -- 0
call.type$ -- 31
change.case$ -- 551
chr.to.int$ -- 636
cite$ -- 60
duplicate$ -- 21978
empty$ -- 19054
format.name$ -- 1678
if$ -- 42822
int.to.chr$ -- 0
int.to.str$ -- 98
missing$ -- 0
newline$ -- 1070
num.names$ -- 1469
pop$ -- 10198
preamble$ -- 1
purify$ -- 702
quote$ -- 0
skip$ -- 6117
stack$ -- 0
substring$ -- 28748
swap$ -- 5188
text.length$ -- 872
text.prefix$ -- 0
top$ -- 1
type$ -- 1042
warning$ -- 0
while$ -- 2831
width$ -- 0
write$ -- 1040
