\relax 
\providecommand\hyper@newdestlabel[2]{}
\providecommand{\transparent@use}[1]{}
\providecommand\babel@aux[2]{}
\@nameuse{bbl@beforestart}
\providecommand\HyperFirstAtBeginDocument{\AtBeginDocument}
\HyperFirstAtBeginDocument{\ifx\hyper@anchor\@undefined
\global\let\oldcontentsline\contentsline
\gdef\contentsline#1#2#3#4{\oldcontentsline{#1}{#2}{#3}}
\global\let\oldnewlabel\newlabel
\gdef\newlabel#1#2{\newlabelxx{#1}#2}
\gdef\newlabelxx#1#2#3#4#5#6{\oldnewlabel{#1}{{#2}{#3}}}
\AtEndDocument{\ifx\hyper@anchor\@undefined
\let\contentsline\oldcontentsline
\let\newlabel\oldnewlabel
\fi}
\fi}
\global\let\hyper@last\relax 
\gdef\HyperFirstAtBeginDocument#1{#1}
\providecommand\HyField@AuxAddToFields[1]{}
\providecommand\HyField@AuxAddToCoFields[2]{}
\bibstyle{biblatex}
\bibdata{main-blx,References}
\citation{biblatex-control}
\abx@aux@refcontext{none/global//global/global}
\providecommand \oddpage@label [2]{}
\babel@aux{english}{}
\@writefile{toc}{\contentsline {chapter}{Approval Page}{i}{section*.2}\protected@file@percent }
\@writefile{toc}{\contentsline {chapter}{EXAMINERS APPROVAL PAGE}{ii}{section*.3}\protected@file@percent }
\@writefile{toc}{\contentsline {chapter}{Statement by The Author}{iii}{section*.4}\protected@file@percent }
\@writefile{toc}{\contentsline {chapter}{Abstract}{iv}{section*.5}\protected@file@percent }
\@writefile{toc}{\contentsline {chapter}{Acknowledgements}{v}{section*.6}\protected@file@percent }
\@writefile{toc}{\contentsline {chapter}{Contents}{vi}{section*.13}\protected@file@percent }
\@writefile{toc}{\contentsline {chapter}{List of Figures}{ix}{section*.14}\protected@file@percent }
\gdef \LT@i {\LT@entry 
    {1}{36.50769pt}\LT@entry 
    {1}{229.9656pt}}
\@input{Chapters/Chapter1.aux}
\citation{rujun_liu}
\abx@aux@cite{0}{rujun_liu}
\abx@aux@segm{0}{0}{rujun_liu}
\citation{rujun_liu}
\abx@aux@cite{0}{rujun_liu}
\abx@aux@segm{0}{0}{rujun_liu}
\citation{aman_mohd}
\abx@aux@cite{0}{aman_mohd}
\abx@aux@segm{0}{0}{aman_mohd}
\citation{rujun_liu}
\abx@aux@cite{0}{rujun_liu}
\abx@aux@segm{0}{0}{rujun_liu}
\citation{kang_characteristics_2003}
\abx@aux@cite{0}{kang_characteristics_2003}
\abx@aux@segm{0}{0}{kang_characteristics_2003}
\citation{kang_characteristics_2003}
\abx@aux@cite{0}{kang_characteristics_2003}
\abx@aux@segm{0}{0}{kang_characteristics_2003}
\citation{kang_characteristics_2003}
\abx@aux@cite{0}{kang_characteristics_2003}
\abx@aux@segm{0}{0}{kang_characteristics_2003}
\@input{Chapters/Chapter2.aux}
\citation{cheng}
\abx@aux@cite{0}{cheng}
\abx@aux@segm{0}{0}{cheng}
\citation{nakaguchi}
\abx@aux@cite{0}{nakaguchi}
\abx@aux@segm{0}{0}{nakaguchi}
\citation{vikram}
\abx@aux@cite{0}{vikram}
\abx@aux@segm{0}{0}{vikram}
\citation{yuce}
\abx@aux@cite{0}{yuce}
\abx@aux@segm{0}{0}{yuce}
\citation{sewatkar}
\abx@aux@cite{0}{sewatkar}
\abx@aux@segm{0}{0}{sewatkar}
\citation{mushyam}
\abx@aux@cite{0}{mushyam}
\abx@aux@segm{0}{0}{mushyam}
\citation{cuhadaroglu}
\abx@aux@cite{0}{cuhadaroglu}
\abx@aux@segm{0}{0}{cuhadaroglu}
\citation{hossain}
\abx@aux@cite{0}{hossain}
\abx@aux@segm{0}{0}{hossain}
\citation{gov_eqn_anderson}
\abx@aux@cite{0}{gov_eqn_anderson}
\abx@aux@segm{0}{0}{gov_eqn_anderson}
\citation{englib_bernoulli}
\abx@aux@cite{0}{englib_bernoulli}
\abx@aux@segm{0}{0}{englib_bernoulli}
\citation{aeroFund_anderson}
\abx@aux@cite{0}{aeroFund_anderson}
\abx@aux@segm{0}{0}{aeroFund_anderson}
\citation{aeroFund_anderson}
\abx@aux@cite{0}{aeroFund_anderson}
\abx@aux@segm{0}{0}{aeroFund_anderson}
\citation{aeroFund_anderson}
\abx@aux@cite{0}{aeroFund_anderson}
\abx@aux@segm{0}{0}{aeroFund_anderson}
\citation{aeroFund_anderson}
\abx@aux@cite{0}{aeroFund_anderson}
\abx@aux@segm{0}{0}{aeroFund_anderson}
\citation{aeroFund_anderson}
\abx@aux@cite{0}{aeroFund_anderson}
\abx@aux@segm{0}{0}{aeroFund_anderson}
\citation{gilbert_kawai}
\abx@aux@cite{0}{gilbert_kawai}
\abx@aux@segm{0}{0}{gilbert_kawai}
\citation{rujun_liu}
\abx@aux@cite{0}{rujun_liu}
\abx@aux@segm{0}{0}{rujun_liu}
\citation{simscale}
\abx@aux@cite{0}{simscale}
\abx@aux@segm{0}{0}{simscale}
\citation{bakker}
\abx@aux@cite{0}{bakker}
\abx@aux@segm{0}{0}{bakker}
\citation{bakker}
\abx@aux@cite{0}{bakker}
\abx@aux@segm{0}{0}{bakker}
\citation{rujun_liu}
\abx@aux@cite{0}{rujun_liu}
\abx@aux@segm{0}{0}{rujun_liu}
\citation{tapia_s}
\abx@aux@cite{0}{tapia_s}
\abx@aux@segm{0}{0}{tapia_s}
\citation{lefrancois}
\abx@aux@cite{0}{lefrancois}
\abx@aux@segm{0}{0}{lefrancois}
\citation{katopodes_viscous_2019}
\abx@aux@cite{0}{katopodes_viscous_2019}
\abx@aux@segm{0}{0}{katopodes_viscous_2019}
\citation{hu_cfd}
\abx@aux@cite{0}{hu_cfd}
\abx@aux@segm{0}{0}{hu_cfd}
\citation{moukalled_cfd}
\abx@aux@cite{0}{moukalled_cfd}
\abx@aux@segm{0}{0}{moukalled_cfd}
\citation{moukalled_cfd}
\abx@aux@cite{0}{moukalled_cfd}
\abx@aux@segm{0}{0}{moukalled_cfd}
\citation{moukalled_cfd}
\abx@aux@cite{0}{moukalled_cfd}
\abx@aux@segm{0}{0}{moukalled_cfd}
\citation{moukalled_cfd}
\abx@aux@cite{0}{moukalled_cfd}
\abx@aux@segm{0}{0}{moukalled_cfd}
\citation{moukalled_cfd}
\abx@aux@cite{0}{moukalled_cfd}
\abx@aux@segm{0}{0}{moukalled_cfd}
\citation{moukalled_cfd}
\abx@aux@cite{0}{moukalled_cfd}
\abx@aux@segm{0}{0}{moukalled_cfd}
\citation{moukalled_cfd}
\abx@aux@cite{0}{moukalled_cfd}
\abx@aux@segm{0}{0}{moukalled_cfd}
\citation{moukalled_cfd}
\abx@aux@cite{0}{moukalled_cfd}
\abx@aux@segm{0}{0}{moukalled_cfd}
\citation{oreily_hands-machine_2019}
\abx@aux@cite{0}{oreily_hands-machine_2019}
\abx@aux@segm{0}{0}{oreily_hands-machine_2019}
\citation{oreily_hands-machine_2019}
\abx@aux@cite{0}{oreily_hands-machine_2019}
\abx@aux@segm{0}{0}{oreily_hands-machine_2019}
\citation{oreily_hands-machine_2019}
\abx@aux@cite{0}{oreily_hands-machine_2019}
\abx@aux@segm{0}{0}{oreily_hands-machine_2019}
\citation{oreily_hands-machine_2019}
\abx@aux@cite{0}{oreily_hands-machine_2019}
\abx@aux@segm{0}{0}{oreily_hands-machine_2019}
\citation{thuerey_deep_2020}
\abx@aux@cite{0}{thuerey_deep_2020}
\abx@aux@segm{0}{0}{thuerey_deep_2020}
\citation{thuerey_deep_2020}
\abx@aux@cite{0}{thuerey_deep_2020}
\abx@aux@segm{0}{0}{thuerey_deep_2020}
\citation{thuerey_deep_2020}
\abx@aux@cite{0}{thuerey_deep_2020}
\abx@aux@segm{0}{0}{thuerey_deep_2020}
\@input{Chapters/Chapter3.aux}
\citation{hu_cfd}
\abx@aux@cite{0}{hu_cfd}
\abx@aux@segm{0}{0}{hu_cfd}
\citation{openfoam_intro_one}
\abx@aux@cite{0}{openfoam_intro_one}
\abx@aux@segm{0}{0}{openfoam_intro_one}
\citation{autodesk_rans_komegasst}
\abx@aux@cite{0}{autodesk_rans_komegasst}
\abx@aux@segm{0}{0}{autodesk_rans_komegasst}
\citation{openfoam_komega}
\abx@aux@cite{0}{openfoam_komega}
\abx@aux@segm{0}{0}{openfoam_komega}
\citation{openfoam_komega}
\abx@aux@cite{0}{openfoam_komega}
\abx@aux@segm{0}{0}{openfoam_komega}
\@input{Chapters/Chapter4.aux}
\citation{openfoam_scotch}
\abx@aux@cite{0}{openfoam_scotch}
\abx@aux@segm{0}{0}{openfoam_scotch}
\citation{inoue_aeolian}
\abx@aux@cite{0}{inoue_aeolian}
\abx@aux@segm{0}{0}{inoue_aeolian}
\citation{nakamura_strouhal}
\abx@aux@cite{0}{nakamura_strouhal}
\abx@aux@segm{0}{0}{nakamura_strouhal}
\@input{Chapters/Chapter5.aux}
\@writefile{toc}{\contentsline {chapter}{Bibliography}{79}{chapter*.204}\protected@file@percent }
\@writefile{toc}{\contentsline {chapter}{Appendices}{84}{section*.205}\protected@file@percent }
\@input{Appendices/AppendixA.aux}
\newlabel{LastPage}{{}{89}{}{page.103}{}}
\xdef\lastpage@lastpage{89}
\xdef\lastpage@lastpageHy{103}
\abx@aux@read@bbl@mdfivesum{17BBEF9B7B6D7880A1210790D83906A9}
\abx@aux@defaultrefcontext{0}{rujun_liu}{none/global//global/global}
\abx@aux@defaultrefcontext{0}{aman_mohd}{none/global//global/global}
\abx@aux@defaultrefcontext{0}{kang_characteristics_2003}{none/global//global/global}
\abx@aux@defaultrefcontext{0}{cheng}{none/global//global/global}
\abx@aux@defaultrefcontext{0}{nakaguchi}{none/global//global/global}
\abx@aux@defaultrefcontext{0}{vikram}{none/global//global/global}
\abx@aux@defaultrefcontext{0}{yuce}{none/global//global/global}
\abx@aux@defaultrefcontext{0}{sewatkar}{none/global//global/global}
\abx@aux@defaultrefcontext{0}{mushyam}{none/global//global/global}
\abx@aux@defaultrefcontext{0}{cuhadaroglu}{none/global//global/global}
\abx@aux@defaultrefcontext{0}{hossain}{none/global//global/global}
\abx@aux@defaultrefcontext{0}{gov_eqn_anderson}{none/global//global/global}
\abx@aux@defaultrefcontext{0}{englib_bernoulli}{none/global//global/global}
\abx@aux@defaultrefcontext{0}{aeroFund_anderson}{none/global//global/global}
\abx@aux@defaultrefcontext{0}{gilbert_kawai}{none/global//global/global}
\abx@aux@defaultrefcontext{0}{simscale}{none/global//global/global}
\abx@aux@defaultrefcontext{0}{bakker}{none/global//global/global}
\abx@aux@defaultrefcontext{0}{tapia_s}{none/global//global/global}
\abx@aux@defaultrefcontext{0}{lefrancois}{none/global//global/global}
\abx@aux@defaultrefcontext{0}{katopodes_viscous_2019}{none/global//global/global}
\abx@aux@defaultrefcontext{0}{hu_cfd}{none/global//global/global}
\abx@aux@defaultrefcontext{0}{moukalled_cfd}{none/global//global/global}
\abx@aux@defaultrefcontext{0}{oreily_hands-machine_2019}{none/global//global/global}
\abx@aux@defaultrefcontext{0}{thuerey_deep_2020}{none/global//global/global}
\abx@aux@defaultrefcontext{0}{openfoam_intro_one}{none/global//global/global}
\abx@aux@defaultrefcontext{0}{autodesk_rans_komegasst}{none/global//global/global}
\abx@aux@defaultrefcontext{0}{openfoam_komega}{none/global//global/global}
\abx@aux@defaultrefcontext{0}{openfoam_scotch}{none/global//global/global}
\abx@aux@defaultrefcontext{0}{inoue_aeolian}{none/global//global/global}
\abx@aux@defaultrefcontext{0}{nakamura_strouhal}{none/global//global/global}
\abx@aux@defaultlabelprefix{0}{rujun_liu}{}
\abx@aux@defaultlabelprefix{0}{aman_mohd}{}
\abx@aux@defaultlabelprefix{0}{kang_characteristics_2003}{}
\abx@aux@defaultlabelprefix{0}{cheng}{}
\abx@aux@defaultlabelprefix{0}{nakaguchi}{}
\abx@aux@defaultlabelprefix{0}{vikram}{}
\abx@aux@defaultlabelprefix{0}{yuce}{}
\abx@aux@defaultlabelprefix{0}{sewatkar}{}
\abx@aux@defaultlabelprefix{0}{mushyam}{}
\abx@aux@defaultlabelprefix{0}{cuhadaroglu}{}
\abx@aux@defaultlabelprefix{0}{hossain}{}
\abx@aux@defaultlabelprefix{0}{gov_eqn_anderson}{}
\abx@aux@defaultlabelprefix{0}{englib_bernoulli}{}
\abx@aux@defaultlabelprefix{0}{aeroFund_anderson}{}
\abx@aux@defaultlabelprefix{0}{gilbert_kawai}{}
\abx@aux@defaultlabelprefix{0}{simscale}{}
\abx@aux@defaultlabelprefix{0}{bakker}{}
\abx@aux@defaultlabelprefix{0}{tapia_s}{}
\abx@aux@defaultlabelprefix{0}{lefrancois}{}
\abx@aux@defaultlabelprefix{0}{katopodes_viscous_2019}{}
\abx@aux@defaultlabelprefix{0}{hu_cfd}{}
\abx@aux@defaultlabelprefix{0}{moukalled_cfd}{}
\abx@aux@defaultlabelprefix{0}{oreily_hands-machine_2019}{}
\abx@aux@defaultlabelprefix{0}{thuerey_deep_2020}{}
\abx@aux@defaultlabelprefix{0}{openfoam_intro_one}{}
\abx@aux@defaultlabelprefix{0}{autodesk_rans_komegasst}{}
\abx@aux@defaultlabelprefix{0}{openfoam_komega}{}
\abx@aux@defaultlabelprefix{0}{openfoam_scotch}{}
\abx@aux@defaultlabelprefix{0}{inoue_aeolian}{}
\abx@aux@defaultlabelprefix{0}{nakamura_strouhal}{}
\gdef\svg@ink@ver@settings{{\m@ne }{inkscape}{1}}
\@writefile{lol}{\providecommand\tocbasic@end@toc@file{}\tocbasic@end@toc@file}
\gdef \@abspage@last{103}
