\BOOKMARK [0][-]{section*.2}{\376\377\000A\000p\000p\000r\000o\000v\000a\000l\000\040\000P\000a\000g\000e}{}% 1
\BOOKMARK [0][-]{section*.3}{\376\377\000E\000X\000A\000M\000I\000N\000E\000R\000S\000\040\000A\000P\000P\000R\000O\000V\000A\000L\000\040\000P\000A\000G\000E}{}% 2
\BOOKMARK [0][-]{section*.4}{\376\377\000S\000t\000a\000t\000e\000m\000e\000n\000t\000\040\000b\000y\000\040\000T\000h\000e\000\040\000A\000u\000t\000h\000o\000r}{}% 3
\BOOKMARK [0][-]{section*.5}{\376\377\000A\000b\000s\000t\000r\000a\000c\000t}{}% 4
\BOOKMARK [0][-]{section*.6}{\376\377\000A\000c\000k\000n\000o\000w\000l\000e\000d\000g\000e\000m\000e\000n\000t\000s}{}% 5
\BOOKMARK [0][-]{section*.13}{\376\377\000C\000o\000n\000t\000e\000n\000t\000s}{}% 6
\BOOKMARK [0][-]{section*.14}{\376\377\000L\000i\000s\000t\000\040\000o\000f\000\040\000F\000i\000g\000u\000r\000e\000s}{}% 7
\BOOKMARK [0][-]{chapter.19}{\376\377\000I\000n\000t\000r\000o\000d\000u\000c\000t\000i\000o\000n}{}% 8
\BOOKMARK [1][-]{section.20}{\376\377\000B\000a\000c\000k\000g\000r\000o\000u\000n\000d}{chapter.19}% 9
\BOOKMARK [1][-]{section.25}{\376\377\000P\000r\000o\000b\000l\000e\000m\000\040\000S\000t\000a\000t\000e\000m\000e\000n\000t}{chapter.19}% 10
\BOOKMARK [1][-]{section.27}{\376\377\000R\000e\000s\000e\000a\000r\000c\000h\000\040\000O\000b\000j\000e\000c\000t\000i\000v\000e}{chapter.19}% 11
\BOOKMARK [1][-]{section.29}{\376\377\000R\000e\000s\000e\000a\000r\000c\000h\000\040\000S\000c\000o\000p\000e}{chapter.19}% 12
\BOOKMARK [0][-]{chapter.34}{\376\377\000L\000i\000t\000e\000r\000a\000t\000u\000r\000e\000\040\000R\000e\000v\000i\000e\000w}{}% 13
\BOOKMARK [1][-]{section.35}{\376\377\000P\000r\000e\000v\000i\000o\000u\000s\000\040\000W\000o\000r\000k\000\040\000o\000n\000\040\000F\000l\000o\000w\000\040\000a\000r\000o\000u\000n\000d\000\040\000S\000q\000u\000a\000r\000e\000\040\000C\000y\000l\000i\000n\000d\000e\000r\000s}{chapter.34}% 14
\BOOKMARK [1][-]{section.36}{\376\377\000G\000o\000v\000e\000r\000n\000i\000n\000g\000\040\000E\000q\000u\000a\000t\000i\000o\000n\000s}{chapter.34}% 15
\BOOKMARK [2][-]{subsection.37}{\376\377\000C\000o\000n\000t\000i\000n\000u\000i\000t\000y\000\040\000E\000q\000u\000a\000t\000i\000o\000n}{section.36}% 16
\BOOKMARK [2][-]{subsection.48}{\376\377\000M\000o\000m\000e\000n\000t\000u\000m\000\040\000E\000q\000u\000a\000t\000i\000o\000n}{section.36}% 17
\BOOKMARK [1][-]{section.92}{\376\377\000B\000a\000c\000k\000g\000r\000o\000u\000n\000d\000\040\000C\000o\000n\000c\000e\000p\000t}{chapter.34}% 18
\BOOKMARK [2][-]{subsection.93}{\376\377\000R\000e\000y\000n\000o\000l\000d\000s\000\040\000N\000u\000m\000b\000e\000r}{section.92}% 19
\BOOKMARK [2][-]{subsection.95}{\376\377\000D\000r\000a\000g\000\040\000C\000o\000e\000f\000f\000i\000c\000i\000e\000n\000t}{section.92}% 20
\BOOKMARK [2][-]{subsection.97}{\376\377\000L\000i\000f\000t\000\040\000C\000o\000e\000f\000f\000i\000c\000i\000e\000n\000t}{section.92}% 21
\BOOKMARK [2][-]{subsection.99}{\376\377\000T\000u\000r\000b\000u\000l\000e\000n\000c\000e}{section.92}% 22
\BOOKMARK [2][-]{subsection.104}{\376\377\000K\000a\000r\000m\000a\000n\000\040\000V\000o\000r\000t\000e\000x\000\040\000S\000t\000r\000e\000e\000t}{section.92}% 23
\BOOKMARK [3][-]{subsubsection.106}{\376\377\000S\000t\000r\000o\000u\000h\000a\000l\000\040\000N\000u\000m\000b\000e\000r}{subsection.104}% 24
\BOOKMARK [1][-]{section.108}{\376\377\000C\000F\000D\000\040\000D\000i\000s\000c\000r\000e\000t\000i\000z\000a\000t\000i\000o\000n}{chapter.34}% 25
\BOOKMARK [2][-]{subsection.113}{\376\377\000G\000e\000o\000m\000e\000t\000r\000i\000c\000\040\000a\000n\000d\000\040\000P\000h\000y\000s\000i\000c\000a\000l\000\040\000M\000o\000d\000e\000l\000i\000n\000g}{section.108}% 26
\BOOKMARK [2][-]{subsection.115}{\376\377\000D\000o\000m\000a\000i\000n\000\040\000D\000i\000s\000c\000r\000e\000t\000i\000z\000a\000t\000i\000o\000n}{section.108}% 27
\BOOKMARK [2][-]{subsection.118}{\376\377\000E\000q\000u\000a\000t\000i\000o\000n\000\040\000D\000i\000s\000c\000r\000e\000t\000i\000z\000a\000t\000i\000o\000n}{section.108}% 28
\BOOKMARK [2][-]{subsection.123}{\376\377\000S\000o\000l\000u\000t\000i\000o\000n\000\040\000o\000f\000\040\000t\000h\000e\000\040\000D\000i\000s\000c\000r\000e\000t\000i\000z\000e\000d\000\040\000E\000q\000u\000a\000t\000i\000o\000n\000s}{section.108}% 29
\BOOKMARK [3][-]{subsubsection.124}{\376\377\000D\000i\000r\000e\000c\000t\000\040\000M\000e\000t\000h\000o\000d\000s}{subsection.123}% 30
\BOOKMARK [3][-]{subsubsection.126}{\376\377\000I\000t\000e\000r\000a\000t\000i\000v\000e\000\040\000M\000e\000t\000h\000o\000d\000s}{subsection.123}% 31
\BOOKMARK [1][-]{section.132}{\376\377\000M\000a\000c\000h\000i\000n\000e\000\040\000L\000e\000a\000r\000n\000i\000n\000g\000\040\000A\000p\000p\000l\000i\000c\000a\000t\000i\000o\000n}{chapter.34}% 32
\BOOKMARK [0][-]{chapter.134}{\376\377\000R\000e\000s\000e\000a\000r\000c\000h\000\040\000M\000e\000t\000h\000o\000d\000o\000l\000o\000g\000y}{}% 33
\BOOKMARK [1][-]{section.135}{\376\377\000O\000v\000e\000r\000v\000i\000e\000w}{chapter.134}% 34
\BOOKMARK [1][-]{section.142}{\376\377\000C\000o\000m\000p\000u\000t\000a\000t\000i\000o\000n\000a\000l\000\040\000F\000l\000u\000i\000d\000\040\000D\000y\000n\000a\000m\000i\000c\000s\000\040\000\050\000C\000F\000D\000\051}{chapter.134}% 35
\BOOKMARK [2][-]{subsection.143}{\376\377\000O\000p\000e\000n\000F\000O\000A\000M}{section.142}% 36
\BOOKMARK [1][-]{section.145}{\376\377\000M\000o\000d\000e\000l\000\040\000G\000e\000n\000e\000r\000a\000t\000i\000o\000n}{chapter.134}% 37
\BOOKMARK [1][-]{section.151}{\376\377\000P\000r\000e\000p\000r\000o\000c\000e\000s\000s\000i\000n\000g}{chapter.134}% 38
\BOOKMARK [1][-]{section.154}{\376\377\000S\000i\000m\000u\000l\000a\000t\000i\000o\000n}{chapter.134}% 39
\BOOKMARK [2][-]{subsection.156}{\376\377\000R\000A\000N\000S\000\040\000k\000-\000\040\000S\000S\000T\000\040\000T\000u\000r\000b\000u\000l\000e\000n\000c\000e\000\040\000M\000o\000d\000e\000l}{section.154}% 40
\BOOKMARK [3][-]{subsubsection.161}{\376\377\000R\000A\000N\000S\000\040\000k\000-\000\040\000S\000S\000T\000\040\000M\000o\000d\000e\000l\000\040\000k\000\040\000P\000a\000r\000a\000m\000e\000t\000e\000r}{subsection.156}% 41
\BOOKMARK [3][-]{subsubsection.163}{\376\377\000R\000A\000N\000S\000\040\000k\000-\000\040\000S\000S\000T\000\040\000M\000o\000d\000e\000l\000\040\000\040\000P\000a\000r\000a\000m\000e\000t\000e\000r}{subsection.156}% 42
\BOOKMARK [1][-]{section.165}{\376\377\000P\000o\000s\000t\000p\000r\000o\000c\000e\000s\000s\000i\000n\000g}{chapter.134}% 43
\BOOKMARK [0][-]{chapter.166}{\376\377\000R\000e\000s\000u\000l\000t\000\040\000a\000n\000d\000\040\000D\000i\000s\000c\000u\000s\000s\000i\000o\000n}{}% 44
\BOOKMARK [1][-]{section.167}{\376\377\000C\000o\000n\000v\000e\000r\000g\000e\000n\000c\000e}{chapter.166}% 45
\BOOKMARK [2][-]{subsection.173}{\376\377\000A\000e\000r\000o\000d\000y\000n\000a\000m\000i\000c\000\040\000C\000o\000e\000f\000f\000i\000c\000i\000e\000n\000t\000s}{section.167}% 46
\BOOKMARK [1][-]{section.174}{\376\377\000M\000e\000a\000n\000\040\000V\000e\000l\000o\000c\000i\000t\000y}{chapter.166}% 47
\BOOKMARK [1][-]{section.180}{\376\377\000V\000e\000l\000o\000c\000i\000t\000y\000\040\000F\000u\000n\000c\000t\000i\000o\000n\000s}{chapter.166}% 48
\BOOKMARK [2][-]{subsection.181}{\376\377\000S\000t\000r\000e\000a\000m\000w\000i\000s\000e\000\040\000V\000e\000l\000o\000c\000i\000t\000y\000\040\000F\000u\000n\000c\000t\000i\000o\000n\000\040\000\050\000u\000r\000m\000s\000\051}{section.180}% 49
\BOOKMARK [2][-]{subsection.187}{\376\377\000N\000o\000r\000m\000a\000l\000\040\000V\000e\000l\000o\000c\000i\000t\000y\000\040\000F\000u\000n\000c\000t\000i\000o\000n\000\040\000\050\000v\000r\000m\000s\000\051}{section.180}% 50
\BOOKMARK [1][-]{section.193}{\376\377\000P\000r\000e\000s\000s\000u\000r\000e\000\040\000D\000i\000s\000t\000r\000i\000b\000u\000t\000i\000o\000n}{chapter.166}% 51
\BOOKMARK [1][-]{section.199}{\376\377\000S\000t\000r\000o\000u\000h\000a\000l\000\040\000N\000u\000m\000b\000e\000r}{chapter.166}% 52
\BOOKMARK [0][-]{chapter.201}{\376\377\000C\000o\000n\000c\000l\000u\000s\000i\000o\000n\000\040\000a\000n\000d\000\040\000R\000e\000c\000o\000m\000m\000e\000n\000d\000a\000t\000i\000o\000n}{}% 53
\BOOKMARK [1][-]{section.202}{\376\377\000C\000o\000n\000c\000l\000u\000s\000i\000o\000n}{chapter.201}% 54
\BOOKMARK [1][-]{section.203}{\376\377\000R\000e\000c\000o\000m\000m\000e\000n\000d\000a\000t\000i\000o\000n}{chapter.201}% 55
\BOOKMARK [0][-]{chapter*.204}{\376\377\000B\000i\000b\000l\000i\000o\000g\000r\000a\000p\000h\000y}{}% 56
\BOOKMARK [0][-]{section*.205}{\376\377\000A\000p\000p\000e\000n\000d\000i\000c\000e\000s}{}% 57
