\relax 
\providecommand\hyper@newdestlabel[2]{}
\providecommand{\transparent@use}[1]{}
\@writefile{toc}{\contentsline {chapter}{\numberline {1}Introduction}{1}{chapter.19}\protected@file@percent }
\@writefile{lof}{\addvspace {10\p@ }}
\@writefile{lot}{\addvspace {10\p@ }}
\newlabel{Chapter1}{{1}{1}{Introduction}{chapter.19}{}}
\@writefile{toc}{\contentsline {section}{\numberline {1.1}Background}{1}{section.20}\protected@file@percent }
\newlabel{section_background}{{1.1}{1}{Background}{section.20}{}}
\@writefile{lof}{\contentsline {figure}{\numberline {1.1}{\ignorespaces Bluff Body Example (Structure)\relax }}{2}{figure.caption.21}\protected@file@percent }
\providecommand*\caption@xref[2]{\@setref\relax\@undefined{#1}}
\newlabel{building_picture}{{1.1}{2}{Bluff Body Example (Structure)\relax }{figure.caption.21}{}}
\@writefile{lof}{\contentsline {figure}{\numberline {1.2}{\ignorespaces Bluff Body Example (Vehicle)\relax }}{3}{figure.caption.22}\protected@file@percent }
\newlabel{car_picture}{{1.2}{3}{Bluff Body Example (Vehicle)\relax }{figure.caption.22}{}}
\@writefile{lof}{\contentsline {figure}{\numberline {1.3}{\ignorespaces Bluff Body Side-by-Side (World Trade Center USA)\relax }}{3}{figure.caption.23}\protected@file@percent }
\newlabel{world_trade_center}{{1.3}{3}{Bluff Body Side-by-Side (World Trade Center USA)\relax }{figure.caption.23}{}}
\@writefile{lof}{\contentsline {figure}{\numberline {1.4}{\ignorespaces Train Pantograph\relax }}{3}{figure.caption.24}\protected@file@percent }
\newlabel{train_pantograph}{{1.4}{3}{Train Pantograph\relax }{figure.caption.24}{}}
\@writefile{toc}{\contentsline {section}{\numberline {1.2}Problem Statement}{4}{section.25}\protected@file@percent }
\@writefile{lof}{\contentsline {figure}{\numberline {1.5}{\ignorespaces Single-like, flip-flop, and symmetric flow behaviour at low Reynolds numbers $Re<160$ \blx@tocontentsinit {0}\cite {kang_characteristics_2003}.\relax }}{4}{figure.caption.26}\protected@file@percent }
\newlabel{ch1-flowregime}{{1.5}{4}{Single-like, flip-flop, and symmetric flow behaviour at low Reynolds numbers $Re<160$ \cite {kang_characteristics_2003}.\relax }{figure.caption.26}{}}
\@writefile{toc}{\contentsline {section}{\numberline {1.3}Research Objective}{5}{section.27}\protected@file@percent }
\newlabel{research_objective}{{1.3}{5}{Research Objective}{section.27}{}}
\@writefile{lof}{\contentsline {figure}{\numberline {1.6}{\ignorespaces Gap Ratio Definition\relax }}{5}{figure.caption.28}\protected@file@percent }
\newlabel{gap_ratio}{{1.6}{5}{Gap Ratio Definition\relax }{figure.caption.28}{}}
\@writefile{toc}{\contentsline {section}{\numberline {1.4}Research Scope}{7}{section.29}\protected@file@percent }
\@setckpt{Chapters/Chapter1}{
\setcounter{page}{8}
\setcounter{equation}{0}
\setcounter{enumi}{4}
\setcounter{enumii}{0}
\setcounter{enumiii}{0}
\setcounter{enumiv}{0}
\setcounter{footnote}{0}
\setcounter{mpfootnote}{0}
\setcounter{part}{0}
\setcounter{chapter}{1}
\setcounter{section}{4}
\setcounter{subsection}{0}
\setcounter{subsubsection}{0}
\setcounter{paragraph}{0}
\setcounter{subparagraph}{0}
\setcounter{figure}{6}
\setcounter{table}{0}
\setcounter{LT@tables}{1}
\setcounter{LT@chunks}{1}
\setcounter{parentequation}{0}
\setcounter{lstnumber}{1}
\setcounter{AM@survey}{0}
\setcounter{Item}{10}
\setcounter{Hfootnote}{0}
\setcounter{bookmark@seq@number}{12}
\setcounter{float@type}{8}
\setcounter{lofdepth}{1}
\setcounter{lotdepth}{1}
\setcounter{@pps}{0}
\setcounter{@ppsavesec}{0}
\setcounter{@ppsaveapp}{0}
\setcounter{caption@flags}{0}
\setcounter{continuedfloat}{0}
\setcounter{subfigure}{0}
\setcounter{subtable}{0}
\setcounter{tabx@nest}{0}
\setcounter{listtotal}{0}
\setcounter{listcount}{0}
\setcounter{liststart}{0}
\setcounter{liststop}{0}
\setcounter{citecount}{0}
\setcounter{citetotal}{0}
\setcounter{multicitecount}{0}
\setcounter{multicitetotal}{0}
\setcounter{instcount}{9}
\setcounter{maxnames}{3}
\setcounter{minnames}{3}
\setcounter{maxitems}{3}
\setcounter{minitems}{1}
\setcounter{citecounter}{0}
\setcounter{maxcitecounter}{0}
\setcounter{savedcitecounter}{0}
\setcounter{uniquelist}{0}
\setcounter{uniquename}{0}
\setcounter{refsection}{0}
\setcounter{refsegment}{0}
\setcounter{maxextratitle}{0}
\setcounter{maxextratitleyear}{0}
\setcounter{maxextraname}{0}
\setcounter{maxextradate}{0}
\setcounter{maxextraalpha}{0}
\setcounter{abbrvpenalty}{50}
\setcounter{highnamepenalty}{50}
\setcounter{lownamepenalty}{25}
\setcounter{maxparens}{3}
\setcounter{parenlevel}{0}
\setcounter{blx@maxsection}{0}
\setcounter{blx@maxsegment@0}{0}
\setcounter{blx@sectionciteorder@0}{9}
\setcounter{mincomprange}{10}
\setcounter{maxcomprange}{100000}
\setcounter{mincompwidth}{1}
\setcounter{afterword}{0}
\setcounter{savedafterword}{0}
\setcounter{annotator}{0}
\setcounter{savedannotator}{0}
\setcounter{author}{0}
\setcounter{savedauthor}{0}
\setcounter{bookauthor}{0}
\setcounter{savedbookauthor}{0}
\setcounter{commentator}{0}
\setcounter{savedcommentator}{0}
\setcounter{editor}{0}
\setcounter{savededitor}{0}
\setcounter{editora}{0}
\setcounter{savededitora}{0}
\setcounter{editorb}{0}
\setcounter{savededitorb}{0}
\setcounter{editorc}{0}
\setcounter{savededitorc}{0}
\setcounter{foreword}{0}
\setcounter{savedforeword}{0}
\setcounter{holder}{0}
\setcounter{savedholder}{0}
\setcounter{introduction}{0}
\setcounter{savedintroduction}{0}
\setcounter{namea}{0}
\setcounter{savednamea}{0}
\setcounter{nameb}{0}
\setcounter{savednameb}{0}
\setcounter{namec}{0}
\setcounter{savednamec}{0}
\setcounter{translator}{0}
\setcounter{savedtranslator}{0}
\setcounter{shortauthor}{0}
\setcounter{savedshortauthor}{0}
\setcounter{shorteditor}{0}
\setcounter{savedshorteditor}{0}
\setcounter{labelname}{0}
\setcounter{savedlabelname}{0}
\setcounter{institution}{0}
\setcounter{savedinstitution}{0}
\setcounter{lista}{0}
\setcounter{savedlista}{0}
\setcounter{listb}{0}
\setcounter{savedlistb}{0}
\setcounter{listc}{0}
\setcounter{savedlistc}{0}
\setcounter{listd}{0}
\setcounter{savedlistd}{0}
\setcounter{liste}{0}
\setcounter{savedliste}{0}
\setcounter{listf}{0}
\setcounter{savedlistf}{0}
\setcounter{location}{0}
\setcounter{savedlocation}{0}
\setcounter{organization}{0}
\setcounter{savedorganization}{0}
\setcounter{origlocation}{0}
\setcounter{savedoriglocation}{0}
\setcounter{origpublisher}{0}
\setcounter{savedorigpublisher}{0}
\setcounter{publisher}{0}
\setcounter{savedpublisher}{0}
\setcounter{language}{0}
\setcounter{savedlanguage}{0}
\setcounter{origlanguage}{0}
\setcounter{savedoriglanguage}{0}
\setcounter{pageref}{0}
\setcounter{savedpageref}{0}
\setcounter{textcitecount}{0}
\setcounter{textcitetotal}{0}
\setcounter{textcitemaxnames}{0}
\setcounter{biburlbigbreakpenalty}{100}
\setcounter{biburlbreakpenalty}{200}
\setcounter{biburlnumpenalty}{0}
\setcounter{biburlucpenalty}{0}
\setcounter{biburllcpenalty}{0}
\setcounter{smartand}{1}
\setcounter{bbx:relatedcount}{0}
\setcounter{bbx:relatedtotal}{0}
\setcounter{cbx@tempcnta}{0}
\setcounter{cbx@tempcntb}{3}
\setcounter{cbx@tempcntc}{0}
\setcounter{cbx@tempcntd}{-1}
\setcounter{svg@param@lastpage}{0}
\setcounter{svg@param@currpage}{-1}
\setcounter{lstlisting}{0}
\setcounter{section@level}{1}
}
