\relax 
\providecommand\hyper@newdestlabel[2]{}
\providecommand{\transparent@use}[1]{}
\@writefile{toc}{\contentsline {chapter}{\numberline {4}Result and Discussion}{44}{chapter.166}\protected@file@percent }
\@writefile{lof}{\addvspace {10\p@ }}
\@writefile{lot}{\addvspace {10\p@ }}
\newlabel{Chapter4}{{4}{44}{Result and Discussion}{chapter.166}{}}
\@writefile{toc}{\contentsline {section}{\numberline {4.1}Convergence}{44}{section.167}\protected@file@percent }
\newlabel{aero_convergence_gr1_re100}{{4.1a}{45}{Convergence for $L/D = 1$\relax }{figure.caption.168}{}}
\newlabel{sub@aero_convergence_gr1_re100}{{a}{45}{Convergence for $L/D = 1$\relax }{figure.caption.168}{}}
\newlabel{aero_convergence_gr1.5_re100}{{4.1b}{45}{Convergence for $L/D = 1.5$\relax }{figure.caption.168}{}}
\newlabel{sub@aero_convergence_gr1.5_re100}{{b}{45}{Convergence for $L/D = 1.5$\relax }{figure.caption.168}{}}
\newlabel{aero_convergence_gr2_re100}{{4.1c}{45}{Convergence for $L/D = 2$\relax }{figure.caption.168}{}}
\newlabel{sub@aero_convergence_gr2_re100}{{c}{45}{Convergence for $L/D = 2$\relax }{figure.caption.168}{}}
\newlabel{aero_convergence_gr2.5_re100}{{4.1d}{45}{Convergence for $L/D = 2.5$\relax }{figure.caption.168}{}}
\newlabel{sub@aero_convergence_gr2.5_re100}{{d}{45}{Convergence for $L/D = 2.5$\relax }{figure.caption.168}{}}
\newlabel{aero_convergence_gr3_re100}{{4.1e}{45}{Convergence for $L/D = 3$\relax }{figure.caption.168}{}}
\newlabel{sub@aero_convergence_gr3_re100}{{e}{45}{Convergence for $L/D = 3$\relax }{figure.caption.168}{}}
\newlabel{aero_convergence_gr3.5_re100}{{4.1f}{45}{Convergence for $L/D = 3.5$\relax }{figure.caption.168}{}}
\newlabel{sub@aero_convergence_gr3.5_re100}{{f}{45}{Convergence for $L/D = 3.5$\relax }{figure.caption.168}{}}
\newlabel{aero_convergence_gr4_re100}{{4.1g}{45}{Convergence for $L/D = 4$\relax }{figure.caption.168}{}}
\newlabel{sub@aero_convergence_gr4_re100}{{g}{45}{Convergence for $L/D = 4$\relax }{figure.caption.168}{}}
\newlabel{aero_convergence_gr4.5_re100}{{4.1h}{45}{Convergence for $L/D = 4.5$\relax }{figure.caption.168}{}}
\newlabel{sub@aero_convergence_gr4.5_re100}{{h}{45}{Convergence for $L/D = 4.5$\relax }{figure.caption.168}{}}
\newlabel{aero_convergence_gr5_re100}{{4.1i}{45}{Convergence for $L/D = 5$\relax }{figure.caption.168}{}}
\newlabel{sub@aero_convergence_gr5_re100}{{i}{45}{Convergence for $L/D = 5$\relax }{figure.caption.168}{}}
\newlabel{aero_convergence_gr5.5_re100}{{4.1j}{45}{Convergence for $L/D = 5.5$\relax }{figure.caption.168}{}}
\newlabel{sub@aero_convergence_gr5.5_re100}{{j}{45}{Convergence for $L/D = 5.5$\relax }{figure.caption.168}{}}
\newlabel{aero_convergence_gr6_re100}{{4.1k}{45}{Convergence for $L/D = 6$\relax }{figure.caption.168}{}}
\newlabel{sub@aero_convergence_gr6_re100}{{k}{45}{Convergence for $L/D = 6$\relax }{figure.caption.168}{}}
\newlabel{aero_convergence_gr6.5_re100}{{4.1l}{45}{Convergence for $L/D = 6.5$\relax }{figure.caption.168}{}}
\newlabel{sub@aero_convergence_gr6.5_re100}{{l}{45}{Convergence for $L/D = 6.5$\relax }{figure.caption.168}{}}
\newlabel{aero_convergence_gr7_re100}{{4.1m}{45}{Convergence for $L/D = 7$\relax }{figure.caption.168}{}}
\newlabel{sub@aero_convergence_gr7_re100}{{m}{45}{Convergence for $L/D = 7$\relax }{figure.caption.168}{}}
\@writefile{lof}{\contentsline {figure}{\numberline {4.1}{\ignorespaces Convergence for various $\mathit  {L/D}$ at $Re = 100$\relax }}{45}{figure.caption.168}\protected@file@percent }
\newlabel{aero_convergence_re100}{{4.1}{45}{Convergence for various $\mathit {L/D}$ at $Re = 100$\relax }{figure.caption.168}{}}
\newlabel{aero_convergence_gr1_re1e3}{{4.2a}{46}{Convergence for $L/D = 1$\relax }{figure.caption.169}{}}
\newlabel{sub@aero_convergence_gr1_re1e3}{{a}{46}{Convergence for $L/D = 1$\relax }{figure.caption.169}{}}
\newlabel{aero_convergence_gr1.5_re1e3}{{4.2b}{46}{Convergence for $L/D = 1.5$\relax }{figure.caption.169}{}}
\newlabel{sub@aero_convergence_gr1.5_re1e3}{{b}{46}{Convergence for $L/D = 1.5$\relax }{figure.caption.169}{}}
\newlabel{aero_convergence_gr2_re1e3}{{4.2c}{46}{Convergence for $L/D = 2$\relax }{figure.caption.169}{}}
\newlabel{sub@aero_convergence_gr2_re1e3}{{c}{46}{Convergence for $L/D = 2$\relax }{figure.caption.169}{}}
\newlabel{aero_convergence_gr2.5_re1e3}{{4.2d}{46}{Convergence for $L/D = 2.5$\relax }{figure.caption.169}{}}
\newlabel{sub@aero_convergence_gr2.5_re1e3}{{d}{46}{Convergence for $L/D = 2.5$\relax }{figure.caption.169}{}}
\newlabel{aero_convergence_gr3_re1e3}{{4.2e}{46}{Convergence for $L/D = 3$\relax }{figure.caption.169}{}}
\newlabel{sub@aero_convergence_gr3_re1e3}{{e}{46}{Convergence for $L/D = 3$\relax }{figure.caption.169}{}}
\newlabel{aero_convergence_gr3.5_re1e3}{{4.2f}{46}{Convergence for $L/D = 3.5$\relax }{figure.caption.169}{}}
\newlabel{sub@aero_convergence_gr3.5_re1e3}{{f}{46}{Convergence for $L/D = 3.5$\relax }{figure.caption.169}{}}
\newlabel{aero_convergence_gr4_re1e3}{{4.2g}{46}{Convergence for $L/D = 4$\relax }{figure.caption.169}{}}
\newlabel{sub@aero_convergence_gr4_re1e3}{{g}{46}{Convergence for $L/D = 4$\relax }{figure.caption.169}{}}
\newlabel{aero_convergence_gr4.5_re1e3}{{4.2h}{46}{Convergence for $L/D = 4.5$\relax }{figure.caption.169}{}}
\newlabel{sub@aero_convergence_gr4.5_re1e3}{{h}{46}{Convergence for $L/D = 4.5$\relax }{figure.caption.169}{}}
\newlabel{aero_convergence_gr5_re1e3}{{4.2i}{46}{Convergence for $L/D = 5$\relax }{figure.caption.169}{}}
\newlabel{sub@aero_convergence_gr5_re1e3}{{i}{46}{Convergence for $L/D = 5$\relax }{figure.caption.169}{}}
\newlabel{aero_convergence_gr5.5_re1e3}{{4.2j}{46}{Convergence for $L/D = 5.5$\relax }{figure.caption.169}{}}
\newlabel{sub@aero_convergence_gr5.5_re1e3}{{j}{46}{Convergence for $L/D = 5.5$\relax }{figure.caption.169}{}}
\newlabel{aero_convergence_gr6_re1e3}{{4.2k}{46}{Convergence for $L/D = 6$\relax }{figure.caption.169}{}}
\newlabel{sub@aero_convergence_gr6_re1e3}{{k}{46}{Convergence for $L/D = 6$\relax }{figure.caption.169}{}}
\newlabel{aero_convergence_gr6.5_re1e3}{{4.2l}{46}{Convergence for $L/D = 6.5$\relax }{figure.caption.169}{}}
\newlabel{sub@aero_convergence_gr6.5_re1e3}{{l}{46}{Convergence for $L/D = 6.5$\relax }{figure.caption.169}{}}
\newlabel{aero_convergence_gr7_re1e3}{{4.2m}{46}{Convergence for $L/D = 7$\relax }{figure.caption.169}{}}
\newlabel{sub@aero_convergence_gr7_re1e3}{{m}{46}{Convergence for $L/D = 7$\relax }{figure.caption.169}{}}
\@writefile{lof}{\contentsline {figure}{\numberline {4.2}{\ignorespaces Convergence for various $\mathit  {L/D}$ at $Re = \num {1e3}$\relax }}{46}{figure.caption.169}\protected@file@percent }
\newlabel{aero_convergence_re1e3}{{4.2}{46}{Convergence for various $\mathit {L/D}$ at $Re = \num {1e3}$\relax }{figure.caption.169}{}}
\newlabel{aero_convergence_gr1_re5e3}{{4.3a}{47}{Convergence for $L/D = 1$\relax }{figure.caption.170}{}}
\newlabel{sub@aero_convergence_gr1_re5e3}{{a}{47}{Convergence for $L/D = 1$\relax }{figure.caption.170}{}}
\newlabel{aero_convergence_gr1.5_re5e3}{{4.3b}{47}{Convergence for $L/D = 1.5$\relax }{figure.caption.170}{}}
\newlabel{sub@aero_convergence_gr1.5_re5e3}{{b}{47}{Convergence for $L/D = 1.5$\relax }{figure.caption.170}{}}
\newlabel{aero_convergence_gr2_re5e3}{{4.3c}{47}{Convergence for $L/D = 2$\relax }{figure.caption.170}{}}
\newlabel{sub@aero_convergence_gr2_re5e3}{{c}{47}{Convergence for $L/D = 2$\relax }{figure.caption.170}{}}
\newlabel{aero_convergence_gr2.5_re5e3}{{4.3d}{47}{Convergence for $L/D = 2.5$\relax }{figure.caption.170}{}}
\newlabel{sub@aero_convergence_gr2.5_re5e3}{{d}{47}{Convergence for $L/D = 2.5$\relax }{figure.caption.170}{}}
\newlabel{aero_convergence_gr3_re5e3}{{4.3e}{47}{Convergence for $L/D = 3$\relax }{figure.caption.170}{}}
\newlabel{sub@aero_convergence_gr3_re5e3}{{e}{47}{Convergence for $L/D = 3$\relax }{figure.caption.170}{}}
\newlabel{aero_convergence_gr3.5_re5e3}{{4.3f}{47}{Convergence for $L/D = 3.5$\relax }{figure.caption.170}{}}
\newlabel{sub@aero_convergence_gr3.5_re5e3}{{f}{47}{Convergence for $L/D = 3.5$\relax }{figure.caption.170}{}}
\newlabel{aero_convergence_gr4_re5e3}{{4.3g}{47}{Convergence for $L/D = 4$\relax }{figure.caption.170}{}}
\newlabel{sub@aero_convergence_gr4_re5e3}{{g}{47}{Convergence for $L/D = 4$\relax }{figure.caption.170}{}}
\newlabel{aero_convergence_gr4.5_re5e3}{{4.3h}{47}{Convergence for $L/D = 4.5$\relax }{figure.caption.170}{}}
\newlabel{sub@aero_convergence_gr4.5_re5e3}{{h}{47}{Convergence for $L/D = 4.5$\relax }{figure.caption.170}{}}
\newlabel{aero_convergence_gr5_re5e3}{{4.3i}{47}{Convergence for $L/D = 5$\relax }{figure.caption.170}{}}
\newlabel{sub@aero_convergence_gr5_re5e3}{{i}{47}{Convergence for $L/D = 5$\relax }{figure.caption.170}{}}
\newlabel{aero_convergence_gr5.5_re5e3}{{4.3j}{47}{Convergence for $L/D = 5.5$\relax }{figure.caption.170}{}}
\newlabel{sub@aero_convergence_gr5.5_re5e3}{{j}{47}{Convergence for $L/D = 5.5$\relax }{figure.caption.170}{}}
\newlabel{aero_convergence_gr6_re5e3}{{4.3k}{47}{Convergence for $L/D = 6$\relax }{figure.caption.170}{}}
\newlabel{sub@aero_convergence_gr6_re5e3}{{k}{47}{Convergence for $L/D = 6$\relax }{figure.caption.170}{}}
\newlabel{aero_convergence_gr6.5_re5e3}{{4.3l}{47}{Convergence for $L/D = 6.5$\relax }{figure.caption.170}{}}
\newlabel{sub@aero_convergence_gr6.5_re5e3}{{l}{47}{Convergence for $L/D = 6.5$\relax }{figure.caption.170}{}}
\newlabel{aero_convergence_gr7_re5e3}{{4.3m}{47}{Convergence for $L/D = 7$\relax }{figure.caption.170}{}}
\newlabel{sub@aero_convergence_gr7_re5e3}{{m}{47}{Convergence for $L/D = 7$\relax }{figure.caption.170}{}}
\@writefile{lof}{\contentsline {figure}{\numberline {4.3}{\ignorespaces Convergence for various $\mathit  {L/D}$ at $Re = \num {5e3}$\relax }}{47}{figure.caption.170}\protected@file@percent }
\newlabel{aero_convergence_re5e3}{{4.3}{47}{Convergence for various $\mathit {L/D}$ at $Re = \num {5e3}$\relax }{figure.caption.170}{}}
\newlabel{aero_convergence_gr1_re1e4}{{4.4a}{48}{Convergence for $L/D = 1$\relax }{figure.caption.171}{}}
\newlabel{sub@aero_convergence_gr1_re1e4}{{a}{48}{Convergence for $L/D = 1$\relax }{figure.caption.171}{}}
\newlabel{aero_convergence_gr1.5_re1e4}{{4.4b}{48}{Convergence for $L/D = 1.5$\relax }{figure.caption.171}{}}
\newlabel{sub@aero_convergence_gr1.5_re1e4}{{b}{48}{Convergence for $L/D = 1.5$\relax }{figure.caption.171}{}}
\newlabel{aero_convergence_gr2_re1e4}{{4.4c}{48}{Convergence for $L/D = 2$\relax }{figure.caption.171}{}}
\newlabel{sub@aero_convergence_gr2_re1e4}{{c}{48}{Convergence for $L/D = 2$\relax }{figure.caption.171}{}}
\newlabel{aero_convergence_gr2.5_re1e4}{{4.4d}{48}{Convergence for $L/D = 2.5$\relax }{figure.caption.171}{}}
\newlabel{sub@aero_convergence_gr2.5_re1e4}{{d}{48}{Convergence for $L/D = 2.5$\relax }{figure.caption.171}{}}
\newlabel{aero_convergence_gr3_re1e4}{{4.4e}{48}{Convergence for $L/D = 3$\relax }{figure.caption.171}{}}
\newlabel{sub@aero_convergence_gr3_re1e4}{{e}{48}{Convergence for $L/D = 3$\relax }{figure.caption.171}{}}
\newlabel{aero_convergence_gr3.5_re1e4}{{4.4f}{48}{Convergence for $L/D = 3.5$\relax }{figure.caption.171}{}}
\newlabel{sub@aero_convergence_gr3.5_re1e4}{{f}{48}{Convergence for $L/D = 3.5$\relax }{figure.caption.171}{}}
\newlabel{aero_convergence_gr4_re1e4}{{4.4g}{48}{Convergence for $L/D = 4$\relax }{figure.caption.171}{}}
\newlabel{sub@aero_convergence_gr4_re1e4}{{g}{48}{Convergence for $L/D = 4$\relax }{figure.caption.171}{}}
\newlabel{aero_convergence_gr4.5_re1e4}{{4.4h}{48}{Convergence for $L/D = 4.5$\relax }{figure.caption.171}{}}
\newlabel{sub@aero_convergence_gr4.5_re1e4}{{h}{48}{Convergence for $L/D = 4.5$\relax }{figure.caption.171}{}}
\newlabel{aero_convergence_gr5_re1e4}{{4.4i}{48}{Convergence for $L/D = 5$\relax }{figure.caption.171}{}}
\newlabel{sub@aero_convergence_gr5_re1e4}{{i}{48}{Convergence for $L/D = 5$\relax }{figure.caption.171}{}}
\newlabel{aero_convergence_gr5.5_re1e4}{{4.4j}{48}{Convergence for $L/D = 5.5$\relax }{figure.caption.171}{}}
\newlabel{sub@aero_convergence_gr5.5_re1e4}{{j}{48}{Convergence for $L/D = 5.5$\relax }{figure.caption.171}{}}
\newlabel{aero_convergence_gr6_re1e4}{{4.4k}{48}{Convergence for $L/D = 6$\relax }{figure.caption.171}{}}
\newlabel{sub@aero_convergence_gr6_re1e4}{{k}{48}{Convergence for $L/D = 6$\relax }{figure.caption.171}{}}
\newlabel{aero_convergence_gr6.5_re1e4}{{4.4l}{48}{Convergence for $L/D = 6.5$\relax }{figure.caption.171}{}}
\newlabel{sub@aero_convergence_gr6.5_re1e4}{{l}{48}{Convergence for $L/D = 6.5$\relax }{figure.caption.171}{}}
\newlabel{aero_convergence_gr7_re1e4}{{4.4m}{48}{Convergence for $L/D = 7$\relax }{figure.caption.171}{}}
\newlabel{sub@aero_convergence_gr7_re1e4}{{m}{48}{Convergence for $L/D = 7$\relax }{figure.caption.171}{}}
\@writefile{lof}{\contentsline {figure}{\numberline {4.4}{\ignorespaces Convergence for various $\mathit  {L/D}$ at $Re = \num {1e4}$\relax }}{48}{figure.caption.171}\protected@file@percent }
\newlabel{aero_convergence_re1e4}{{4.4}{48}{Convergence for various $\mathit {L/D}$ at $Re = \num {1e4}$\relax }{figure.caption.171}{}}
\newlabel{aero_convergence_gr1_re2e4}{{4.5a}{49}{Convergence for $L/D = 1$\relax }{figure.caption.172}{}}
\newlabel{sub@aero_convergence_gr1_re2e4}{{a}{49}{Convergence for $L/D = 1$\relax }{figure.caption.172}{}}
\newlabel{aero_convergence_gr1.5_re2e4}{{4.5b}{49}{Convergence for $L/D = 1.5$\relax }{figure.caption.172}{}}
\newlabel{sub@aero_convergence_gr1.5_re2e4}{{b}{49}{Convergence for $L/D = 1.5$\relax }{figure.caption.172}{}}
\newlabel{aero_convergence_gr2_re2e4}{{4.5c}{49}{Convergence for $L/D = 2$\relax }{figure.caption.172}{}}
\newlabel{sub@aero_convergence_gr2_re2e4}{{c}{49}{Convergence for $L/D = 2$\relax }{figure.caption.172}{}}
\newlabel{aero_convergence_gr2.5_re2e4}{{4.5d}{49}{Convergence for $L/D = 2.5$\relax }{figure.caption.172}{}}
\newlabel{sub@aero_convergence_gr2.5_re2e4}{{d}{49}{Convergence for $L/D = 2.5$\relax }{figure.caption.172}{}}
\newlabel{aero_convergence_gr3_re2e4}{{4.5e}{49}{Convergence for $L/D = 3$\relax }{figure.caption.172}{}}
\newlabel{sub@aero_convergence_gr3_re2e4}{{e}{49}{Convergence for $L/D = 3$\relax }{figure.caption.172}{}}
\newlabel{aero_convergence_gr3.5_re2e4}{{4.5f}{49}{Convergence for $L/D = 3.5$\relax }{figure.caption.172}{}}
\newlabel{sub@aero_convergence_gr3.5_re2e4}{{f}{49}{Convergence for $L/D = 3.5$\relax }{figure.caption.172}{}}
\newlabel{aero_convergence_gr4_re2e4}{{4.5g}{49}{Convergence for $L/D = 4$\relax }{figure.caption.172}{}}
\newlabel{sub@aero_convergence_gr4_re2e4}{{g}{49}{Convergence for $L/D = 4$\relax }{figure.caption.172}{}}
\newlabel{aero_convergence_gr4.5_re2e4}{{4.5h}{49}{Convergence for $L/D = 4.5$\relax }{figure.caption.172}{}}
\newlabel{sub@aero_convergence_gr4.5_re2e4}{{h}{49}{Convergence for $L/D = 4.5$\relax }{figure.caption.172}{}}
\newlabel{aero_convergence_gr5_re2e4}{{4.5i}{49}{Convergence for $L/D = 5$\relax }{figure.caption.172}{}}
\newlabel{sub@aero_convergence_gr5_re2e4}{{i}{49}{Convergence for $L/D = 5$\relax }{figure.caption.172}{}}
\newlabel{aero_convergence_gr5.5_re2e4}{{4.5j}{49}{Convergence for $L/D = 5.5$\relax }{figure.caption.172}{}}
\newlabel{sub@aero_convergence_gr5.5_re2e4}{{j}{49}{Convergence for $L/D = 5.5$\relax }{figure.caption.172}{}}
\newlabel{aero_convergence_gr6_re2e4}{{4.5k}{49}{Convergence for $L/D = 6$\relax }{figure.caption.172}{}}
\newlabel{sub@aero_convergence_gr6_re2e4}{{k}{49}{Convergence for $L/D = 6$\relax }{figure.caption.172}{}}
\newlabel{aero_convergence_gr6.5_re2e4}{{4.5l}{49}{Convergence for $L/D = 6.5$\relax }{figure.caption.172}{}}
\newlabel{sub@aero_convergence_gr6.5_re2e4}{{l}{49}{Convergence for $L/D = 6.5$\relax }{figure.caption.172}{}}
\newlabel{aero_convergence_gr7_re2e4}{{4.5m}{49}{Convergence for $L/D = 7$\relax }{figure.caption.172}{}}
\newlabel{sub@aero_convergence_gr7_re2e4}{{m}{49}{Convergence for $L/D = 7$\relax }{figure.caption.172}{}}
\@writefile{lof}{\contentsline {figure}{\numberline {4.5}{\ignorespaces Convergence for various $\mathit  {L/D}$ at $Re = \num {2e4}$\relax }}{49}{figure.caption.172}\protected@file@percent }
\newlabel{aero_convergence_re2e4}{{4.5}{49}{Convergence for various $\mathit {L/D}$ at $Re = \num {2e4}$\relax }{figure.caption.172}{}}
\@writefile{toc}{\contentsline {subsection}{\numberline {4.1.1}Aerodynamic Coefficients}{50}{subsection.173}\protected@file@percent }
\@writefile{toc}{\contentsline {section}{\numberline {4.2}Mean Velocity}{51}{section.174}\protected@file@percent }
\newlabel{umean_gr1_re100}{{4.6a}{52}{$\mathit {u_{mean}}$ for $L/D = 1$\relax }{figure.caption.175}{}}
\newlabel{sub@umean_gr1_re100}{{a}{52}{$\mathit {u_{mean}}$ for $L/D = 1$\relax }{figure.caption.175}{}}
\newlabel{umean_gr1.5_re100}{{4.6b}{52}{$\mathit {u_{mean}}$ for $L/D = 1.5$\relax }{figure.caption.175}{}}
\newlabel{sub@umean_gr1.5_re100}{{b}{52}{$\mathit {u_{mean}}$ for $L/D = 1.5$\relax }{figure.caption.175}{}}
\newlabel{umean_gr2_re100}{{4.6c}{52}{$\mathit {u_{mean}}$ for $L/D = 2$\relax }{figure.caption.175}{}}
\newlabel{sub@umean_gr2_re100}{{c}{52}{$\mathit {u_{mean}}$ for $L/D = 2$\relax }{figure.caption.175}{}}
\newlabel{umean_gr2.5_re100}{{4.6d}{52}{$\mathit {u_{mean}}$ for $L/D = 2.5$\relax }{figure.caption.175}{}}
\newlabel{sub@umean_gr2.5_re100}{{d}{52}{$\mathit {u_{mean}}$ for $L/D = 2.5$\relax }{figure.caption.175}{}}
\newlabel{umean_gr3_re100}{{4.6e}{52}{$\mathit {u_{mean}}$ for $L/D = 3$\relax }{figure.caption.175}{}}
\newlabel{sub@umean_gr3_re100}{{e}{52}{$\mathit {u_{mean}}$ for $L/D = 3$\relax }{figure.caption.175}{}}
\newlabel{umean_gr3.5_re100}{{4.6f}{52}{$\mathit {u_{mean}}$ for $L/D = 3.5$\relax }{figure.caption.175}{}}
\newlabel{sub@umean_gr3.5_re100}{{f}{52}{$\mathit {u_{mean}}$ for $L/D = 3.5$\relax }{figure.caption.175}{}}
\newlabel{umean_gr4_re100}{{4.6g}{52}{$\mathit {u_{mean}}$ for $L/D = 4$\relax }{figure.caption.175}{}}
\newlabel{sub@umean_gr4_re100}{{g}{52}{$\mathit {u_{mean}}$ for $L/D = 4$\relax }{figure.caption.175}{}}
\newlabel{umean_gr4.5_re100}{{4.6h}{52}{$\mathit {u_{mean}}$ for $L/D = 4.5$\relax }{figure.caption.175}{}}
\newlabel{sub@umean_gr4.5_re100}{{h}{52}{$\mathit {u_{mean}}$ for $L/D = 4.5$\relax }{figure.caption.175}{}}
\newlabel{umean_gr5_re100}{{4.6i}{52}{$\mathit {u_{mean}}$ for $L/D = 5$\relax }{figure.caption.175}{}}
\newlabel{sub@umean_gr5_re100}{{i}{52}{$\mathit {u_{mean}}$ for $L/D = 5$\relax }{figure.caption.175}{}}
\newlabel{umean_gr5.5_re100}{{4.6j}{52}{$\mathit {u_{mean}}$ for $L/D = 5.5$\relax }{figure.caption.175}{}}
\newlabel{sub@umean_gr5.5_re100}{{j}{52}{$\mathit {u_{mean}}$ for $L/D = 5.5$\relax }{figure.caption.175}{}}
\newlabel{umean_gr6_re100}{{4.6k}{52}{$\mathit {u_{mean}}$ for $L/D = 6$\relax }{figure.caption.175}{}}
\newlabel{sub@umean_gr6_re100}{{k}{52}{$\mathit {u_{mean}}$ for $L/D = 6$\relax }{figure.caption.175}{}}
\newlabel{umean_gr6.5_re100}{{4.6l}{52}{$\mathit {u_{mean}}$ for $L/D = 6.5$\relax }{figure.caption.175}{}}
\newlabel{sub@umean_gr6.5_re100}{{l}{52}{$\mathit {u_{mean}}$ for $L/D = 6.5$\relax }{figure.caption.175}{}}
\newlabel{umean_gr7_re100}{{4.6m}{52}{$\mathit {u_{mean}}$ for $L/D = 7$\relax }{figure.caption.175}{}}
\newlabel{sub@umean_gr7_re100}{{m}{52}{$\mathit {u_{mean}}$ for $L/D = 7$\relax }{figure.caption.175}{}}
\@writefile{lof}{\contentsline {figure}{\numberline {4.6}{\ignorespaces $\mathit  {u_{mean}}$ for various $\mathit  {L/D}$ at $Re = 100$  (scale: $-15 \leq u_{mean} \leq 73$)\relax }}{52}{figure.caption.175}\protected@file@percent }
\newlabel{umean_contour_re100}{{4.6}{52}{$\mathit {u_{mean}}$ for various $\mathit {L/D}$ at $Re = 100$\\ (scale: $-15 \leq u_{mean} \leq 73$)\relax }{figure.caption.175}{}}
\newlabel{umean_gr1_re1e3}{{4.7a}{53}{$\mathit {u_{mean}}$ for $L/D = 1$\relax }{figure.caption.176}{}}
\newlabel{sub@umean_gr1_re1e3}{{a}{53}{$\mathit {u_{mean}}$ for $L/D = 1$\relax }{figure.caption.176}{}}
\newlabel{umean_gr1.5_re1e3}{{4.7b}{53}{$\mathit {u_{mean}}$ for $L/D = 1.5$\relax }{figure.caption.176}{}}
\newlabel{sub@umean_gr1.5_re1e3}{{b}{53}{$\mathit {u_{mean}}$ for $L/D = 1.5$\relax }{figure.caption.176}{}}
\newlabel{umean_gr2_re1e3}{{4.7c}{53}{$\mathit {u_{mean}}$ for $L/D = 2$\relax }{figure.caption.176}{}}
\newlabel{sub@umean_gr2_re1e3}{{c}{53}{$\mathit {u_{mean}}$ for $L/D = 2$\relax }{figure.caption.176}{}}
\newlabel{umean_gr2.5_re1e3}{{4.7d}{53}{$\mathit {u_{mean}}$ for $L/D = 2.5$\relax }{figure.caption.176}{}}
\newlabel{sub@umean_gr2.5_re1e3}{{d}{53}{$\mathit {u_{mean}}$ for $L/D = 2.5$\relax }{figure.caption.176}{}}
\newlabel{umean_gr3_re1e3}{{4.7e}{53}{$\mathit {u_{mean}}$ for $L/D = 3$\relax }{figure.caption.176}{}}
\newlabel{sub@umean_gr3_re1e3}{{e}{53}{$\mathit {u_{mean}}$ for $L/D = 3$\relax }{figure.caption.176}{}}
\newlabel{umean_gr3.5_re1e3}{{4.7f}{53}{$\mathit {u_{mean}}$ for $L/D = 3.5$\relax }{figure.caption.176}{}}
\newlabel{sub@umean_gr3.5_re1e3}{{f}{53}{$\mathit {u_{mean}}$ for $L/D = 3.5$\relax }{figure.caption.176}{}}
\newlabel{umean_gr4_re1e3}{{4.7g}{53}{$\mathit {u_{mean}}$ for $L/D = 4$\relax }{figure.caption.176}{}}
\newlabel{sub@umean_gr4_re1e3}{{g}{53}{$\mathit {u_{mean}}$ for $L/D = 4$\relax }{figure.caption.176}{}}
\newlabel{umean_gr4.5_re1e3}{{4.7h}{53}{$\mathit {u_{mean}}$ for $L/D = 4.5$\relax }{figure.caption.176}{}}
\newlabel{sub@umean_gr4.5_re1e3}{{h}{53}{$\mathit {u_{mean}}$ for $L/D = 4.5$\relax }{figure.caption.176}{}}
\newlabel{umean_gr5_re1e3}{{4.7i}{53}{$\mathit {u_{mean}}$ for $L/D = 5$\relax }{figure.caption.176}{}}
\newlabel{sub@umean_gr5_re1e3}{{i}{53}{$\mathit {u_{mean}}$ for $L/D = 5$\relax }{figure.caption.176}{}}
\newlabel{umean_gr5.5_re1e3}{{4.7j}{53}{$\mathit {u_{mean}}$ for $L/D = 5.5$\relax }{figure.caption.176}{}}
\newlabel{sub@umean_gr5.5_re1e3}{{j}{53}{$\mathit {u_{mean}}$ for $L/D = 5.5$\relax }{figure.caption.176}{}}
\newlabel{umean_gr6_re1e3}{{4.7k}{53}{$\mathit {u_{mean}}$ for $L/D = 6$\relax }{figure.caption.176}{}}
\newlabel{sub@umean_gr6_re1e3}{{k}{53}{$\mathit {u_{mean}}$ for $L/D = 6$\relax }{figure.caption.176}{}}
\newlabel{umean_gr6.5_re1e3}{{4.7l}{53}{$\mathit {u_{mean}}$ for $L/D = 6.5$\relax }{figure.caption.176}{}}
\newlabel{sub@umean_gr6.5_re1e3}{{l}{53}{$\mathit {u_{mean}}$ for $L/D = 6.5$\relax }{figure.caption.176}{}}
\newlabel{umean_gr7_re1e3}{{4.7m}{53}{$\mathit {u_{mean}}$ for $L/D = 7$\relax }{figure.caption.176}{}}
\newlabel{sub@umean_gr7_re1e3}{{m}{53}{$\mathit {u_{mean}}$ for $L/D = 7$\relax }{figure.caption.176}{}}
\@writefile{lof}{\contentsline {figure}{\numberline {4.7}{\ignorespaces $\mathit  {u_{mean}}$ for various $\mathit  {L/D}$ at $Re = \num {1e3}$  (scale: $-23 \leq u_{mean} \leq 86$)\relax }}{53}{figure.caption.176}\protected@file@percent }
\newlabel{umean_contour_re1e3}{{4.7}{53}{$\mathit {u_{mean}}$ for various $\mathit {L/D}$ at $Re = \num {1e3}$\\ (scale: $-23 \leq u_{mean} \leq 86$)\relax }{figure.caption.176}{}}
\newlabel{umean_gr1_re5e3}{{4.8a}{54}{$\mathit {u_{mean}}$ for $L/D = 1$\relax }{figure.caption.177}{}}
\newlabel{sub@umean_gr1_re5e3}{{a}{54}{$\mathit {u_{mean}}$ for $L/D = 1$\relax }{figure.caption.177}{}}
\newlabel{umean_gr1.5_re5e3}{{4.8b}{54}{$\mathit {u_{mean}}$ for $L/D = 1.5$\relax }{figure.caption.177}{}}
\newlabel{sub@umean_gr1.5_re5e3}{{b}{54}{$\mathit {u_{mean}}$ for $L/D = 1.5$\relax }{figure.caption.177}{}}
\newlabel{umean_gr2_re5e3}{{4.8c}{54}{$\mathit {u_{mean}}$ for $L/D = 2$\relax }{figure.caption.177}{}}
\newlabel{sub@umean_gr2_re5e3}{{c}{54}{$\mathit {u_{mean}}$ for $L/D = 2$\relax }{figure.caption.177}{}}
\newlabel{umean_gr2.5_re5e3}{{4.8d}{54}{$\mathit {u_{mean}}$ for $L/D = 2.5$\relax }{figure.caption.177}{}}
\newlabel{sub@umean_gr2.5_re5e3}{{d}{54}{$\mathit {u_{mean}}$ for $L/D = 2.5$\relax }{figure.caption.177}{}}
\newlabel{umean_gr3_re5e3}{{4.8e}{54}{$\mathit {u_{mean}}$ for $L/D = 3$\relax }{figure.caption.177}{}}
\newlabel{sub@umean_gr3_re5e3}{{e}{54}{$\mathit {u_{mean}}$ for $L/D = 3$\relax }{figure.caption.177}{}}
\newlabel{umean_gr3.5_re5e3}{{4.8f}{54}{$\mathit {u_{mean}}$ for $L/D = 3.5$\relax }{figure.caption.177}{}}
\newlabel{sub@umean_gr3.5_re5e3}{{f}{54}{$\mathit {u_{mean}}$ for $L/D = 3.5$\relax }{figure.caption.177}{}}
\newlabel{umean_gr4_re5e3}{{4.8g}{54}{$\mathit {u_{mean}}$ for $L/D = 4$\relax }{figure.caption.177}{}}
\newlabel{sub@umean_gr4_re5e3}{{g}{54}{$\mathit {u_{mean}}$ for $L/D = 4$\relax }{figure.caption.177}{}}
\newlabel{umean_gr4.5_re5e3}{{4.8h}{54}{$\mathit {u_{mean}}$ for $L/D = 4.5$\relax }{figure.caption.177}{}}
\newlabel{sub@umean_gr4.5_re5e3}{{h}{54}{$\mathit {u_{mean}}$ for $L/D = 4.5$\relax }{figure.caption.177}{}}
\newlabel{umean_gr5_re5e3}{{4.8i}{54}{$\mathit {u_{mean}}$ for $L/D = 5$\relax }{figure.caption.177}{}}
\newlabel{sub@umean_gr5_re5e3}{{i}{54}{$\mathit {u_{mean}}$ for $L/D = 5$\relax }{figure.caption.177}{}}
\newlabel{umean_gr5.5_re5e3}{{4.8j}{54}{$\mathit {u_{mean}}$ for $L/D = 5.5$\relax }{figure.caption.177}{}}
\newlabel{sub@umean_gr5.5_re5e3}{{j}{54}{$\mathit {u_{mean}}$ for $L/D = 5.5$\relax }{figure.caption.177}{}}
\newlabel{umean_gr6_re5e3}{{4.8k}{54}{$\mathit {u_{mean}}$ for $L/D = 6$\relax }{figure.caption.177}{}}
\newlabel{sub@umean_gr6_re5e3}{{k}{54}{$\mathit {u_{mean}}$ for $L/D = 6$\relax }{figure.caption.177}{}}
\newlabel{umean_gr6.5_re5e3}{{4.8l}{54}{$\mathit {u_{mean}}$ for $L/D = 6.5$\relax }{figure.caption.177}{}}
\newlabel{sub@umean_gr6.5_re5e3}{{l}{54}{$\mathit {u_{mean}}$ for $L/D = 6.5$\relax }{figure.caption.177}{}}
\newlabel{umean_gr7_re5e3}{{4.8m}{54}{$\mathit {u_{mean}}$ for $L/D = 7$\relax }{figure.caption.177}{}}
\newlabel{sub@umean_gr7_re5e3}{{m}{54}{$\mathit {u_{mean}}$ for $L/D = 7$\relax }{figure.caption.177}{}}
\@writefile{lof}{\contentsline {figure}{\numberline {4.8}{\ignorespaces $\mathit  {u_{mean}}$ for various $\mathit  {L/D}$ at $Re = \num {5e3}$  (scale: $-21 \leq u_{mean} \leq 90$)\relax }}{54}{figure.caption.177}\protected@file@percent }
\newlabel{umean_contour_re5e3}{{4.8}{54}{$\mathit {u_{mean}}$ for various $\mathit {L/D}$ at $Re = \num {5e3}$\\ (scale: $-21 \leq u_{mean} \leq 90$)\relax }{figure.caption.177}{}}
\newlabel{umean_gr1_re1e4}{{4.9a}{55}{$\mathit {u_{mean}}$ for $L/D = 1$\relax }{figure.caption.178}{}}
\newlabel{sub@umean_gr1_re1e4}{{a}{55}{$\mathit {u_{mean}}$ for $L/D = 1$\relax }{figure.caption.178}{}}
\newlabel{umean_gr1.5_re1e4}{{4.9b}{55}{$\mathit {u_{mean}}$ for $L/D = 1.5$\relax }{figure.caption.178}{}}
\newlabel{sub@umean_gr1.5_re1e4}{{b}{55}{$\mathit {u_{mean}}$ for $L/D = 1.5$\relax }{figure.caption.178}{}}
\newlabel{umean_gr2_re1e4}{{4.9c}{55}{$\mathit {u_{mean}}$ for $L/D = 2$\relax }{figure.caption.178}{}}
\newlabel{sub@umean_gr2_re1e4}{{c}{55}{$\mathit {u_{mean}}$ for $L/D = 2$\relax }{figure.caption.178}{}}
\newlabel{umean_gr2.5_re1e4}{{4.9d}{55}{$\mathit {u_{mean}}$ for $L/D = 2.5$\relax }{figure.caption.178}{}}
\newlabel{sub@umean_gr2.5_re1e4}{{d}{55}{$\mathit {u_{mean}}$ for $L/D = 2.5$\relax }{figure.caption.178}{}}
\newlabel{umean_gr3_re1e4}{{4.9e}{55}{$\mathit {u_{mean}}$ for $L/D = 3$\relax }{figure.caption.178}{}}
\newlabel{sub@umean_gr3_re1e4}{{e}{55}{$\mathit {u_{mean}}$ for $L/D = 3$\relax }{figure.caption.178}{}}
\newlabel{umean_gr3.5_re1e4}{{4.9f}{55}{$\mathit {u_{mean}}$ for $L/D = 3.5$\relax }{figure.caption.178}{}}
\newlabel{sub@umean_gr3.5_re1e4}{{f}{55}{$\mathit {u_{mean}}$ for $L/D = 3.5$\relax }{figure.caption.178}{}}
\newlabel{umean_gr4_re1e4}{{4.9g}{55}{$\mathit {u_{mean}}$ for $L/D = 4$\relax }{figure.caption.178}{}}
\newlabel{sub@umean_gr4_re1e4}{{g}{55}{$\mathit {u_{mean}}$ for $L/D = 4$\relax }{figure.caption.178}{}}
\newlabel{umean_gr4.5_re1e4}{{4.9h}{55}{$\mathit {u_{mean}}$ for $L/D = 4.5$\relax }{figure.caption.178}{}}
\newlabel{sub@umean_gr4.5_re1e4}{{h}{55}{$\mathit {u_{mean}}$ for $L/D = 4.5$\relax }{figure.caption.178}{}}
\newlabel{umean_gr5_re1e4}{{4.9i}{55}{$\mathit {u_{mean}}$ for $L/D = 5$\relax }{figure.caption.178}{}}
\newlabel{sub@umean_gr5_re1e4}{{i}{55}{$\mathit {u_{mean}}$ for $L/D = 5$\relax }{figure.caption.178}{}}
\newlabel{umean_gr5.5_re1e4}{{4.9j}{55}{$\mathit {u_{mean}}$ for $L/D = 5.5$\relax }{figure.caption.178}{}}
\newlabel{sub@umean_gr5.5_re1e4}{{j}{55}{$\mathit {u_{mean}}$ for $L/D = 5.5$\relax }{figure.caption.178}{}}
\newlabel{umean_gr6_re1e4}{{4.9k}{55}{$\mathit {u_{mean}}$ for $L/D = 6$\relax }{figure.caption.178}{}}
\newlabel{sub@umean_gr6_re1e4}{{k}{55}{$\mathit {u_{mean}}$ for $L/D = 6$\relax }{figure.caption.178}{}}
\newlabel{umean_gr6.5_re1e4}{{4.9l}{55}{$\mathit {u_{mean}}$ for $L/D = 6.5$\relax }{figure.caption.178}{}}
\newlabel{sub@umean_gr6.5_re1e4}{{l}{55}{$\mathit {u_{mean}}$ for $L/D = 6.5$\relax }{figure.caption.178}{}}
\newlabel{umean_gr7_re1e4}{{4.9m}{55}{$\mathit {u_{mean}}$ for $L/D = 7$\relax }{figure.caption.178}{}}
\newlabel{sub@umean_gr7_re1e4}{{m}{55}{$\mathit {u_{mean}}$ for $L/D = 7$\relax }{figure.caption.178}{}}
\@writefile{lof}{\contentsline {figure}{\numberline {4.9}{\ignorespaces $\mathit  {u_{mean}}$ for various $\mathit  {L/D}$ at $Re = \num {1e4}$  (scale: $-22 \leq u_{mean} \leq 91$)\relax }}{55}{figure.caption.178}\protected@file@percent }
\newlabel{umean_contour_re1e4}{{4.9}{55}{$\mathit {u_{mean}}$ for various $\mathit {L/D}$ at $Re = \num {1e4}$\\ (scale: $-22 \leq u_{mean} \leq 91$)\relax }{figure.caption.178}{}}
\newlabel{umean_gr1_re2e4}{{4.10a}{56}{$\mathit {u_{mean}}$ for $L/D = 1$\relax }{figure.caption.179}{}}
\newlabel{sub@umean_gr1_re2e4}{{a}{56}{$\mathit {u_{mean}}$ for $L/D = 1$\relax }{figure.caption.179}{}}
\newlabel{umean_gr1.5_re2e4}{{4.10b}{56}{$\mathit {u_{mean}}$ for $L/D = 1.5$\relax }{figure.caption.179}{}}
\newlabel{sub@umean_gr1.5_re2e4}{{b}{56}{$\mathit {u_{mean}}$ for $L/D = 1.5$\relax }{figure.caption.179}{}}
\newlabel{umean_gr2_re2e4}{{4.10c}{56}{$\mathit {u_{mean}}$ for $L/D = 2$\relax }{figure.caption.179}{}}
\newlabel{sub@umean_gr2_re2e4}{{c}{56}{$\mathit {u_{mean}}$ for $L/D = 2$\relax }{figure.caption.179}{}}
\newlabel{umean_gr2.5_re2e4}{{4.10d}{56}{$\mathit {u_{mean}}$ for $L/D = 2.5$\relax }{figure.caption.179}{}}
\newlabel{sub@umean_gr2.5_re2e4}{{d}{56}{$\mathit {u_{mean}}$ for $L/D = 2.5$\relax }{figure.caption.179}{}}
\newlabel{umean_gr3_re2e4}{{4.10e}{56}{$\mathit {u_{mean}}$ for $L/D = 3$\relax }{figure.caption.179}{}}
\newlabel{sub@umean_gr3_re2e4}{{e}{56}{$\mathit {u_{mean}}$ for $L/D = 3$\relax }{figure.caption.179}{}}
\newlabel{umean_gr3.5_re2e4}{{4.10f}{56}{$\mathit {u_{mean}}$ for $L/D = 3.5$\relax }{figure.caption.179}{}}
\newlabel{sub@umean_gr3.5_re2e4}{{f}{56}{$\mathit {u_{mean}}$ for $L/D = 3.5$\relax }{figure.caption.179}{}}
\newlabel{umean_gr4_re2e4}{{4.10g}{56}{$\mathit {u_{mean}}$ for $L/D = 4$\relax }{figure.caption.179}{}}
\newlabel{sub@umean_gr4_re2e4}{{g}{56}{$\mathit {u_{mean}}$ for $L/D = 4$\relax }{figure.caption.179}{}}
\newlabel{umean_gr4.5_re2e4}{{4.10h}{56}{$\mathit {u_{mean}}$ for $L/D = 4.5$\relax }{figure.caption.179}{}}
\newlabel{sub@umean_gr4.5_re2e4}{{h}{56}{$\mathit {u_{mean}}$ for $L/D = 4.5$\relax }{figure.caption.179}{}}
\newlabel{umean_gr5_re2e4}{{4.10i}{56}{$\mathit {u_{mean}}$ for $L/D = 5$\relax }{figure.caption.179}{}}
\newlabel{sub@umean_gr5_re2e4}{{i}{56}{$\mathit {u_{mean}}$ for $L/D = 5$\relax }{figure.caption.179}{}}
\newlabel{umean_gr5.5_re2e4}{{4.10j}{56}{$\mathit {u_{mean}}$ for $L/D = 5.5$\relax }{figure.caption.179}{}}
\newlabel{sub@umean_gr5.5_re2e4}{{j}{56}{$\mathit {u_{mean}}$ for $L/D = 5.5$\relax }{figure.caption.179}{}}
\newlabel{umean_gr6_re2e4}{{4.10k}{56}{$\mathit {u_{mean}}$ for $L/D = 6$\relax }{figure.caption.179}{}}
\newlabel{sub@umean_gr6_re2e4}{{k}{56}{$\mathit {u_{mean}}$ for $L/D = 6$\relax }{figure.caption.179}{}}
\newlabel{umean_gr6.5_re2e4}{{4.10l}{56}{$\mathit {u_{mean}}$ for $L/D = 6.5$\relax }{figure.caption.179}{}}
\newlabel{sub@umean_gr6.5_re2e4}{{l}{56}{$\mathit {u_{mean}}$ for $L/D = 6.5$\relax }{figure.caption.179}{}}
\newlabel{umean_gr7_re2e4}{{4.10m}{56}{$\mathit {u_{mean}}$ for $L/D = 7$\relax }{figure.caption.179}{}}
\newlabel{sub@umean_gr7_re2e4}{{m}{56}{$\mathit {u_{mean}}$ for $L/D = 7$\relax }{figure.caption.179}{}}
\@writefile{lof}{\contentsline {figure}{\numberline {4.10}{\ignorespaces $\mathit  {u_{mean}}$ for various $\mathit  {L/D}$ at $Re = \num {2e4}$  (scale: $-23 \leq u_{mean} \leq 91$)\relax }}{56}{figure.caption.179}\protected@file@percent }
\newlabel{umean_contour_re2e4}{{4.10}{56}{$\mathit {u_{mean}}$ for various $\mathit {L/D}$ at $Re = \num {2e4}$\\ (scale: $-23 \leq u_{mean} \leq 91$)\relax }{figure.caption.179}{}}
\@writefile{toc}{\contentsline {section}{\numberline {4.3}Velocity Functions}{57}{section.180}\protected@file@percent }
\@writefile{toc}{\contentsline {subsection}{\numberline {4.3.1}Streamwise Velocity Function ($u_{rms}$)}{57}{subsection.181}\protected@file@percent }
\newlabel{subsection_urms}{{4.3.1}{57}{Streamwise Velocity Function ($u_{rms}$)}{subsection.181}{}}
\newlabel{urms_gr1_re100}{{4.11a}{58}{$\mathit {u_{rms}}$ for $L/D = 1$\relax }{figure.caption.182}{}}
\newlabel{sub@urms_gr1_re100}{{a}{58}{$\mathit {u_{rms}}$ for $L/D = 1$\relax }{figure.caption.182}{}}
\newlabel{urms_gr1.5_re100}{{4.11b}{58}{$\mathit {u_{rms}}$ for $L/D = 1.5$\relax }{figure.caption.182}{}}
\newlabel{sub@urms_gr1.5_re100}{{b}{58}{$\mathit {u_{rms}}$ for $L/D = 1.5$\relax }{figure.caption.182}{}}
\newlabel{urms_gr2_re100}{{4.11c}{58}{$\mathit {u_{rms}}$ for $L/D = 2$\relax }{figure.caption.182}{}}
\newlabel{sub@urms_gr2_re100}{{c}{58}{$\mathit {u_{rms}}$ for $L/D = 2$\relax }{figure.caption.182}{}}
\newlabel{urms_gr2.5_re100}{{4.11d}{58}{$\mathit {u_{rms}}$ for $L/D = 2.5$\relax }{figure.caption.182}{}}
\newlabel{sub@urms_gr2.5_re100}{{d}{58}{$\mathit {u_{rms}}$ for $L/D = 2.5$\relax }{figure.caption.182}{}}
\newlabel{urms_gr3_re100}{{4.11e}{58}{$\mathit {u_{rms}}$ for $L/D = 3$\relax }{figure.caption.182}{}}
\newlabel{sub@urms_gr3_re100}{{e}{58}{$\mathit {u_{rms}}$ for $L/D = 3$\relax }{figure.caption.182}{}}
\newlabel{urms_gr3.5_re100}{{4.11f}{58}{$\mathit {u_{rms}}$ for $L/D = 3.5$\relax }{figure.caption.182}{}}
\newlabel{sub@urms_gr3.5_re100}{{f}{58}{$\mathit {u_{rms}}$ for $L/D = 3.5$\relax }{figure.caption.182}{}}
\newlabel{urms_gr4_re100}{{4.11g}{58}{$\mathit {u_{rms}}$ for $L/D = 4$\relax }{figure.caption.182}{}}
\newlabel{sub@urms_gr4_re100}{{g}{58}{$\mathit {u_{rms}}$ for $L/D = 4$\relax }{figure.caption.182}{}}
\newlabel{urms_gr4.5_re100}{{4.11h}{58}{$\mathit {u_{rms}}$ for $L/D = 4.5$\relax }{figure.caption.182}{}}
\newlabel{sub@urms_gr4.5_re100}{{h}{58}{$\mathit {u_{rms}}$ for $L/D = 4.5$\relax }{figure.caption.182}{}}
\newlabel{urms_gr5_re100}{{4.11i}{58}{$\mathit {u_{rms}}$ for $L/D = 5$\relax }{figure.caption.182}{}}
\newlabel{sub@urms_gr5_re100}{{i}{58}{$\mathit {u_{rms}}$ for $L/D = 5$\relax }{figure.caption.182}{}}
\newlabel{urms_gr5.5_re100}{{4.11j}{58}{$\mathit {u_{rms}}$ for $L/D = 5.5$\relax }{figure.caption.182}{}}
\newlabel{sub@urms_gr5.5_re100}{{j}{58}{$\mathit {u_{rms}}$ for $L/D = 5.5$\relax }{figure.caption.182}{}}
\newlabel{urms_gr6_re100}{{4.11k}{58}{$\mathit {u_{rms}}$ for $L/D = 6$\relax }{figure.caption.182}{}}
\newlabel{sub@urms_gr6_re100}{{k}{58}{$\mathit {u_{rms}}$ for $L/D = 6$\relax }{figure.caption.182}{}}
\newlabel{urms_gr6.5_re100}{{4.11l}{58}{$\mathit {u_{rms}}$ for $L/D = 6.5$\relax }{figure.caption.182}{}}
\newlabel{sub@urms_gr6.5_re100}{{l}{58}{$\mathit {u_{rms}}$ for $L/D = 6.5$\relax }{figure.caption.182}{}}
\newlabel{urms_gr7_re100}{{4.11m}{58}{$\mathit {u_{rms}}$ for $L/D = 7$\relax }{figure.caption.182}{}}
\newlabel{sub@urms_gr7_re100}{{m}{58}{$\mathit {u_{rms}}$ for $L/D = 7$\relax }{figure.caption.182}{}}
\@writefile{lof}{\contentsline {figure}{\numberline {4.11}{\ignorespaces $\mathit  {u_{rms}}$ for various $\mathit  {L/D}$ at $Re = 100$  (scale: $0 \leq u_{rms} \leq 500$)\relax }}{58}{figure.caption.182}\protected@file@percent }
\newlabel{urms_contour_re100}{{4.11}{58}{$\mathit {u_{rms}}$ for various $\mathit {L/D}$ at $Re = 100$\\ (scale: $0 \leq u_{rms} \leq 500$)\relax }{figure.caption.182}{}}
\newlabel{urms_gr1_re1e3}{{4.12a}{59}{$\mathit {u_{rms}}$ for $L/D = 1$\relax }{figure.caption.183}{}}
\newlabel{sub@urms_gr1_re1e3}{{a}{59}{$\mathit {u_{rms}}$ for $L/D = 1$\relax }{figure.caption.183}{}}
\newlabel{urms_gr1.5_re1e3}{{4.12b}{59}{$\mathit {u_{rms}}$ for $L/D = 1.5$\relax }{figure.caption.183}{}}
\newlabel{sub@urms_gr1.5_re1e3}{{b}{59}{$\mathit {u_{rms}}$ for $L/D = 1.5$\relax }{figure.caption.183}{}}
\newlabel{urms_gr2_re1e3}{{4.12c}{59}{$\mathit {u_{rms}}$ for $L/D = 2$\relax }{figure.caption.183}{}}
\newlabel{sub@urms_gr2_re1e3}{{c}{59}{$\mathit {u_{rms}}$ for $L/D = 2$\relax }{figure.caption.183}{}}
\newlabel{urms_gr2.5_re1e3}{{4.12d}{59}{$\mathit {u_{rms}}$ for $L/D = 2.5$\relax }{figure.caption.183}{}}
\newlabel{sub@urms_gr2.5_re1e3}{{d}{59}{$\mathit {u_{rms}}$ for $L/D = 2.5$\relax }{figure.caption.183}{}}
\newlabel{urms_gr3_re1e3}{{4.12e}{59}{$\mathit {u_{rms}}$ for $L/D = 3$\relax }{figure.caption.183}{}}
\newlabel{sub@urms_gr3_re1e3}{{e}{59}{$\mathit {u_{rms}}$ for $L/D = 3$\relax }{figure.caption.183}{}}
\newlabel{urms_gr3.5_re1e3}{{4.12f}{59}{$\mathit {u_{rms}}$ for $L/D = 3.5$\relax }{figure.caption.183}{}}
\newlabel{sub@urms_gr3.5_re1e3}{{f}{59}{$\mathit {u_{rms}}$ for $L/D = 3.5$\relax }{figure.caption.183}{}}
\newlabel{urms_gr4_re1e3}{{4.12g}{59}{$\mathit {u_{rms}}$ for $L/D = 4$\relax }{figure.caption.183}{}}
\newlabel{sub@urms_gr4_re1e3}{{g}{59}{$\mathit {u_{rms}}$ for $L/D = 4$\relax }{figure.caption.183}{}}
\newlabel{urms_gr4.5_re1e3}{{4.12h}{59}{$\mathit {u_{rms}}$ for $L/D = 4.5$\relax }{figure.caption.183}{}}
\newlabel{sub@urms_gr4.5_re1e3}{{h}{59}{$\mathit {u_{rms}}$ for $L/D = 4.5$\relax }{figure.caption.183}{}}
\newlabel{urms_gr5_re1e3}{{4.12i}{59}{$\mathit {u_{rms}}$ for $L/D = 5$\relax }{figure.caption.183}{}}
\newlabel{sub@urms_gr5_re1e3}{{i}{59}{$\mathit {u_{rms}}$ for $L/D = 5$\relax }{figure.caption.183}{}}
\newlabel{urms_gr5.5_re1e3}{{4.12j}{59}{$\mathit {u_{rms}}$ for $L/D = 5.5$\relax }{figure.caption.183}{}}
\newlabel{sub@urms_gr5.5_re1e3}{{j}{59}{$\mathit {u_{rms}}$ for $L/D = 5.5$\relax }{figure.caption.183}{}}
\newlabel{urms_gr6_re1e3}{{4.12k}{59}{$\mathit {u_{rms}}$ for $L/D = 6$\relax }{figure.caption.183}{}}
\newlabel{sub@urms_gr6_re1e3}{{k}{59}{$\mathit {u_{rms}}$ for $L/D = 6$\relax }{figure.caption.183}{}}
\newlabel{urms_gr6.5_re1e3}{{4.12l}{59}{$\mathit {u_{rms}}$ for $L/D = 6.5$\relax }{figure.caption.183}{}}
\newlabel{sub@urms_gr6.5_re1e3}{{l}{59}{$\mathit {u_{rms}}$ for $L/D = 6.5$\relax }{figure.caption.183}{}}
\newlabel{urms_gr7_re1e3}{{4.12m}{59}{$\mathit {u_{rms}}$ for $L/D = 7$\relax }{figure.caption.183}{}}
\newlabel{sub@urms_gr7_re1e3}{{m}{59}{$\mathit {u_{rms}}$ for $L/D = 7$\relax }{figure.caption.183}{}}
\@writefile{lof}{\contentsline {figure}{\numberline {4.12}{\ignorespaces $\mathit  {u_{rms}}$ for various $\mathit  {L/D}$ at $Re = \num {1e3}$  (scale: $0 \leq u_{rms} \leq \num {1.6e3}$)\relax }}{59}{figure.caption.183}\protected@file@percent }
\newlabel{urms_contour_re1e3}{{4.12}{59}{$\mathit {u_{rms}}$ for various $\mathit {L/D}$ at $Re = \num {1e3}$\\ (scale: $0 \leq u_{rms} \leq \num {1.6e3}$)\relax }{figure.caption.183}{}}
\newlabel{urms_gr1_re5e3}{{4.13a}{60}{$\mathit {u_{rms}}$ for $L/D = 1$\relax }{figure.caption.184}{}}
\newlabel{sub@urms_gr1_re5e3}{{a}{60}{$\mathit {u_{rms}}$ for $L/D = 1$\relax }{figure.caption.184}{}}
\newlabel{urms_gr1.5_re5e3}{{4.13b}{60}{$\mathit {u_{rms}}$ for $L/D = 1.5$\relax }{figure.caption.184}{}}
\newlabel{sub@urms_gr1.5_re5e3}{{b}{60}{$\mathit {u_{rms}}$ for $L/D = 1.5$\relax }{figure.caption.184}{}}
\newlabel{urms_gr2_re5e3}{{4.13c}{60}{$\mathit {u_{rms}}$ for $L/D = 2$\relax }{figure.caption.184}{}}
\newlabel{sub@urms_gr2_re5e3}{{c}{60}{$\mathit {u_{rms}}$ for $L/D = 2$\relax }{figure.caption.184}{}}
\newlabel{urms_gr2.5_re5e3}{{4.13d}{60}{$\mathit {u_{rms}}$ for $L/D = 2.5$\relax }{figure.caption.184}{}}
\newlabel{sub@urms_gr2.5_re5e3}{{d}{60}{$\mathit {u_{rms}}$ for $L/D = 2.5$\relax }{figure.caption.184}{}}
\newlabel{urms_gr3_re5e3}{{4.13e}{60}{$\mathit {u_{rms}}$ for $L/D = 3$\relax }{figure.caption.184}{}}
\newlabel{sub@urms_gr3_re5e3}{{e}{60}{$\mathit {u_{rms}}$ for $L/D = 3$\relax }{figure.caption.184}{}}
\newlabel{urms_gr3.5_re5e3}{{4.13f}{60}{$\mathit {u_{rms}}$ for $L/D = 3.5$\relax }{figure.caption.184}{}}
\newlabel{sub@urms_gr3.5_re5e3}{{f}{60}{$\mathit {u_{rms}}$ for $L/D = 3.5$\relax }{figure.caption.184}{}}
\newlabel{urms_gr4_re5e3}{{4.13g}{60}{$\mathit {u_{rms}}$ for $L/D = 4$\relax }{figure.caption.184}{}}
\newlabel{sub@urms_gr4_re5e3}{{g}{60}{$\mathit {u_{rms}}$ for $L/D = 4$\relax }{figure.caption.184}{}}
\newlabel{urms_gr4.5_re5e3}{{4.13h}{60}{$\mathit {u_{rms}}$ for $L/D = 4.5$\relax }{figure.caption.184}{}}
\newlabel{sub@urms_gr4.5_re5e3}{{h}{60}{$\mathit {u_{rms}}$ for $L/D = 4.5$\relax }{figure.caption.184}{}}
\newlabel{urms_gr5_re5e3}{{4.13i}{60}{$\mathit {u_{rms}}$ for $L/D = 5$\relax }{figure.caption.184}{}}
\newlabel{sub@urms_gr5_re5e3}{{i}{60}{$\mathit {u_{rms}}$ for $L/D = 5$\relax }{figure.caption.184}{}}
\newlabel{urms_gr5.5_re5e3}{{4.13j}{60}{$\mathit {u_{rms}}$ for $L/D = 5.5$\relax }{figure.caption.184}{}}
\newlabel{sub@urms_gr5.5_re5e3}{{j}{60}{$\mathit {u_{rms}}$ for $L/D = 5.5$\relax }{figure.caption.184}{}}
\newlabel{urms_gr6_re5e3}{{4.13k}{60}{$\mathit {u_{rms}}$ for $L/D = 6$\relax }{figure.caption.184}{}}
\newlabel{sub@urms_gr6_re5e3}{{k}{60}{$\mathit {u_{rms}}$ for $L/D = 6$\relax }{figure.caption.184}{}}
\newlabel{urms_gr6.5_re5e3}{{4.13l}{60}{$\mathit {u_{rms}}$ for $L/D = 6.5$\relax }{figure.caption.184}{}}
\newlabel{sub@urms_gr6.5_re5e3}{{l}{60}{$\mathit {u_{rms}}$ for $L/D = 6.5$\relax }{figure.caption.184}{}}
\newlabel{urms_gr7_re5e3}{{4.13m}{60}{$\mathit {u_{rms}}$ for $L/D = 7$\relax }{figure.caption.184}{}}
\newlabel{sub@urms_gr7_re5e3}{{m}{60}{$\mathit {u_{rms}}$ for $L/D = 7$\relax }{figure.caption.184}{}}
\@writefile{lof}{\contentsline {figure}{\numberline {4.13}{\ignorespaces $\mathit  {u_{rms}}$ for various $\mathit  {L/D}$ at $Re = \num {5e3}$  (scale: $0 \leq u_{rms} \leq \num {1.6e3}$)\relax }}{60}{figure.caption.184}\protected@file@percent }
\newlabel{urms_contour_re5e3}{{4.13}{60}{$\mathit {u_{rms}}$ for various $\mathit {L/D}$ at $Re = \num {5e3}$\\ (scale: $0 \leq u_{rms} \leq \num {1.6e3}$)\relax }{figure.caption.184}{}}
\newlabel{urms_gr1_re1e4}{{4.14a}{61}{$\mathit {u_{rms}}$ for $L/D = 1$\relax }{figure.caption.185}{}}
\newlabel{sub@urms_gr1_re1e4}{{a}{61}{$\mathit {u_{rms}}$ for $L/D = 1$\relax }{figure.caption.185}{}}
\newlabel{urms_gr1.5_re1e4}{{4.14b}{61}{$\mathit {u_{rms}}$ for $L/D = 1.5$\relax }{figure.caption.185}{}}
\newlabel{sub@urms_gr1.5_re1e4}{{b}{61}{$\mathit {u_{rms}}$ for $L/D = 1.5$\relax }{figure.caption.185}{}}
\newlabel{urms_gr2_re1e4}{{4.14c}{61}{$\mathit {u_{rms}}$ for $L/D = 2$\relax }{figure.caption.185}{}}
\newlabel{sub@urms_gr2_re1e4}{{c}{61}{$\mathit {u_{rms}}$ for $L/D = 2$\relax }{figure.caption.185}{}}
\newlabel{urms_gr2.5_re1e4}{{4.14d}{61}{$\mathit {u_{rms}}$ for $L/D = 2.5$\relax }{figure.caption.185}{}}
\newlabel{sub@urms_gr2.5_re1e4}{{d}{61}{$\mathit {u_{rms}}$ for $L/D = 2.5$\relax }{figure.caption.185}{}}
\newlabel{urms_gr3_re1e4}{{4.14e}{61}{$\mathit {u_{rms}}$ for $L/D = 3$\relax }{figure.caption.185}{}}
\newlabel{sub@urms_gr3_re1e4}{{e}{61}{$\mathit {u_{rms}}$ for $L/D = 3$\relax }{figure.caption.185}{}}
\newlabel{urms_gr3.5_re1e4}{{4.14f}{61}{$\mathit {u_{rms}}$ for $L/D = 3.5$\relax }{figure.caption.185}{}}
\newlabel{sub@urms_gr3.5_re1e4}{{f}{61}{$\mathit {u_{rms}}$ for $L/D = 3.5$\relax }{figure.caption.185}{}}
\newlabel{urms_gr4_re1e4}{{4.14g}{61}{$\mathit {u_{rms}}$ for $L/D = 4$\relax }{figure.caption.185}{}}
\newlabel{sub@urms_gr4_re1e4}{{g}{61}{$\mathit {u_{rms}}$ for $L/D = 4$\relax }{figure.caption.185}{}}
\newlabel{urms_gr4.5_re1e4}{{4.14h}{61}{$\mathit {u_{rms}}$ for $L/D = 4.5$\relax }{figure.caption.185}{}}
\newlabel{sub@urms_gr4.5_re1e4}{{h}{61}{$\mathit {u_{rms}}$ for $L/D = 4.5$\relax }{figure.caption.185}{}}
\newlabel{urms_gr5_re1e4}{{4.14i}{61}{$\mathit {u_{rms}}$ for $L/D = 5$\relax }{figure.caption.185}{}}
\newlabel{sub@urms_gr5_re1e4}{{i}{61}{$\mathit {u_{rms}}$ for $L/D = 5$\relax }{figure.caption.185}{}}
\newlabel{urms_gr5.5_re1e4}{{4.14j}{61}{$\mathit {u_{rms}}$ for $L/D = 5.5$\relax }{figure.caption.185}{}}
\newlabel{sub@urms_gr5.5_re1e4}{{j}{61}{$\mathit {u_{rms}}$ for $L/D = 5.5$\relax }{figure.caption.185}{}}
\newlabel{urms_gr6_re1e4}{{4.14k}{61}{$\mathit {u_{rms}}$ for $L/D = 6$\relax }{figure.caption.185}{}}
\newlabel{sub@urms_gr6_re1e4}{{k}{61}{$\mathit {u_{rms}}$ for $L/D = 6$\relax }{figure.caption.185}{}}
\newlabel{urms_gr6.5_re1e4}{{4.14l}{61}{$\mathit {u_{rms}}$ for $L/D = 6.5$\relax }{figure.caption.185}{}}
\newlabel{sub@urms_gr6.5_re1e4}{{l}{61}{$\mathit {u_{rms}}$ for $L/D = 6.5$\relax }{figure.caption.185}{}}
\newlabel{urms_gr7_re1e4}{{4.14m}{61}{$\mathit {u_{rms}}$ for $L/D = 7$\relax }{figure.caption.185}{}}
\newlabel{sub@urms_gr7_re1e4}{{m}{61}{$\mathit {u_{rms}}$ for $L/D = 7$\relax }{figure.caption.185}{}}
\@writefile{lof}{\contentsline {figure}{\numberline {4.14}{\ignorespaces $\mathit  {u_{rms}}$ for various $\mathit  {L/D}$ at $Re = \num {1e4}$  (scale: $0 \leq u_{rms} \leq \num {1.4e3}$)\relax }}{61}{figure.caption.185}\protected@file@percent }
\newlabel{urms_contour_re1e4}{{4.14}{61}{$\mathit {u_{rms}}$ for various $\mathit {L/D}$ at $Re = \num {1e4}$\\ (scale: $0 \leq u_{rms} \leq \num {1.4e3}$)\relax }{figure.caption.185}{}}
\newlabel{urms_gr1_re2e4}{{4.15a}{62}{$\mathit {u_{rms}}$ for $L/D = 1$\relax }{figure.caption.186}{}}
\newlabel{sub@urms_gr1_re2e4}{{a}{62}{$\mathit {u_{rms}}$ for $L/D = 1$\relax }{figure.caption.186}{}}
\newlabel{urms_gr1.5_re2e4}{{4.15b}{62}{$\mathit {u_{rms}}$ for $L/D = 1.5$\relax }{figure.caption.186}{}}
\newlabel{sub@urms_gr1.5_re2e4}{{b}{62}{$\mathit {u_{rms}}$ for $L/D = 1.5$\relax }{figure.caption.186}{}}
\newlabel{urms_gr2_re2e4}{{4.15c}{62}{$\mathit {u_{rms}}$ for $L/D = 2$\relax }{figure.caption.186}{}}
\newlabel{sub@urms_gr2_re2e4}{{c}{62}{$\mathit {u_{rms}}$ for $L/D = 2$\relax }{figure.caption.186}{}}
\newlabel{urms_gr2.5_re2e4}{{4.15d}{62}{$\mathit {u_{rms}}$ for $L/D = 2.5$\relax }{figure.caption.186}{}}
\newlabel{sub@urms_gr2.5_re2e4}{{d}{62}{$\mathit {u_{rms}}$ for $L/D = 2.5$\relax }{figure.caption.186}{}}
\newlabel{urms_gr3_re2e4}{{4.15e}{62}{$\mathit {u_{rms}}$ for $L/D = 3$\relax }{figure.caption.186}{}}
\newlabel{sub@urms_gr3_re2e4}{{e}{62}{$\mathit {u_{rms}}$ for $L/D = 3$\relax }{figure.caption.186}{}}
\newlabel{urms_gr3.5_re2e4}{{4.15f}{62}{$\mathit {u_{rms}}$ for $L/D = 3.5$\relax }{figure.caption.186}{}}
\newlabel{sub@urms_gr3.5_re2e4}{{f}{62}{$\mathit {u_{rms}}$ for $L/D = 3.5$\relax }{figure.caption.186}{}}
\newlabel{urms_gr4_re2e4}{{4.15g}{62}{$\mathit {u_{rms}}$ for $L/D = 4$\relax }{figure.caption.186}{}}
\newlabel{sub@urms_gr4_re2e4}{{g}{62}{$\mathit {u_{rms}}$ for $L/D = 4$\relax }{figure.caption.186}{}}
\newlabel{urms_gr4.5_re2e4}{{4.15h}{62}{$\mathit {u_{rms}}$ for $L/D = 4.5$\relax }{figure.caption.186}{}}
\newlabel{sub@urms_gr4.5_re2e4}{{h}{62}{$\mathit {u_{rms}}$ for $L/D = 4.5$\relax }{figure.caption.186}{}}
\newlabel{urms_gr5_re2e4}{{4.15i}{62}{$\mathit {u_{rms}}$ for $L/D = 5$\relax }{figure.caption.186}{}}
\newlabel{sub@urms_gr5_re2e4}{{i}{62}{$\mathit {u_{rms}}$ for $L/D = 5$\relax }{figure.caption.186}{}}
\newlabel{urms_gr5.5_re2e4}{{4.15j}{62}{$\mathit {u_{rms}}$ for $L/D = 5.5$\relax }{figure.caption.186}{}}
\newlabel{sub@urms_gr5.5_re2e4}{{j}{62}{$\mathit {u_{rms}}$ for $L/D = 5.5$\relax }{figure.caption.186}{}}
\newlabel{urms_gr6_re2e4}{{4.15k}{62}{$\mathit {u_{rms}}$ for $L/D = 6$\relax }{figure.caption.186}{}}
\newlabel{sub@urms_gr6_re2e4}{{k}{62}{$\mathit {u_{rms}}$ for $L/D = 6$\relax }{figure.caption.186}{}}
\newlabel{urms_gr6.5_re2e4}{{4.15l}{62}{$\mathit {u_{rms}}$ for $L/D = 6.5$\relax }{figure.caption.186}{}}
\newlabel{sub@urms_gr6.5_re2e4}{{l}{62}{$\mathit {u_{rms}}$ for $L/D = 6.5$\relax }{figure.caption.186}{}}
\newlabel{urms_gr7_re2e4}{{4.15m}{62}{$\mathit {u_{rms}}$ for $L/D = 7$\relax }{figure.caption.186}{}}
\newlabel{sub@urms_gr7_re2e4}{{m}{62}{$\mathit {u_{rms}}$ for $L/D = 7$\relax }{figure.caption.186}{}}
\@writefile{lof}{\contentsline {figure}{\numberline {4.15}{\ignorespaces $\mathit  {u_{rms}}$ for various $\mathit  {L/D}$ at $Re = \num {2e4}$  (scale: $0 \leq u_{rms} \leq \num {1.6e3}$)\relax }}{62}{figure.caption.186}\protected@file@percent }
\newlabel{urms_contour_re2e4}{{4.15}{62}{$\mathit {u_{rms}}$ for various $\mathit {L/D}$ at $Re = \num {2e4}$\\ (scale: $0 \leq u_{rms} \leq \num {1.6e3}$)\relax }{figure.caption.186}{}}
\@writefile{toc}{\contentsline {subsection}{\numberline {4.3.2}Normal Velocity Function ($v_{rms}$)}{63}{subsection.187}\protected@file@percent }
\newlabel{vrms_gr1_re100}{{4.16a}{64}{$\mathit {v_{rms}}$ for $L/D = 1$\relax }{figure.caption.188}{}}
\newlabel{sub@vrms_gr1_re100}{{a}{64}{$\mathit {v_{rms}}$ for $L/D = 1$\relax }{figure.caption.188}{}}
\newlabel{vrms_gr1.5_re100}{{4.16b}{64}{$\mathit {v_{rms}}$ for $L/D = 1.5$\relax }{figure.caption.188}{}}
\newlabel{sub@vrms_gr1.5_re100}{{b}{64}{$\mathit {v_{rms}}$ for $L/D = 1.5$\relax }{figure.caption.188}{}}
\newlabel{vrms_gr2_re100}{{4.16c}{64}{$\mathit {v_{rms}}$ for $L/D = 2$\relax }{figure.caption.188}{}}
\newlabel{sub@vrms_gr2_re100}{{c}{64}{$\mathit {v_{rms}}$ for $L/D = 2$\relax }{figure.caption.188}{}}
\newlabel{vrms_gr2.5_re100}{{4.16d}{64}{$\mathit {v_{rms}}$ for $L/D = 2.5$\relax }{figure.caption.188}{}}
\newlabel{sub@vrms_gr2.5_re100}{{d}{64}{$\mathit {v_{rms}}$ for $L/D = 2.5$\relax }{figure.caption.188}{}}
\newlabel{vrms_gr3_re100}{{4.16e}{64}{$\mathit {v_{rms}}$ for $L/D = 3$\relax }{figure.caption.188}{}}
\newlabel{sub@vrms_gr3_re100}{{e}{64}{$\mathit {v_{rms}}$ for $L/D = 3$\relax }{figure.caption.188}{}}
\newlabel{vrms_gr3.5_re100}{{4.16f}{64}{$\mathit {v_{rms}}$ for $L/D = 3.5$\relax }{figure.caption.188}{}}
\newlabel{sub@vrms_gr3.5_re100}{{f}{64}{$\mathit {v_{rms}}$ for $L/D = 3.5$\relax }{figure.caption.188}{}}
\newlabel{vrms_gr4_re100}{{4.16g}{64}{$\mathit {v_{rms}}$ for $L/D = 4$\relax }{figure.caption.188}{}}
\newlabel{sub@vrms_gr4_re100}{{g}{64}{$\mathit {v_{rms}}$ for $L/D = 4$\relax }{figure.caption.188}{}}
\newlabel{vrms_gr4.5_re100}{{4.16h}{64}{$\mathit {v_{rms}}$ for $L/D = 4.5$\relax }{figure.caption.188}{}}
\newlabel{sub@vrms_gr4.5_re100}{{h}{64}{$\mathit {v_{rms}}$ for $L/D = 4.5$\relax }{figure.caption.188}{}}
\newlabel{vrms_gr5_re100}{{4.16i}{64}{$\mathit {v_{rms}}$ for $L/D = 5$\relax }{figure.caption.188}{}}
\newlabel{sub@vrms_gr5_re100}{{i}{64}{$\mathit {v_{rms}}$ for $L/D = 5$\relax }{figure.caption.188}{}}
\newlabel{vrms_gr5.5_re100}{{4.16j}{64}{$\mathit {v_{rms}}$ for $L/D = 5.5$\relax }{figure.caption.188}{}}
\newlabel{sub@vrms_gr5.5_re100}{{j}{64}{$\mathit {v_{rms}}$ for $L/D = 5.5$\relax }{figure.caption.188}{}}
\newlabel{vrms_gr6_re100}{{4.16k}{64}{$\mathit {v_{rms}}$ for $L/D = 6$\relax }{figure.caption.188}{}}
\newlabel{sub@vrms_gr6_re100}{{k}{64}{$\mathit {v_{rms}}$ for $L/D = 6$\relax }{figure.caption.188}{}}
\newlabel{vrms_gr6.5_re100}{{4.16l}{64}{$\mathit {v_{rms}}$ for $L/D = 6.5$\relax }{figure.caption.188}{}}
\newlabel{sub@vrms_gr6.5_re100}{{l}{64}{$\mathit {v_{rms}}$ for $L/D = 6.5$\relax }{figure.caption.188}{}}
\newlabel{vrms_gr7_re100}{{4.16m}{64}{$\mathit {v_{rms}}$ for $L/D = 7$\relax }{figure.caption.188}{}}
\newlabel{sub@vrms_gr7_re100}{{m}{64}{$\mathit {v_{rms}}$ for $L/D = 7$\relax }{figure.caption.188}{}}
\@writefile{lof}{\contentsline {figure}{\numberline {4.16}{\ignorespaces $\mathit  {v_{rms}}$ for various $\mathit  {L/D}$ at $Re = 100$  (scale: $0 \leq v_{rms} \leq 600$)\relax }}{64}{figure.caption.188}\protected@file@percent }
\newlabel{vrms_contour_re100}{{4.16}{64}{$\mathit {v_{rms}}$ for various $\mathit {L/D}$ at $Re = 100$\\ (scale: $0 \leq v_{rms} \leq 600$)\relax }{figure.caption.188}{}}
\newlabel{vrms_gr1_re1e3}{{4.17a}{65}{$\mathit {v_{rms}}$ for $L/D = 1$\relax }{figure.caption.189}{}}
\newlabel{sub@vrms_gr1_re1e3}{{a}{65}{$\mathit {v_{rms}}$ for $L/D = 1$\relax }{figure.caption.189}{}}
\newlabel{vrms_gr1.5_re1e3}{{4.17b}{65}{$\mathit {v_{rms}}$ for $L/D = 1.5$\relax }{figure.caption.189}{}}
\newlabel{sub@vrms_gr1.5_re1e3}{{b}{65}{$\mathit {v_{rms}}$ for $L/D = 1.5$\relax }{figure.caption.189}{}}
\newlabel{vrms_gr2_re1e3}{{4.17c}{65}{$\mathit {v_{rms}}$ for $L/D = 2$\relax }{figure.caption.189}{}}
\newlabel{sub@vrms_gr2_re1e3}{{c}{65}{$\mathit {v_{rms}}$ for $L/D = 2$\relax }{figure.caption.189}{}}
\newlabel{vrms_gr2.5_re1e3}{{4.17d}{65}{$\mathit {v_{rms}}$ for $L/D = 2.5$\relax }{figure.caption.189}{}}
\newlabel{sub@vrms_gr2.5_re1e3}{{d}{65}{$\mathit {v_{rms}}$ for $L/D = 2.5$\relax }{figure.caption.189}{}}
\newlabel{vrms_gr3_re1e3}{{4.17e}{65}{$\mathit {v_{rms}}$ for $L/D = 3$\relax }{figure.caption.189}{}}
\newlabel{sub@vrms_gr3_re1e3}{{e}{65}{$\mathit {v_{rms}}$ for $L/D = 3$\relax }{figure.caption.189}{}}
\newlabel{vrms_gr3.5_re1e3}{{4.17f}{65}{$\mathit {v_{rms}}$ for $L/D = 3.5$\relax }{figure.caption.189}{}}
\newlabel{sub@vrms_gr3.5_re1e3}{{f}{65}{$\mathit {v_{rms}}$ for $L/D = 3.5$\relax }{figure.caption.189}{}}
\newlabel{vrms_gr4_re1e3}{{4.17g}{65}{$\mathit {v_{rms}}$ for $L/D = 4$\relax }{figure.caption.189}{}}
\newlabel{sub@vrms_gr4_re1e3}{{g}{65}{$\mathit {v_{rms}}$ for $L/D = 4$\relax }{figure.caption.189}{}}
\newlabel{vrms_gr4.5_re1e3}{{4.17h}{65}{$\mathit {v_{rms}}$ for $L/D = 4.5$\relax }{figure.caption.189}{}}
\newlabel{sub@vrms_gr4.5_re1e3}{{h}{65}{$\mathit {v_{rms}}$ for $L/D = 4.5$\relax }{figure.caption.189}{}}
\newlabel{vrms_gr5_re1e3}{{4.17i}{65}{$\mathit {v_{rms}}$ for $L/D = 5$\relax }{figure.caption.189}{}}
\newlabel{sub@vrms_gr5_re1e3}{{i}{65}{$\mathit {v_{rms}}$ for $L/D = 5$\relax }{figure.caption.189}{}}
\newlabel{vrms_gr5.5_re1e3}{{4.17j}{65}{$\mathit {v_{rms}}$ for $L/D = 5.5$\relax }{figure.caption.189}{}}
\newlabel{sub@vrms_gr5.5_re1e3}{{j}{65}{$\mathit {v_{rms}}$ for $L/D = 5.5$\relax }{figure.caption.189}{}}
\newlabel{vrms_gr6_re1e3}{{4.17k}{65}{$\mathit {v_{rms}}$ for $L/D = 6$\relax }{figure.caption.189}{}}
\newlabel{sub@vrms_gr6_re1e3}{{k}{65}{$\mathit {v_{rms}}$ for $L/D = 6$\relax }{figure.caption.189}{}}
\newlabel{vrms_gr6.5_re1e3}{{4.17l}{65}{$\mathit {v_{rms}}$ for $L/D = 6.5$\relax }{figure.caption.189}{}}
\newlabel{sub@vrms_gr6.5_re1e3}{{l}{65}{$\mathit {v_{rms}}$ for $L/D = 6.5$\relax }{figure.caption.189}{}}
\newlabel{vrms_gr7_re1e3}{{4.17m}{65}{$\mathit {v_{rms}}$ for $L/D = 7$\relax }{figure.caption.189}{}}
\newlabel{sub@vrms_gr7_re1e3}{{m}{65}{$\mathit {v_{rms}}$ for $L/D = 7$\relax }{figure.caption.189}{}}
\@writefile{lof}{\contentsline {figure}{\numberline {4.17}{\ignorespaces $\mathit  {v_{rms}}$ for various $\mathit  {L/D}$ at $Re = \num {1e3}$  (scale: $0 \leq v_{rms} \leq \num {2.7e3}$)\relax }}{65}{figure.caption.189}\protected@file@percent }
\newlabel{vrms_contour_re1e3}{{4.17}{65}{$\mathit {v_{rms}}$ for various $\mathit {L/D}$ at $Re = \num {1e3}$\\ (scale: $0 \leq v_{rms} \leq \num {2.7e3}$)\relax }{figure.caption.189}{}}
\newlabel{vrms_gr1_re5e3}{{4.18a}{66}{$\mathit {v_{rms}}$ for $L/D = 1$\relax }{figure.caption.190}{}}
\newlabel{sub@vrms_gr1_re5e3}{{a}{66}{$\mathit {v_{rms}}$ for $L/D = 1$\relax }{figure.caption.190}{}}
\newlabel{vrms_gr1.5_re5e3}{{4.18b}{66}{$\mathit {v_{rms}}$ for $L/D = 1.5$\relax }{figure.caption.190}{}}
\newlabel{sub@vrms_gr1.5_re5e3}{{b}{66}{$\mathit {v_{rms}}$ for $L/D = 1.5$\relax }{figure.caption.190}{}}
\newlabel{vrms_gr2_re5e3}{{4.18c}{66}{$\mathit {v_{rms}}$ for $L/D = 2$\relax }{figure.caption.190}{}}
\newlabel{sub@vrms_gr2_re5e3}{{c}{66}{$\mathit {v_{rms}}$ for $L/D = 2$\relax }{figure.caption.190}{}}
\newlabel{vrms_gr2.5_re5e3}{{4.18d}{66}{$\mathit {v_{rms}}$ for $L/D = 2.5$\relax }{figure.caption.190}{}}
\newlabel{sub@vrms_gr2.5_re5e3}{{d}{66}{$\mathit {v_{rms}}$ for $L/D = 2.5$\relax }{figure.caption.190}{}}
\newlabel{vrms_gr3_re5e3}{{4.18e}{66}{$\mathit {v_{rms}}$ for $L/D = 3$\relax }{figure.caption.190}{}}
\newlabel{sub@vrms_gr3_re5e3}{{e}{66}{$\mathit {v_{rms}}$ for $L/D = 3$\relax }{figure.caption.190}{}}
\newlabel{vrms_gr3.5_re5e3}{{4.18f}{66}{$\mathit {v_{rms}}$ for $L/D = 3.5$\relax }{figure.caption.190}{}}
\newlabel{sub@vrms_gr3.5_re5e3}{{f}{66}{$\mathit {v_{rms}}$ for $L/D = 3.5$\relax }{figure.caption.190}{}}
\newlabel{vrms_gr4_re5e3}{{4.18g}{66}{$\mathit {v_{rms}}$ for $L/D = 4$\relax }{figure.caption.190}{}}
\newlabel{sub@vrms_gr4_re5e3}{{g}{66}{$\mathit {v_{rms}}$ for $L/D = 4$\relax }{figure.caption.190}{}}
\newlabel{vrms_gr4.5_re5e3}{{4.18h}{66}{$\mathit {v_{rms}}$ for $L/D = 4.5$\relax }{figure.caption.190}{}}
\newlabel{sub@vrms_gr4.5_re5e3}{{h}{66}{$\mathit {v_{rms}}$ for $L/D = 4.5$\relax }{figure.caption.190}{}}
\newlabel{vrms_gr5_re5e3}{{4.18i}{66}{$\mathit {v_{rms}}$ for $L/D = 5$\relax }{figure.caption.190}{}}
\newlabel{sub@vrms_gr5_re5e3}{{i}{66}{$\mathit {v_{rms}}$ for $L/D = 5$\relax }{figure.caption.190}{}}
\newlabel{vrms_gr5.5_re5e3}{{4.18j}{66}{$\mathit {v_{rms}}$ for $L/D = 5.5$\relax }{figure.caption.190}{}}
\newlabel{sub@vrms_gr5.5_re5e3}{{j}{66}{$\mathit {v_{rms}}$ for $L/D = 5.5$\relax }{figure.caption.190}{}}
\newlabel{vrms_gr6_re5e3}{{4.18k}{66}{$\mathit {v_{rms}}$ for $L/D = 6$\relax }{figure.caption.190}{}}
\newlabel{sub@vrms_gr6_re5e3}{{k}{66}{$\mathit {v_{rms}}$ for $L/D = 6$\relax }{figure.caption.190}{}}
\newlabel{vrms_gr6.5_re5e3}{{4.18l}{66}{$\mathit {v_{rms}}$ for $L/D = 6.5$\relax }{figure.caption.190}{}}
\newlabel{sub@vrms_gr6.5_re5e3}{{l}{66}{$\mathit {v_{rms}}$ for $L/D = 6.5$\relax }{figure.caption.190}{}}
\newlabel{vrms_gr7_re5e3}{{4.18m}{66}{$\mathit {v_{rms}}$ for $L/D = 7$\relax }{figure.caption.190}{}}
\newlabel{sub@vrms_gr7_re5e3}{{m}{66}{$\mathit {v_{rms}}$ for $L/D = 7$\relax }{figure.caption.190}{}}
\@writefile{lof}{\contentsline {figure}{\numberline {4.18}{\ignorespaces $\mathit  {v_{rms}}$ for various $\mathit  {L/D}$ at $Re = \num {5e3}$  (scale: $0 \leq v_{rms} \leq \num {2.6e3}$)\relax }}{66}{figure.caption.190}\protected@file@percent }
\newlabel{vrms_contour_re5e3}{{4.18}{66}{$\mathit {v_{rms}}$ for various $\mathit {L/D}$ at $Re = \num {5e3}$\\ (scale: $0 \leq v_{rms} \leq \num {2.6e3}$)\relax }{figure.caption.190}{}}
\newlabel{vrms_gr1_re1e4}{{4.19a}{67}{$\mathit {v_{rms}}$ for $L/D = 1$\relax }{figure.caption.191}{}}
\newlabel{sub@vrms_gr1_re1e4}{{a}{67}{$\mathit {v_{rms}}$ for $L/D = 1$\relax }{figure.caption.191}{}}
\newlabel{vrms_gr1.5_re1e4}{{4.19b}{67}{$\mathit {v_{rms}}$ for $L/D = 1.5$\relax }{figure.caption.191}{}}
\newlabel{sub@vrms_gr1.5_re1e4}{{b}{67}{$\mathit {v_{rms}}$ for $L/D = 1.5$\relax }{figure.caption.191}{}}
\newlabel{vrms_gr2_re1e4}{{4.19c}{67}{$\mathit {v_{rms}}$ for $L/D = 2$\relax }{figure.caption.191}{}}
\newlabel{sub@vrms_gr2_re1e4}{{c}{67}{$\mathit {v_{rms}}$ for $L/D = 2$\relax }{figure.caption.191}{}}
\newlabel{vrms_gr2.5_re1e4}{{4.19d}{67}{$\mathit {v_{rms}}$ for $L/D = 2.5$\relax }{figure.caption.191}{}}
\newlabel{sub@vrms_gr2.5_re1e4}{{d}{67}{$\mathit {v_{rms}}$ for $L/D = 2.5$\relax }{figure.caption.191}{}}
\newlabel{vrms_gr3_re1e4}{{4.19e}{67}{$\mathit {v_{rms}}$ for $L/D = 3$\relax }{figure.caption.191}{}}
\newlabel{sub@vrms_gr3_re1e4}{{e}{67}{$\mathit {v_{rms}}$ for $L/D = 3$\relax }{figure.caption.191}{}}
\newlabel{vrms_gr3.5_re1e4}{{4.19f}{67}{$\mathit {v_{rms}}$ for $L/D = 3.5$\relax }{figure.caption.191}{}}
\newlabel{sub@vrms_gr3.5_re1e4}{{f}{67}{$\mathit {v_{rms}}$ for $L/D = 3.5$\relax }{figure.caption.191}{}}
\newlabel{vrms_gr4_re1e4}{{4.19g}{67}{$\mathit {v_{rms}}$ for $L/D = 4$\relax }{figure.caption.191}{}}
\newlabel{sub@vrms_gr4_re1e4}{{g}{67}{$\mathit {v_{rms}}$ for $L/D = 4$\relax }{figure.caption.191}{}}
\newlabel{vrms_gr4.5_re1e4}{{4.19h}{67}{$\mathit {v_{rms}}$ for $L/D = 4.5$\relax }{figure.caption.191}{}}
\newlabel{sub@vrms_gr4.5_re1e4}{{h}{67}{$\mathit {v_{rms}}$ for $L/D = 4.5$\relax }{figure.caption.191}{}}
\newlabel{vrms_gr5_re1e4}{{4.19i}{67}{$\mathit {v_{rms}}$ for $L/D = 5$\relax }{figure.caption.191}{}}
\newlabel{sub@vrms_gr5_re1e4}{{i}{67}{$\mathit {v_{rms}}$ for $L/D = 5$\relax }{figure.caption.191}{}}
\newlabel{vrms_gr5.5_re1e4}{{4.19j}{67}{$\mathit {v_{rms}}$ for $L/D = 5.5$\relax }{figure.caption.191}{}}
\newlabel{sub@vrms_gr5.5_re1e4}{{j}{67}{$\mathit {v_{rms}}$ for $L/D = 5.5$\relax }{figure.caption.191}{}}
\newlabel{vrms_gr6_re1e4}{{4.19k}{67}{$\mathit {v_{rms}}$ for $L/D = 6$\relax }{figure.caption.191}{}}
\newlabel{sub@vrms_gr6_re1e4}{{k}{67}{$\mathit {v_{rms}}$ for $L/D = 6$\relax }{figure.caption.191}{}}
\newlabel{vrms_gr6.5_re1e4}{{4.19l}{67}{$\mathit {v_{rms}}$ for $L/D = 6.5$\relax }{figure.caption.191}{}}
\newlabel{sub@vrms_gr6.5_re1e4}{{l}{67}{$\mathit {v_{rms}}$ for $L/D = 6.5$\relax }{figure.caption.191}{}}
\newlabel{vrms_gr7_re1e4}{{4.19m}{67}{$\mathit {v_{rms}}$ for $L/D = 7$\relax }{figure.caption.191}{}}
\newlabel{sub@vrms_gr7_re1e4}{{m}{67}{$\mathit {v_{rms}}$ for $L/D = 7$\relax }{figure.caption.191}{}}
\@writefile{lof}{\contentsline {figure}{\numberline {4.19}{\ignorespaces $\mathit  {v_{rms}}$ for various $\mathit  {L/D}$ at $Re = \num {1e4}$  (scale: $0 \leq v_{rms} \leq \num {2.8e3}$)\relax }}{67}{figure.caption.191}\protected@file@percent }
\newlabel{vrms_contour_re1e4}{{4.19}{67}{$\mathit {v_{rms}}$ for various $\mathit {L/D}$ at $Re = \num {1e4}$\\ (scale: $0 \leq v_{rms} \leq \num {2.8e3}$)\relax }{figure.caption.191}{}}
\newlabel{vrms_gr1_re2e4}{{4.20a}{68}{$\mathit {v_{rms}}$ for $L/D = 1$\relax }{figure.caption.192}{}}
\newlabel{sub@vrms_gr1_re2e4}{{a}{68}{$\mathit {v_{rms}}$ for $L/D = 1$\relax }{figure.caption.192}{}}
\newlabel{vrms_gr1.5_re2e4}{{4.20b}{68}{$\mathit {v_{rms}}$ for $L/D = 1.5$\relax }{figure.caption.192}{}}
\newlabel{sub@vrms_gr1.5_re2e4}{{b}{68}{$\mathit {v_{rms}}$ for $L/D = 1.5$\relax }{figure.caption.192}{}}
\newlabel{vrms_gr2_re2e4}{{4.20c}{68}{$\mathit {v_{rms}}$ for $L/D = 2$\relax }{figure.caption.192}{}}
\newlabel{sub@vrms_gr2_re2e4}{{c}{68}{$\mathit {v_{rms}}$ for $L/D = 2$\relax }{figure.caption.192}{}}
\newlabel{vrms_gr2.5_re2e4}{{4.20d}{68}{$\mathit {v_{rms}}$ for $L/D = 2.5$\relax }{figure.caption.192}{}}
\newlabel{sub@vrms_gr2.5_re2e4}{{d}{68}{$\mathit {v_{rms}}$ for $L/D = 2.5$\relax }{figure.caption.192}{}}
\newlabel{vrms_gr3_re2e4}{{4.20e}{68}{$\mathit {v_{rms}}$ for $L/D = 3$\relax }{figure.caption.192}{}}
\newlabel{sub@vrms_gr3_re2e4}{{e}{68}{$\mathit {v_{rms}}$ for $L/D = 3$\relax }{figure.caption.192}{}}
\newlabel{vrms_gr3.5_re2e4}{{4.20f}{68}{$\mathit {v_{rms}}$ for $L/D = 3.5$\relax }{figure.caption.192}{}}
\newlabel{sub@vrms_gr3.5_re2e4}{{f}{68}{$\mathit {v_{rms}}$ for $L/D = 3.5$\relax }{figure.caption.192}{}}
\newlabel{vrms_gr4_re2e4}{{4.20g}{68}{$\mathit {v_{rms}}$ for $L/D = 4$\relax }{figure.caption.192}{}}
\newlabel{sub@vrms_gr4_re2e4}{{g}{68}{$\mathit {v_{rms}}$ for $L/D = 4$\relax }{figure.caption.192}{}}
\newlabel{vrms_gr4.5_re2e4}{{4.20h}{68}{$\mathit {v_{rms}}$ for $L/D = 4.5$\relax }{figure.caption.192}{}}
\newlabel{sub@vrms_gr4.5_re2e4}{{h}{68}{$\mathit {v_{rms}}$ for $L/D = 4.5$\relax }{figure.caption.192}{}}
\newlabel{vrms_gr5_re2e4}{{4.20i}{68}{$\mathit {v_{rms}}$ for $L/D = 5$\relax }{figure.caption.192}{}}
\newlabel{sub@vrms_gr5_re2e4}{{i}{68}{$\mathit {v_{rms}}$ for $L/D = 5$\relax }{figure.caption.192}{}}
\newlabel{vrms_gr5.5_re2e4}{{4.20j}{68}{$\mathit {v_{rms}}$ for $L/D = 5.5$\relax }{figure.caption.192}{}}
\newlabel{sub@vrms_gr5.5_re2e4}{{j}{68}{$\mathit {v_{rms}}$ for $L/D = 5.5$\relax }{figure.caption.192}{}}
\newlabel{vrms_gr6_re2e4}{{4.20k}{68}{$\mathit {v_{rms}}$ for $L/D = 6$\relax }{figure.caption.192}{}}
\newlabel{sub@vrms_gr6_re2e4}{{k}{68}{$\mathit {v_{rms}}$ for $L/D = 6$\relax }{figure.caption.192}{}}
\newlabel{vrms_gr6.5_re2e4}{{4.20l}{68}{$\mathit {v_{rms}}$ for $L/D = 6.5$\relax }{figure.caption.192}{}}
\newlabel{sub@vrms_gr6.5_re2e4}{{l}{68}{$\mathit {v_{rms}}$ for $L/D = 6.5$\relax }{figure.caption.192}{}}
\newlabel{vrms_gr7_re2e4}{{4.20m}{68}{$\mathit {v_{rms}}$ for $L/D = 7$\relax }{figure.caption.192}{}}
\newlabel{sub@vrms_gr7_re2e4}{{m}{68}{$\mathit {v_{rms}}$ for $L/D = 7$\relax }{figure.caption.192}{}}
\@writefile{lof}{\contentsline {figure}{\numberline {4.20}{\ignorespaces $\mathit  {v_{rms}}$ for various $\mathit  {L/D}$ at $Re = \num {2e4}$ (scale: $0 \leq v_{rms} \leq \num {2.9e3}$)\relax }}{68}{figure.caption.192}\protected@file@percent }
\newlabel{vrms_contour_re2e4}{{4.20}{68}{$\mathit {v_{rms}}$ for various $\mathit {L/D}$ at $Re = \num {2e4}$ (scale: $0 \leq v_{rms} \leq \num {2.9e3}$)\relax }{figure.caption.192}{}}
\@writefile{toc}{\contentsline {section}{\numberline {4.4}Pressure Distribution}{69}{section.193}\protected@file@percent }
\newlabel{p_gr1_re100}{{4.21a}{70}{$p/\rho $ for $L/D = 1$\relax }{figure.caption.194}{}}
\newlabel{sub@p_gr1_re100}{{a}{70}{$p/\rho $ for $L/D = 1$\relax }{figure.caption.194}{}}
\newlabel{p_gr1.5_re100}{{4.21b}{70}{$p/\rho $ for $L/D = 1.5$\relax }{figure.caption.194}{}}
\newlabel{sub@p_gr1.5_re100}{{b}{70}{$p/\rho $ for $L/D = 1.5$\relax }{figure.caption.194}{}}
\newlabel{p_gr2_re100}{{4.21c}{70}{$p/\rho $ for $L/D = 2$\relax }{figure.caption.194}{}}
\newlabel{sub@p_gr2_re100}{{c}{70}{$p/\rho $ for $L/D = 2$\relax }{figure.caption.194}{}}
\newlabel{p_gr2.5_re100}{{4.21d}{70}{$p/\rho $ for $L/D = 2.5$\relax }{figure.caption.194}{}}
\newlabel{sub@p_gr2.5_re100}{{d}{70}{$p/\rho $ for $L/D = 2.5$\relax }{figure.caption.194}{}}
\newlabel{p_gr3_re100}{{4.21e}{70}{$p/\rho $ for $L/D = 3$\relax }{figure.caption.194}{}}
\newlabel{sub@p_gr3_re100}{{e}{70}{$p/\rho $ for $L/D = 3$\relax }{figure.caption.194}{}}
\newlabel{p_gr3.5_re100}{{4.21f}{70}{$p/\rho $ for $L/D = 3.5$\relax }{figure.caption.194}{}}
\newlabel{sub@p_gr3.5_re100}{{f}{70}{$p/\rho $ for $L/D = 3.5$\relax }{figure.caption.194}{}}
\newlabel{p_gr4_re100}{{4.21g}{70}{$p/\rho $ for $L/D = 4$\relax }{figure.caption.194}{}}
\newlabel{sub@p_gr4_re100}{{g}{70}{$p/\rho $ for $L/D = 4$\relax }{figure.caption.194}{}}
\newlabel{p_gr4.5_re100}{{4.21h}{70}{$p/\rho $ for $L/D = 4.5$\relax }{figure.caption.194}{}}
\newlabel{sub@p_gr4.5_re100}{{h}{70}{$p/\rho $ for $L/D = 4.5$\relax }{figure.caption.194}{}}
\newlabel{p_gr5_re100}{{4.21i}{70}{$p/\rho $ for $L/D = 5$\relax }{figure.caption.194}{}}
\newlabel{sub@p_gr5_re100}{{i}{70}{$p/\rho $ for $L/D = 5$\relax }{figure.caption.194}{}}
\newlabel{p_gr5.5_re100}{{4.21j}{70}{$p/\rho $ for $L/D = 5.5$\relax }{figure.caption.194}{}}
\newlabel{sub@p_gr5.5_re100}{{j}{70}{$p/\rho $ for $L/D = 5.5$\relax }{figure.caption.194}{}}
\newlabel{p_gr6_re100}{{4.21k}{70}{$p/\rho $ for $L/D = 6$\relax }{figure.caption.194}{}}
\newlabel{sub@p_gr6_re100}{{k}{70}{$p/\rho $ for $L/D = 6$\relax }{figure.caption.194}{}}
\newlabel{p_gr6.5_re100}{{4.21l}{70}{$p/\rho $ for $L/D = 6.5$\relax }{figure.caption.194}{}}
\newlabel{sub@p_gr6.5_re100}{{l}{70}{$p/\rho $ for $L/D = 6.5$\relax }{figure.caption.194}{}}
\newlabel{p_gr7_re100}{{4.21m}{70}{$p/\rho $ for $L/D = 7$\relax }{figure.caption.194}{}}
\newlabel{sub@p_gr7_re100}{{m}{70}{$p/\rho $ for $L/D = 7$\relax }{figure.caption.194}{}}
\@writefile{lof}{\contentsline {figure}{\numberline {4.21}{\ignorespaces p for various $\mathit  {L/D}$ at $Re = 100$  (scale: $\num {-2.7e3} \leq p \leq \num {1.6e3}$)\relax }}{70}{figure.caption.194}\protected@file@percent }
\newlabel{p_contour_re100}{{4.21}{70}{p for various $\mathit {L/D}$ at $Re = 100$\\ (scale: $\num {-2.7e3} \leq p \leq \num {1.6e3}$)\relax }{figure.caption.194}{}}
\newlabel{p_gr1_re1e3}{{4.22a}{71}{$p/\rho $ for $L/D = 1$\relax }{figure.caption.195}{}}
\newlabel{sub@p_gr1_re1e3}{{a}{71}{$p/\rho $ for $L/D = 1$\relax }{figure.caption.195}{}}
\newlabel{p_gr1.5_re1e3}{{4.22b}{71}{$p/\rho $ for $L/D = 1.5$\relax }{figure.caption.195}{}}
\newlabel{sub@p_gr1.5_re1e3}{{b}{71}{$p/\rho $ for $L/D = 1.5$\relax }{figure.caption.195}{}}
\newlabel{p_gr2_re1e3}{{4.22c}{71}{$p/\rho $ for $L/D = 2$\relax }{figure.caption.195}{}}
\newlabel{sub@p_gr2_re1e3}{{c}{71}{$p/\rho $ for $L/D = 2$\relax }{figure.caption.195}{}}
\newlabel{p_gr2.5_re1e3}{{4.22d}{71}{$p/\rho $ for $L/D = 2.5$\relax }{figure.caption.195}{}}
\newlabel{sub@p_gr2.5_re1e3}{{d}{71}{$p/\rho $ for $L/D = 2.5$\relax }{figure.caption.195}{}}
\newlabel{p_gr3_re1e3}{{4.22e}{71}{$p/\rho $ for $L/D = 3$\relax }{figure.caption.195}{}}
\newlabel{sub@p_gr3_re1e3}{{e}{71}{$p/\rho $ for $L/D = 3$\relax }{figure.caption.195}{}}
\newlabel{p_gr3.5_re1e3}{{4.22f}{71}{$p/\rho $ for $L/D = 3.5$\relax }{figure.caption.195}{}}
\newlabel{sub@p_gr3.5_re1e3}{{f}{71}{$p/\rho $ for $L/D = 3.5$\relax }{figure.caption.195}{}}
\newlabel{p_gr4_re1e3}{{4.22g}{71}{$p/\rho $ for $L/D = 4$\relax }{figure.caption.195}{}}
\newlabel{sub@p_gr4_re1e3}{{g}{71}{$p/\rho $ for $L/D = 4$\relax }{figure.caption.195}{}}
\newlabel{p_gr4.5_re1e3}{{4.22h}{71}{$p/\rho $ for $L/D = 4.5$\relax }{figure.caption.195}{}}
\newlabel{sub@p_gr4.5_re1e3}{{h}{71}{$p/\rho $ for $L/D = 4.5$\relax }{figure.caption.195}{}}
\newlabel{p_gr5_re1e3}{{4.22i}{71}{$p/\rho $ for $L/D = 5$\relax }{figure.caption.195}{}}
\newlabel{sub@p_gr5_re1e3}{{i}{71}{$p/\rho $ for $L/D = 5$\relax }{figure.caption.195}{}}
\newlabel{p_gr5.5_re1e3}{{4.22j}{71}{$p/\rho $ for $L/D = 5.5$\relax }{figure.caption.195}{}}
\newlabel{sub@p_gr5.5_re1e3}{{j}{71}{$p/\rho $ for $L/D = 5.5$\relax }{figure.caption.195}{}}
\newlabel{p_gr6_re1e3}{{4.22k}{71}{$p/\rho $ for $L/D = 6$\relax }{figure.caption.195}{}}
\newlabel{sub@p_gr6_re1e3}{{k}{71}{$p/\rho $ for $L/D = 6$\relax }{figure.caption.195}{}}
\newlabel{p_gr6.5_re1e3}{{4.22l}{71}{$p/\rho $ for $L/D = 6.5$\relax }{figure.caption.195}{}}
\newlabel{sub@p_gr6.5_re1e3}{{l}{71}{$p/\rho $ for $L/D = 6.5$\relax }{figure.caption.195}{}}
\newlabel{p_gr7_re1e3}{{4.22m}{71}{$p/\rho $ for $L/D = 7$\relax }{figure.caption.195}{}}
\newlabel{sub@p_gr7_re1e3}{{m}{71}{$p/\rho $ for $L/D = 7$\relax }{figure.caption.195}{}}
\@writefile{lof}{\contentsline {figure}{\numberline {4.22}{\ignorespaces p for various $\mathit  {L/D}$ at $Re = \num {1e3}$  (scale: $\num {-5.4e3} \leq p \leq \num {1.6e3}$)\relax }}{71}{figure.caption.195}\protected@file@percent }
\newlabel{p_contour_re1e3}{{4.22}{71}{p for various $\mathit {L/D}$ at $Re = \num {1e3}$\\ (scale: $\num {-5.4e3} \leq p \leq \num {1.6e3}$)\relax }{figure.caption.195}{}}
\newlabel{p_gr1_re5e3}{{4.23a}{72}{$p/\rho $ for $L/D = 1$\relax }{figure.caption.196}{}}
\newlabel{sub@p_gr1_re5e3}{{a}{72}{$p/\rho $ for $L/D = 1$\relax }{figure.caption.196}{}}
\newlabel{p_gr1.5_re5e3}{{4.23b}{72}{$p/\rho $ for $L/D = 1.5$\relax }{figure.caption.196}{}}
\newlabel{sub@p_gr1.5_re5e3}{{b}{72}{$p/\rho $ for $L/D = 1.5$\relax }{figure.caption.196}{}}
\newlabel{p_gr2_re5e3}{{4.23c}{72}{$p/\rho $ for $L/D = 2$\relax }{figure.caption.196}{}}
\newlabel{sub@p_gr2_re5e3}{{c}{72}{$p/\rho $ for $L/D = 2$\relax }{figure.caption.196}{}}
\newlabel{p_gr2.5_re5e3}{{4.23d}{72}{$p/\rho $ for $L/D = 2.5$\relax }{figure.caption.196}{}}
\newlabel{sub@p_gr2.5_re5e3}{{d}{72}{$p/\rho $ for $L/D = 2.5$\relax }{figure.caption.196}{}}
\newlabel{p_gr3_re5e3}{{4.23e}{72}{$p/\rho $ for $L/D = 3$\relax }{figure.caption.196}{}}
\newlabel{sub@p_gr3_re5e3}{{e}{72}{$p/\rho $ for $L/D = 3$\relax }{figure.caption.196}{}}
\newlabel{p_gr3.5_re5e3}{{4.23f}{72}{$p/\rho $ for $L/D = 3.5$\relax }{figure.caption.196}{}}
\newlabel{sub@p_gr3.5_re5e3}{{f}{72}{$p/\rho $ for $L/D = 3.5$\relax }{figure.caption.196}{}}
\newlabel{p_gr4_re5e3}{{4.23g}{72}{$p/\rho $ for $L/D = 4$\relax }{figure.caption.196}{}}
\newlabel{sub@p_gr4_re5e3}{{g}{72}{$p/\rho $ for $L/D = 4$\relax }{figure.caption.196}{}}
\newlabel{p_gr4.5_re5e3}{{4.23h}{72}{$p/\rho $ for $L/D = 4.5$\relax }{figure.caption.196}{}}
\newlabel{sub@p_gr4.5_re5e3}{{h}{72}{$p/\rho $ for $L/D = 4.5$\relax }{figure.caption.196}{}}
\newlabel{p_gr5_re5e3}{{4.23i}{72}{$p/\rho $ for $L/D = 5$\relax }{figure.caption.196}{}}
\newlabel{sub@p_gr5_re5e3}{{i}{72}{$p/\rho $ for $L/D = 5$\relax }{figure.caption.196}{}}
\newlabel{p_gr5.5_re5e3}{{4.23j}{72}{$p/\rho $ for $L/D = 5.5$\relax }{figure.caption.196}{}}
\newlabel{sub@p_gr5.5_re5e3}{{j}{72}{$p/\rho $ for $L/D = 5.5$\relax }{figure.caption.196}{}}
\newlabel{p_gr6_re5e3}{{4.23k}{72}{$p/\rho $ for $L/D = 6$\relax }{figure.caption.196}{}}
\newlabel{sub@p_gr6_re5e3}{{k}{72}{$p/\rho $ for $L/D = 6$\relax }{figure.caption.196}{}}
\newlabel{p_gr6.5_re5e3}{{4.23l}{72}{$p/\rho $ for $L/D = 6.5$\relax }{figure.caption.196}{}}
\newlabel{sub@p_gr6.5_re5e3}{{l}{72}{$p/\rho $ for $L/D = 6.5$\relax }{figure.caption.196}{}}
\newlabel{p_gr7_re5e3}{{4.23m}{72}{$p/\rho $ for $L/D = 7$\relax }{figure.caption.196}{}}
\newlabel{sub@p_gr7_re5e3}{{m}{72}{$p/\rho $ for $L/D = 7$\relax }{figure.caption.196}{}}
\@writefile{lof}{\contentsline {figure}{\numberline {4.23}{\ignorespaces p for various $\mathit  {L/D}$ at $Re = \num {5e3}$  (scale: $\num {-4.9e3} \leq p \leq \num {1.7e3}$)\relax }}{72}{figure.caption.196}\protected@file@percent }
\newlabel{p_contour_re5e3}{{4.23}{72}{p for various $\mathit {L/D}$ at $Re = \num {5e3}$\\ (scale: $\num {-4.9e3} \leq p \leq \num {1.7e3}$)\relax }{figure.caption.196}{}}
\newlabel{p_gr1_re1e4}{{4.24a}{73}{$p/\rho $ for $L/D = 1$\relax }{figure.caption.197}{}}
\newlabel{sub@p_gr1_re1e4}{{a}{73}{$p/\rho $ for $L/D = 1$\relax }{figure.caption.197}{}}
\newlabel{p_gr1.5_re1e4}{{4.24b}{73}{$p/\rho $ for $L/D = 1.5$\relax }{figure.caption.197}{}}
\newlabel{sub@p_gr1.5_re1e4}{{b}{73}{$p/\rho $ for $L/D = 1.5$\relax }{figure.caption.197}{}}
\newlabel{p_gr2_re1e4}{{4.24c}{73}{$p/\rho $ for $L/D = 2$\relax }{figure.caption.197}{}}
\newlabel{sub@p_gr2_re1e4}{{c}{73}{$p/\rho $ for $L/D = 2$\relax }{figure.caption.197}{}}
\newlabel{p_gr2.5_re1e4}{{4.24d}{73}{$p/\rho $ for $L/D = 2.5$\relax }{figure.caption.197}{}}
\newlabel{sub@p_gr2.5_re1e4}{{d}{73}{$p/\rho $ for $L/D = 2.5$\relax }{figure.caption.197}{}}
\newlabel{p_gr3_re1e4}{{4.24e}{73}{$p/\rho $ for $L/D = 3$\relax }{figure.caption.197}{}}
\newlabel{sub@p_gr3_re1e4}{{e}{73}{$p/\rho $ for $L/D = 3$\relax }{figure.caption.197}{}}
\newlabel{p_gr3.5_re1e4}{{4.24f}{73}{$p/\rho $ for $L/D = 3.5$\relax }{figure.caption.197}{}}
\newlabel{sub@p_gr3.5_re1e4}{{f}{73}{$p/\rho $ for $L/D = 3.5$\relax }{figure.caption.197}{}}
\newlabel{p_gr4_re1e4}{{4.24g}{73}{$p/\rho $ for $L/D = 4$\relax }{figure.caption.197}{}}
\newlabel{sub@p_gr4_re1e4}{{g}{73}{$p/\rho $ for $L/D = 4$\relax }{figure.caption.197}{}}
\newlabel{p_gr4.5_re1e4}{{4.24h}{73}{$p/\rho $ for $L/D = 4.5$\relax }{figure.caption.197}{}}
\newlabel{sub@p_gr4.5_re1e4}{{h}{73}{$p/\rho $ for $L/D = 4.5$\relax }{figure.caption.197}{}}
\newlabel{p_gr5_re1e4}{{4.24i}{73}{$p/\rho $ for $L/D = 5$\relax }{figure.caption.197}{}}
\newlabel{sub@p_gr5_re1e4}{{i}{73}{$p/\rho $ for $L/D = 5$\relax }{figure.caption.197}{}}
\newlabel{p_gr5.5_re1e4}{{4.24j}{73}{$p/\rho $ for $L/D = 5.5$\relax }{figure.caption.197}{}}
\newlabel{sub@p_gr5.5_re1e4}{{j}{73}{$p/\rho $ for $L/D = 5.5$\relax }{figure.caption.197}{}}
\newlabel{p_gr6_re1e4}{{4.24k}{73}{$p/\rho $ for $L/D = 6$\relax }{figure.caption.197}{}}
\newlabel{sub@p_gr6_re1e4}{{k}{73}{$p/\rho $ for $L/D = 6$\relax }{figure.caption.197}{}}
\newlabel{p_gr6.5_re1e4}{{4.24l}{73}{$p/\rho $ for $L/D = 6.5$\relax }{figure.caption.197}{}}
\newlabel{sub@p_gr6.5_re1e4}{{l}{73}{$p/\rho $ for $L/D = 6.5$\relax }{figure.caption.197}{}}
\newlabel{p_gr7_re1e4}{{4.24m}{73}{$p/\rho $ for $L/D = 7$\relax }{figure.caption.197}{}}
\newlabel{sub@p_gr7_re1e4}{{m}{73}{$p/\rho $ for $L/D = 7$\relax }{figure.caption.197}{}}
\@writefile{lof}{\contentsline {figure}{\numberline {4.24}{\ignorespaces p for various $\mathit  {L/D}$ at $Re = \num {1e4}$  (scale: $\num {-7.6e3} \leq p \leq \num {1.8e3}$)\relax }}{73}{figure.caption.197}\protected@file@percent }
\newlabel{p_contour_re1e4}{{4.24}{73}{p for various $\mathit {L/D}$ at $Re = \num {1e4}$\\ (scale: $\num {-7.6e3} \leq p \leq \num {1.8e3}$)\relax }{figure.caption.197}{}}
\newlabel{p_gr1_re2e4}{{4.25a}{74}{$p/\rho $ for $L/D = 1$\relax }{figure.caption.198}{}}
\newlabel{sub@p_gr1_re2e4}{{a}{74}{$p/\rho $ for $L/D = 1$\relax }{figure.caption.198}{}}
\newlabel{p_gr1.5_re2e4}{{4.25b}{74}{$p/\rho $ for $L/D = 1.5$\relax }{figure.caption.198}{}}
\newlabel{sub@p_gr1.5_re2e4}{{b}{74}{$p/\rho $ for $L/D = 1.5$\relax }{figure.caption.198}{}}
\newlabel{p_gr2_re2e4}{{4.25c}{74}{$p/\rho $ for $L/D = 2$\relax }{figure.caption.198}{}}
\newlabel{sub@p_gr2_re2e4}{{c}{74}{$p/\rho $ for $L/D = 2$\relax }{figure.caption.198}{}}
\newlabel{p_gr2.5_re2e4}{{4.25d}{74}{$p/\rho $ for $L/D = 2.5$\relax }{figure.caption.198}{}}
\newlabel{sub@p_gr2.5_re2e4}{{d}{74}{$p/\rho $ for $L/D = 2.5$\relax }{figure.caption.198}{}}
\newlabel{p_gr3_re2e4}{{4.25e}{74}{$p/\rho $ for $L/D = 3$\relax }{figure.caption.198}{}}
\newlabel{sub@p_gr3_re2e4}{{e}{74}{$p/\rho $ for $L/D = 3$\relax }{figure.caption.198}{}}
\newlabel{p_gr3.5_re2e4}{{4.25f}{74}{$p/\rho $ for $L/D = 3.5$\relax }{figure.caption.198}{}}
\newlabel{sub@p_gr3.5_re2e4}{{f}{74}{$p/\rho $ for $L/D = 3.5$\relax }{figure.caption.198}{}}
\newlabel{p_gr4_re2e4}{{4.25g}{74}{$p/\rho $ for $L/D = 4$\relax }{figure.caption.198}{}}
\newlabel{sub@p_gr4_re2e4}{{g}{74}{$p/\rho $ for $L/D = 4$\relax }{figure.caption.198}{}}
\newlabel{p_gr4.5_re2e4}{{4.25h}{74}{$p/\rho $ for $L/D = 4.5$\relax }{figure.caption.198}{}}
\newlabel{sub@p_gr4.5_re2e4}{{h}{74}{$p/\rho $ for $L/D = 4.5$\relax }{figure.caption.198}{}}
\newlabel{p_gr5_re2e4}{{4.25i}{74}{$p/\rho $ for $L/D = 5$\relax }{figure.caption.198}{}}
\newlabel{sub@p_gr5_re2e4}{{i}{74}{$p/\rho $ for $L/D = 5$\relax }{figure.caption.198}{}}
\newlabel{p_gr5.5_re2e4}{{4.25j}{74}{$p/\rho $ for $L/D = 5.5$\relax }{figure.caption.198}{}}
\newlabel{sub@p_gr5.5_re2e4}{{j}{74}{$p/\rho $ for $L/D = 5.5$\relax }{figure.caption.198}{}}
\newlabel{p_gr6_re2e4}{{4.25k}{74}{$p/\rho $ for $L/D = 6$\relax }{figure.caption.198}{}}
\newlabel{sub@p_gr6_re2e4}{{k}{74}{$p/\rho $ for $L/D = 6$\relax }{figure.caption.198}{}}
\newlabel{p_gr6.5_re2e4}{{4.25l}{74}{$p/\rho $ for $L/D = 6.5$\relax }{figure.caption.198}{}}
\newlabel{sub@p_gr6.5_re2e4}{{l}{74}{$p/\rho $ for $L/D = 6.5$\relax }{figure.caption.198}{}}
\newlabel{p_gr7_re2e4}{{4.25m}{74}{$p/\rho $ for $L/D = 7$\relax }{figure.caption.198}{}}
\newlabel{sub@p_gr7_re2e4}{{m}{74}{$p/\rho $ for $L/D = 7$\relax }{figure.caption.198}{}}
\@writefile{lof}{\contentsline {figure}{\numberline {4.25}{\ignorespaces $p/\rho $ for various $\mathit  {L/D}$ at $Re = \num {2e4}$  (scale: $\num {-8.3e3} \leq p \leq \num {1.9e3}$)\relax }}{74}{figure.caption.198}\protected@file@percent }
\newlabel{p_contour_re2e4}{{4.25}{74}{$p/\rho $ for various $\mathit {L/D}$ at $Re = \num {2e4}$\\ (scale: $\num {-8.3e3} \leq p \leq \num {1.9e3}$)\relax }{figure.caption.198}{}}
\@writefile{toc}{\contentsline {section}{\numberline {4.5}Strouhal Number}{75}{section.199}\protected@file@percent }
\@writefile{lof}{\contentsline {figure}{\numberline {4.26}{\ignorespaces Strouhal Number for for Various $\mathit  {L/D}$ and $\mathit  {Re}$\relax }}{75}{figure.caption.200}\protected@file@percent }
\newlabel{strouhal_plot_combined}{{4.26}{75}{Strouhal Number for for Various $\mathit {L/D}$ and $\mathit {Re}$\relax }{figure.caption.200}{}}
\@setckpt{Chapters/Chapter4}{
\setcounter{page}{77}
\setcounter{equation}{0}
\setcounter{enumi}{2}
\setcounter{enumii}{0}
\setcounter{enumiii}{0}
\setcounter{enumiv}{0}
\setcounter{footnote}{0}
\setcounter{mpfootnote}{0}
\setcounter{part}{0}
\setcounter{chapter}{4}
\setcounter{section}{5}
\setcounter{subsection}{0}
\setcounter{subsubsection}{0}
\setcounter{paragraph}{0}
\setcounter{subparagraph}{0}
\setcounter{figure}{26}
\setcounter{table}{0}
\setcounter{LT@tables}{1}
\setcounter{LT@chunks}{1}
\setcounter{parentequation}{0}
\setcounter{lstnumber}{1}
\setcounter{AM@survey}{0}
\setcounter{Item}{34}
\setcounter{Hfootnote}{0}
\setcounter{bookmark@seq@number}{52}
\setcounter{float@type}{8}
\setcounter{lofdepth}{1}
\setcounter{lotdepth}{1}
\setcounter{@pps}{0}
\setcounter{@ppsavesec}{0}
\setcounter{@ppsaveapp}{0}
\setcounter{caption@flags}{0}
\setcounter{continuedfloat}{0}
\setcounter{subfigure}{0}
\setcounter{subtable}{0}
\setcounter{tabx@nest}{0}
\setcounter{listtotal}{0}
\setcounter{listcount}{0}
\setcounter{liststart}{0}
\setcounter{liststop}{0}
\setcounter{citecount}{0}
\setcounter{citetotal}{0}
\setcounter{multicitecount}{0}
\setcounter{multicitetotal}{0}
\setcounter{instcount}{57}
\setcounter{maxnames}{3}
\setcounter{minnames}{3}
\setcounter{maxitems}{3}
\setcounter{minitems}{1}
\setcounter{citecounter}{0}
\setcounter{maxcitecounter}{0}
\setcounter{savedcitecounter}{0}
\setcounter{uniquelist}{0}
\setcounter{uniquename}{0}
\setcounter{refsection}{0}
\setcounter{refsegment}{0}
\setcounter{maxextratitle}{0}
\setcounter{maxextratitleyear}{0}
\setcounter{maxextraname}{0}
\setcounter{maxextradate}{0}
\setcounter{maxextraalpha}{0}
\setcounter{abbrvpenalty}{50}
\setcounter{highnamepenalty}{50}
\setcounter{lownamepenalty}{25}
\setcounter{maxparens}{3}
\setcounter{parenlevel}{0}
\setcounter{blx@maxsection}{0}
\setcounter{blx@maxsegment@0}{0}
\setcounter{blx@sectionciteorder@0}{56}
\setcounter{mincomprange}{10}
\setcounter{maxcomprange}{100000}
\setcounter{mincompwidth}{1}
\setcounter{afterword}{0}
\setcounter{savedafterword}{0}
\setcounter{annotator}{0}
\setcounter{savedannotator}{0}
\setcounter{author}{0}
\setcounter{savedauthor}{0}
\setcounter{bookauthor}{0}
\setcounter{savedbookauthor}{0}
\setcounter{commentator}{0}
\setcounter{savedcommentator}{0}
\setcounter{editor}{0}
\setcounter{savededitor}{0}
\setcounter{editora}{0}
\setcounter{savededitora}{0}
\setcounter{editorb}{0}
\setcounter{savededitorb}{0}
\setcounter{editorc}{0}
\setcounter{savededitorc}{0}
\setcounter{foreword}{0}
\setcounter{savedforeword}{0}
\setcounter{holder}{0}
\setcounter{savedholder}{0}
\setcounter{introduction}{0}
\setcounter{savedintroduction}{0}
\setcounter{namea}{0}
\setcounter{savednamea}{0}
\setcounter{nameb}{0}
\setcounter{savednameb}{0}
\setcounter{namec}{0}
\setcounter{savednamec}{0}
\setcounter{translator}{0}
\setcounter{savedtranslator}{0}
\setcounter{shortauthor}{0}
\setcounter{savedshortauthor}{0}
\setcounter{shorteditor}{0}
\setcounter{savedshorteditor}{0}
\setcounter{labelname}{0}
\setcounter{savedlabelname}{0}
\setcounter{institution}{0}
\setcounter{savedinstitution}{0}
\setcounter{lista}{0}
\setcounter{savedlista}{0}
\setcounter{listb}{0}
\setcounter{savedlistb}{0}
\setcounter{listc}{0}
\setcounter{savedlistc}{0}
\setcounter{listd}{0}
\setcounter{savedlistd}{0}
\setcounter{liste}{0}
\setcounter{savedliste}{0}
\setcounter{listf}{0}
\setcounter{savedlistf}{0}
\setcounter{location}{0}
\setcounter{savedlocation}{0}
\setcounter{organization}{0}
\setcounter{savedorganization}{0}
\setcounter{origlocation}{0}
\setcounter{savedoriglocation}{0}
\setcounter{origpublisher}{0}
\setcounter{savedorigpublisher}{0}
\setcounter{publisher}{0}
\setcounter{savedpublisher}{0}
\setcounter{language}{0}
\setcounter{savedlanguage}{0}
\setcounter{origlanguage}{0}
\setcounter{savedoriglanguage}{0}
\setcounter{pageref}{0}
\setcounter{savedpageref}{0}
\setcounter{textcitecount}{0}
\setcounter{textcitetotal}{0}
\setcounter{textcitemaxnames}{0}
\setcounter{biburlbigbreakpenalty}{100}
\setcounter{biburlbreakpenalty}{200}
\setcounter{biburlnumpenalty}{0}
\setcounter{biburlucpenalty}{0}
\setcounter{biburllcpenalty}{0}
\setcounter{smartand}{1}
\setcounter{bbx:relatedcount}{0}
\setcounter{bbx:relatedtotal}{0}
\setcounter{cbx@tempcnta}{0}
\setcounter{cbx@tempcntb}{30}
\setcounter{cbx@tempcntc}{0}
\setcounter{cbx@tempcntd}{-1}
\setcounter{svg@param@lastpage}{0}
\setcounter{svg@param@currpage}{-1}
\setcounter{lstlisting}{0}
\setcounter{section@level}{1}
}
