\relax 
\providecommand\hyper@newdestlabel[2]{}
\providecommand{\transparent@use}[1]{}
\@writefile{toc}{\contentsline {chapter}{\numberline {3}Research Methodology}{32}{chapter.134}\protected@file@percent }
\@writefile{lof}{\addvspace {10\p@ }}
\@writefile{lot}{\addvspace {10\p@ }}
\newlabel{Chapter3}{{3}{32}{Research Methodology}{chapter.134}{}}
\@writefile{toc}{\contentsline {section}{\numberline {3.1}Overview}{32}{section.135}\protected@file@percent }
\newlabel{overview}{{3.1}{32}{Overview}{section.135}{}}
\@writefile{lof}{\contentsline {figure}{\numberline {3.1}{\ignorespaces Research Work Flow\relax }}{32}{figure.caption.136}\protected@file@percent }
\newlabel{research_workflow}{{3.1}{32}{Research Work Flow\relax }{figure.caption.136}{}}
\@writefile{toc}{\contentsline {section}{\numberline {3.2}Computational Fluid Dynamics (CFD)}{34}{section.142}\protected@file@percent }
\newlabel{section_cfd}{{3.2}{34}{Computational Fluid Dynamics (CFD)}{section.142}{}}
\@writefile{toc}{\contentsline {subsection}{\numberline {3.2.1}OpenFOAM}{34}{subsection.143}\protected@file@percent }
\@writefile{lof}{\contentsline {figure}{\numberline {3.2}{\ignorespaces OpenFOAM Structure\relax }}{34}{figure.caption.144}\protected@file@percent }
\newlabel{op_structure}{{3.2}{34}{OpenFOAM Structure\relax }{figure.caption.144}{}}
\@writefile{toc}{\contentsline {section}{\numberline {3.3}Model Generation}{35}{section.145}\protected@file@percent }
\@writefile{lof}{\contentsline {figure}{\numberline {3.3}{\ignorespaces OpenFOAM blockMeshDict Utility\relax }}{35}{figure.caption.146}\protected@file@percent }
\newlabel{of_blockmeshdict}{{3.3}{35}{OpenFOAM blockMeshDict Utility\relax }{figure.caption.146}{}}
\@writefile{lof}{\contentsline {figure}{\numberline {3.4}{\ignorespaces OpenFOAM Model Dimension\relax }}{36}{figure.caption.147}\protected@file@percent }
\newlabel{of_model_specs}{{3.4}{36}{OpenFOAM Model Dimension\relax }{figure.caption.147}{}}
\@writefile{lof}{\contentsline {figure}{\numberline {3.5}{\ignorespaces Mesh Surface View\relax }}{37}{figure.caption.148}\protected@file@percent }
\newlabel{of_mesh}{{3.5}{37}{Mesh Surface View\relax }{figure.caption.148}{}}
\@writefile{lof}{\contentsline {figure}{\numberline {3.6}{\ignorespaces Mesh Surface with Edges View\relax }}{37}{figure.caption.149}\protected@file@percent }
\newlabel{of_mesh_edges}{{3.6}{37}{Mesh Surface with Edges View\relax }{figure.caption.149}{}}
\@writefile{lof}{\contentsline {figure}{\numberline {3.7}{\ignorespaces Building Blocks of the Mesh\relax }}{38}{figure.caption.150}\protected@file@percent }
\newlabel{openfoam_model_block}{{3.7}{38}{Building Blocks of the Mesh\relax }{figure.caption.150}{}}
\@writefile{toc}{\contentsline {section}{\numberline {3.4}Preprocessing}{38}{section.151}\protected@file@percent }
\newlabel{preprocessing}{{3.4}{38}{Preprocessing}{section.151}{}}
\@writefile{lof}{\contentsline {figure}{\numberline {3.8}{\ignorespaces OpenFOAM controlDict Utility\relax }}{39}{figure.caption.152}\protected@file@percent }
\newlabel{of_controldict}{{3.8}{39}{OpenFOAM controlDict Utility\relax }{figure.caption.152}{}}
\@writefile{lof}{\contentsline {figure}{\numberline {3.9}{\ignorespaces OpenFOAM fvSchemes Utility\relax }}{40}{figure.caption.153}\protected@file@percent }
\newlabel{of_fvscheme}{{3.9}{40}{OpenFOAM fvSchemes Utility\relax }{figure.caption.153}{}}
\@writefile{toc}{\contentsline {section}{\numberline {3.5}Simulation}{40}{section.154}\protected@file@percent }
\newlabel{section_simulation}{{3.5}{40}{Simulation}{section.154}{}}
\@writefile{lof}{\contentsline {figure}{\numberline {3.10}{\ignorespaces Simulation Convergence\relax }}{41}{figure.caption.155}\protected@file@percent }
\newlabel{of_converge_example}{{3.10}{41}{Simulation Convergence\relax }{figure.caption.155}{}}
\@writefile{toc}{\contentsline {subsection}{\numberline {3.5.1}RANS $\mathit  {k}$-$\omega $ SST Turbulence Model}{41}{subsection.156}\protected@file@percent }
\@writefile{toc}{\contentsline {subsubsection}{\numberline {3.5.1.1}RANS $\mathit  {k}$-$\omega $ SST Model $\mathit  {k}$ Parameter}{42}{subsubsection.161}\protected@file@percent }
\newlabel{rans_k_param}{{3.1}{42}{RANS $\mathit {k}$-$\omega $ SST Model $\mathit {k}$ Parameter}{equation.162}{}}
\@writefile{toc}{\contentsline {subsubsection}{\numberline {3.5.1.2}RANS $\mathit  {k}$-$\omega $ SST Model $\omega $ Parameter}{42}{subsubsection.163}\protected@file@percent }
\newlabel{rans_omega_param}{{3.2}{42}{RANS $\mathit {k}$-$\omega $ SST Model $\omega $ Parameter}{equation.164}{}}
\@writefile{toc}{\contentsline {section}{\numberline {3.6}Postprocessing}{42}{section.165}\protected@file@percent }
\@setckpt{Chapters/Chapter3}{
\setcounter{page}{44}
\setcounter{equation}{2}
\setcounter{enumi}{2}
\setcounter{enumii}{0}
\setcounter{enumiii}{0}
\setcounter{enumiv}{0}
\setcounter{footnote}{0}
\setcounter{mpfootnote}{0}
\setcounter{part}{0}
\setcounter{chapter}{3}
\setcounter{section}{6}
\setcounter{subsection}{0}
\setcounter{subsubsection}{0}
\setcounter{paragraph}{0}
\setcounter{subparagraph}{0}
\setcounter{figure}{10}
\setcounter{table}{0}
\setcounter{LT@tables}{1}
\setcounter{LT@chunks}{1}
\setcounter{parentequation}{0}
\setcounter{lstnumber}{1}
\setcounter{AM@survey}{0}
\setcounter{Item}{34}
\setcounter{Hfootnote}{0}
\setcounter{bookmark@seq@number}{43}
\setcounter{float@type}{8}
\setcounter{lofdepth}{1}
\setcounter{lotdepth}{1}
\setcounter{@pps}{0}
\setcounter{@ppsavesec}{0}
\setcounter{@ppsaveapp}{0}
\setcounter{caption@flags}{0}
\setcounter{continuedfloat}{0}
\setcounter{subfigure}{0}
\setcounter{subtable}{0}
\setcounter{tabx@nest}{0}
\setcounter{listtotal}{0}
\setcounter{listcount}{0}
\setcounter{liststart}{0}
\setcounter{liststop}{0}
\setcounter{citecount}{0}
\setcounter{citetotal}{0}
\setcounter{multicitecount}{0}
\setcounter{multicitetotal}{0}
\setcounter{instcount}{54}
\setcounter{maxnames}{3}
\setcounter{minnames}{3}
\setcounter{maxitems}{3}
\setcounter{minitems}{1}
\setcounter{citecounter}{0}
\setcounter{maxcitecounter}{0}
\setcounter{savedcitecounter}{0}
\setcounter{uniquelist}{0}
\setcounter{uniquename}{0}
\setcounter{refsection}{0}
\setcounter{refsegment}{0}
\setcounter{maxextratitle}{0}
\setcounter{maxextratitleyear}{0}
\setcounter{maxextraname}{0}
\setcounter{maxextradate}{0}
\setcounter{maxextraalpha}{0}
\setcounter{abbrvpenalty}{50}
\setcounter{highnamepenalty}{50}
\setcounter{lownamepenalty}{25}
\setcounter{maxparens}{3}
\setcounter{parenlevel}{0}
\setcounter{blx@maxsection}{0}
\setcounter{blx@maxsegment@0}{0}
\setcounter{blx@sectionciteorder@0}{53}
\setcounter{mincomprange}{10}
\setcounter{maxcomprange}{100000}
\setcounter{mincompwidth}{1}
\setcounter{afterword}{0}
\setcounter{savedafterword}{0}
\setcounter{annotator}{0}
\setcounter{savedannotator}{0}
\setcounter{author}{0}
\setcounter{savedauthor}{0}
\setcounter{bookauthor}{0}
\setcounter{savedbookauthor}{0}
\setcounter{commentator}{0}
\setcounter{savedcommentator}{0}
\setcounter{editor}{0}
\setcounter{savededitor}{0}
\setcounter{editora}{0}
\setcounter{savededitora}{0}
\setcounter{editorb}{0}
\setcounter{savededitorb}{0}
\setcounter{editorc}{0}
\setcounter{savededitorc}{0}
\setcounter{foreword}{0}
\setcounter{savedforeword}{0}
\setcounter{holder}{0}
\setcounter{savedholder}{0}
\setcounter{introduction}{0}
\setcounter{savedintroduction}{0}
\setcounter{namea}{0}
\setcounter{savednamea}{0}
\setcounter{nameb}{0}
\setcounter{savednameb}{0}
\setcounter{namec}{0}
\setcounter{savednamec}{0}
\setcounter{translator}{0}
\setcounter{savedtranslator}{0}
\setcounter{shortauthor}{0}
\setcounter{savedshortauthor}{0}
\setcounter{shorteditor}{0}
\setcounter{savedshorteditor}{0}
\setcounter{labelname}{0}
\setcounter{savedlabelname}{0}
\setcounter{institution}{0}
\setcounter{savedinstitution}{0}
\setcounter{lista}{0}
\setcounter{savedlista}{0}
\setcounter{listb}{0}
\setcounter{savedlistb}{0}
\setcounter{listc}{0}
\setcounter{savedlistc}{0}
\setcounter{listd}{0}
\setcounter{savedlistd}{0}
\setcounter{liste}{0}
\setcounter{savedliste}{0}
\setcounter{listf}{0}
\setcounter{savedlistf}{0}
\setcounter{location}{0}
\setcounter{savedlocation}{0}
\setcounter{organization}{0}
\setcounter{savedorganization}{0}
\setcounter{origlocation}{0}
\setcounter{savedoriglocation}{0}
\setcounter{origpublisher}{0}
\setcounter{savedorigpublisher}{0}
\setcounter{publisher}{0}
\setcounter{savedpublisher}{0}
\setcounter{language}{0}
\setcounter{savedlanguage}{0}
\setcounter{origlanguage}{0}
\setcounter{savedoriglanguage}{0}
\setcounter{pageref}{0}
\setcounter{savedpageref}{0}
\setcounter{textcitecount}{0}
\setcounter{textcitetotal}{0}
\setcounter{textcitemaxnames}{0}
\setcounter{biburlbigbreakpenalty}{100}
\setcounter{biburlbreakpenalty}{200}
\setcounter{biburlnumpenalty}{0}
\setcounter{biburlucpenalty}{0}
\setcounter{biburllcpenalty}{0}
\setcounter{smartand}{1}
\setcounter{bbx:relatedcount}{0}
\setcounter{bbx:relatedtotal}{0}
\setcounter{cbx@tempcnta}{0}
\setcounter{cbx@tempcntb}{27}
\setcounter{cbx@tempcntc}{0}
\setcounter{cbx@tempcntd}{-1}
\setcounter{svg@param@lastpage}{0}
\setcounter{svg@param@currpage}{-1}
\setcounter{lstlisting}{0}
\setcounter{section@level}{1}
}
