\relax 
\providecommand\hyper@newdestlabel[2]{}
\providecommand{\transparent@use}[1]{}
\@writefile{toc}{\contentsline {chapter}{\numberline {2}Literature Review}{8}{chapter.34}\protected@file@percent }
\@writefile{lof}{\addvspace {10\p@ }}
\@writefile{lot}{\addvspace {10\p@ }}
\newlabel{Chapter2}{{2}{8}{Literature Review}{chapter.34}{}}
\@writefile{toc}{\contentsline {section}{\numberline {2.1}Previous Work on Flow around Square Cylinders}{8}{section.35}\protected@file@percent }
\newlabel{prev_research}{{2.1}{8}{Previous Work on Flow around Square Cylinders}{section.35}{}}
\@writefile{toc}{\contentsline {section}{\numberline {2.2}Governing Equations}{10}{section.36}\protected@file@percent }
\newlabel{section_gov_eqn}{{2.2}{10}{Governing Equations}{section.36}{}}
\@writefile{toc}{\contentsline {subsection}{\numberline {2.2.1}Continuity Equation}{10}{subsection.37}\protected@file@percent }
\newlabel{cont_eqn_int_v1}{{2.1}{10}{Continuity Equation}{equation.38}{}}
\newlabel{cont_eqn_int_v2}{{2.2}{11}{Continuity Equation}{equation.39}{}}
\newlabel{cont_eqn_drv_1}{{2.3}{11}{Continuity Equation}{equation.40}{}}
\newlabel{div_theorem}{{2.4}{11}{Continuity Equation}{equation.41}{}}
\newlabel{cont_eqn_drv_2}{{2.5}{11}{Continuity Equation}{equation.42}{}}
\newlabel{cont_eqn_drv_3}{{2.6}{11}{Continuity Equation}{equation.43}{}}
\newlabel{cont_eqn_drv_4}{{2.7}{12}{Continuity Equation}{equation.44}{}}
\newlabel{cont_eqn_drv_5}{{2.8}{12}{Continuity Equation}{equation.45}{}}
\newlabel{cont_eqn_drv_6}{{2.9}{12}{Continuity Equation}{equation.46}{}}
\newlabel{cont_eqn_drv_7}{{2.10}{12}{Continuity Equation}{equation.47}{}}
\@writefile{toc}{\contentsline {subsection}{\numberline {2.2.2}Momentum Equation}{12}{subsection.48}\protected@file@percent }
\newlabel{newton_law_2}{{2.11}{12}{Momentum Equation}{equation.49}{}}
\newlabel{newton_law_2_drv}{{2.12}{12}{Momentum Equation}{equation.50}{}}
\newlabel{momentum_eqn_1}{{2.13}{13}{Momentum Equation}{equation.51}{}}
\newlabel{momentum_eqn_2}{{2.14}{13}{Momentum Equation}{equation.52}{}}
\newlabel{momentum_eqn_3}{{2.15}{13}{Momentum Equation}{equation.53}{}}
\newlabel{grad_theorem}{{2.16}{14}{Momentum Equation}{equation.54}{}}
\newlabel{momentum_eqn_pd_1}{{2.17}{14}{Momentum Equation}{equation.55}{}}
\newlabel{momentum_eqn_pd_2_x}{{2.18}{14}{Momentum Equation}{equation.56}{}}
\newlabel{momentum_eqn_pd_2_y}{{2.19}{14}{Momentum Equation}{equation.57}{}}
\newlabel{momentum_eqn_pd_2_z}{{2.20}{15}{Momentum Equation}{equation.58}{}}
\newlabel{momentum_eqn_pd_3}{{2.21}{15}{Momentum Equation}{equation.59}{}}
\newlabel{momentum_eqn_pd_4}{{2.22}{15}{Momentum Equation}{equation.60}{}}
\newlabel{momentum_eqn_pd_5_x}{{2.23}{15}{Momentum Equation}{equation.61}{}}
\newlabel{momentum_eqn_pd_5_y}{{2.24}{15}{Momentum Equation}{equation.62}{}}
\newlabel{momentum_eqn_pd_5_z}{{2.25}{15}{Momentum Equation}{equation.63}{}}
\newlabel{ns_1}{{2.26}{16}{Momentum Equation}{equation.64}{}}
\newlabel{ns_2}{{2.27}{16}{Momentum Equation}{equation.65}{}}
\newlabel{ns_3}{{2.28}{16}{Momentum Equation}{equation.66}{}}
\newlabel{substantial_drv t}{{2.29}{16}{Momentum Equation}{equation.67}{}}
\newlabel{n_shear_1}{{2.30}{16}{Momentum Equation}{equation.68}{}}
\newlabel{n_shear_2}{{2.31}{16}{Momentum Equation}{equation.69}{}}
\newlabel{n_shear_3}{{2.32}{16}{Momentum Equation}{equation.70}{}}
\newlabel{n_shear_4}{{2.33}{17}{Momentum Equation}{equation.71}{}}
\newlabel{n_shear_5}{{2.34}{17}{Momentum Equation}{equation.72}{}}
\newlabel{n_shear_6}{{2.35}{17}{Momentum Equation}{equation.73}{}}
\newlabel{ns_4}{{2.36}{17}{Momentum Equation}{equation.74}{}}
\newlabel{ns_5}{{2.37}{17}{Momentum Equation}{equation.75}{}}
\newlabel{ns_6}{{2.38}{17}{Momentum Equation}{equation.76}{}}
\newlabel{momentum_eqn_pd_6}{{2.39}{18}{Momentum Equation}{equation.77}{}}
\newlabel{momentum_eqn_pd_7_x}{{2.40}{18}{Momentum Equation}{equation.78}{}}
\newlabel{momentum_eqn_pd_7_y}{{2.41}{18}{Momentum Equation}{equation.79}{}}
\newlabel{momentum_eqn_pd_7_z}{{2.42}{18}{Momentum Equation}{equation.80}{}}
\newlabel{momentum_eqn_inviscid_1}{{2.43}{18}{Momentum Equation}{equation.81}{}}
\newlabel{momentum_eqn_inviscid_2}{{2.44}{18}{Momentum Equation}{equation.82}{}}
\newlabel{momentum_eqn_inviscid_steady_1}{{2.45}{18}{Momentum Equation}{equation.83}{}}
\newlabel{euler_eqn}{{2.46}{18}{Momentum Equation}{equation.84}{}}
\newlabel{bernoulli_eqn_1}{{2.47}{19}{Momentum Equation}{equation.85}{}}
\newlabel{bernoulli_eqn_2}{{2.48}{19}{Momentum Equation}{equation.86}{}}
\newlabel{bernoulli_eqn_3}{{2.49}{19}{Momentum Equation}{equation.87}{}}
\newlabel{bernoulli_eqn_general_form}{{2.50}{19}{Momentum Equation}{equation.88}{}}
\@writefile{toc}{\contentsline {section}{\numberline {2.3}Background Concept}{19}{section.92}\protected@file@percent }
\@writefile{toc}{\contentsline {subsection}{\numberline {2.3.1}Reynolds Number}{20}{subsection.93}\protected@file@percent }
\newlabel{subsection_re}{{2.3.1}{20}{Reynolds Number}{subsection.93}{}}
\newlabel{re_eqn}{{2.51}{20}{Reynolds Number}{equation.94}{}}
\@writefile{toc}{\contentsline {subsection}{\numberline {2.3.2}Drag Coefficient}{20}{subsection.95}\protected@file@percent }
\newlabel{drag_coeff_eqn}{{2.52}{20}{Drag Coefficient}{equation.96}{}}
\@writefile{toc}{\contentsline {subsection}{\numberline {2.3.3}Lift Coefficient}{20}{subsection.97}\protected@file@percent }
\newlabel{lift_coeff_eqn}{{2.53}{20}{Lift Coefficient}{equation.98}{}}
\@writefile{toc}{\contentsline {subsection}{\numberline {2.3.4}Turbulence}{21}{subsection.99}\protected@file@percent }
\@writefile{toc}{\contentsline {subsection}{\numberline {2.3.5}Karman Vortex Street}{22}{subsection.104}\protected@file@percent }
\newlabel{kvs_section}{{2.3.5}{22}{Karman Vortex Street}{subsection.104}{}}
\@writefile{lof}{\contentsline {figure}{\numberline {2.1}{\ignorespaces Karman Vortex Street\relax }}{23}{figure.caption.105}\protected@file@percent }
\newlabel{kvs}{{2.1}{23}{Karman Vortex Street\relax }{figure.caption.105}{}}
\@writefile{toc}{\contentsline {subsubsection}{\numberline {2.3.5.1}Strouhal Number}{23}{subsubsection.106}\protected@file@percent }
\newlabel{strouhal_num_eqn}{{2.54}{23}{Strouhal Number}{equation.107}{}}
\@writefile{toc}{\contentsline {section}{\numberline {2.4}CFD Discretization}{24}{section.108}\protected@file@percent }
\@writefile{toc}{\contentsline {subsection}{\numberline {2.4.1}Geometric and Physical Modeling}{24}{subsection.113}\protected@file@percent }
\@writefile{lof}{\contentsline {figure}{\numberline {2.2}{\ignorespaces Model Used for CFD by Moukalled\relax }}{25}{figure.caption.114}\protected@file@percent }
\newlabel{moukalled_example}{{2.2}{25}{Model Used for CFD by Moukalled\relax }{figure.caption.114}{}}
\@writefile{toc}{\contentsline {subsection}{\numberline {2.4.2}Domain Discretization}{25}{subsection.115}\protected@file@percent }
\@writefile{lof}{\contentsline {figure}{\numberline {2.3}{\ignorespaces a. Computational Domain; b. Computational Mesh (\textit  {Quadilateral}); c. Computaional Mesh (\textit  {Triangular})\relax }}{25}{figure.caption.116}\protected@file@percent }
\newlabel{moukalled_compuational_domain}{{2.3}{25}{a. Computational Domain; b. Computational Mesh (\textit {Quadilateral}); c. Computaional Mesh (\textit {Triangular})\relax }{figure.caption.116}{}}
\@writefile{lof}{\contentsline {figure}{\numberline {2.4}{\ignorespaces a. Mesh Vertices; b. Faces; c. Elements\relax }}{26}{figure.caption.117}\protected@file@percent }
\newlabel{moukalled_compuational_domain_2}{{2.4}{26}{a. Mesh Vertices; b. Faces; c. Elements\relax }{figure.caption.117}{}}
\@writefile{toc}{\contentsline {subsection}{\numberline {2.4.3}Equation Discretization}{26}{subsection.118}\protected@file@percent }
\@writefile{lof}{\contentsline {figure}{\numberline {2.5}{\ignorespaces Spatial Element\relax }}{26}{figure.caption.119}\protected@file@percent }
\newlabel{moukalled_spatial_element}{{2.5}{26}{Spatial Element\relax }{figure.caption.119}{}}
\newlabel{eqn_steady_state_gov}{{2.55}{27}{Equation Discretization}{equation.120}{}}
\newlabel{eqn_discretization_matrix}{{2.56}{27}{Equation Discretization}{equation.121}{}}
\@writefile{lof}{\contentsline {figure}{\numberline {2.6}{\ignorespaces Element Field\relax }}{27}{figure.caption.122}\protected@file@percent }
\newlabel{moukalled_element_field}{{2.6}{27}{Element Field\relax }{figure.caption.122}{}}
\@writefile{toc}{\contentsline {subsection}{\numberline {2.4.4}Solution of the Discretized Equations}{28}{subsection.123}\protected@file@percent }
\@writefile{toc}{\contentsline {subsubsection}{\numberline {2.4.4.1}Direct Methods}{28}{subsubsection.124}\protected@file@percent }
\newlabel{matrix_inversion}{{2.57}{28}{Direct Methods}{equation.125}{}}
\@writefile{toc}{\contentsline {subsubsection}{\numberline {2.4.4.2}Iterative Methods}{28}{subsubsection.126}\protected@file@percent }
\newlabel{subsection_iterative_method}{{2.4.4.2}{28}{Iterative Methods}{subsubsection.126}{}}
\@writefile{toc}{\contentsline {section}{\numberline {2.5}Machine Learning Application}{29}{section.132}\protected@file@percent }
\@writefile{lof}{\contentsline {figure}{\numberline {2.7}{\ignorespaces U-Net Architecture Workflow \blx@tocontentsinit {0}\cite {thuerey_deep_2020}\relax }}{30}{figure.caption.133}\protected@file@percent }
\newlabel{thuerey_nn}{{2.7}{30}{U-Net Architecture Workflow \cite {thuerey_deep_2020}\relax }{figure.caption.133}{}}
\@setckpt{Chapters/Chapter2}{
\setcounter{page}{32}
\setcounter{equation}{58}
\setcounter{enumi}{4}
\setcounter{enumii}{0}
\setcounter{enumiii}{0}
\setcounter{enumiv}{0}
\setcounter{footnote}{0}
\setcounter{mpfootnote}{0}
\setcounter{part}{0}
\setcounter{chapter}{2}
\setcounter{section}{5}
\setcounter{subsection}{0}
\setcounter{subsubsection}{0}
\setcounter{paragraph}{0}
\setcounter{subparagraph}{0}
\setcounter{figure}{7}
\setcounter{table}{0}
\setcounter{LT@tables}{1}
\setcounter{LT@chunks}{1}
\setcounter{parentequation}{0}
\setcounter{lstnumber}{1}
\setcounter{AM@survey}{0}
\setcounter{Item}{25}
\setcounter{Hfootnote}{0}
\setcounter{bookmark@seq@number}{32}
\setcounter{float@type}{8}
\setcounter{lofdepth}{1}
\setcounter{lotdepth}{1}
\setcounter{@pps}{0}
\setcounter{@ppsavesec}{0}
\setcounter{@ppsaveapp}{0}
\setcounter{caption@flags}{0}
\setcounter{continuedfloat}{0}
\setcounter{subfigure}{0}
\setcounter{subtable}{0}
\setcounter{tabx@nest}{0}
\setcounter{listtotal}{0}
\setcounter{listcount}{0}
\setcounter{liststart}{0}
\setcounter{liststop}{0}
\setcounter{citecount}{0}
\setcounter{citetotal}{0}
\setcounter{multicitecount}{0}
\setcounter{multicitetotal}{0}
\setcounter{instcount}{49}
\setcounter{maxnames}{3}
\setcounter{minnames}{3}
\setcounter{maxitems}{3}
\setcounter{minitems}{1}
\setcounter{citecounter}{0}
\setcounter{maxcitecounter}{0}
\setcounter{savedcitecounter}{0}
\setcounter{uniquelist}{0}
\setcounter{uniquename}{0}
\setcounter{refsection}{0}
\setcounter{refsegment}{0}
\setcounter{maxextratitle}{0}
\setcounter{maxextratitleyear}{0}
\setcounter{maxextraname}{0}
\setcounter{maxextradate}{0}
\setcounter{maxextraalpha}{0}
\setcounter{abbrvpenalty}{50}
\setcounter{highnamepenalty}{50}
\setcounter{lownamepenalty}{25}
\setcounter{maxparens}{3}
\setcounter{parenlevel}{0}
\setcounter{blx@maxsection}{0}
\setcounter{blx@maxsegment@0}{0}
\setcounter{blx@sectionciteorder@0}{48}
\setcounter{mincomprange}{10}
\setcounter{maxcomprange}{100000}
\setcounter{mincompwidth}{1}
\setcounter{afterword}{0}
\setcounter{savedafterword}{0}
\setcounter{annotator}{0}
\setcounter{savedannotator}{0}
\setcounter{author}{0}
\setcounter{savedauthor}{0}
\setcounter{bookauthor}{0}
\setcounter{savedbookauthor}{0}
\setcounter{commentator}{0}
\setcounter{savedcommentator}{0}
\setcounter{editor}{0}
\setcounter{savededitor}{0}
\setcounter{editora}{0}
\setcounter{savededitora}{0}
\setcounter{editorb}{0}
\setcounter{savededitorb}{0}
\setcounter{editorc}{0}
\setcounter{savededitorc}{0}
\setcounter{foreword}{0}
\setcounter{savedforeword}{0}
\setcounter{holder}{0}
\setcounter{savedholder}{0}
\setcounter{introduction}{0}
\setcounter{savedintroduction}{0}
\setcounter{namea}{0}
\setcounter{savednamea}{0}
\setcounter{nameb}{0}
\setcounter{savednameb}{0}
\setcounter{namec}{0}
\setcounter{savednamec}{0}
\setcounter{translator}{0}
\setcounter{savedtranslator}{0}
\setcounter{shortauthor}{0}
\setcounter{savedshortauthor}{0}
\setcounter{shorteditor}{0}
\setcounter{savedshorteditor}{0}
\setcounter{labelname}{0}
\setcounter{savedlabelname}{0}
\setcounter{institution}{0}
\setcounter{savedinstitution}{0}
\setcounter{lista}{0}
\setcounter{savedlista}{0}
\setcounter{listb}{0}
\setcounter{savedlistb}{0}
\setcounter{listc}{0}
\setcounter{savedlistc}{0}
\setcounter{listd}{0}
\setcounter{savedlistd}{0}
\setcounter{liste}{0}
\setcounter{savedliste}{0}
\setcounter{listf}{0}
\setcounter{savedlistf}{0}
\setcounter{location}{0}
\setcounter{savedlocation}{0}
\setcounter{organization}{0}
\setcounter{savedorganization}{0}
\setcounter{origlocation}{0}
\setcounter{savedoriglocation}{0}
\setcounter{origpublisher}{0}
\setcounter{savedorigpublisher}{0}
\setcounter{publisher}{0}
\setcounter{savedpublisher}{0}
\setcounter{language}{0}
\setcounter{savedlanguage}{0}
\setcounter{origlanguage}{0}
\setcounter{savedoriglanguage}{0}
\setcounter{pageref}{0}
\setcounter{savedpageref}{0}
\setcounter{textcitecount}{0}
\setcounter{textcitetotal}{0}
\setcounter{textcitemaxnames}{0}
\setcounter{biburlbigbreakpenalty}{100}
\setcounter{biburlbreakpenalty}{200}
\setcounter{biburlnumpenalty}{0}
\setcounter{biburlucpenalty}{0}
\setcounter{biburllcpenalty}{0}
\setcounter{smartand}{1}
\setcounter{bbx:relatedcount}{0}
\setcounter{bbx:relatedtotal}{0}
\setcounter{cbx@tempcnta}{0}
\setcounter{cbx@tempcntb}{24}
\setcounter{cbx@tempcntc}{0}
\setcounter{cbx@tempcntd}{-1}
\setcounter{svg@param@lastpage}{0}
\setcounter{svg@param@currpage}{-1}
\setcounter{lstlisting}{0}
\setcounter{section@level}{1}
}
