<?xml version="1.0" encoding="utf-8" standalone="no"?>
<!DOCTYPE svg PUBLIC "-//W3C//DTD SVG 1.1//EN"
  "http://www.w3.org/Graphics/SVG/1.1/DTD/svg11.dtd">
<svg xmlns:xlink="http://www.w3.org/1999/xlink" width="460.8pt" height="345.6pt" viewBox="0 0 460.8 345.6" xmlns="http://www.w3.org/2000/svg" version="1.1">
 <metadata>
  <rdf:RDF xmlns:dc="http://purl.org/dc/elements/1.1/" xmlns:cc="http://creativecommons.org/ns#" xmlns:rdf="http://www.w3.org/1999/02/22-rdf-syntax-ns#">
   <cc:Work>
    <dc:type rdf:resource="http://purl.org/dc/dcmitype/StillImage"/>
    <dc:date>2023-08-06T18:18:41.466790</dc:date>
    <dc:format>image/svg+xml</dc:format>
    <dc:creator>
     <cc:Agent>
      <dc:title>Matplotlib v3.6.3, https://matplotlib.org/</dc:title>
     </cc:Agent>
    </dc:creator>
   </cc:Work>
  </rdf:RDF>
 </metadata>
 <defs>
  <style type="text/css">*{stroke-linejoin: round; stroke-linecap: butt}</style>
 </defs>
 <g id="figure_1">
  <g id="patch_1">
   <path d="M 0 345.6 
L 460.8 345.6 
L 460.8 0 
L 0 0 
z
" style="fill: #ffffff"/>
  </g>
  <g id="axes_1">
   <g id="patch_2">
    <path d="M 57.6 307.584 
L 414.72 307.584 
L 414.72 41.472 
L 57.6 41.472 
z
" style="fill: #ffffff"/>
   </g>
   <g id="matplotlib.axis_1">
    <g id="xtick_1">
     <g id="line2d_1">
      <path d="M 57.6 307.584 
L 57.6 41.472 
" clip-path="url(#pe5a807864a)" style="fill: none; stroke: #b0b0b0; stroke-width: 0.8; stroke-linecap: square"/>
     </g>
     <g id="line2d_2">
      <defs>
       <path id="ma03bcdedb5" d="M 0 0 
L 0 3.5 
" style="stroke: #000000; stroke-width: 0.8"/>
      </defs>
      <g>
       <use xlink:href="#ma03bcdedb5" x="57.6" y="307.584" style="stroke: #000000; stroke-width: 0.8"/>
      </g>
     </g>
     <g id="text_1">
      <!-- 0.00 -->
      <g transform="translate(46.467188 322.182437) scale(0.1 -0.1)">
       <defs>
        <path id="DejaVuSans-30" d="M 2034 4250 
Q 1547 4250 1301 3770 
Q 1056 3291 1056 2328 
Q 1056 1369 1301 889 
Q 1547 409 2034 409 
Q 2525 409 2770 889 
Q 3016 1369 3016 2328 
Q 3016 3291 2770 3770 
Q 2525 4250 2034 4250 
z
M 2034 4750 
Q 2819 4750 3233 4129 
Q 3647 3509 3647 2328 
Q 3647 1150 3233 529 
Q 2819 -91 2034 -91 
Q 1250 -91 836 529 
Q 422 1150 422 2328 
Q 422 3509 836 4129 
Q 1250 4750 2034 4750 
z
" transform="scale(0.015625)"/>
        <path id="DejaVuSans-2e" d="M 684 794 
L 1344 794 
L 1344 0 
L 684 0 
L 684 794 
z
" transform="scale(0.015625)"/>
       </defs>
       <use xlink:href="#DejaVuSans-30"/>
       <use xlink:href="#DejaVuSans-2e" x="63.623047"/>
       <use xlink:href="#DejaVuSans-30" x="95.410156"/>
       <use xlink:href="#DejaVuSans-30" x="159.033203"/>
      </g>
     </g>
    </g>
    <g id="xtick_2">
     <g id="line2d_3">
      <path d="M 129.024 307.584 
L 129.024 41.472 
" clip-path="url(#pe5a807864a)" style="fill: none; stroke: #b0b0b0; stroke-width: 0.8; stroke-linecap: square"/>
     </g>
     <g id="line2d_4">
      <g>
       <use xlink:href="#ma03bcdedb5" x="129.024" y="307.584" style="stroke: #000000; stroke-width: 0.8"/>
      </g>
     </g>
     <g id="text_2">
      <!-- 0.01 -->
      <g transform="translate(117.891188 322.182437) scale(0.1 -0.1)">
       <defs>
        <path id="DejaVuSans-31" d="M 794 531 
L 1825 531 
L 1825 4091 
L 703 3866 
L 703 4441 
L 1819 4666 
L 2450 4666 
L 2450 531 
L 3481 531 
L 3481 0 
L 794 0 
L 794 531 
z
" transform="scale(0.015625)"/>
       </defs>
       <use xlink:href="#DejaVuSans-30"/>
       <use xlink:href="#DejaVuSans-2e" x="63.623047"/>
       <use xlink:href="#DejaVuSans-30" x="95.410156"/>
       <use xlink:href="#DejaVuSans-31" x="159.033203"/>
      </g>
     </g>
    </g>
    <g id="xtick_3">
     <g id="line2d_5">
      <path d="M 200.448 307.584 
L 200.448 41.472 
" clip-path="url(#pe5a807864a)" style="fill: none; stroke: #b0b0b0; stroke-width: 0.8; stroke-linecap: square"/>
     </g>
     <g id="line2d_6">
      <g>
       <use xlink:href="#ma03bcdedb5" x="200.448" y="307.584" style="stroke: #000000; stroke-width: 0.8"/>
      </g>
     </g>
     <g id="text_3">
      <!-- 0.02 -->
      <g transform="translate(189.315187 322.182437) scale(0.1 -0.1)">
       <defs>
        <path id="DejaVuSans-32" d="M 1228 531 
L 3431 531 
L 3431 0 
L 469 0 
L 469 531 
Q 828 903 1448 1529 
Q 2069 2156 2228 2338 
Q 2531 2678 2651 2914 
Q 2772 3150 2772 3378 
Q 2772 3750 2511 3984 
Q 2250 4219 1831 4219 
Q 1534 4219 1204 4116 
Q 875 4013 500 3803 
L 500 4441 
Q 881 4594 1212 4672 
Q 1544 4750 1819 4750 
Q 2544 4750 2975 4387 
Q 3406 4025 3406 3419 
Q 3406 3131 3298 2873 
Q 3191 2616 2906 2266 
Q 2828 2175 2409 1742 
Q 1991 1309 1228 531 
z
" transform="scale(0.015625)"/>
       </defs>
       <use xlink:href="#DejaVuSans-30"/>
       <use xlink:href="#DejaVuSans-2e" x="63.623047"/>
       <use xlink:href="#DejaVuSans-30" x="95.410156"/>
       <use xlink:href="#DejaVuSans-32" x="159.033203"/>
      </g>
     </g>
    </g>
    <g id="xtick_4">
     <g id="line2d_7">
      <path d="M 271.872 307.584 
L 271.872 41.472 
" clip-path="url(#pe5a807864a)" style="fill: none; stroke: #b0b0b0; stroke-width: 0.8; stroke-linecap: square"/>
     </g>
     <g id="line2d_8">
      <g>
       <use xlink:href="#ma03bcdedb5" x="271.872" y="307.584" style="stroke: #000000; stroke-width: 0.8"/>
      </g>
     </g>
     <g id="text_4">
      <!-- 0.03 -->
      <g transform="translate(260.739188 322.182437) scale(0.1 -0.1)">
       <defs>
        <path id="DejaVuSans-33" d="M 2597 2516 
Q 3050 2419 3304 2112 
Q 3559 1806 3559 1356 
Q 3559 666 3084 287 
Q 2609 -91 1734 -91 
Q 1441 -91 1130 -33 
Q 819 25 488 141 
L 488 750 
Q 750 597 1062 519 
Q 1375 441 1716 441 
Q 2309 441 2620 675 
Q 2931 909 2931 1356 
Q 2931 1769 2642 2001 
Q 2353 2234 1838 2234 
L 1294 2234 
L 1294 2753 
L 1863 2753 
Q 2328 2753 2575 2939 
Q 2822 3125 2822 3475 
Q 2822 3834 2567 4026 
Q 2313 4219 1838 4219 
Q 1578 4219 1281 4162 
Q 984 4106 628 3988 
L 628 4550 
Q 988 4650 1302 4700 
Q 1616 4750 1894 4750 
Q 2613 4750 3031 4423 
Q 3450 4097 3450 3541 
Q 3450 3153 3228 2886 
Q 3006 2619 2597 2516 
z
" transform="scale(0.015625)"/>
       </defs>
       <use xlink:href="#DejaVuSans-30"/>
       <use xlink:href="#DejaVuSans-2e" x="63.623047"/>
       <use xlink:href="#DejaVuSans-30" x="95.410156"/>
       <use xlink:href="#DejaVuSans-33" x="159.033203"/>
      </g>
     </g>
    </g>
    <g id="xtick_5">
     <g id="line2d_9">
      <path d="M 343.296 307.584 
L 343.296 41.472 
" clip-path="url(#pe5a807864a)" style="fill: none; stroke: #b0b0b0; stroke-width: 0.8; stroke-linecap: square"/>
     </g>
     <g id="line2d_10">
      <g>
       <use xlink:href="#ma03bcdedb5" x="343.296" y="307.584" style="stroke: #000000; stroke-width: 0.8"/>
      </g>
     </g>
     <g id="text_5">
      <!-- 0.04 -->
      <g transform="translate(332.163187 322.182437) scale(0.1 -0.1)">
       <defs>
        <path id="DejaVuSans-34" d="M 2419 4116 
L 825 1625 
L 2419 1625 
L 2419 4116 
z
M 2253 4666 
L 3047 4666 
L 3047 1625 
L 3713 1625 
L 3713 1100 
L 3047 1100 
L 3047 0 
L 2419 0 
L 2419 1100 
L 313 1100 
L 313 1709 
L 2253 4666 
z
" transform="scale(0.015625)"/>
       </defs>
       <use xlink:href="#DejaVuSans-30"/>
       <use xlink:href="#DejaVuSans-2e" x="63.623047"/>
       <use xlink:href="#DejaVuSans-30" x="95.410156"/>
       <use xlink:href="#DejaVuSans-34" x="159.033203"/>
      </g>
     </g>
    </g>
    <g id="xtick_6">
     <g id="line2d_11">
      <path d="M 414.72 307.584 
L 414.72 41.472 
" clip-path="url(#pe5a807864a)" style="fill: none; stroke: #b0b0b0; stroke-width: 0.8; stroke-linecap: square"/>
     </g>
     <g id="line2d_12">
      <g>
       <use xlink:href="#ma03bcdedb5" x="414.72" y="307.584" style="stroke: #000000; stroke-width: 0.8"/>
      </g>
     </g>
     <g id="text_6">
      <!-- 0.05 -->
      <g transform="translate(403.587188 322.182437) scale(0.1 -0.1)">
       <defs>
        <path id="DejaVuSans-35" d="M 691 4666 
L 3169 4666 
L 3169 4134 
L 1269 4134 
L 1269 2991 
Q 1406 3038 1543 3061 
Q 1681 3084 1819 3084 
Q 2600 3084 3056 2656 
Q 3513 2228 3513 1497 
Q 3513 744 3044 326 
Q 2575 -91 1722 -91 
Q 1428 -91 1123 -41 
Q 819 9 494 109 
L 494 744 
Q 775 591 1075 516 
Q 1375 441 1709 441 
Q 2250 441 2565 725 
Q 2881 1009 2881 1497 
Q 2881 1984 2565 2268 
Q 2250 2553 1709 2553 
Q 1456 2553 1204 2497 
Q 953 2441 691 2322 
L 691 4666 
z
" transform="scale(0.015625)"/>
       </defs>
       <use xlink:href="#DejaVuSans-30"/>
       <use xlink:href="#DejaVuSans-2e" x="63.623047"/>
       <use xlink:href="#DejaVuSans-30" x="95.410156"/>
       <use xlink:href="#DejaVuSans-35" x="159.033203"/>
      </g>
     </g>
    </g>
    <g id="text_7">
     <!-- Time (s) -->
     <g transform="translate(215.831094 335.860562) scale(0.1 -0.1)">
      <defs>
       <path id="DejaVuSans-54" d="M -19 4666 
L 3928 4666 
L 3928 4134 
L 2272 4134 
L 2272 0 
L 1638 0 
L 1638 4134 
L -19 4134 
L -19 4666 
z
" transform="scale(0.015625)"/>
       <path id="DejaVuSans-69" d="M 603 3500 
L 1178 3500 
L 1178 0 
L 603 0 
L 603 3500 
z
M 603 4863 
L 1178 4863 
L 1178 4134 
L 603 4134 
L 603 4863 
z
" transform="scale(0.015625)"/>
       <path id="DejaVuSans-6d" d="M 3328 2828 
Q 3544 3216 3844 3400 
Q 4144 3584 4550 3584 
Q 5097 3584 5394 3201 
Q 5691 2819 5691 2113 
L 5691 0 
L 5113 0 
L 5113 2094 
Q 5113 2597 4934 2840 
Q 4756 3084 4391 3084 
Q 3944 3084 3684 2787 
Q 3425 2491 3425 1978 
L 3425 0 
L 2847 0 
L 2847 2094 
Q 2847 2600 2669 2842 
Q 2491 3084 2119 3084 
Q 1678 3084 1418 2786 
Q 1159 2488 1159 1978 
L 1159 0 
L 581 0 
L 581 3500 
L 1159 3500 
L 1159 2956 
Q 1356 3278 1631 3431 
Q 1906 3584 2284 3584 
Q 2666 3584 2933 3390 
Q 3200 3197 3328 2828 
z
" transform="scale(0.015625)"/>
       <path id="DejaVuSans-65" d="M 3597 1894 
L 3597 1613 
L 953 1613 
Q 991 1019 1311 708 
Q 1631 397 2203 397 
Q 2534 397 2845 478 
Q 3156 559 3463 722 
L 3463 178 
Q 3153 47 2828 -22 
Q 2503 -91 2169 -91 
Q 1331 -91 842 396 
Q 353 884 353 1716 
Q 353 2575 817 3079 
Q 1281 3584 2069 3584 
Q 2775 3584 3186 3129 
Q 3597 2675 3597 1894 
z
M 3022 2063 
Q 3016 2534 2758 2815 
Q 2500 3097 2075 3097 
Q 1594 3097 1305 2825 
Q 1016 2553 972 2059 
L 3022 2063 
z
" transform="scale(0.015625)"/>
       <path id="DejaVuSans-20" transform="scale(0.015625)"/>
       <path id="DejaVuSans-28" d="M 1984 4856 
Q 1566 4138 1362 3434 
Q 1159 2731 1159 2009 
Q 1159 1288 1364 580 
Q 1569 -128 1984 -844 
L 1484 -844 
Q 1016 -109 783 600 
Q 550 1309 550 2009 
Q 550 2706 781 3412 
Q 1013 4119 1484 4856 
L 1984 4856 
z
" transform="scale(0.015625)"/>
       <path id="DejaVuSans-73" d="M 2834 3397 
L 2834 2853 
Q 2591 2978 2328 3040 
Q 2066 3103 1784 3103 
Q 1356 3103 1142 2972 
Q 928 2841 928 2578 
Q 928 2378 1081 2264 
Q 1234 2150 1697 2047 
L 1894 2003 
Q 2506 1872 2764 1633 
Q 3022 1394 3022 966 
Q 3022 478 2636 193 
Q 2250 -91 1575 -91 
Q 1294 -91 989 -36 
Q 684 19 347 128 
L 347 722 
Q 666 556 975 473 
Q 1284 391 1588 391 
Q 1994 391 2212 530 
Q 2431 669 2431 922 
Q 2431 1156 2273 1281 
Q 2116 1406 1581 1522 
L 1381 1569 
Q 847 1681 609 1914 
Q 372 2147 372 2553 
Q 372 3047 722 3315 
Q 1072 3584 1716 3584 
Q 2034 3584 2315 3537 
Q 2597 3491 2834 3397 
z
" transform="scale(0.015625)"/>
       <path id="DejaVuSans-29" d="M 513 4856 
L 1013 4856 
Q 1481 4119 1714 3412 
Q 1947 2706 1947 2009 
Q 1947 1309 1714 600 
Q 1481 -109 1013 -844 
L 513 -844 
Q 928 -128 1133 580 
Q 1338 1288 1338 2009 
Q 1338 2731 1133 3434 
Q 928 4138 513 4856 
z
" transform="scale(0.015625)"/>
      </defs>
      <use xlink:href="#DejaVuSans-54"/>
      <use xlink:href="#DejaVuSans-69" x="57.958984"/>
      <use xlink:href="#DejaVuSans-6d" x="85.742188"/>
      <use xlink:href="#DejaVuSans-65" x="183.154297"/>
      <use xlink:href="#DejaVuSans-20" x="244.677734"/>
      <use xlink:href="#DejaVuSans-28" x="276.464844"/>
      <use xlink:href="#DejaVuSans-73" x="315.478516"/>
      <use xlink:href="#DejaVuSans-29" x="367.578125"/>
     </g>
    </g>
   </g>
   <g id="matplotlib.axis_2">
    <g id="ytick_1">
     <g id="line2d_13">
      <path d="M 57.6 276.878769 
L 414.72 276.878769 
" clip-path="url(#pe5a807864a)" style="fill: none; stroke: #b0b0b0; stroke-width: 0.8; stroke-linecap: square"/>
     </g>
     <g id="line2d_14">
      <defs>
       <path id="mb19c378873" d="M 0 0 
L -3.5 0 
" style="stroke: #000000; stroke-width: 0.8"/>
      </defs>
      <g>
       <use xlink:href="#mb19c378873" x="57.6" y="276.878769" style="stroke: #000000; stroke-width: 0.8"/>
      </g>
     </g>
     <g id="text_8">
      <!-- −1.0 -->
      <g transform="translate(26.317187 280.677988) scale(0.1 -0.1)">
       <defs>
        <path id="DejaVuSans-2212" d="M 678 2272 
L 4684 2272 
L 4684 1741 
L 678 1741 
L 678 2272 
z
" transform="scale(0.015625)"/>
       </defs>
       <use xlink:href="#DejaVuSans-2212"/>
       <use xlink:href="#DejaVuSans-31" x="83.789062"/>
       <use xlink:href="#DejaVuSans-2e" x="147.412109"/>
       <use xlink:href="#DejaVuSans-30" x="179.199219"/>
      </g>
     </g>
    </g>
    <g id="ytick_2">
     <g id="line2d_15">
      <path d="M 57.6 225.703385 
L 414.72 225.703385 
" clip-path="url(#pe5a807864a)" style="fill: none; stroke: #b0b0b0; stroke-width: 0.8; stroke-linecap: square"/>
     </g>
     <g id="line2d_16">
      <g>
       <use xlink:href="#mb19c378873" x="57.6" y="225.703385" style="stroke: #000000; stroke-width: 0.8"/>
      </g>
     </g>
     <g id="text_9">
      <!-- −0.5 -->
      <g transform="translate(26.317187 229.502603) scale(0.1 -0.1)">
       <use xlink:href="#DejaVuSans-2212"/>
       <use xlink:href="#DejaVuSans-30" x="83.789062"/>
       <use xlink:href="#DejaVuSans-2e" x="147.412109"/>
       <use xlink:href="#DejaVuSans-35" x="179.199219"/>
      </g>
     </g>
    </g>
    <g id="ytick_3">
     <g id="line2d_17">
      <path d="M 57.6 174.528 
L 414.72 174.528 
" clip-path="url(#pe5a807864a)" style="fill: none; stroke: #b0b0b0; stroke-width: 0.8; stroke-linecap: square"/>
     </g>
     <g id="line2d_18">
      <g>
       <use xlink:href="#mb19c378873" x="57.6" y="174.528" style="stroke: #000000; stroke-width: 0.8"/>
      </g>
     </g>
     <g id="text_10">
      <!-- 0.0 -->
      <g transform="translate(34.696875 178.327219) scale(0.1 -0.1)">
       <use xlink:href="#DejaVuSans-30"/>
       <use xlink:href="#DejaVuSans-2e" x="63.623047"/>
       <use xlink:href="#DejaVuSans-30" x="95.410156"/>
      </g>
     </g>
    </g>
    <g id="ytick_4">
     <g id="line2d_19">
      <path d="M 57.6 123.352615 
L 414.72 123.352615 
" clip-path="url(#pe5a807864a)" style="fill: none; stroke: #b0b0b0; stroke-width: 0.8; stroke-linecap: square"/>
     </g>
     <g id="line2d_20">
      <g>
       <use xlink:href="#mb19c378873" x="57.6" y="123.352615" style="stroke: #000000; stroke-width: 0.8"/>
      </g>
     </g>
     <g id="text_11">
      <!-- 0.5 -->
      <g transform="translate(34.696875 127.151834) scale(0.1 -0.1)">
       <use xlink:href="#DejaVuSans-30"/>
       <use xlink:href="#DejaVuSans-2e" x="63.623047"/>
       <use xlink:href="#DejaVuSans-35" x="95.410156"/>
      </g>
     </g>
    </g>
    <g id="ytick_5">
     <g id="line2d_21">
      <path d="M 57.6 72.177231 
L 414.72 72.177231 
" clip-path="url(#pe5a807864a)" style="fill: none; stroke: #b0b0b0; stroke-width: 0.8; stroke-linecap: square"/>
     </g>
     <g id="line2d_22">
      <g>
       <use xlink:href="#mb19c378873" x="57.6" y="72.177231" style="stroke: #000000; stroke-width: 0.8"/>
      </g>
     </g>
     <g id="text_12">
      <!-- 1.0 -->
      <g transform="translate(34.696875 75.97645) scale(0.1 -0.1)">
       <use xlink:href="#DejaVuSans-31"/>
       <use xlink:href="#DejaVuSans-2e" x="63.623047"/>
       <use xlink:href="#DejaVuSans-30" x="95.410156"/>
      </g>
     </g>
    </g>
    <g id="text_13">
     <!-- $C_{L}$ $C_{D}$ -->
     <g transform="translate(20.2375 188.028) rotate(-90) scale(0.1 -0.1)">
      <defs>
       <path id="DejaVuSans-Oblique-43" d="M 4447 4306 
L 4319 3641 
Q 4019 3944 3683 4091 
Q 3347 4238 2956 4238 
Q 2422 4238 2017 3981 
Q 1613 3725 1319 3200 
Q 1131 2863 1032 2486 
Q 934 2109 934 1728 
Q 934 1091 1264 756 
Q 1594 422 2222 422 
Q 2656 422 3056 561 
Q 3456 700 3834 978 
L 3688 231 
Q 3316 72 2936 -9 
Q 2556 -91 2175 -91 
Q 1278 -91 773 396 
Q 269 884 269 1753 
Q 269 2309 461 2846 
Q 653 3384 1013 3828 
Q 1394 4300 1883 4525 
Q 2372 4750 3022 4750 
Q 3422 4750 3780 4639 
Q 4138 4528 4447 4306 
z
" transform="scale(0.015625)"/>
       <path id="DejaVuSans-Oblique-4c" d="M 1075 4666 
L 1709 4666 
L 909 525 
L 3181 525 
L 3078 0 
L 172 0 
L 1075 4666 
z
" transform="scale(0.015625)"/>
       <path id="DejaVuSans-Oblique-44" d="M 1081 4666 
L 2438 4666 
Q 3519 4666 4070 4208 
Q 4622 3750 4622 2847 
Q 4622 2250 4412 1698 
Q 4203 1147 3834 769 
Q 3463 381 2891 190 
Q 2319 0 1538 0 
L 172 0 
L 1081 4666 
z
M 1613 4147 
L 909 519 
L 1734 519 
Q 2794 519 3375 1128 
Q 3956 1738 3956 2847 
Q 3956 3519 3581 3833 
Q 3206 4147 2406 4147 
L 1613 4147 
z
" transform="scale(0.015625)"/>
      </defs>
      <use xlink:href="#DejaVuSans-Oblique-43" transform="translate(0 0.78125)"/>
      <use xlink:href="#DejaVuSans-Oblique-4c" transform="translate(69.824219 -15.625) scale(0.7)"/>
      <use xlink:href="#DejaVuSans-20" transform="translate(111.557617 0.78125)"/>
      <use xlink:href="#DejaVuSans-Oblique-43" transform="translate(143.344727 0.78125)"/>
      <use xlink:href="#DejaVuSans-Oblique-44" transform="translate(213.168945 -15.625) scale(0.7)"/>
     </g>
    </g>
   </g>
   <g id="line2d_23">
    <path d="M 57.6 174.528 
L 57.874708 176.558008 
L 57.940638 169.036593 
L 58.005249 170.793836 
L 58.071206 170.933025 
L 58.273577 172.992675 
L 58.344251 172.642147 
L 58.491182 172.341379 
L 58.886485 173.253808 
L 59.055723 172.971817 
L 59.140342 173.069161 
L 59.316938 173.625862 
L 59.670131 173.853113 
L 59.758429 173.678264 
L 59.846727 173.824857 
L 59.935026 173.75371 
L 60.111622 174.107971 
L 60.288218 174.030609 
L 60.553113 174.035201 
L 60.818007 173.807967 
L 60.906305 173.851426 
L 61.082902 173.715398 
L 61.1712 173.724786 
L 61.557276 173.406908 
L 61.653795 173.452881 
L 61.949786 173.182219 
L 62.647939 172.976131 
L 62.847412 172.848279 
L 63.246357 172.657421 
L 63.445829 172.701399 
L 64.243719 172.571635 
L 64.542928 172.749804 
L 65.057506 172.826432 
L 65.162541 172.900913 
L 65.477647 172.757218 
L 65.687718 172.822345 
L 66.002824 173.004547 
L 66.843106 173.054625 
L 67.368282 173.358807 
L 67.683388 173.417477 
L 68.421818 173.781058 
L 68.854691 174.114757 
L 69.504 174.769667 
L 70.6944 176.5823 
L 71.235491 177.705065 
L 72.2196 179.817123 
L 72.7776 180.965457 
L 73.782 183.091812 
L 74.4516 184.359177 
L 75.2328 185.944602 
L 75.5676 186.521121 
L 77.2416 188.698942 
L 77.4648 188.867704 
L 78.6924 190.740789 
L 79.6968 194.550643 
L 79.92 195.757653 
L 80.9244 199.285662 
L 81.3708 199.695788 
L 81.4824 199.793296 
L 81.594 199.711133 
L 81.8172 199.887063 
L 82.0404 199.514625 
L 83.7144 195.891536 
L 84.1608 195.471072 
L 84.2724 195.38259 
L 84.8304 195.742562 
L 85.9464 197.503767 
L 86.7276 199.044023 
L 89.406 202.931218 
L 90.0756 203.616907 
L 90.9684 204.210311 
L 91.8612 204.512221 
L 93.312 204.199828 
L 94.3164 203.596692 
L 95.4324 202.532018 
L 96.3252 201.369154 
L 97.3296 199.658205 
L 98.334 197.474896 
L 99.45 194.478425 
L 100.6848 190.437569 
L 102.0672 185.030451 
L 103.5648 178.155761 
L 105.120768 169.957264 
L 107.349197 156.821503 
L 110.657829 137.186405 
L 111.98588 130.543039 
L 112.903653 126.769551 
L 113.821427 123.857619 
L 114.476979 122.409839 
L 115.121829 121.493501 
L 115.632 121.163087 
L 116.142171 121.135274 
L 116.5248 121.342572 
L 117.034971 121.932949 
L 117.630171 123.074769 
L 118.3104 125.059811 
L 118.921388 127.463377 
L 119.750247 131.685214 
L 120.697515 137.904946 
L 121.8816 147.72088 
L 123.19104 160.795509 
L 124.97664 181.381736 
L 127.812493 214.453497 
L 129.126034 227.247466 
L 130.218401 235.875157 
L 131.07956 240.893465 
L 131.932108 244.369593 
L 132.5952 246.094511 
L 132.877137 246.551473 
L 133.065095 246.703075 
L 133.441011 246.989571 
L 134.004884 247.078419 
L 134.474779 246.753012 
L 134.944674 246.139719 
L 135.320589 245.34258 
L 135.884463 243.890018 
L 136.448337 241.855561 
L 137.294147 237.923767 
L 138.233937 232.415825 
L 139.361684 224.403985 
L 141.039104 210.489812 
L 143.417018 188.932264 
L 150.20491 125.470977 
L 151.201741 118.775314 
L 151.937565 114.778621 
L 152.796026 111.461632 
L 153.531851 109.369874 
L 154.727684 107.332802 
L 155.085924 107.013828 
L 155.444163 106.815746 
L 156.041229 106.945198 
L 156.399468 107.273246 
L 156.877121 108.06369 
L 157.354774 109.313999 
L 158.06976 111.831173 
L 158.90304 116.161256 
L 159.61728 120.843648 
L 160.45056 127.409489 
L 161.64096 139.189454 
L 162.9504 154.611265 
L 165.400094 187.430717 
L 168.9954 236.406787 
L 169.8603 244.576202 
L 170.597067 249.262822 
L 171.054686 251.164071 
L 171.786876 253.013379 
L 172.427815 253.648804 
L 172.977231 253.63982 
L 173.618215 252.877614 
L 174.167631 251.482883 
L 174.717046 249.234277 
L 175.358031 245.615747 
L 176.456862 237.586185 
L 179.117319 216.597171 
L 180.505488 207.99506 
L 181.995854 200.781018 
L 183.018918 196.915608 
L 184.103153 193.427379 
L 184.862118 191.146401 
L 186.7392 185.043664 
L 187.6608 181.638608 
L 188.5824 177.896547 
L 189.6192 171.749017 
L 191.28192 160.369663 
L 191.99616 157.202301 
L 192.47232 155.81661 
L 193.18656 154.900242 
L 193.42464 154.782472 
L 194.37696 155.109233 
L 194.85312 155.349732 
L 195.44832 155.548344 
L 195.80544 155.668826 
L 196.2816 155.890502 
L 197.35296 156.846932 
L 197.71008 157.176085 
L 198.42432 157.973039 
L 198.6624 158.183724 
L 199.8528 159.61214 
L 201.925738 162.784651 
L 202.910897 164.340494 
L 203.157186 164.713659 
L 204.0192 165.76896 
L 205.373793 166.833536 
L 207.5904 168.419811 
L 210.176441 171.460055 
L 212.516193 175.190234 
L 223.18464 192.598738 
L 224.787102 194.730371 
L 226.0224 196.025026 
L 227.0592 196.831547 
L 227.9808 197.301253 
L 228.7872 197.509696 
L 229.5936 197.514005 
L 230.4 197.304722 
L 231.2064 196.864227 
L 232.128 196.082397 
L 233.0496 194.998648 
L 234.0864 193.405084 
L 235.1232 191.425438 
L 236.39808 188.456623 
L 237.82656 184.446414 
L 239.37408 179.389591 
L 241.332083 172.163007 
L 246.490971 152.614814 
L 247.799467 148.704918 
L 248.8576 146.177424 
L 249.783467 144.529631 
L 250.4448 143.735982 
L 251.131569 143.265319 
L 251.543631 143.170564 
L 252.093046 143.235355 
L 252.779815 143.709243 
L 253.329231 144.348517 
L 254.016 145.523539 
L 254.840123 147.47028 
L 255.8016 150.483833 
L 256.949486 155.118471 
L 258.110976 160.842562 
L 259.507712 168.891602 
L 261.27744 180.41456 
L 263.482514 195.124648 
L 265.499255 207.013985 
L 266.684524 212.47557 
L 267.510621 215.445962 
L 268.3008 217.461241 
L 269.036047 218.618624 
L 269.561224 218.993159 
L 269.971361 219.03951 
L 270.371496 218.881974 
L 270.871664 218.392313 
L 271.671933 216.863902 
L 272.292141 215.174597 
L 273.027388 212.587665 
L 273.867671 208.813731 
L 274.918024 203.023578 
L 276.200727 194.490791 
L 277.715782 182.706932 
L 283.350857 137.352766 
L 284.3712 131.294231 
L 285.391543 126.470356 
L 286.1568 123.785887 
L 286.784703 122.102173 
L 287.520528 120.774674 
L 288.256352 120.163393 
L 288.746901 120.053747 
L 289.237451 120.219237 
L 289.605363 120.527555 
L 290.343724 121.459285 
L 290.959448 122.747386 
L 291.575172 124.489484 
L 292.437186 127.858899 
L 293.668634 134.608778 
L 294.776938 142.669271 
L 296.008386 153.517432 
L 298.164313 176.329158 
L 302.311592 222.090899 
L 303.612516 232.444101 
L 304.505794 237.327124 
L 305.371539 240.380663 
L 305.852509 241.323202 
L 306.141091 241.686082 
L 306.718255 241.896433 
L 306.910642 241.879967 
L 307.391612 241.508633 
L 307.777038 240.843304 
L 308.356151 239.423273 
L 308.935265 237.322032 
L 309.707416 233.417862 
L 310.479568 228.345384 
L 311.4528 220.381304 
L 312.846821 206.758446 
L 314.413137 189.456004 
L 319.445486 132.92361 
L 320.593371 123.12057 
L 321.528686 116.837411 
L 322.34496 112.781523 
L 323.053789 110.304463 
L 323.508305 109.163806 
L 324.076451 108.125725 
L 324.871855 107.161927 
L 325.6704 106.657446 
L 326.016 106.684845 
L 326.3616 106.924706 
L 326.7072 107.354753 
L 327.168 108.306038 
L 327.744 110.10299 
L 328.5504 113.465336 
L 329.5872 119.353815 
L 330.624 126.745427 
L 332.82869 145.189521 
L 335.382577 169.252135 
L 338.998836 205.208713 
L 341.409745 229.495905 
L 342.358388 236.953197 
L 343.108478 241.196451 
L 343.682076 243.657143 
L 344.81962 246.405001 
L 345.284979 246.912878 
L 345.564195 247.083653 
L 346.029554 247.16958 
L 346.308769 247.005025 
L 346.681056 246.608204 
L 347.055158 245.94724 
L 347.525053 244.729226 
L 348.088926 242.637518 
L 348.934737 237.939851 
L 349.968505 230.560421 
L 350.8352 222.778297 
L 352.4224 206.532748 
L 359.928685 123.173539 
L 360.707158 117.21744 
L 361.71 111.996425 
L 362.251467 110.140214 
L 363.541067 107.533836 
L 364.828235 105.754739 
L 365.353412 105.796377 
L 365.773553 106.304781 
L 366.403765 108.083373 
L 367.033976 110.837774 
L 367.874259 115.726126 
L 368.943709 123.561763 
L 373.5872 162.12091 
L 376.402747 180.508233 
L 378.59116 193.92556 
L 381.86496 216.635213 
L 382.987337 222.206827 
L 383.497509 223.776229 
L 384.384422 225.119314 
L 384.776862 225.340696 
L 385.75796 225.390522 
L 386.456503 225.240033 
L 386.660571 225.275555 
L 387.884983 224.334286 
L 388.803291 223.064191 
L 389.823634 220.95814 
L 390.537874 218.990027 
L 391.048046 217.321073 
L 391.966354 213.712434 
L 393.088731 208.309112 
L 395.457164 192.58973 
L 398.2464 170.565564 
L 400.4352 154.516988 
L 402.774952 139.787204 
L 404.531288 130.14567 
L 405.937763 123.574188 
L 406.946894 119.807132 
L 407.82389 117.364608 
L 408.562759 116.029652 
L 409.301628 115.43771 
L 409.794207 115.459137 
L 410.163641 115.699788 
L 410.635697 116.329833 
L 410.943559 116.883779 
L 411.61829 118.604781 
L 412.334069 121.241529 
L 413.169145 125.405039 
L 414.004221 130.838772 
L 414.72 136.476192 
L 414.72 136.476192 
" clip-path="url(#pe5a807864a)" style="fill: none; stroke: #0000ff; stroke-width: 1.5; stroke-linecap: square"/>
   </g>
   <g id="line2d_24">
    <path d="M 57.6 173.274161 
L 57.635058 -1 
M 57.938523 -1 
L 58.005249 86.113829 
L 58.137163 103.555159 
L 58.491182 109.235799 
L 58.567754 109.340135 
L 59.140342 112.006371 
L 59.22864 112.271941 
L 59.316938 112.097146 
L 59.581833 112.992835 
L 59.670131 113.125779 
L 60.111622 114.561943 
L 60.818007 117.514664 
L 61.949786 123.705513 
L 62.947148 128.389938 
L 64.044246 132.548729 
L 64.952471 135.682773 
L 65.372612 137.00241 
L 66.317929 139.9395 
L 68.530036 145.802867 
L 69.179345 147.01276 
L 69.720436 147.804323 
L 70.045091 148.096355 
L 70.802618 148.245831 
L 71.235491 148.011944 
L 71.560145 147.633268 
L 72.3312 146.266477 
L 72.8892 144.626867 
L 73.5588 141.99658 
L 74.5632 137.144215 
L 75.6792 130.751741 
L 76.572 125.221111 
L 77.688 118.996017 
L 78.9156 114.17596 
L 79.4736 112.942341 
L 79.92 112.196233 
L 80.1432 112.237335 
L 80.3664 112.608308 
L 80.7012 112.610732 
L 81.3708 113.386703 
L 82.152 114.988759 
L 83.1564 117.230162 
L 83.7144 118.314958 
L 84.2724 119.225704 
L 85.0536 119.9673 
L 85.5 120.15761 
L 86.058 120.270507 
L 86.616 119.96771 
L 87.0624 119.511716 
L 87.5088 118.78214 
L 89.964 114.732771 
L 90.6336 114.144687 
L 91.4148 113.812882 
L 92.8656 113.804597 
L 93.6468 114.010513 
L 95.0976 114.711384 
L 96.102 115.411822 
L 98.2224 116.96696 
L 99.2268 117.378038 
L 100.008 117.543962 
L 101.7216 117.639107 
L 102.9888 117.822546 
L 107.472998 118.989886 
L 108.362057 118.864708 
L 109.127314 118.533189 
L 109.892571 117.927852 
L 110.657829 117.010045 
L 111.580062 115.489991 
L 112.641432 113.181486 
L 114.7392 107.865684 
L 116.014629 104.854837 
L 117.162514 102.759015 
L 117.970286 101.809136 
L 118.55669 101.453127 
L 119.158205 101.336276 
L 119.750247 101.469865 
L 120.34229 101.801259 
L 120.815924 102.190588 
L 122.59584 104.32215 
L 124.50048 106.570615 
L 125.29408 107.112355 
L 125.4528 107.175855 
L 125.750674 107.349675 
L 126.968765 107.286104 
L 127.711534 106.918243 
L 128.418247 106.483693 
L 130.70065 105.31747 
L 131.45847 105.4662 
L 132.026835 105.860375 
L 132.783158 106.777644 
L 133.722947 108.766756 
L 133.910905 109.050446 
L 135.602526 113.462123 
L 138.327916 121.04837 
L 139.173726 122.513224 
L 139.643621 122.957922 
L 140.3328 123.133614 
L 140.832768 122.864599 
L 141.24544 122.369625 
L 141.864448 121.298597 
L 142.896128 118.740818 
L 145.316073 112.153007 
L 146.209745 110.759137 
L 147.003145 109.950192 
L 147.865159 109.622919 
L 148.357738 109.563365 
L 148.604028 109.617119 
L 149.958621 110.319693 
L 151.937565 111.765423 
L 152.428114 111.98455 
L 152.550752 111.990063 
L 152.796026 112.146794 
L 153.62996 112.256934 
L 153.72807 112.149448 
L 153.92429 112.184249 
L 154.369445 112.102063 
L 154.727684 111.855547 
L 155.32475 111.402373 
L 155.802403 111.040999 
L 156.280055 110.871164 
L 156.996534 110.890885 
L 157.474187 111.190914 
L 158.54592 112.523705 
L 159.85536 114.091534 
L 160.33152 114.413173 
L 160.5696 114.440187 
L 161.40288 114.172837 
L 161.87904 113.702333 
L 162.47424 112.527185 
L 163.30752 109.996006 
L 163.90272 107.795589 
L 164.450304 105.334218 
L 165.288282 101.658532 
L 166.375093 97.687717 
L 166.993872 96.142175 
L 167.701049 94.810252 
L 168.4064 93.780641 
L 168.5056 93.739746 
L 168.8032 93.282094 
L 169.3798 92.895143 
L 169.9564 92.826881 
L 170.505543 93.184345 
L 170.963162 93.651858 
L 171.237733 94.269652 
L 171.420781 94.633992 
L 172.519385 97.208706 
L 173.618215 100.990491 
L 174.2592 104.267616 
L 174.991754 109.176818 
L 177.738831 129.215427 
L 178.379815 131.689663 
L 178.929231 132.854488 
L 179.213838 133.122041 
L 179.611269 133.095347 
L 180.0087 132.842279 
L 180.604846 131.915111 
L 181.598423 129.748411 
L 182.910494 127.005358 
L 183.994729 125.330346 
L 184.970541 124.540263 
L 185.404235 124.361618 
L 186.2784 124.333535 
L 187.3152 124.828462 
L 188.2368 126.106336 
L 188.352 126.190995 
L 188.6976 126.751697 
L 191.63904 130.320348 
L 192.82944 131.964073 
L 193.42464 132.368338 
L 193.9008 132.236857 
L 194.25792 131.910049 
L 195.21024 129.845538 
L 196.16256 126.369348 
L 197.94816 120.054336 
L 199.37664 116.171607 
L 200.32896 114.408919 
L 201.063724 113.614608 
L 201.310014 113.525943 
L 201.556303 113.391318 
L 201.802593 113.505898 
L 202.172028 113.573239 
L 202.664607 113.895109 
L 203.157186 114.397882 
L 203.77291 115.298527 
L 205.496938 118.401918 
L 206.482097 119.978575 
L 207.097821 120.695681 
L 207.713545 121.167265 
L 208.329269 121.425567 
L 209.314428 121.499421 
L 211.654179 121.096046 
L 212.885628 121.121295 
L 214.240221 121.421243 
L 215.594814 121.902126 
L 216.890512 122.438178 
L 220.0896 123.63402 
L 221.75616 123.996208 
L 223.54176 124.14145 
L 225.6768 124.087025 
L 231.7824 123.526729 
L 235.2384 123.402475 
L 237.9456 123.544308 
L 241.332083 123.807672 
L 242.932966 123.736646 
L 244.322743 123.41507 
L 245.470629 122.924965 
L 246.746057 122.117826 
L 248.064 121.011471 
L 250.048 118.991385 
L 253.329231 115.641806 
L 254.840123 114.469478 
L 256.056686 113.878677 
L 257.077029 113.717543 
L 257.984 113.849898 
L 258.872832 114.229267 
L 260.227243 115.157103 
L 263.369143 117.554766 
L 265.176 117.812285 
L 265.930262 117.563164 
L 266.684524 117.123335 
L 268.3008 115.676096 
L 270.871664 113.208176 
L 271.471866 112.893011 
L 272.082071 112.470869 
L 273.132424 112.042709 
L 274.182776 111.882106 
L 275.128094 112.053603 
L 276.417164 112.65731 
L 279.830016 114.547629 
L 280.668672 114.621972 
L 281.38752 114.424522 
L 282.106368 114.019801 
L 282.840686 113.394382 
L 285.774171 110.228563 
L 286.539429 109.810701 
L 287.39789 109.723892 
L 287.765802 109.893584 
L 288.624264 110.365451 
L 290.220579 111.769395 
L 291.944607 113.645074 
L 293.176055 114.921445 
L 294.161214 115.365285 
L 294.776938 115.358454 
L 295.515807 115.03137 
L 296.98944 113.179225 
L 298.505906 110.43477 
L 299.075228 109.323798 
L 300.021178 107.749069 
L 300.658036 107.087895 
L 300.867709 106.90674 
L 301.7064 106.298342 
L 303.11216 105.882185 
L 303.812658 105.912083 
L 304.2112 105.91407 
L 305.467733 106.183499 
L 305.563927 106.172473 
L 305.948703 106.47582 
L 306.237285 106.627814 
L 307.873557 107.422683 
L 309.031784 108.514776 
L 309.707416 109.416438 
L 311.6512 112.031433 
L 312.2464 112.457936 
L 313.055663 112.446227 
L 313.682189 112.037675 
L 314.517558 110.933354 
L 314.7264 110.55083 
L 319.062857 102.040209 
L 320.0832 100.551596 
L 320.720914 99.945996 
L 321.301943 99.684361 
L 321.8688 99.73298 
L 322.70208 100.271616 
L 323.281047 101.135635 
L 324.644596 103.424825 
L 326.2464 106.475833 
L 326.8224 108.145478 
L 327.6288 111.111973 
L 330.2784 121.393667 
L 331.0848 123.713655 
L 331.6608 124.859856 
L 332.1216 125.405034 
L 332.82869 125.18319 
L 333.321269 124.450404 
L 334.029352 122.478149 
L 334.721699 119.652702 
L 337.127564 108.609643 
L 337.858036 106.255638 
L 338.584 104.928504 
L 338.998836 104.538939 
L 339.369226 104.370769 
L 340.019872 104.460428 
L 340.416979 104.963153 
L 340.714808 105.303234 
L 342.077104 107.53635 
L 343.392519 109.943322 
L 344.354261 111.392567 
L 345.191907 112.101308 
L 345.378051 111.997082 
L 345.750338 112.114622 
L 346.8672 112.234207 
L 348.088926 113.307238 
L 350.062484 116.602269 
L 350.736 117.357617 
L 351.232 117.391477 
L 351.6288 117.204736 
L 352.1248 116.56414 
L 352.6208 115.522871 
L 353.6128 112.321921 
L 354.558154 108.368973 
L 356.013502 102.537732 
L 356.461302 101.178503 
L 358.214768 96.043755 
L 359.210873 93.498768 
L 360.039896 91.996613 
L 360.484737 91.539917 
L 361.04079 91.378402 
L 361.4868 91.404476 
L 363.003733 92.986274 
L 364.14288 93.790703 
L 364.52976 94.011801 
L 365.038306 94.723605 
L 365.668518 96.553172 
L 366.403765 100.19722 
L 367.454118 106.898104 
L 369.268364 118.468126 
L 370.134109 122.898501 
L 370.783418 125.187303 
L 371.540945 126.353341 
L 371.8656 126.264755 
L 372.2112 125.89831 
L 372.5568 125.154189 
L 373.248 122.998279 
L 374.5664 117.763273 
L 375.653236 113.934803 
L 376.402747 112.224393 
L 376.819588 111.597348 
L 377.236428 111.323967 
L 377.757479 111.310577 
L 378.278529 111.654381 
L 378.69537 112.159991 
L 379.824274 114.52818 
L 380.538514 116.558284 
L 380.844617 117.673778 
L 382.477166 122.522819 
L 383.191406 124.347333 
L 383.395474 124.761222 
L 383.893872 125.597899 
L 384.580642 126.155439 
L 384.973081 126.157725 
L 385.561741 125.792104 
L 386.354469 124.671277 
L 386.966674 123.201652 
L 388.191086 120.114539 
L 389.517531 116.312309 
L 391.966354 109.523569 
L 392.680594 108.114392 
L 392.986697 107.64548 
L 393.2928 107.264249 
L 393.617455 107.020794 
L 394.266764 106.869218 
L 395.240727 107.190269 
L 395.457164 107.344164 
L 395.6736 107.585269 
L 397.0944 109.837538 
L 400.2048 116.413788 
L 400.927779 117.268082 
L 401.543503 117.647557 
L 401.912938 117.684979 
L 402.282372 117.566456 
L 402.774952 117.17317 
L 403.390676 116.340019 
L 404.0064 115.105465 
L 405.054774 112.332999 
L 409.178483 99.840396 
L 410.040497 98.091576 
L 411.046179 96.601822 
L 411.976179 95.620346 
L 412.811255 95.030485 
L 413.646331 94.771443 
L 414.72 94.851737 
L 414.72 94.851737 
" clip-path="url(#pe5a807864a)" style="fill: none; stroke: #ff0000; stroke-width: 1.5; stroke-linecap: square"/>
   </g>
   <g id="line2d_25">
    <path d="M 57.6 174.528 
L 57.874708 172.605738 
L 57.940638 179.9598 
L 58.005249 178.263843 
L 58.071206 178.135272 
L 58.273577 176.029227 
L 58.344251 176.363381 
L 58.491182 176.678436 
L 58.886485 175.809411 
L 59.055723 176.095252 
L 59.140342 175.998179 
L 59.316938 175.441717 
L 59.670131 175.207287 
L 59.758429 175.384899 
L 59.846727 175.23762 
L 59.935026 175.310495 
L 60.111622 174.942679 
L 60.288218 175.026096 
L 60.553113 175.019242 
L 60.818007 175.24583 
L 60.906305 175.201969 
L 61.082902 175.33618 
L 61.267719 175.430389 
L 61.460757 175.538682 
L 61.750314 175.749386 
L 62.049522 175.920759 
L 62.248995 176.044556 
L 62.448467 176.070914 
L 64.243719 176.49103 
L 64.542928 176.313045 
L 65.057506 176.237394 
L 65.162541 176.163804 
L 65.477647 176.304478 
L 65.687718 176.239184 
L 66.002824 176.056708 
L 66.843106 176.006086 
L 67.368282 175.703974 
L 67.683388 175.645517 
L 68.421818 175.283375 
L 68.854691 174.950502 
L 69.504 174.295747 
L 70.6944 172.483878 
L 71.235491 171.357693 
L 72.2196 169.242453 
L 72.7776 168.094703 
L 73.782 165.968358 
L 74.4516 164.701725 
L 75.2328 163.117148 
L 75.5676 162.540115 
L 77.2416 160.362951 
L 77.4648 160.194342 
L 78.804 157.916048 
L 79.6968 154.511197 
L 79.92 153.300688 
L 80.9244 149.766683 
L 81.2592 149.345049 
L 81.594 149.334326 
L 81.8172 149.165381 
L 82.0404 149.529547 
L 83.7144 153.157205 
L 84.1608 153.57617 
L 84.2724 153.663812 
L 84.8304 153.306366 
L 85.9464 151.54504 
L 86.7276 150.0003 
L 89.2944 146.245817 
L 89.964 145.503171 
L 90.8568 144.838899 
L 92.196 144.542256 
L 92.8656 144.638161 
L 93.6468 144.96232 
L 94.3164 145.387968 
L 95.4324 146.440964 
L 96.3252 147.595749 
L 97.218 149.084137 
L 98.2224 151.20461 
L 99.2268 153.804587 
L 100.2312 156.912383 
L 101.4912 161.515113 
L 102.8736 167.419998 
L 104.38272 174.889763 
L 105.987379 183.862599 
L 109.254857 203.609968 
L 111.040457 213.697127 
L 112.248101 219.49245 
L 113.296985 223.50706 
L 114.083648 225.746179 
L 114.60809 226.787689 
L 115.249371 227.62098 
L 115.759543 227.893211 
L 116.142171 227.898469 
L 116.5248 227.71852 
L 117.034971 227.154507 
L 117.630171 226.043097 
L 118.3104 224.09933 
L 118.921388 221.73233 
L 119.750247 217.562783 
L 120.697515 211.401662 
L 121.8816 201.647166 
L 123.19104 188.631949 
L 124.97664 168.095496 
L 127.812493 134.963989 
L 129.126034 122.106587 
L 130.317435 112.756475 
L 131.174288 107.881135 
L 132.026835 104.503664 
L 132.689179 102.847665 
L 132.971116 102.498677 
L 133.534989 102.053112 
L 134.004884 101.980979 
L 134.3808 102.199351 
L 134.850695 102.735064 
L 135.226611 103.428549 
L 136.1664 106.007858 
L 136.824253 108.695493 
L 137.576084 112.488048 
L 138.609853 118.962886 
L 139.7376 127.41649 
L 142.173952 148.415973 
L 147.12629 195.025669 
L 149.835476 220.491883 
L 150.956466 228.675706 
L 151.937565 234.198232 
L 152.796026 237.562191 
L 153.531851 239.673874 
L 154.727684 241.740376 
L 155.085924 242.067111 
L 155.444163 242.278582 
L 156.041229 242.161729 
L 156.399468 241.846208 
L 156.877121 241.075315 
L 157.354774 239.84506 
L 158.1888 236.802887 
L 158.90304 233.032908 
L 159.61728 228.373166 
L 160.45056 221.830733 
L 161.52192 211.411497 
L 163.18848 191.63444 
L 166.482432 146.540088 
L 168.704 116.124413 
L 169.572 107.103577 
L 170.139448 102.562197 
L 170.780114 98.896539 
L 171.054686 97.912892 
L 171.786876 96.044894 
L 172.336246 95.458247 
L 172.610954 95.35737 
L 172.977231 95.376447 
L 173.709785 96.303754 
L 174.167631 97.482872 
L 174.717046 99.712526 
L 175.358031 103.298786 
L 176.365292 110.572185 
L 179.710626 136.279394 
L 180.902919 143.045261 
L 182.293927 149.318359 
L 183.127341 152.473026 
L 188.1216 169.078774 
L 188.928 173.082782 
L 190.56768 184.224222 
L 191.40096 189.360125 
L 191.99616 191.928648 
L 192.47232 193.314992 
L 192.94848 194.046926 
L 193.42464 194.39431 
L 194.496 193.98047 
L 195.21024 193.642649 
L 195.92448 193.47219 
L 196.2816 193.323125 
L 196.99584 192.65344 
L 198.18624 191.547965 
L 198.54336 191.153187 
L 199.8528 189.597537 
L 202.172028 185.974092 
L 203.526621 183.851353 
L 203.896055 183.515279 
L 204.511779 182.912549 
L 207.5904 180.616298 
L 208.452414 179.755432 
L 209.560717 178.409828 
L 211.531034 175.377277 
L 221.75616 158.341192 
L 223.77984 155.30558 
L 225.226634 153.521099 
L 226.368 152.439119 
L 227.4048 151.742174 
L 228.3264 151.38648 
L 229.1328 151.283561 
L 229.9392 151.392321 
L 230.7456 151.7293 
L 231.552 152.292927 
L 232.4736 153.218983 
L 233.3952 154.466073 
L 234.432 156.238922 
L 235.4688 158.402729 
L 236.7552 161.642337 
L 238.18368 165.901479 
L 239.854345 171.66995 
L 241.578372 178.265868 
L 245.9808 195.352226 
L 247.402667 199.889796 
L 248.4608 202.636276 
L 249.386667 204.486116 
L 250.180267 205.598135 
L 250.856862 206.161867 
L 251.406277 206.343002 
L 251.818338 206.342756 
L 252.642462 205.819692 
L 253.191877 205.181508 
L 253.878646 204.012307 
L 254.565415 202.405806 
L 255.389538 199.965073 
L 256.311771 196.508293 
L 257.459657 191.221919 
L 258.745856 184.1297 
L 260.460032 173.198994 
L 265.176 142.613413 
L 266.145766 137.80429 
L 267.214303 133.573994 
L 268.202028 130.977005 
L 268.825976 129.980862 
L 269.246118 129.614472 
L 269.666259 129.478629 
L 270.171429 129.609145 
L 270.671597 130.065214 
L 271.571899 131.793615 
L 272.292141 133.872584 
L 273.027388 136.624346 
L 273.972706 141.142465 
L 275.4432 150.06984 
L 276.958255 161.331794 
L 279.0144 178.727409 
L 281.98656 203.547287 
L 283.350857 213.137652 
L 284.498743 219.670823 
L 285.391543 223.630224 
L 286.1568 226.17368 
L 286.907341 227.956954 
L 287.39789 228.715379 
L 288.011077 229.275973 
L 288.501626 229.417916 
L 288.992176 229.310229 
L 289.482725 228.952607 
L 289.97429 228.31927 
L 290.466869 227.5236 
L 291.082593 226.046099 
L 291.698317 224.100977 
L 292.683476 219.772537 
L 293.54549 214.924666 
L 294.530648 207.975673 
L 295.762097 197.382667 
L 297.70368 177.528926 
L 299.49565 157.167638 
L 300.867709 141.659223 
L 302.211521 127.90949 
L 303.412374 118.085171 
L 304.2112 113.309118 
L 304.986764 110.114513 
L 305.563927 108.543513 
L 305.948703 107.934039 
L 306.333479 107.645764 
L 306.910642 107.600285 
L 307.391612 108.083605 
L 307.873557 108.941058 
L 308.45267 110.570148 
L 309.031784 112.891829 
L 309.707416 116.433889 
L 310.576086 122.435711 
L 311.552 130.769438 
L 313.160084 147.069581 
L 315.616582 175.38207 
L 318.425143 207.797928 
L 319.828114 221.246753 
L 320.961829 229.775751 
L 321.642057 233.707378 
L 322.464 237.271062 
L 323.167418 239.225792 
L 323.962822 240.651816 
L 324.644596 241.41781 
L 325.44 241.865052 
L 325.7856 241.859447 
L 326.1312 241.630602 
L 326.4768 241.189425 
L 326.9376 240.248787 
L 327.5136 238.508715 
L 328.5504 234.01374 
L 329.5872 227.86857 
L 331.3152 214.917121 
L 334.721699 184.558705 
L 336.478255 168.137758 
L 339.191439 141.571363 
L 340.913362 124.521526 
L 342.264626 113.47502 
L 343.296 107.847423 
L 344.16467 105.169683 
L 344.633476 104.24107 
L 345.191907 103.587827 
L 345.564195 103.391402 
L 345.936482 103.410799 
L 346.308769 103.608633 
L 346.774128 104.203065 
L 347.337095 105.383167 
L 347.994947 107.671003 
L 348.370863 109.350531 
L 349.310653 114.810836 
L 350.156463 121.413474 
L 351.3312 132.477631 
L 353.1168 152.012275 
L 355.901552 184.777866 
L 358.846911 219.867398 
L 359.696154 227.764232 
L 360.595948 234.009883 
L 361.2636 237.212396 
L 362.144 239.684751 
L 362.573867 240.374549 
L 364.14288 242.267623 
L 364.52976 242.364409 
L 364.828235 242.274811 
L 365.353412 241.487977 
L 365.773553 240.326077 
L 366.298729 238.215581 
L 367.033976 234.367005 
L 367.979294 228.086655 
L 369.160145 218.50674 
L 371.8656 195.57267 
L 373.9136 181.975614 
L 375.1104 175.145686 
L 376.402747 168.274507 
L 378.278529 158.257392 
L 379.926309 147.63252 
L 382.375131 132.943978 
L 382.885303 131.317638 
L 383.599543 130.036081 
L 383.991982 129.779984 
L 385.071191 129.877116 
L 385.75796 130.389326 
L 386.05229 130.393237 
L 386.1504 130.336881 
L 387.57888 131.666815 
L 389.925669 135.684844 
L 390.741943 137.858085 
L 391.660251 140.845406 
L 392.680594 145.099651 
L 393.509236 149.39539 
L 394.699636 156.225703 
L 398.016 174.65554 
L 399.744 182.833074 
L 403.267531 198.658339 
L 405.937763 210.382971 
L 407.5776 216.750717 
L 408.685903 220.314808 
L 409.671062 222.735766 
L 410.409931 223.960236 
L 411.046179 224.577096 
L 411.498993 224.752963 
L 412.095476 224.593226 
L 412.572662 224.190317 
L 413.169145 223.302367 
L 413.765628 221.991466 
L 414.481407 219.910899 
L 414.72 219.082482 
L 414.72 219.082482 
" clip-path="url(#pe5a807864a)" style="fill: none; stroke-dasharray: 5.55,2.4; stroke-dashoffset: 0; stroke: #008000; stroke-width: 1.5"/>
   </g>
   <g id="line2d_26">
    <path d="M 57.6 173.274161 
L 57.635067 -1 
M 57.938535 -1 
L 58.005249 86.206256 
L 58.137163 103.572294 
L 58.491182 109.231551 
L 58.567754 109.344771 
L 59.140342 111.999946 
L 59.22864 112.264063 
L 59.316938 112.095264 
L 59.581833 112.985627 
L 59.670131 113.120896 
L 60.111622 114.562699 
L 60.818007 117.506388 
L 61.949786 123.708995 
L 62.947148 128.397101 
L 64.044246 132.55338 
L 64.952471 135.685513 
L 65.372612 137.003991 
L 66.317929 139.938835 
L 68.530036 145.800804 
L 69.179345 147.008241 
L 69.612218 147.650554 
L 70.045091 148.088214 
L 70.802618 148.235636 
L 71.235491 148.000745 
L 71.560145 147.622134 
L 72.3312 146.254432 
L 72.8892 144.624908 
L 73.5588 141.995418 
L 74.4516 137.779193 
L 76.7952 123.895642 
L 78.0228 117.323147 
L 78.9156 114.179448 
L 79.4736 112.942229 
L 80.0316 112.187295 
L 80.1432 112.226185 
L 80.3664 112.596081 
L 80.7012 112.596727 
L 81.3708 113.381978 
L 82.152 114.995722 
L 83.268 117.505831 
L 83.826 118.53918 
L 84.7188 119.635262 
L 84.942 119.85157 
L 85.1652 119.986867 
L 85.5 120.153205 
L 86.058 120.263239 
L 86.616 119.957742 
L 87.0624 119.50126 
L 87.5088 118.771523 
L 89.964 114.719717 
L 90.6336 114.131388 
L 91.4148 113.798622 
L 92.8656 113.792175 
L 93.6468 113.995617 
L 95.0976 114.693265 
L 96.2136 115.478952 
L 98.334 116.991638 
L 99.2268 117.349793 
L 100.008 117.518022 
L 101.8368 117.631742 
L 102.6432 117.740788 
L 104.14464 118.140054 
L 106.358784 118.859383 
L 107.5968 119.027608 
L 108.617143 118.834077 
L 109.3824 118.427879 
L 110.147657 117.736378 
L 110.912914 116.72531 
L 111.854769 115.051574 
L 113.034764 112.337167 
L 116.397257 104.14722 
L 117.403429 102.459583 
L 117.970286 101.831333 
L 118.55669 101.451119 
L 119.158205 101.308828 
L 119.868656 101.466408 
L 120.460698 101.809843 
L 122.00064 103.445677 
L 123.19104 104.98699 
L 124.50048 106.504714 
L 125.29408 107.075442 
L 125.4528 107.144683 
L 125.750674 107.34455 
L 127.185106 107.223682 
L 128.014411 106.808669 
L 128.923041 106.204628 
L 130.795378 105.354009 
L 131.363743 105.436883 
L 131.83738 105.710393 
L 132.21629 106.042436 
L 133.159074 107.467038 
L 134.850695 111.32092 
L 137.106189 117.725601 
L 137.952 120.081577 
L 138.515874 121.337097 
L 139.267705 122.567624 
L 139.643621 122.912398 
L 140.3328 123.124225 
L 141.039104 122.654191 
L 141.451776 122.061374 
L 142.173952 120.667179 
L 143.975564 115.708471 
L 145.204364 112.412694 
L 145.762909 111.464887 
L 146.321455 110.641465 
L 146.88 110.059192 
L 147.618869 109.612729 
L 148.111448 109.552801 
L 148.727172 109.608281 
L 149.835476 110.155027 
L 152.060202 111.772807 
L 153.409213 112.149099 
L 154.0224 112.124245 
L 154.847097 111.755378 
L 155.205337 111.422331 
L 155.563576 111.161233 
L 156.041229 110.885268 
L 156.996534 110.841234 
L 157.5936 111.263601 
L 158.42688 112.307235 
L 159.73632 113.923017 
L 160.21248 114.331177 
L 160.5696 114.435781 
L 161.52192 114.085245 
L 161.87904 113.714896 
L 162.3552 112.808363 
L 162.83136 111.59142 
L 163.78368 108.330683 
L 164.545536 104.957324 
L 166.160414 98.386027 
L 166.892847 96.391316 
L 167.802074 94.665136 
L 168.4064 93.785358 
L 168.5056 93.758884 
L 168.8993 93.230445 
L 169.3798 92.922527 
L 169.8603 92.833439 
L 170.230971 92.985832 
L 170.963162 93.659269 
L 171.237733 94.287719 
L 171.420781 94.63913 
L 172.519385 97.223375 
L 173.526646 100.611346 
L 174.076062 103.216809 
L 174.808615 107.768458 
L 176.090585 117.915065 
L 177.006277 124.864467 
L 177.738831 129.134439 
L 178.379815 131.630196 
L 178.929231 132.815762 
L 179.213838 133.097295 
L 179.611269 133.080021 
L 180.108057 132.7084 
L 180.604846 131.917717 
L 181.896496 129.054867 
L 182.910494 126.981117 
L 183.994729 125.284684 
L 184.970541 124.481425 
L 185.404235 124.298923 
L 186.2784 124.264628 
L 187.3152 124.754521 
L 188.2368 126.039261 
L 188.352 126.130252 
L 188.6976 126.69747 
L 191.75808 130.473644 
L 192.1152 131.001038 
L 192.59136 131.695312 
L 193.3056 132.317397 
L 193.66272 132.339934 
L 194.01984 132.151831 
L 194.37696 131.71058 
L 195.32928 129.505446 
L 197.94816 120.088507 
L 199.2576 116.482081 
L 199.97184 115.026532 
L 200.69429 113.929964 
L 201.556303 113.347612 
L 201.925738 113.471279 
L 202.295172 113.573607 
L 202.787752 113.927364 
L 203.649766 114.988515 
L 206.605241 120.07654 
L 207.34411 120.862603 
L 207.959834 121.254137 
L 208.575559 121.436194 
L 209.314428 121.476514 
L 211.777324 121.080407 
L 213.008772 121.133307 
L 214.240221 121.414932 
L 215.830395 121.986138 
L 217.597256 122.72927 
L 219.85152 123.554125 
L 221.63712 123.95984 
L 223.42272 124.108837 
L 225.4464 124.05012 
L 229.248 123.668598 
L 233.3952 123.319461 
L 236.7552 123.331686 
L 242.932966 123.575453 
L 244.1952 123.267203 
L 245.470629 122.697857 
L 246.746057 121.84576 
L 248.064 120.695373 
L 250.048 118.626096 
L 253.329231 115.29652 
L 254.702769 114.23545 
L 255.8016 113.709671 
L 256.566857 113.535108 
L 257.459657 113.54602 
L 258.237952 113.767447 
L 259.634688 114.591256 
L 261.1584 115.807917 
L 261.87264 116.40164 
L 263.1424 117.282243 
L 264.276114 117.58507 
L 265.0644 117.531937 
L 265.930262 117.201987 
L 266.792276 116.615875 
L 270.871664 112.838788 
L 271.371832 112.541889 
L 272.397176 111.956676 
L 273.552565 111.638788 
L 274.602918 111.663873 
L 275.338165 111.911193 
L 276.200727 112.348169 
L 278.906182 113.98478 
L 280.069632 114.331443 
L 280.908288 114.256849 
L 281.38752 114.040378 
L 282.226176 113.47548 
L 283.223314 112.457144 
L 285.264 110.236591 
L 286.029257 109.750473 
L 286.662066 109.620518 
L 287.152615 109.622624 
L 287.520528 109.813808 
L 288.501626 110.493889 
L 290.097434 112.117091 
L 291.452028 113.810377 
L 292.314041 114.897515 
L 293.176055 115.830895 
L 293.668634 116.177351 
L 294.284359 116.360759 
L 294.900083 116.263718 
L 295.515807 115.964265 
L 297.58464 112.667056 
L 299.810967 108.135535 
L 300.336494 107.375037 
L 301.287055 106.509475 
L 302.11145 106.110937 
L 303.11216 105.932782 
L 304.2112 106.063445 
L 306.044897 106.715603 
L 306.525867 106.958259 
L 306.718255 107.01411 
L 307.006836 107.0664 
L 307.680519 107.324599 
L 308.259632 107.69325 
L 309.031784 108.338261 
L 309.803935 109.255898 
L 311.7504 111.625803 
L 312.3456 111.874928 
L 312.951242 111.838306 
L 313.473347 111.562812 
L 314.099874 110.886651 
L 314.7264 109.890291 
L 315.728291 107.966016 
L 319.1904 101.136065 
L 320.0832 99.804897 
L 320.848457 99.102254 
L 321.528686 98.957434 
L 321.8688 99.08071 
L 322.464 99.453715 
L 323.735564 101.42724 
L 325.6704 105.010107 
L 326.2464 106.516871 
L 327.0528 109.327198 
L 330.5088 123.027199 
L 331.5456 125.375611 
L 332.0064 125.852056 
L 332.1216 125.910993 
L 332.82869 125.439232 
L 333.321269 124.520296 
L 334.147366 121.859632 
L 335.27243 116.764805 
L 336.586473 110.660336 
L 337.4432 107.687941 
L 337.961745 106.396953 
L 338.687709 105.482666 
L 339.280332 105.131778 
L 339.7248 105.226266 
L 340.019872 105.431272 
L 342.077104 108.836065 
L 343.585557 111.504536 
L 343.778595 111.76276 
L 344.16467 112.381092 
L 345.471123 113.033614 
L 345.657266 112.981927 
L 346.029554 112.956786 
L 346.308769 112.861516 
L 346.587985 112.845383 
L 347.431074 112.845928 
L 347.994947 113.10219 
L 348.464842 113.473422 
L 350.344421 115.081422 
L 350.8352 115.149257 
L 351.1328 115.049291 
L 351.9264 114.292948 
L 352.4224 113.404292 
L 353.3152 111.074067 
L 354.670104 106.313065 
L 355.229853 104.327763 
L 355.901552 102.241057 
L 357.831651 96.324941 
L 359.453514 91.871782 
L 360.151106 90.619999 
L 360.595948 90.182201 
L 361.04079 90.013609 
L 361.2636 89.916223 
L 361.4868 90.091635 
L 362.036533 90.479009 
L 364.43304 92.77619 
L 364.7232 93.449755 
L 365.353412 95.665489 
L 366.193694 100.406898 
L 367.454118 109.174236 
L 369.051927 119.743331 
L 369.917673 124.040527 
L 370.566982 126.065812 
L 370.891636 126.542537 
L 371.324509 126.808981 
L 371.540945 126.736846 
L 372.096 125.900495 
L 372.4416 124.993382 
L 374.0224 119.441275 
L 375.0016 116.311073 
L 375.869673 114.527547 
L 376.402747 113.895555 
L 377.028008 113.654797 
L 377.549059 113.913217 
L 378.070109 114.375904 
L 378.69537 115.375738 
L 379.926309 118.074118 
L 380.844617 120.807931 
L 382.885303 126.224073 
L 383.395474 127.104156 
L 384.384422 127.78676 
L 385.071191 127.346858 
L 385.85607 125.950488 
L 386.456503 124.26049 
L 387.57888 120.903284 
L 389.925669 113.607848 
L 390.843977 111.349566 
L 391.86432 109.670099 
L 392.170423 109.40012 
L 393.088731 109.005725 
L 393.942109 109.242209 
L 394.374982 109.691097 
L 394.916073 110.429188 
L 395.6736 111.745888 
L 396.647564 113.872443 
L 398.2464 117.544689 
L 399.3984 119.693654 
L 400.2048 120.712037 
L 400.804634 121.207545 
L 401.420359 121.439415 
L 402.036083 121.436273 
L 402.651807 121.209203 
L 403.513821 120.591879 
L 404.531288 119.550365 
L 405.685481 118.010905 
L 406.820752 116.139997 
L 408.193324 113.383263 
L 409.917352 109.367703 
L 413.288441 101.510446 
L 414.72 98.793145 
L 414.72 98.793145 
" clip-path="url(#pe5a807864a)" style="fill: none; stroke-dasharray: 5.55,2.4; stroke-dashoffset: 0; stroke: #000000; stroke-width: 1.5"/>
   </g>
   <g id="patch_3">
    <path d="M 57.6 307.584 
L 57.6 41.472 
" style="fill: none; stroke: #000000; stroke-width: 0.8; stroke-linejoin: miter; stroke-linecap: square"/>
   </g>
   <g id="patch_4">
    <path d="M 414.72 307.584 
L 414.72 41.472 
" style="fill: none; stroke: #000000; stroke-width: 0.8; stroke-linejoin: miter; stroke-linecap: square"/>
   </g>
   <g id="patch_5">
    <path d="M 57.6 307.584 
L 414.72 307.584 
" style="fill: none; stroke: #000000; stroke-width: 0.8; stroke-linejoin: miter; stroke-linecap: square"/>
   </g>
   <g id="patch_6">
    <path d="M 57.6 41.472 
L 414.72 41.472 
" style="fill: none; stroke: #000000; stroke-width: 0.8; stroke-linejoin: miter; stroke-linecap: square"/>
   </g>
   <g id="legend_1">
    <g id="patch_7">
     <path d="M 64.6 302.584 
L 125.7 302.584 
Q 127.7 302.584 127.7 300.584 
L 127.7 242.830875 
Q 127.7 240.830875 125.7 240.830875 
L 64.6 240.830875 
Q 62.6 240.830875 62.6 242.830875 
L 62.6 300.584 
Q 62.6 302.584 64.6 302.584 
z
" style="fill: #ffffff; opacity: 0.8; stroke: #cccccc; stroke-linejoin: miter"/>
    </g>
    <g id="line2d_27">
     <path d="M 66.6 248.929312 
L 76.6 248.929312 
L 86.6 248.929312 
" style="fill: none; stroke: #0000ff; stroke-width: 1.5; stroke-linecap: square"/>
    </g>
    <g id="text_14">
     <!-- $C_{L} bot$ -->
     <g transform="translate(94.6 252.429312) scale(0.1 -0.1)">
      <defs>
       <path id="DejaVuSans-Oblique-62" d="M 3169 2138 
Q 3169 2591 2961 2847 
Q 2753 3103 2388 3103 
Q 2122 3103 1889 2973 
Q 1656 2844 1484 2597 
Q 1303 2338 1198 1995 
Q 1094 1653 1094 1313 
Q 1094 881 1298 636 
Q 1503 391 1863 391 
Q 2134 391 2365 517 
Q 2597 644 2772 891 
Q 2950 1147 3059 1487 
Q 3169 1828 3169 2138 
z
M 1381 2969 
Q 1594 3256 1914 3420 
Q 2234 3584 2584 3584 
Q 3122 3584 3439 3221 
Q 3756 2859 3756 2241 
Q 3756 1734 3570 1259 
Q 3384 784 3041 416 
Q 2816 172 2522 40 
Q 2228 -91 1906 -91 
Q 1566 -91 1316 65 
Q 1066 222 909 531 
L 806 0 
L 231 0 
L 1178 4863 
L 1753 4863 
L 1381 2969 
z
" transform="scale(0.015625)"/>
       <path id="DejaVuSans-Oblique-6f" d="M 1625 -91 
Q 1009 -91 651 289 
Q 294 669 294 1325 
Q 294 1706 417 2101 
Q 541 2497 738 2766 
Q 1047 3184 1428 3384 
Q 1809 3584 2291 3584 
Q 2888 3584 3255 3212 
Q 3622 2841 3622 2241 
Q 3622 1825 3500 1412 
Q 3378 1000 3181 728 
Q 2875 309 2494 109 
Q 2113 -91 1625 -91 
z
M 891 1344 
Q 891 869 1089 633 
Q 1288 397 1691 397 
Q 2269 397 2648 901 
Q 3028 1406 3028 2181 
Q 3028 2634 2825 2865 
Q 2622 3097 2228 3097 
Q 1903 3097 1650 2945 
Q 1397 2794 1197 2484 
Q 1050 2253 970 1956 
Q 891 1659 891 1344 
z
" transform="scale(0.015625)"/>
       <path id="DejaVuSans-Oblique-74" d="M 2706 3500 
L 2619 3053 
L 1472 3053 
L 1100 1153 
Q 1081 1047 1072 975 
Q 1063 903 1063 863 
Q 1063 663 1183 572 
Q 1303 481 1569 481 
L 2150 481 
L 2053 0 
L 1503 0 
Q 991 0 739 200 
Q 488 400 488 806 
Q 488 878 497 964 
Q 506 1050 525 1153 
L 897 3053 
L 409 3053 
L 500 3500 
L 978 3500 
L 1172 4494 
L 1747 4494 
L 1556 3500 
L 2706 3500 
z
" transform="scale(0.015625)"/>
      </defs>
      <use xlink:href="#DejaVuSans-Oblique-43" transform="translate(0 0.015625)"/>
      <use xlink:href="#DejaVuSans-Oblique-4c" transform="translate(69.824219 -16.390625) scale(0.7)"/>
      <use xlink:href="#DejaVuSans-Oblique-62" transform="translate(111.557617 0.015625)"/>
      <use xlink:href="#DejaVuSans-Oblique-6f" transform="translate(175.03418 0.015625)"/>
      <use xlink:href="#DejaVuSans-Oblique-74" transform="translate(236.21582 0.015625)"/>
     </g>
    </g>
    <g id="line2d_28">
     <path d="M 66.6 263.607437 
L 76.6 263.607437 
L 86.6 263.607437 
" style="fill: none; stroke: #ff0000; stroke-width: 1.5; stroke-linecap: square"/>
    </g>
    <g id="text_15">
     <!-- $C_{D} bot$ -->
     <g transform="translate(94.6 267.107437) scale(0.1 -0.1)">
      <use xlink:href="#DejaVuSans-Oblique-43" transform="translate(0 0.015625)"/>
      <use xlink:href="#DejaVuSans-Oblique-44" transform="translate(69.824219 -16.390625) scale(0.7)"/>
      <use xlink:href="#DejaVuSans-Oblique-62" transform="translate(126.459961 0.015625)"/>
      <use xlink:href="#DejaVuSans-Oblique-6f" transform="translate(189.936523 0.015625)"/>
      <use xlink:href="#DejaVuSans-Oblique-74" transform="translate(251.118164 0.015625)"/>
     </g>
    </g>
    <g id="line2d_29">
     <path d="M 66.6 278.285562 
L 76.6 278.285562 
L 86.6 278.285562 
" style="fill: none; stroke-dasharray: 5.55,2.4; stroke-dashoffset: 0; stroke: #008000; stroke-width: 1.5"/>
    </g>
    <g id="text_16">
     <!-- $C_{L} top$ -->
     <g transform="translate(94.6 281.785562) scale(0.1 -0.1)">
      <defs>
       <path id="DejaVuSans-Oblique-70" d="M 3175 2156 
Q 3175 2616 2975 2859 
Q 2775 3103 2400 3103 
Q 2144 3103 1911 2972 
Q 1678 2841 1497 2591 
Q 1319 2344 1212 1994 
Q 1106 1644 1106 1300 
Q 1106 863 1306 627 
Q 1506 391 1875 391 
Q 2147 391 2380 519 
Q 2613 647 2778 891 
Q 2956 1147 3065 1494 
Q 3175 1841 3175 2156 
z
M 1394 2969 
Q 1625 3272 1939 3428 
Q 2253 3584 2638 3584 
Q 3175 3584 3472 3232 
Q 3769 2881 3769 2247 
Q 3769 1728 3584 1258 
Q 3400 788 3053 416 
Q 2822 169 2531 39 
Q 2241 -91 1919 -91 
Q 1547 -91 1294 64 
Q 1041 219 916 525 
L 556 -1331 
L -19 -1331 
L 922 3500 
L 1497 3500 
L 1394 2969 
z
" transform="scale(0.015625)"/>
      </defs>
      <use xlink:href="#DejaVuSans-Oblique-43" transform="translate(0 0.78125)"/>
      <use xlink:href="#DejaVuSans-Oblique-4c" transform="translate(69.824219 -15.625) scale(0.7)"/>
      <use xlink:href="#DejaVuSans-Oblique-74" transform="translate(111.557617 0.78125)"/>
      <use xlink:href="#DejaVuSans-Oblique-6f" transform="translate(150.766602 0.78125)"/>
      <use xlink:href="#DejaVuSans-Oblique-70" transform="translate(211.948242 0.78125)"/>
     </g>
    </g>
    <g id="line2d_30">
     <path d="M 66.6 292.984 
L 76.6 292.984 
L 86.6 292.984 
" style="fill: none; stroke-dasharray: 5.55,2.4; stroke-dashoffset: 0; stroke: #000000; stroke-width: 1.5"/>
    </g>
    <g id="text_17">
     <!-- $C_{D} top$ -->
     <g transform="translate(94.6 296.484) scale(0.1 -0.1)">
      <use xlink:href="#DejaVuSans-Oblique-43" transform="translate(0 0.78125)"/>
      <use xlink:href="#DejaVuSans-Oblique-44" transform="translate(69.824219 -15.625) scale(0.7)"/>
      <use xlink:href="#DejaVuSans-Oblique-74" transform="translate(126.459961 0.78125)"/>
      <use xlink:href="#DejaVuSans-Oblique-6f" transform="translate(165.668945 0.78125)"/>
      <use xlink:href="#DejaVuSans-Oblique-70" transform="translate(226.850586 0.78125)"/>
     </g>
    </g>
   </g>
  </g>
 </g>
 <defs>
  <clipPath id="pe5a807864a">
   <rect x="57.6" y="41.472" width="357.12" height="266.112"/>
  </clipPath>
 </defs>
</svg>
