<?xml version="1.0" encoding="utf-8" standalone="no"?>
<!DOCTYPE svg PUBLIC "-//W3C//DTD SVG 1.1//EN"
  "http://www.w3.org/Graphics/SVG/1.1/DTD/svg11.dtd">
<svg xmlns:xlink="http://www.w3.org/1999/xlink" width="460.8pt" height="345.6pt" viewBox="0 0 460.8 345.6" xmlns="http://www.w3.org/2000/svg" version="1.1">
 <metadata>
  <rdf:RDF xmlns:dc="http://purl.org/dc/elements/1.1/" xmlns:cc="http://creativecommons.org/ns#" xmlns:rdf="http://www.w3.org/1999/02/22-rdf-syntax-ns#">
   <cc:Work>
    <dc:type rdf:resource="http://purl.org/dc/dcmitype/StillImage"/>
    <dc:date>2023-08-06T18:18:47.182326</dc:date>
    <dc:format>image/svg+xml</dc:format>
    <dc:creator>
     <cc:Agent>
      <dc:title>Matplotlib v3.6.3, https://matplotlib.org/</dc:title>
     </cc:Agent>
    </dc:creator>
   </cc:Work>
  </rdf:RDF>
 </metadata>
 <defs>
  <style type="text/css">*{stroke-linejoin: round; stroke-linecap: butt}</style>
 </defs>
 <g id="figure_1">
  <g id="patch_1">
   <path d="M 0 345.6 
L 460.8 345.6 
L 460.8 0 
L 0 0 
z
" style="fill: #ffffff"/>
  </g>
  <g id="axes_1">
   <g id="patch_2">
    <path d="M 57.6 307.584 
L 414.72 307.584 
L 414.72 41.472 
L 57.6 41.472 
z
" style="fill: #ffffff"/>
   </g>
   <g id="matplotlib.axis_1">
    <g id="xtick_1">
     <g id="line2d_1">
      <path d="M 57.6 307.584 
L 57.6 41.472 
" clip-path="url(#pcc15963034)" style="fill: none; stroke: #b0b0b0; stroke-width: 0.8; stroke-linecap: square"/>
     </g>
     <g id="line2d_2">
      <defs>
       <path id="m9cd11f45c9" d="M 0 0 
L 0 3.5 
" style="stroke: #000000; stroke-width: 0.8"/>
      </defs>
      <g>
       <use xlink:href="#m9cd11f45c9" x="57.6" y="307.584" style="stroke: #000000; stroke-width: 0.8"/>
      </g>
     </g>
     <g id="text_1">
      <!-- 0.00 -->
      <g transform="translate(46.467188 322.182437) scale(0.1 -0.1)">
       <defs>
        <path id="DejaVuSans-30" d="M 2034 4250 
Q 1547 4250 1301 3770 
Q 1056 3291 1056 2328 
Q 1056 1369 1301 889 
Q 1547 409 2034 409 
Q 2525 409 2770 889 
Q 3016 1369 3016 2328 
Q 3016 3291 2770 3770 
Q 2525 4250 2034 4250 
z
M 2034 4750 
Q 2819 4750 3233 4129 
Q 3647 3509 3647 2328 
Q 3647 1150 3233 529 
Q 2819 -91 2034 -91 
Q 1250 -91 836 529 
Q 422 1150 422 2328 
Q 422 3509 836 4129 
Q 1250 4750 2034 4750 
z
" transform="scale(0.015625)"/>
        <path id="DejaVuSans-2e" d="M 684 794 
L 1344 794 
L 1344 0 
L 684 0 
L 684 794 
z
" transform="scale(0.015625)"/>
       </defs>
       <use xlink:href="#DejaVuSans-30"/>
       <use xlink:href="#DejaVuSans-2e" x="63.623047"/>
       <use xlink:href="#DejaVuSans-30" x="95.410156"/>
       <use xlink:href="#DejaVuSans-30" x="159.033203"/>
      </g>
     </g>
    </g>
    <g id="xtick_2">
     <g id="line2d_3">
      <path d="M 129.024 307.584 
L 129.024 41.472 
" clip-path="url(#pcc15963034)" style="fill: none; stroke: #b0b0b0; stroke-width: 0.8; stroke-linecap: square"/>
     </g>
     <g id="line2d_4">
      <g>
       <use xlink:href="#m9cd11f45c9" x="129.024" y="307.584" style="stroke: #000000; stroke-width: 0.8"/>
      </g>
     </g>
     <g id="text_2">
      <!-- 0.01 -->
      <g transform="translate(117.891188 322.182437) scale(0.1 -0.1)">
       <defs>
        <path id="DejaVuSans-31" d="M 794 531 
L 1825 531 
L 1825 4091 
L 703 3866 
L 703 4441 
L 1819 4666 
L 2450 4666 
L 2450 531 
L 3481 531 
L 3481 0 
L 794 0 
L 794 531 
z
" transform="scale(0.015625)"/>
       </defs>
       <use xlink:href="#DejaVuSans-30"/>
       <use xlink:href="#DejaVuSans-2e" x="63.623047"/>
       <use xlink:href="#DejaVuSans-30" x="95.410156"/>
       <use xlink:href="#DejaVuSans-31" x="159.033203"/>
      </g>
     </g>
    </g>
    <g id="xtick_3">
     <g id="line2d_5">
      <path d="M 200.448 307.584 
L 200.448 41.472 
" clip-path="url(#pcc15963034)" style="fill: none; stroke: #b0b0b0; stroke-width: 0.8; stroke-linecap: square"/>
     </g>
     <g id="line2d_6">
      <g>
       <use xlink:href="#m9cd11f45c9" x="200.448" y="307.584" style="stroke: #000000; stroke-width: 0.8"/>
      </g>
     </g>
     <g id="text_3">
      <!-- 0.02 -->
      <g transform="translate(189.315187 322.182437) scale(0.1 -0.1)">
       <defs>
        <path id="DejaVuSans-32" d="M 1228 531 
L 3431 531 
L 3431 0 
L 469 0 
L 469 531 
Q 828 903 1448 1529 
Q 2069 2156 2228 2338 
Q 2531 2678 2651 2914 
Q 2772 3150 2772 3378 
Q 2772 3750 2511 3984 
Q 2250 4219 1831 4219 
Q 1534 4219 1204 4116 
Q 875 4013 500 3803 
L 500 4441 
Q 881 4594 1212 4672 
Q 1544 4750 1819 4750 
Q 2544 4750 2975 4387 
Q 3406 4025 3406 3419 
Q 3406 3131 3298 2873 
Q 3191 2616 2906 2266 
Q 2828 2175 2409 1742 
Q 1991 1309 1228 531 
z
" transform="scale(0.015625)"/>
       </defs>
       <use xlink:href="#DejaVuSans-30"/>
       <use xlink:href="#DejaVuSans-2e" x="63.623047"/>
       <use xlink:href="#DejaVuSans-30" x="95.410156"/>
       <use xlink:href="#DejaVuSans-32" x="159.033203"/>
      </g>
     </g>
    </g>
    <g id="xtick_4">
     <g id="line2d_7">
      <path d="M 271.872 307.584 
L 271.872 41.472 
" clip-path="url(#pcc15963034)" style="fill: none; stroke: #b0b0b0; stroke-width: 0.8; stroke-linecap: square"/>
     </g>
     <g id="line2d_8">
      <g>
       <use xlink:href="#m9cd11f45c9" x="271.872" y="307.584" style="stroke: #000000; stroke-width: 0.8"/>
      </g>
     </g>
     <g id="text_4">
      <!-- 0.03 -->
      <g transform="translate(260.739188 322.182437) scale(0.1 -0.1)">
       <defs>
        <path id="DejaVuSans-33" d="M 2597 2516 
Q 3050 2419 3304 2112 
Q 3559 1806 3559 1356 
Q 3559 666 3084 287 
Q 2609 -91 1734 -91 
Q 1441 -91 1130 -33 
Q 819 25 488 141 
L 488 750 
Q 750 597 1062 519 
Q 1375 441 1716 441 
Q 2309 441 2620 675 
Q 2931 909 2931 1356 
Q 2931 1769 2642 2001 
Q 2353 2234 1838 2234 
L 1294 2234 
L 1294 2753 
L 1863 2753 
Q 2328 2753 2575 2939 
Q 2822 3125 2822 3475 
Q 2822 3834 2567 4026 
Q 2313 4219 1838 4219 
Q 1578 4219 1281 4162 
Q 984 4106 628 3988 
L 628 4550 
Q 988 4650 1302 4700 
Q 1616 4750 1894 4750 
Q 2613 4750 3031 4423 
Q 3450 4097 3450 3541 
Q 3450 3153 3228 2886 
Q 3006 2619 2597 2516 
z
" transform="scale(0.015625)"/>
       </defs>
       <use xlink:href="#DejaVuSans-30"/>
       <use xlink:href="#DejaVuSans-2e" x="63.623047"/>
       <use xlink:href="#DejaVuSans-30" x="95.410156"/>
       <use xlink:href="#DejaVuSans-33" x="159.033203"/>
      </g>
     </g>
    </g>
    <g id="xtick_5">
     <g id="line2d_9">
      <path d="M 343.296 307.584 
L 343.296 41.472 
" clip-path="url(#pcc15963034)" style="fill: none; stroke: #b0b0b0; stroke-width: 0.8; stroke-linecap: square"/>
     </g>
     <g id="line2d_10">
      <g>
       <use xlink:href="#m9cd11f45c9" x="343.296" y="307.584" style="stroke: #000000; stroke-width: 0.8"/>
      </g>
     </g>
     <g id="text_5">
      <!-- 0.04 -->
      <g transform="translate(332.163187 322.182437) scale(0.1 -0.1)">
       <defs>
        <path id="DejaVuSans-34" d="M 2419 4116 
L 825 1625 
L 2419 1625 
L 2419 4116 
z
M 2253 4666 
L 3047 4666 
L 3047 1625 
L 3713 1625 
L 3713 1100 
L 3047 1100 
L 3047 0 
L 2419 0 
L 2419 1100 
L 313 1100 
L 313 1709 
L 2253 4666 
z
" transform="scale(0.015625)"/>
       </defs>
       <use xlink:href="#DejaVuSans-30"/>
       <use xlink:href="#DejaVuSans-2e" x="63.623047"/>
       <use xlink:href="#DejaVuSans-30" x="95.410156"/>
       <use xlink:href="#DejaVuSans-34" x="159.033203"/>
      </g>
     </g>
    </g>
    <g id="xtick_6">
     <g id="line2d_11">
      <path d="M 414.72 307.584 
L 414.72 41.472 
" clip-path="url(#pcc15963034)" style="fill: none; stroke: #b0b0b0; stroke-width: 0.8; stroke-linecap: square"/>
     </g>
     <g id="line2d_12">
      <g>
       <use xlink:href="#m9cd11f45c9" x="414.72" y="307.584" style="stroke: #000000; stroke-width: 0.8"/>
      </g>
     </g>
     <g id="text_6">
      <!-- 0.05 -->
      <g transform="translate(403.587188 322.182437) scale(0.1 -0.1)">
       <defs>
        <path id="DejaVuSans-35" d="M 691 4666 
L 3169 4666 
L 3169 4134 
L 1269 4134 
L 1269 2991 
Q 1406 3038 1543 3061 
Q 1681 3084 1819 3084 
Q 2600 3084 3056 2656 
Q 3513 2228 3513 1497 
Q 3513 744 3044 326 
Q 2575 -91 1722 -91 
Q 1428 -91 1123 -41 
Q 819 9 494 109 
L 494 744 
Q 775 591 1075 516 
Q 1375 441 1709 441 
Q 2250 441 2565 725 
Q 2881 1009 2881 1497 
Q 2881 1984 2565 2268 
Q 2250 2553 1709 2553 
Q 1456 2553 1204 2497 
Q 953 2441 691 2322 
L 691 4666 
z
" transform="scale(0.015625)"/>
       </defs>
       <use xlink:href="#DejaVuSans-30"/>
       <use xlink:href="#DejaVuSans-2e" x="63.623047"/>
       <use xlink:href="#DejaVuSans-30" x="95.410156"/>
       <use xlink:href="#DejaVuSans-35" x="159.033203"/>
      </g>
     </g>
    </g>
    <g id="text_7">
     <!-- Time (s) -->
     <g transform="translate(215.831094 335.860562) scale(0.1 -0.1)">
      <defs>
       <path id="DejaVuSans-54" d="M -19 4666 
L 3928 4666 
L 3928 4134 
L 2272 4134 
L 2272 0 
L 1638 0 
L 1638 4134 
L -19 4134 
L -19 4666 
z
" transform="scale(0.015625)"/>
       <path id="DejaVuSans-69" d="M 603 3500 
L 1178 3500 
L 1178 0 
L 603 0 
L 603 3500 
z
M 603 4863 
L 1178 4863 
L 1178 4134 
L 603 4134 
L 603 4863 
z
" transform="scale(0.015625)"/>
       <path id="DejaVuSans-6d" d="M 3328 2828 
Q 3544 3216 3844 3400 
Q 4144 3584 4550 3584 
Q 5097 3584 5394 3201 
Q 5691 2819 5691 2113 
L 5691 0 
L 5113 0 
L 5113 2094 
Q 5113 2597 4934 2840 
Q 4756 3084 4391 3084 
Q 3944 3084 3684 2787 
Q 3425 2491 3425 1978 
L 3425 0 
L 2847 0 
L 2847 2094 
Q 2847 2600 2669 2842 
Q 2491 3084 2119 3084 
Q 1678 3084 1418 2786 
Q 1159 2488 1159 1978 
L 1159 0 
L 581 0 
L 581 3500 
L 1159 3500 
L 1159 2956 
Q 1356 3278 1631 3431 
Q 1906 3584 2284 3584 
Q 2666 3584 2933 3390 
Q 3200 3197 3328 2828 
z
" transform="scale(0.015625)"/>
       <path id="DejaVuSans-65" d="M 3597 1894 
L 3597 1613 
L 953 1613 
Q 991 1019 1311 708 
Q 1631 397 2203 397 
Q 2534 397 2845 478 
Q 3156 559 3463 722 
L 3463 178 
Q 3153 47 2828 -22 
Q 2503 -91 2169 -91 
Q 1331 -91 842 396 
Q 353 884 353 1716 
Q 353 2575 817 3079 
Q 1281 3584 2069 3584 
Q 2775 3584 3186 3129 
Q 3597 2675 3597 1894 
z
M 3022 2063 
Q 3016 2534 2758 2815 
Q 2500 3097 2075 3097 
Q 1594 3097 1305 2825 
Q 1016 2553 972 2059 
L 3022 2063 
z
" transform="scale(0.015625)"/>
       <path id="DejaVuSans-20" transform="scale(0.015625)"/>
       <path id="DejaVuSans-28" d="M 1984 4856 
Q 1566 4138 1362 3434 
Q 1159 2731 1159 2009 
Q 1159 1288 1364 580 
Q 1569 -128 1984 -844 
L 1484 -844 
Q 1016 -109 783 600 
Q 550 1309 550 2009 
Q 550 2706 781 3412 
Q 1013 4119 1484 4856 
L 1984 4856 
z
" transform="scale(0.015625)"/>
       <path id="DejaVuSans-73" d="M 2834 3397 
L 2834 2853 
Q 2591 2978 2328 3040 
Q 2066 3103 1784 3103 
Q 1356 3103 1142 2972 
Q 928 2841 928 2578 
Q 928 2378 1081 2264 
Q 1234 2150 1697 2047 
L 1894 2003 
Q 2506 1872 2764 1633 
Q 3022 1394 3022 966 
Q 3022 478 2636 193 
Q 2250 -91 1575 -91 
Q 1294 -91 989 -36 
Q 684 19 347 128 
L 347 722 
Q 666 556 975 473 
Q 1284 391 1588 391 
Q 1994 391 2212 530 
Q 2431 669 2431 922 
Q 2431 1156 2273 1281 
Q 2116 1406 1581 1522 
L 1381 1569 
Q 847 1681 609 1914 
Q 372 2147 372 2553 
Q 372 3047 722 3315 
Q 1072 3584 1716 3584 
Q 2034 3584 2315 3537 
Q 2597 3491 2834 3397 
z
" transform="scale(0.015625)"/>
       <path id="DejaVuSans-29" d="M 513 4856 
L 1013 4856 
Q 1481 4119 1714 3412 
Q 1947 2706 1947 2009 
Q 1947 1309 1714 600 
Q 1481 -109 1013 -844 
L 513 -844 
Q 928 -128 1133 580 
Q 1338 1288 1338 2009 
Q 1338 2731 1133 3434 
Q 928 4138 513 4856 
z
" transform="scale(0.015625)"/>
      </defs>
      <use xlink:href="#DejaVuSans-54"/>
      <use xlink:href="#DejaVuSans-69" x="57.958984"/>
      <use xlink:href="#DejaVuSans-6d" x="85.742188"/>
      <use xlink:href="#DejaVuSans-65" x="183.154297"/>
      <use xlink:href="#DejaVuSans-20" x="244.677734"/>
      <use xlink:href="#DejaVuSans-28" x="276.464844"/>
      <use xlink:href="#DejaVuSans-73" x="315.478516"/>
      <use xlink:href="#DejaVuSans-29" x="367.578125"/>
     </g>
    </g>
   </g>
   <g id="matplotlib.axis_2">
    <g id="ytick_1">
     <g id="line2d_13">
      <path d="M 57.6 276.878769 
L 414.72 276.878769 
" clip-path="url(#pcc15963034)" style="fill: none; stroke: #b0b0b0; stroke-width: 0.8; stroke-linecap: square"/>
     </g>
     <g id="line2d_14">
      <defs>
       <path id="mb625c9b3f6" d="M 0 0 
L -3.5 0 
" style="stroke: #000000; stroke-width: 0.8"/>
      </defs>
      <g>
       <use xlink:href="#mb625c9b3f6" x="57.6" y="276.878769" style="stroke: #000000; stroke-width: 0.8"/>
      </g>
     </g>
     <g id="text_8">
      <!-- −1.0 -->
      <g transform="translate(26.317187 280.677988) scale(0.1 -0.1)">
       <defs>
        <path id="DejaVuSans-2212" d="M 678 2272 
L 4684 2272 
L 4684 1741 
L 678 1741 
L 678 2272 
z
" transform="scale(0.015625)"/>
       </defs>
       <use xlink:href="#DejaVuSans-2212"/>
       <use xlink:href="#DejaVuSans-31" x="83.789062"/>
       <use xlink:href="#DejaVuSans-2e" x="147.412109"/>
       <use xlink:href="#DejaVuSans-30" x="179.199219"/>
      </g>
     </g>
    </g>
    <g id="ytick_2">
     <g id="line2d_15">
      <path d="M 57.6 225.703385 
L 414.72 225.703385 
" clip-path="url(#pcc15963034)" style="fill: none; stroke: #b0b0b0; stroke-width: 0.8; stroke-linecap: square"/>
     </g>
     <g id="line2d_16">
      <g>
       <use xlink:href="#mb625c9b3f6" x="57.6" y="225.703385" style="stroke: #000000; stroke-width: 0.8"/>
      </g>
     </g>
     <g id="text_9">
      <!-- −0.5 -->
      <g transform="translate(26.317187 229.502603) scale(0.1 -0.1)">
       <use xlink:href="#DejaVuSans-2212"/>
       <use xlink:href="#DejaVuSans-30" x="83.789062"/>
       <use xlink:href="#DejaVuSans-2e" x="147.412109"/>
       <use xlink:href="#DejaVuSans-35" x="179.199219"/>
      </g>
     </g>
    </g>
    <g id="ytick_3">
     <g id="line2d_17">
      <path d="M 57.6 174.528 
L 414.72 174.528 
" clip-path="url(#pcc15963034)" style="fill: none; stroke: #b0b0b0; stroke-width: 0.8; stroke-linecap: square"/>
     </g>
     <g id="line2d_18">
      <g>
       <use xlink:href="#mb625c9b3f6" x="57.6" y="174.528" style="stroke: #000000; stroke-width: 0.8"/>
      </g>
     </g>
     <g id="text_10">
      <!-- 0.0 -->
      <g transform="translate(34.696875 178.327219) scale(0.1 -0.1)">
       <use xlink:href="#DejaVuSans-30"/>
       <use xlink:href="#DejaVuSans-2e" x="63.623047"/>
       <use xlink:href="#DejaVuSans-30" x="95.410156"/>
      </g>
     </g>
    </g>
    <g id="ytick_4">
     <g id="line2d_19">
      <path d="M 57.6 123.352615 
L 414.72 123.352615 
" clip-path="url(#pcc15963034)" style="fill: none; stroke: #b0b0b0; stroke-width: 0.8; stroke-linecap: square"/>
     </g>
     <g id="line2d_20">
      <g>
       <use xlink:href="#mb625c9b3f6" x="57.6" y="123.352615" style="stroke: #000000; stroke-width: 0.8"/>
      </g>
     </g>
     <g id="text_11">
      <!-- 0.5 -->
      <g transform="translate(34.696875 127.151834) scale(0.1 -0.1)">
       <use xlink:href="#DejaVuSans-30"/>
       <use xlink:href="#DejaVuSans-2e" x="63.623047"/>
       <use xlink:href="#DejaVuSans-35" x="95.410156"/>
      </g>
     </g>
    </g>
    <g id="ytick_5">
     <g id="line2d_21">
      <path d="M 57.6 72.177231 
L 414.72 72.177231 
" clip-path="url(#pcc15963034)" style="fill: none; stroke: #b0b0b0; stroke-width: 0.8; stroke-linecap: square"/>
     </g>
     <g id="line2d_22">
      <g>
       <use xlink:href="#mb625c9b3f6" x="57.6" y="72.177231" style="stroke: #000000; stroke-width: 0.8"/>
      </g>
     </g>
     <g id="text_12">
      <!-- 1.0 -->
      <g transform="translate(34.696875 75.97645) scale(0.1 -0.1)">
       <use xlink:href="#DejaVuSans-31"/>
       <use xlink:href="#DejaVuSans-2e" x="63.623047"/>
       <use xlink:href="#DejaVuSans-30" x="95.410156"/>
      </g>
     </g>
    </g>
    <g id="text_13">
     <!-- $C_{L}$ $C_{D}$ -->
     <g transform="translate(20.2375 188.028) rotate(-90) scale(0.1 -0.1)">
      <defs>
       <path id="DejaVuSans-Oblique-43" d="M 4447 4306 
L 4319 3641 
Q 4019 3944 3683 4091 
Q 3347 4238 2956 4238 
Q 2422 4238 2017 3981 
Q 1613 3725 1319 3200 
Q 1131 2863 1032 2486 
Q 934 2109 934 1728 
Q 934 1091 1264 756 
Q 1594 422 2222 422 
Q 2656 422 3056 561 
Q 3456 700 3834 978 
L 3688 231 
Q 3316 72 2936 -9 
Q 2556 -91 2175 -91 
Q 1278 -91 773 396 
Q 269 884 269 1753 
Q 269 2309 461 2846 
Q 653 3384 1013 3828 
Q 1394 4300 1883 4525 
Q 2372 4750 3022 4750 
Q 3422 4750 3780 4639 
Q 4138 4528 4447 4306 
z
" transform="scale(0.015625)"/>
       <path id="DejaVuSans-Oblique-4c" d="M 1075 4666 
L 1709 4666 
L 909 525 
L 3181 525 
L 3078 0 
L 172 0 
L 1075 4666 
z
" transform="scale(0.015625)"/>
       <path id="DejaVuSans-Oblique-44" d="M 1081 4666 
L 2438 4666 
Q 3519 4666 4070 4208 
Q 4622 3750 4622 2847 
Q 4622 2250 4412 1698 
Q 4203 1147 3834 769 
Q 3463 381 2891 190 
Q 2319 0 1538 0 
L 172 0 
L 1081 4666 
z
M 1613 4147 
L 909 519 
L 1734 519 
Q 2794 519 3375 1128 
Q 3956 1738 3956 2847 
Q 3956 3519 3581 3833 
Q 3206 4147 2406 4147 
L 1613 4147 
z
" transform="scale(0.015625)"/>
      </defs>
      <use xlink:href="#DejaVuSans-Oblique-43" transform="translate(0 0.78125)"/>
      <use xlink:href="#DejaVuSans-Oblique-4c" transform="translate(69.824219 -15.625) scale(0.7)"/>
      <use xlink:href="#DejaVuSans-20" transform="translate(111.557617 0.78125)"/>
      <use xlink:href="#DejaVuSans-Oblique-43" transform="translate(143.344727 0.78125)"/>
      <use xlink:href="#DejaVuSans-Oblique-44" transform="translate(213.168945 -15.625) scale(0.7)"/>
     </g>
    </g>
   </g>
   <g id="line2d_23">
    <path d="M 57.6 174.528 
L 57.874708 177.463868 
L 57.932541 164.932186 
L 57.989359 168.91481 
L 58.284613 173.790442 
L 58.347365 173.846991 
L 58.411543 174.114349 
L 58.477249 173.620534 
L 58.542955 173.908152 
L 58.610346 173.951978 
L 58.679558 174.28573 
L 58.750748 174.151023 
L 59.196604 174.933126 
L 59.348496 174.751502 
L 59.500388 174.731476 
L 59.739076 174.290012 
L 59.898201 174.489665 
L 60.5347 174.321236 
L 60.85295 173.577449 
L 61.347638 173.401277 
L 61.794317 172.900837 
L 61.972989 172.60385 
L 62.777012 172.316281 
L 62.866347 172.384435 
L 63.045019 172.298998 
L 63.581034 172.242216 
L 63.849042 172.380387 
L 64.653064 172.946036 
L 65.212295 173.603412 
L 66.715958 176.843245 
L 68.603157 182.873666 
L 69.085751 185.016521 
L 73.718659 205.568663 
L 74.084415 206.665823 
L 74.724488 208.940725 
L 77.2416 216.1891 
L 77.805474 217.613447 
L 77.993432 218.020104 
L 78.181389 218.289428 
L 78.557305 219.108166 
L 79.873011 222.299346 
L 81.094737 224.200607 
L 81.470653 224.33909 
L 82.034526 224.380144 
L 82.410442 224.317916 
L 82.974316 224.09328 
L 83.820126 223.292936 
L 84.196042 222.875272 
L 86.1696 220.320394 
L 87.485305 218.603885 
L 88.331116 217.241042 
L 89.364884 215.03121 
L 90.398653 212.057276 
L 91.620379 207.533532 
L 92.842105 201.904185 
L 94.2048 194.474773 
L 95.6928 184.957932 
L 97.099636 174.80828 
L 98.939345 160.152636 
L 102.3516 132.739261 
L 103.6908 123.919262 
L 104.4864 119.857777 
L 105.1776 117.209507 
L 105.8688 115.462988 
L 106.5408 114.652601 
L 106.9632 114.446024 
L 107.28 114.475389 
L 107.5968 114.670732 
L 108.022909 115.176358 
L 108.547091 116.153187 
L 109.255785 118.196846 
L 109.859642 120.538989 
L 110.664785 124.529521 
L 111.664 130.901799 
L 112.9536 140.664363 
L 117.2192 177.935859 
L 118.8064 189.968281 
L 120.23829 199.460245 
L 121.242535 205.563613 
L 123.057692 215.230518 
L 125.186677 225.301558 
L 126.410927 229.731594 
L 127.369054 232.269503 
L 128.065873 233.46937 
L 128.588488 233.982767 
L 129.024 234.302038 
L 129.633717 234.218501 
L 129.982127 233.963781 
L 130.591844 233.226731 
L 131.724176 230.723751 
L 133.140532 225.471498 
L 134.057462 221.017982 
L 134.882698 216.271315 
L 136.648995 204.573049 
L 137.735726 195.959151 
L 143.98507 142.875637 
L 145.369602 133.930036 
L 146.531447 127.69119 
L 147.495724 123.528287 
L 148.357738 120.714036 
L 149.096607 119.026506 
L 149.835476 118.092627 
L 150.328055 117.798454 
L 150.824718 117.761259 
L 151.316669 118.052762 
L 151.80862 118.639405 
L 152.423559 119.814159 
L 152.91551 121.185799 
L 153.694433 123.993874 
L 154.37952 127.23253 
L 155.33184 132.76602 
L 156.4032 140.380096 
L 157.4944 149.608414 
L 159.401827 167.678448 
L 165.008298 221.730478 
L 166.07491 229.914298 
L 167.01934 235.945143 
L 168.049628 241.003876 
L 168.732343 243.431566 
L 169.400424 245.15575 
L 169.978619 246.111073 
L 170.143817 246.205211 
L 170.722011 246.529823 
L 171.217607 246.46569 
L 171.713202 246.124102 
L 172.127553 245.600942 
L 172.62586 244.789915 
L 173.29027 243.228812 
L 174.120781 240.521533 
L 174.868242 237.294598 
L 175.789714 232.41459 
L 176.554971 227.605082 
L 177.8304 218.313696 
L 185.847531 154.541767 
L 188.1216 138.171867 
L 189.3888 131.201406 
L 190.103834 128.369921 
L 190.842703 126.289041 
L 191.581572 125.141912 
L 191.951007 124.786318 
L 192.566731 124.569694 
L 193.05931 124.625072 
L 193.675034 124.966515 
L 194.783338 126.226647 
L 196.507366 131.187401 
L 197.492524 135.701851 
L 198.600828 142.18363 
L 199.879639 151.474509 
L 201.586176 166.229739 
L 203.08608 181.317082 
L 207.243067 222.955791 
L 208.917696 236.239483 
L 209.86704 241.520062 
L 210.607816 244.26222 
L 211.082488 245.345735 
L 211.90906 246.137691 
L 212.241265 246.23758 
L 212.905674 245.870707 
L 213.570084 244.927946 
L 214.234493 243.528104 
L 214.981953 241.31335 
L 215.812465 237.89872 
L 216.809079 232.408602 
L 217.971795 224.456591 
L 222.350623 192.733279 
L 225.761506 174.70845 
L 230.2452 154.270872 
L 231.4728 149.064888 
L 232.4772 145.913755 
L 233.28 144.682909 
L 233.856 144.237161 
L 234.6624 144.296889 
L 235.1232 144.616531 
L 235.584 145.078071 
L 236.3904 146.164577 
L 238.464 149.73591 
L 239.8464 152.695984 
L 240.9984 155.627039 
L 243.648 164.475504 
L 247.42416 179.796889 
L 253.920607 207.442825 
L 255.652434 213.541093 
L 257.126542 217.803519 
L 258.136615 220.07503 
L 258.960738 221.422245 
L 259.601723 222.112036 
L 260.151138 222.405889 
L 260.883692 222.392824 
L 261.341538 222.115848 
L 261.707815 221.76589 
L 262.3488 220.799337 
L 263.081354 219.156129 
L 263.813908 216.912328 
L 264.638031 213.672685 
L 265.575411 209.033372 
L 266.609179 202.748212 
L 267.830905 193.845412 
L 269.421177 180.247348 
L 274.2156 137.478777 
L 275.3316 130.146094 
L 276.13866 126.068861 
L 276.828838 123.546581 
L 277.403986 122.13261 
L 277.979134 121.302583 
L 278.324222 121.09738 
L 278.89937 121.149713 
L 279.35616 121.507317 
L 280.13568 122.61368 
L 280.80384 124.03735 
L 281.472 125.950472 
L 282.25152 128.896305 
L 283.1436 133.123855 
L 284.2596 139.716366 
L 285.7104 149.71273 
L 289.728 180.555805 
L 291.806374 193.104273 
L 292.891005 198.480669 
L 294.213145 204.095611 
L 296.517979 212.12352 
L 297.67392 215.18183 
L 298.38816 216.391899 
L 299.1024 217.181078 
L 299.5488 217.374015 
L 300.17376 217.280001 
L 300.533169 217.00243 
L 301.265723 215.911297 
L 301.815138 214.717314 
L 302.730831 212.059952 
L 303.829662 207.827236 
L 305.460584 199.989765 
L 307.788069 186.649372 
L 311.1552 166.616311 
L 313.4988 154.117077 
L 315.20256 146.358368 
L 316.75008 140.357488 
L 318.05952 136.107792 
L 319.317943 132.80663 
L 320.210743 131.004113 
L 320.976 129.886768 
L 321.613714 129.310532 
L 322.133333 129.095588 
L 322.6624 129.103124 
L 323.184505 129.373953 
L 323.811032 130.046183 
L 324.437558 131.134881 
L 325.189389 132.952288 
L 325.945266 135.34337 
L 326.68109 138.290965 
L 327.784826 143.969214 
L 328.899711 151.213761 
L 330.246621 161.849341 
L 331.901131 177.20732 
L 336.765168 224.394434 
L 337.796848 231.835121 
L 338.802736 237.340172 
L 339.557152 240.147149 
L 340.223107 241.751254 
L 340.804465 242.518798 
L 341.053619 242.642848 
L 341.468874 242.727973 
L 342.133284 242.520077 
L 342.797693 241.783871 
L 343.711256 240.048328 
L 344.375665 238.166134 
L 345.123126 235.404043 
L 346.036688 231.184475 
L 346.954302 226.142931 
L 348.609249 215.82664 
L 353.445726 186.572063 
L 358.92 158.672892 
L 360.3708 151.784573 
L 361.728 147.168877 
L 362.304 145.957732 
L 362.88 145.094976 
L 363.456 144.583874 
L 363.9168 144.43512 
L 364.4928 144.485096 
L 365.0688 144.766619 
L 365.9904 145.560156 
L 368.064 148.340592 
L 369.216 150.5011 
L 371.2896 155.916646 
L 373.3632 162.588659 
L 375.8832 171.668196 
L 377.838857 179.736457 
L 381.424873 195.165272 
L 382.885303 201.50019 
L 385.069592 210.411798 
L 386.536476 215.600498 
L 387.791222 219.251322 
L 388.718876 221.296448 
L 389.356973 222.336603 
L 389.909558 222.923233 
L 390.473432 223.244589 
L 391.225263 223.191153 
L 391.789137 222.740752 
L 392.259032 222.184523 
L 392.916884 220.915933 
L 393.668716 218.878659 
L 394.514526 215.792716 
L 395.360337 211.855002 
L 396.300126 206.458613 
L 397.346595 199.280234 
L 398.697859 188.366168 
L 400.540235 171.462439 
L 403.460216 144.990829 
L 404.6976 135.679285 
L 405.6192 130.081144 
L 406.4256 126.359261 
L 407.1168 124.053128 
L 407.69664 122.799634 
L 408.181957 122.206162 
L 408.552812 121.99971 
L 409.294523 122.22002 
L 409.764273 122.71731 
L 410.571914 124.046377 
L 411.1488 125.346375 
L 411.9552 127.834069 
L 412.7616 131.050093 
L 413.6832 135.626688 
L 414.72 141.834131 
L 414.72 141.834131 
" clip-path="url(#pcc15963034)" style="fill: none; stroke: #0000ff; stroke-width: 1.5; stroke-linecap: square"/>
   </g>
   <g id="line2d_24">
    <path d="M 57.6 173.298045 
L 57.635674 -1 
M 57.931248 -1 
L 58.046178 102.462353 
L 58.223196 107.259812 
L 58.477249 111.056778 
L 58.542955 110.724103 
L 58.821938 112.388966 
L 59.196604 114.184441 
L 59.27255 114.022072 
L 59.500388 114.617543 
L 59.739076 116.104012 
L 59.898201 116.296852 
L 60.5347 118.478443 
L 60.932513 120.91624 
L 61.091638 121.651934 
L 62.419668 128.566184 
L 63.223691 131.675299 
L 64.206385 134.549828 
L 65.306274 136.845911 
L 65.682189 137.293056 
L 67.467789 139.272012 
L 69.085751 140.297883 
L 69.857903 140.494622 
L 71.01613 140.290015 
L 71.305686 140.040162 
L 72.656951 138.561396 
L 73.525622 137.099297 
L 73.992976 136.084683 
L 74.998805 133.046143 
L 76.489768 127.308279 
L 81.094737 106.031576 
L 82.5984 100.557059 
L 83.256253 98.773852 
L 84.477979 96.907288 
L 84.853895 96.767085 
L 85.229811 96.542443 
L 85.417768 96.520954 
L 85.981642 96.80882 
L 86.921432 97.849568 
L 87.673263 98.902013 
L 89.270905 101.056716 
L 90.586611 102.390854 
L 92.842105 104.28759 
L 93.9072 105.469976 
L 94.5024 106.299733 
L 95.5936 108.106155 
L 99.047564 114.299963 
L 99.588655 114.736799 
L 100.129745 114.906253 
L 100.566 114.802472 
L 100.9008 114.579526 
L 101.5704 113.757389 
L 102.24 112.432251 
L 103.1328 110.006057 
L 105.984 101.687056 
L 106.6464 100.527259 
L 107.4912 99.703293 
L 108.022909 99.609962 
L 108.547091 99.899332 
L 108.953856 100.359767 
L 109.557713 101.506351 
L 110.161571 103.183506 
L 110.966714 106.056338 
L 112.16 111.065452 
L 113.8464 118.182683 
L 114.5408 120.319064 
L 115.136 121.699787 
L 115.7312 122.558147 
L 116.128 122.81895 
L 116.5248 122.850979 
L 117.12 122.475866 
L 117.7152 121.716703 
L 118.7072 119.920902 
L 120.329585 116.977255 
L 120.60347 116.622892 
L 121.51642 115.716672 
L 122.431015 115.341874 
L 122.968985 115.329661 
L 123.678646 115.358399 
L 124.831846 116.144411 
L 126.323824 117.582698 
L 127.804566 118.90057 
L 129.37241 119.418281 
L 130.156332 119.19421 
L 130.504741 118.989777 
L 131.027356 118.582339 
L 131.811278 117.672018 
L 133.598997 114.736181 
L 136.262919 110.14133 
L 136.745514 109.779897 
L 137.935914 109.354017 
L 138.336288 109.465905 
L 138.93685 109.859338 
L 139.437319 110.314924 
L 140.262776 111.396617 
L 142.982024 115.692955 
L 143.53572 116.104015 
L 144.096414 116.246749 
L 144.556311 116.095048 
L 145.021048 115.725208 
L 145.601971 114.945883 
L 146.415262 113.333317 
L 147.618869 110.223484 
L 149.096607 106.476531 
L 150.701731 103.943697 
L 151.316669 103.478621 
L 151.685633 103.365469 
L 152.054596 103.398316 
L 152.546547 103.693276 
L 153.14782 104.346993 
L 153.803755 105.463035 
L 155.68896 110.01518 
L 157.5936 114.900557 
L 158.394415 116.232864 
L 158.961084 116.824959 
L 159.291642 116.817374 
L 159.842571 116.663768 
L 160.35112 116.200525 
L 160.85967 115.471405 
L 161.368869 114.416318 
L 162.658107 111.258551 
L 163.130355 109.892308 
L 163.791503 108.241545 
L 165.364936 105.091328 
L 166.07491 104.22692 
L 166.504196 103.902508 
L 167.276912 103.865285 
L 167.620342 103.962454 
L 168.732343 105.393984 
L 169.317825 106.526229 
L 170.143817 108.649961 
L 170.88721 110.632496 
L 175.117395 122.328863 
L 176.980114 126.501099 
L 177.915429 127.527011 
L 178.340571 127.618593 
L 178.850743 127.440903 
L 179.112369 127.153179 
L 179.570215 126.444397 
L 180.420092 124.422829 
L 181.742123 120.005331 
L 183.743074 113.262426 
L 184.900526 110.950705 
L 185.531863 110.139276 
L 185.847531 109.87566 
L 186.3936 109.560135 
L 187.6608 109.695894 
L 188.352 110.122932 
L 189.504 111.23833 
L 190.842703 112.513931 
L 191.458428 112.919801 
L 191.951007 113.117345 
L 193.05931 113.192401 
L 193.675034 112.97675 
L 194.290759 112.576413 
L 195.399062 111.954513 
L 196.384221 111.857208 
L 197.12309 112.146764 
L 197.861959 112.658926 
L 199.652295 113.977886 
L 200.9088 114.58855 
L 201.586176 114.77041 
L 201.917952 114.7373 
L 202.139136 114.657042 
L 202.77504 114.227532 
L 202.9824 114.041487 
L 204.0192 112.022596 
L 206.074766 106.949243 
L 207.3299 103.919889 
L 208.57248 101.505799 
L 209.262912 100.67356 
L 209.86704 100.283739 
L 210.291368 100.27255 
L 210.686928 100.491385 
L 210.845152 100.465714 
L 211.003376 100.815203 
L 211.1616 101.044097 
L 211.576856 101.673707 
L 212.656521 103.84001 
L 213.32093 105.656758 
L 214.151442 108.219955 
L 215.563312 113.70453 
L 216.809079 119.358242 
L 217.888744 124.051853 
L 218.913717 127.453499 
L 219.871844 129.078652 
L 220.394459 129.222075 
L 220.829971 128.932585 
L 221.091278 128.656236 
L 221.788098 127.370368 
L 223.027824 124.051826 
L 224.47897 120.04096 
L 225.4464 117.857984 
L 226.181647 116.64369 
L 227.126965 115.792359 
L 227.442071 115.716537 
L 227.757176 115.776174 
L 228.177318 115.893692 
L 228.702494 116.216796 
L 229.6872 117.217831 
L 230.4684 118.334654 
L 231.4728 120.00297 
L 232.8192 122.284668 
L 233.6256 123.354391 
L 234.2016 123.876897 
L 234.7776 124.132071 
L 235.2384 124.152863 
L 235.8144 123.909711 
L 236.5056 123.315759 
L 237.4272 121.983909 
L 238.464 120.299606 
L 239.7312 118.44323 
L 241.5744 116.359403 
L 242.496 115.779893 
L 244.1088 115.621585 
L 245.227886 116.363627 
L 246.325029 117.617195 
L 248.17932 120.423832 
L 250.346727 122.913298 
L 250.963412 123.323729 
L 251.777435 123.561469 
L 252.585099 123.486973 
L 253.252853 123.200456 
L 254.016 122.655442 
L 255.077708 121.544332 
L 256.573751 119.380497 
L 258.319754 116.159613 
L 261.890954 109.277935 
L 263.356062 107.327025 
L 264.088615 106.726732 
L 265.105516 106.375807 
L 265.669389 106.427285 
L 266.421221 106.828941 
L 267.173053 107.523516 
L 268.206821 108.865204 
L 270.033882 111.369004 
L 270.850824 112.085496 
L 271.463529 112.291376 
L 271.872 112.224861 
L 272.3184 112.003124 
L 272.988 111.350903 
L 273.6576 110.373855 
L 274.9968 107.697457 
L 276.598779 104.424283 
L 277.288956 103.44282 
L 277.864104 102.962466 
L 278.324222 102.82535 
L 279.1296 103.060358 
L 279.8016 103.600859 
L 280.9152 105.167052 
L 281.80608 107.165408 
L 282.5856 109.44272 
L 284.0364 114.456555 
L 285.9057 121.032357 
L 286.672634 123.031304 
L 287.410136 124.391993 
L 287.91402 124.888114 
L 288.21635 125.064045 
L 288.619457 125.062252 
L 289.183806 124.700073 
L 289.728 124.030554 
L 290.403632 122.853235 
L 292.891005 118.233626 
L 294.121516 117.007237 
L 294.932084 116.576678 
L 296.694189 116.281058 
L 298.29888 116.555941 
L 298.656 116.655214 
L 300.08448 116.887186 
L 300.624738 116.855667 
L 300.991015 116.798495 
L 302.547692 116.444493 
L 303.921231 115.880355 
L 304.109319 115.846778 
L 305.171027 115.796364 
L 306.425773 115.975838 
L 307.487481 116.429496 
L 308.926771 117.574293 
L 312.048 120.739126 
L 312.9408 121.35916 
L 313.6104 121.577036 
L 314.28 121.574154 
L 314.96448 121.310738 
L 315.55968 120.887433 
L 316.27392 120.128055 
L 317.22624 118.752554 
L 318.552686 116.309118 
L 323.309811 106.82412 
L 324.437558 105.245444 
L 325.189389 104.455897 
L 325.945266 103.916146 
L 326.803728 103.597424 
L 327.294277 103.583276 
L 327.784826 103.705985 
L 328.676734 104.280992 
L 329.3568 105.013368 
L 330.565136 106.668126 
L 331.901131 108.910788 
L 332.88 110.40651 
L 333.5589 111.132663 
L 334.123968 111.44443 
L 334.585248 111.456131 
L 335.046528 111.275588 
L 336.1536 109.960807 
L 337.287456 107.771855 
L 338.46744 105.470949 
L 339.054208 104.707059 
L 339.473328 104.382912 
L 339.807851 104.310138 
L 340.47226 104.431723 
L 340.721414 104.897915 
L 340.887516 105.142995 
L 341.302772 105.870512 
L 342.797693 109.370856 
L 343.628205 112.18574 
L 344.790921 116.811356 
L 347.302712 126.487272 
L 348.173737 128.685075 
L 348.870556 129.706264 
L 349.131863 129.901336 
L 349.915785 129.899963 
L 350.720337 129.00166 
L 351.190232 128.178749 
L 352.411958 125.307282 
L 354.111634 120.928448 
L 355.344918 118.399885 
L 356.622565 116.918434 
L 357.154918 116.659734 
L 357.804 116.557292 
L 358.362 116.663132 
L 360.036 118.07634 
L 360.9288 119.134852 
L 362.5344 121.235799 
L 363.456 121.993628 
L 364.1472 122.208065 
L 364.608 122.185774 
L 365.0688 122.006217 
L 366.2208 121.031726 
L 367.2576 119.703551 
L 370.7136 115.409818 
L 372.096 114.606166 
L 372.7872 114.454374 
L 373.7088 114.696797 
L 374.901943 115.642632 
L 375.9948 117.04975 
L 377.945143 119.906874 
L 379.85079 122.274449 
L 380.690301 122.886261 
L 381.214995 123.143873 
L 382.002036 123.310764 
L 383.191406 123.069465 
L 383.988785 122.639429 
L 385.069592 121.740903 
L 386.246919 120.350329 
L 387.405146 118.583966 
L 389.7216 114.21367 
L 392.446989 109.122369 
L 393.480758 107.716673 
L 394.608505 106.813 
L 395.360337 106.622335 
L 395.924211 106.718132 
L 396.582063 107.061076 
L 397.539632 107.991436 
L 399.663049 110.845677 
L 400.4352 111.676653 
L 401.065412 112.089992 
L 401.821666 112.140547 
L 402.367849 111.881239 
L 403.132506 111.142894 
L 403.787927 110.215148 
L 405.0432 107.908415 
L 406.656 104.922226 
L 407.5776 103.855432 
L 408.181957 103.559673 
L 408.552812 103.534053 
L 410.110405 104.722293 
L 410.918046 105.887786 
L 411.7248 107.506936 
L 412.6464 109.928732 
L 414.144 114.771058 
L 414.72 116.775424 
L 414.72 116.775424 
" clip-path="url(#pcc15963034)" style="fill: none; stroke: #ff0000; stroke-width: 1.5; stroke-linecap: square"/>
   </g>
   <g id="line2d_25">
    <path d="M 57.6 174.528 
L 57.874708 171.671139 
L 57.932541 184.105023 
L 57.989359 180.17893 
L 58.284613 175.272341 
L 58.347365 175.219446 
L 58.411543 174.953614 
L 58.477249 175.435892 
L 58.542955 175.150594 
L 58.610346 175.104545 
L 58.679558 174.768879 
L 58.750748 174.89976 
L 59.196604 174.123044 
L 59.348496 174.304336 
L 59.500388 174.325733 
L 59.739076 174.770075 
L 59.898201 174.571737 
L 60.5347 174.744215 
L 60.85295 175.483304 
L 61.347638 175.660966 
L 61.794317 176.16285 
L 61.972989 176.46159 
L 62.777012 176.750521 
L 62.866347 176.681707 
L 63.045019 176.767513 
L 63.67037 176.805155 
L 65.024337 175.686014 
L 65.306274 175.282973 
L 66.528 172.718244 
L 67.467789 170.118052 
L 68.603157 166.227923 
L 69.085751 164.089367 
L 73.810098 143.322547 
L 74.358732 141.438073 
L 75.090244 139.057188 
L 75.831916 136.689372 
L 77.147621 133.080586 
L 77.617516 132.096241 
L 77.993432 131.051728 
L 78.087411 130.990257 
L 79.121179 128.547786 
L 79.685053 127.160554 
L 80.342905 125.895264 
L 81.188716 124.795987 
L 81.564632 124.694974 
L 81.846568 124.664264 
L 83.162274 125.070868 
L 83.820126 125.742696 
L 84.102063 126.060326 
L 84.665937 126.800669 
L 85.229811 127.536322 
L 85.511747 127.86407 
L 87.579284 130.531629 
L 88.707032 132.486368 
L 89.7408 134.94979 
L 90.586611 137.571098 
L 91.432421 140.684912 
L 92.654147 146.144786 
L 94.1056 153.908273 
L 95.9904 166.081083 
L 97.857164 180.109505 
L 103.356 223.102526 
L 104.256 228.096364 
L 105.0624 231.456515 
L 105.7536 233.395092 
L 106.4352 234.33339 
L 107.0688 234.61221 
L 107.3856 234.532133 
L 107.813236 234.158542 
L 108.442255 233.138499 
L 109.054499 231.523368 
L 109.658356 229.372739 
L 110.4635 225.625942 
L 111.3664 220.21889 
L 112.5568 211.553991 
L 114.144 198.154841 
L 117.7152 167.285919 
L 119.383 155.220023 
L 121.425125 142.559621 
L 122.339446 137.669351 
L 123.767354 130.395188 
L 124.831846 125.364932 
L 126.062517 120.58112 
L 126.933541 117.969106 
L 127.804566 116.103754 
L 128.501385 115.237995 
L 129.459512 114.889867 
L 129.982127 115.201027 
L 130.591844 115.931202 
L 131.724176 118.416151 
L 133.232225 124.068629 
L 134.240848 129.118506 
L 135.616242 137.436474 
L 138.336288 158.18756 
L 143.53572 202.748331 
L 144.904864 212.093291 
L 146.299078 220.004859 
L 147.372579 224.860909 
L 148.234593 227.828061 
L 148.973462 229.668078 
L 149.466041 230.448607 
L 150.081766 231.074376 
L 150.578743 231.276482 
L 150.947706 231.224852 
L 151.439657 230.899466 
L 151.931608 230.270331 
L 152.423559 229.328118 
L 152.91551 227.990568 
L 153.694433 225.246956 
L 154.26048 222.655766 
L 155.2128 217.353524 
L 156.28416 209.93907 
L 157.296 201.61919 
L 158.961084 186.179277 
L 161.773714 157.860183 
L 164.225972 134.201223 
L 165.721574 121.766278 
L 167.01934 113.143901 
L 167.963771 108.397856 
L 168.817371 105.356114 
L 169.565623 103.545447 
L 169.89602 102.965906 
L 170.061218 102.916278 
L 170.474214 102.566361 
L 170.969809 102.494511 
L 171.300206 102.61071 
L 172.376707 103.786901 
L 172.958065 104.892686 
L 173.705526 106.984911 
L 174.369935 109.442564 
L 175.117395 112.898798 
L 175.959771 117.555406 
L 177.745371 129.97541 
L 179.947938 147.733425 
L 184.69008 184.926037 
L 188.6976 213.195834 
L 189.3888 216.767725 
L 190.226979 220.044339 
L 190.965848 222.040806 
L 191.581572 223.071708 
L 192.320441 223.630985 
L 192.936166 223.69422 
L 193.428745 223.546376 
L 193.921324 223.134917 
L 194.660193 222.346415 
L 196.261076 218.417638 
L 197.12309 215.058671 
L 197.861959 211.512719 
L 198.970262 204.95523 
L 200.334328 194.968222 
L 201.80736 182.15819 
L 202.9824 170.583833 
L 207.416734 126.388989 
L 208.917696 114.269808 
L 209.694432 109.380931 
L 210.449592 105.973217 
L 211.082488 104.085686 
L 211.244651 103.902642 
L 211.576856 103.415395 
L 211.992112 103.0481 
L 212.241265 102.992636 
L 212.988726 103.278448 
L 213.736186 104.307698 
L 214.400595 105.747139 
L 215.148056 107.985748 
L 215.978567 111.511041 
L 216.642977 115.125056 
L 217.473488 120.446498 
L 219.087922 132.47489 
L 221.788098 152.913978 
L 223.511539 163.847707 
L 224.769199 170.941791 
L 227.442071 184.421865 
L 228.282353 188.511915 
L 231.5844 204.099696 
L 232.4772 206.933703 
L 233.1648 208.446229 
L 233.9712 209.209193 
L 234.432 209.385334 
L 234.8928 209.32844 
L 235.4688 209.005793 
L 236.2752 208.200555 
L 237.1968 206.883779 
L 238.8096 203.866895 
L 240.192 200.579786 
L 241.344 197.309231 
L 242.1504 194.493541 
L 243.9936 186.920918 
L 245.666743 178.95117 
L 247.42416 170.094768 
L 249.366 159.404463 
L 249.954436 156.153329 
L 253.634426 137.218074 
L 255.367265 129.795571 
L 256.573751 125.645556 
L 257.5872 123.033076 
L 258.228185 121.895975 
L 258.7776 121.279582 
L 259.235446 121.015573 
L 259.693292 120.975445 
L 260.151138 121.19581 
L 260.700554 121.765867 
L 261.249969 122.71745 
L 261.890954 124.362121 
L 262.623508 126.90209 
L 263.447631 130.639127 
L 264.454892 136.478209 
L 265.481432 143.828556 
L 266.891116 155.930421 
L 268.604235 172.816655 
L 271.872 205.219458 
L 273.2112 215.993889 
L 274.104 221.614252 
L 274.8852 225.233673 
L 275.5584 227.387389 
L 276.13866 228.512684 
L 276.598779 229.024291 
L 276.943867 229.071907 
L 277.403986 228.965929 
L 277.979134 228.438771 
L 278.784341 227.18431 
L 279.46752 225.591117 
L 280.13568 223.511777 
L 280.9152 220.332055 
L 281.80608 215.75417 
L 282.8088 209.521676 
L 284.2596 198.951212 
L 286.461919 180.890922 
L 287.304779 174.045928 
L 289.093107 161.220951 
L 290.307114 154.221532 
L 291.619771 147.892411 
L 292.809366 142.998335 
L 293.754998 139.828202 
L 294.755874 136.737378 
L 296.253663 132.881023 
L 296.8704 131.812357 
L 297.49536 131.129011 
L 297.94176 130.872183 
L 298.38816 130.849711 
L 299.1024 131.242435 
L 299.37024 131.591665 
L 300.533169 134.017927 
L 300.991015 135.306002 
L 301.998277 138.959451 
L 303.188677 144.613202 
L 304.784951 153.3686 
L 307.294443 169.460916 
L 309.351234 182.788839 
L 311.2668 193.926684 
L 312.7176 201.172155 
L 314.1684 207.21313 
L 315.44064 211.568029 
L 316.63104 214.883263 
L 317.82144 217.41753 
L 318.680229 218.696999 
L 319.317943 219.291838 
L 319.828114 219.537211 
L 320.338286 219.565041 
L 320.848457 219.369898 
L 321.358629 218.927881 
L 321.8688 218.232457 
L 322.6624 216.586812 
L 323.435116 214.40631 
L 324.312253 211.121737 
L 325.189389 206.951274 
L 326.190541 201.084586 
L 327.294277 193.195388 
L 328.788223 180.429762 
L 330.458964 164.190522 
L 334.216224 127.337181 
L 335.392488 118.156159 
L 336.329928 112.504139 
L 337.11336 109.15281 
L 337.713024 107.390797 
L 338.215968 106.309118 
L 338.46744 106.135123 
L 338.802736 105.868428 
L 339.221856 105.772591 
L 339.890902 105.968978 
L 340.389209 106.493877 
L 341.053619 107.518209 
L 341.634977 108.830221 
L 342.299386 110.852514 
L 343.046847 113.762045 
L 344.126512 119.039534 
L 345.206177 125.353638 
L 349.218966 150.736825 
L 350.814316 159.321821 
L 353.351747 171.515459 
L 354.315703 176.044614 
L 357.048447 189.213057 
L 357.804 192.835649 
L 359.478 198.858194 
L 360.036 200.022994 
L 360.3708 200.630625 
L 361.152 201.451135 
L 361.4976 201.591503 
L 362.0736 201.605268 
L 362.6496 201.375414 
L 363.8016 200.401923 
L 364.3776 199.788265 
L 365.184 198.790313 
L 365.76 198.022795 
L 367.0272 195.878302 
L 370.2528 188.217569 
L 371.1744 185.635775 
L 374.046171 176.895585 
L 376.776 167.172246 
L 380.270545 154.095003 
L 383.792274 141.470797 
L 385.462613 136.404936 
L 386.729514 133.287751 
L 387.694703 131.496035 
L 388.718876 130.203491 
L 389.44813 129.753716 
L 390.567411 129.949007 
L 391.413221 130.775208 
L 391.977095 131.676634 
L 392.540968 132.886265 
L 393.2928 134.997131 
L 394.232589 138.420051 
L 395.172379 142.774304 
L 396.206147 148.663258 
L 397.443114 157.044242 
L 398.890897 168.464164 
L 404.1216 211.229917 
L 405.1584 217.277878 
L 406.08 221.349806 
L 406.7712 223.501959 
L 407.3472 224.655424 
L 407.81568 225.225953 
L 408.181957 225.455281 
L 408.923668 225.248004 
L 409.418142 224.746455 
L 410.341159 223.196546 
L 411.033423 221.47451 
L 411.7248 219.265792 
L 412.5312 216.002028 
L 413.6832 210.129245 
L 414.72 203.867831 
L 414.72 203.867831 
" clip-path="url(#pcc15963034)" style="fill: none; stroke-dasharray: 5.55,2.4; stroke-dashoffset: 0; stroke: #008000; stroke-width: 1.5"/>
   </g>
   <g id="line2d_26">
    <path d="M 57.6 173.298045 
L 57.635663 -1 
M 57.931241 -1 
L 58.046178 102.467602 
L 58.223196 107.266862 
L 58.477249 111.055903 
L 58.542955 110.732027 
L 58.821938 112.392745 
L 59.196604 114.193399 
L 59.27255 114.035807 
L 59.500388 114.626458 
L 59.739076 116.111964 
L 59.898201 116.305596 
L 60.5347 118.486327 
L 60.932513 120.921972 
L 61.091638 121.659708 
L 62.419668 128.565755 
L 63.223691 131.669781 
L 64.206385 134.541184 
L 65.306274 136.836571 
L 65.682189 137.284307 
L 67.561768 139.3293 
L 68.796195 140.146807 
L 70.147459 140.502869 
L 70.726573 140.367793 
L 71.209168 140.111188 
L 72.560432 138.722438 
L 74.267293 135.294928 
L 75.273122 132.034987 
L 76.301811 128.169818 
L 80.624842 108.049437 
L 82.128505 102.026763 
L 82.974316 99.473979 
L 83.538189 98.248241 
L 84.102063 97.25723 
L 84.665937 96.820952 
L 85.135832 96.642508 
L 85.323789 96.519151 
L 85.793684 96.720753 
L 86.357558 97.185797 
L 87.673263 98.928221 
L 89.458863 101.262049 
L 90.398653 102.205301 
L 91.056505 102.750629 
L 92.936084 104.330074 
L 94.9984 107.015659 
L 96.784 110.38884 
L 97.640727 112.091058 
L 98.722909 113.894737 
L 99.372218 114.589458 
L 99.913309 114.860043 
L 100.346182 114.866421 
L 100.9008 114.565816 
L 101.5704 113.742117 
L 102.24 112.416872 
L 103.1328 109.993099 
L 105.984 101.668195 
L 106.6464 100.510846 
L 107.4912 99.694815 
L 107.918073 99.585793 
L 108.337418 99.740997 
L 108.853213 100.224706 
L 109.255785 100.87318 
L 109.960285 102.550609 
L 110.664785 104.903591 
L 114.64 120.598701 
L 115.2352 121.889319 
L 115.8304 122.675705 
L 116.3264 122.903958 
L 116.7232 122.802788 
L 117.12 122.523847 
L 117.7152 121.768536 
L 118.608 120.180109 
L 119.9596 117.586453 
L 120.512175 116.827913 
L 120.877355 116.360641 
L 121.425125 115.832016 
L 122.156308 115.433321 
L 122.791569 115.367813 
L 123.1464 115.340549 
L 123.412523 115.343022 
L 124.033477 115.605142 
L 125.364092 116.614907 
L 127.804566 118.886698 
L 128.849795 119.335727 
L 129.459512 119.364437 
L 130.417639 119.03128 
L 131.288663 118.309591 
L 132.159688 117.175786 
L 132.865453 116.041584 
L 134.057462 113.875214 
L 135.341163 111.433923 
L 135.983014 110.457958 
L 136.938551 109.672225 
L 137.735726 109.388549 
L 138.036007 109.436673 
L 138.336288 109.501276 
L 138.836757 109.815503 
L 139.537413 110.471789 
L 140.262776 111.445297 
L 142.982024 115.775287 
L 143.65104 116.248426 
L 144.096414 116.356629 
L 144.556311 116.214169 
L 145.021048 115.855065 
L 145.601971 115.088121 
L 146.299078 113.745471 
L 147.249434 111.388583 
L 149.219752 106.348426 
L 150.947706 103.765218 
L 151.439657 103.432829 
L 151.931608 103.361941 
L 152.300571 103.485634 
L 152.792522 103.834343 
L 153.366465 104.583195 
L 153.913078 105.590918 
L 154.49856 106.757603 
L 155.68896 109.785015 
L 157.4944 114.427225 
L 158.163549 115.672578 
L 158.850899 116.527546 
L 159.07127 116.660697 
L 159.842571 116.529938 
L 160.45283 115.995888 
L 161.06309 114.981795 
L 161.674971 113.722421 
L 164.565991 106.499172 
L 165.364936 105.037596 
L 165.989053 104.209447 
L 166.761768 103.706501 
L 167.36277 103.725541 
L 167.963771 104.109869 
L 168.647314 104.999803 
L 170.143817 108.431572 
L 171.052408 110.927616 
L 171.630602 112.569313 
L 172.875014 116.23291 
L 176.299886 125.264846 
L 177.405257 127.241945 
L 178.085486 127.78968 
L 178.4256 127.82936 
L 178.680686 127.762833 
L 179.112369 127.421049 
L 179.759077 126.363839 
L 180.420092 124.717178 
L 181.553262 120.990439 
L 183.637851 113.895014 
L 184.479634 111.909861 
L 185.216194 110.82675 
L 185.637086 110.365016 
L 186.7392 109.870139 
L 187.2 109.933362 
L 187.5456 110.036708 
L 188.1216 110.355212 
L 189.98069 112.221673 
L 191.212138 113.322711 
L 192.443586 113.851089 
L 193.05931 113.843651 
L 193.675034 113.615146 
L 194.167614 113.352286 
L 194.906483 112.852601 
L 195.768497 112.405948 
L 196.507366 112.257157 
L 197.615669 112.549841 
L 199.197606 113.46413 
L 199.538623 113.588108 
L 199.652295 113.567059 
L 199.993311 113.817686 
L 200.334328 113.934595 
L 201.2544 114.330054 
L 201.917952 114.453426 
L 202.139136 114.39491 
L 202.87872 114.103812 
L 203.08608 113.829265 
L 203.60448 113.140426 
L 204.526183 111.544949 
L 208.4832 102.730266 
L 209.608128 101.199112 
L 210.039648 100.882219 
L 210.607816 100.829704 
L 211.082488 100.842134 
L 211.244651 101.243334 
L 211.327702 101.272056 
L 211.659907 101.72583 
L 212.158214 102.654028 
L 212.407367 103.04551 
L 212.490419 103.018972 
L 213.487033 105.448071 
L 214.815851 109.592963 
L 215.646363 112.783392 
L 218.65241 125.444561 
L 219.262127 127.081826 
L 219.610537 127.747339 
L 220.046049 128.207726 
L 220.481561 128.302699 
L 220.829971 128.144574 
L 221.265483 127.634668 
L 221.8752 126.492931 
L 222.640852 124.576091 
L 225.156171 117.78932 
L 226.601788 115.364298 
L 227.442071 114.945467 
L 228.702494 115.311134 
L 229.5756 116.127041 
L 230.58 117.460557 
L 231.696 119.226358 
L 232.5888 120.669732 
L 233.6256 121.945129 
L 234.432 122.515601 
L 235.008 122.629963 
L 235.4688 122.550872 
L 236.0448 122.235914 
L 236.8512 121.415628 
L 237.5424 120.461534 
L 238.1184 119.490622 
L 239.04 117.965427 
L 240.8832 115.387429 
L 242.7264 113.734039 
L 243.3024 113.495689 
L 243.8784 113.413064 
L 244.679314 113.535171 
L 245.227886 113.85716 
L 245.886171 114.483069 
L 246.544457 115.284707 
L 250.150582 120.666428 
L 250.759906 121.288339 
L 251.573929 121.779439 
L 252.082694 121.876889 
L 252.680493 121.779393 
L 253.44364 121.31301 
L 254.112519 120.590313 
L 254.88467 119.422074 
L 255.744566 117.759929 
L 256.942278 114.964305 
L 259.968 107.571413 
L 261.341538 104.994224 
L 262.074092 104.074572 
L 262.989785 103.421333 
L 263.356062 103.31434 
L 263.905477 103.317361 
L 264.546462 103.571495 
L 265.011537 103.925619 
L 265.951326 104.975489 
L 267.830905 107.677955 
L 268.502118 108.454734 
L 269.216941 108.976196 
L 269.727529 109.100728 
L 270.136 109.040752 
L 270.646588 108.76769 
L 271.463529 107.907398 
L 272.5416 106.159643 
L 275.5584 100.440529 
L 276.13866 99.936479 
L 276.713808 99.787537 
L 277.173927 100.010394 
L 277.634045 100.313889 
L 278.669311 101.584032 
L 279.35616 102.768744 
L 280.24704 104.984197 
L 281.24928 108.321628 
L 283.1436 115.866165 
L 284.2596 120.202319 
L 285.1524 123.010091 
L 285.5988 124.030528 
L 286.1568 124.965827 
L 286.672634 125.353046 
L 287.094064 125.363349 
L 287.510913 125.093314 
L 288.014797 124.444707 
L 288.720233 123.098462 
L 291.246564 117.567993 
L 291.806374 116.897489 
L 292.646089 116.336069 
L 292.972644 116.26196 
L 293.38848 116.184924 
L 294.843979 116.519013 
L 296.8704 117.60848 
L 298.12032 118.310287 
L 299.28096 118.552604 
L 300.35232 118.431905 
L 300.624738 118.381978 
L 301.540431 117.954859 
L 301.906708 117.685751 
L 304.0128 116.838799 
L 304.495395 116.807001 
L 305.943178 116.983352 
L 306.618811 117.297213 
L 307.487481 117.884223 
L 307.890103 118.188568 
L 309.139003 119.277548 
L 310.518506 120.4487 
L 311.2668 120.828649 
L 311.9364 120.923595 
L 312.606 120.762492 
L 313.2756 120.331735 
L 313.9452 119.643187 
L 314.84544 118.357216 
L 315.79776 116.637598 
L 317.58336 112.907805 
L 319.700571 108.498431 
L 322.001067 104.977561 
L 322.926933 104.06335 
L 323.685726 103.606571 
L 324.562863 103.418548 
L 325.44 103.591372 
L 326.190541 104.058429 
L 327.049002 104.960829 
L 329.0112 107.868618 
L 330.135393 109.639927 
L 331.308339 110.993431 
L 331.998455 111.279883 
L 332.5824 111.184892 
L 333.1745 110.700381 
L 333.5589 110.233586 
L 334.400736 108.809268 
L 336.765168 104.09367 
L 337.287456 103.57525 
L 337.796848 103.439392 
L 338.215968 103.440819 
L 338.46744 103.870531 
L 338.551264 103.887109 
L 338.970384 104.57174 
L 339.973953 106.510041 
L 340.555312 108.133228 
L 341.468874 111.249539 
L 342.631591 116.033422 
L 344.790921 125.063871 
L 345.45533 127.215535 
L 346.202791 129.011724 
L 346.8672 129.900343 
L 347.21561 130.08785 
L 347.651122 130.065274 
L 347.912429 129.913372 
L 348.696351 128.974244 
L 349.393171 127.584781 
L 350.08999 125.939203 
L 350.626358 124.649692 
L 352.036042 121.154761 
L 353.069811 119.061105 
L 353.915621 117.823624 
L 354.417737 117.370669 
L 354.621806 117.303971 
L 355.131977 117.119174 
L 355.66433 117.077917 
L 356.196683 117.170533 
L 357.5808 118.312344 
L 358.92 120.047686 
L 360.036 121.752107 
L 361.6128 123.30229 
L 362.0736 123.485132 
L 362.7648 123.432907 
L 363.2256 123.262617 
L 364.1472 122.440269 
L 367.1424 118.681955 
L 368.9856 116.930685 
L 370.1376 116.436858 
L 371.1744 116.500422 
L 371.6352 116.668913 
L 372.5568 117.349787 
L 373.4784 118.341409 
L 374.474057 119.671638 
L 375.329829 120.810029 
L 377.626286 123.413832 
L 378.582857 124.012412 
L 379.431035 124.295179 
L 380.270545 124.326722 
L 381.214995 124.138183 
L 383.29344 123.079529 
L 384.381806 122.201388 
L 385.659124 120.856076 
L 386.922551 119.21735 
L 388.536562 116.751574 
L 392.540968 110.596323 
L 393.574737 109.635493 
L 394.326568 109.245579 
L 394.984421 109.144928 
L 395.736253 109.338379 
L 396.676042 110.001576 
L 397.443114 110.805656 
L 400.049124 113.8672 
L 400.540235 114.192721 
L 401.065412 114.324224 
L 401.712429 114.195682 
L 402.367849 113.735455 
L 403.02327 112.949407 
L 403.787927 111.743914 
L 406.656 106.636415 
L 407.3472 105.944299 
L 408.058338 105.653909 
L 408.305575 105.706969 
L 409.047286 106.025708 
L 409.648896 106.558805 
L 410.571914 107.745354 
L 411.3792 109.198926 
L 412.3008 111.387995 
L 413.3376 114.294215 
L 414.72 118.537098 
L 414.72 118.537098 
" clip-path="url(#pcc15963034)" style="fill: none; stroke-dasharray: 5.55,2.4; stroke-dashoffset: 0; stroke: #000000; stroke-width: 1.5"/>
   </g>
   <g id="patch_3">
    <path d="M 57.6 307.584 
L 57.6 41.472 
" style="fill: none; stroke: #000000; stroke-width: 0.8; stroke-linejoin: miter; stroke-linecap: square"/>
   </g>
   <g id="patch_4">
    <path d="M 414.72 307.584 
L 414.72 41.472 
" style="fill: none; stroke: #000000; stroke-width: 0.8; stroke-linejoin: miter; stroke-linecap: square"/>
   </g>
   <g id="patch_5">
    <path d="M 57.6 307.584 
L 414.72 307.584 
" style="fill: none; stroke: #000000; stroke-width: 0.8; stroke-linejoin: miter; stroke-linecap: square"/>
   </g>
   <g id="patch_6">
    <path d="M 57.6 41.472 
L 414.72 41.472 
" style="fill: none; stroke: #000000; stroke-width: 0.8; stroke-linejoin: miter; stroke-linecap: square"/>
   </g>
   <g id="legend_1">
    <g id="patch_7">
     <path d="M 64.6 302.584 
L 125.7 302.584 
Q 127.7 302.584 127.7 300.584 
L 127.7 242.830875 
Q 127.7 240.830875 125.7 240.830875 
L 64.6 240.830875 
Q 62.6 240.830875 62.6 242.830875 
L 62.6 300.584 
Q 62.6 302.584 64.6 302.584 
z
" style="fill: #ffffff; opacity: 0.8; stroke: #cccccc; stroke-linejoin: miter"/>
    </g>
    <g id="line2d_27">
     <path d="M 66.6 248.929312 
L 76.6 248.929312 
L 86.6 248.929312 
" style="fill: none; stroke: #0000ff; stroke-width: 1.5; stroke-linecap: square"/>
    </g>
    <g id="text_14">
     <!-- $C_{L} bot$ -->
     <g transform="translate(94.6 252.429312) scale(0.1 -0.1)">
      <defs>
       <path id="DejaVuSans-Oblique-62" d="M 3169 2138 
Q 3169 2591 2961 2847 
Q 2753 3103 2388 3103 
Q 2122 3103 1889 2973 
Q 1656 2844 1484 2597 
Q 1303 2338 1198 1995 
Q 1094 1653 1094 1313 
Q 1094 881 1298 636 
Q 1503 391 1863 391 
Q 2134 391 2365 517 
Q 2597 644 2772 891 
Q 2950 1147 3059 1487 
Q 3169 1828 3169 2138 
z
M 1381 2969 
Q 1594 3256 1914 3420 
Q 2234 3584 2584 3584 
Q 3122 3584 3439 3221 
Q 3756 2859 3756 2241 
Q 3756 1734 3570 1259 
Q 3384 784 3041 416 
Q 2816 172 2522 40 
Q 2228 -91 1906 -91 
Q 1566 -91 1316 65 
Q 1066 222 909 531 
L 806 0 
L 231 0 
L 1178 4863 
L 1753 4863 
L 1381 2969 
z
" transform="scale(0.015625)"/>
       <path id="DejaVuSans-Oblique-6f" d="M 1625 -91 
Q 1009 -91 651 289 
Q 294 669 294 1325 
Q 294 1706 417 2101 
Q 541 2497 738 2766 
Q 1047 3184 1428 3384 
Q 1809 3584 2291 3584 
Q 2888 3584 3255 3212 
Q 3622 2841 3622 2241 
Q 3622 1825 3500 1412 
Q 3378 1000 3181 728 
Q 2875 309 2494 109 
Q 2113 -91 1625 -91 
z
M 891 1344 
Q 891 869 1089 633 
Q 1288 397 1691 397 
Q 2269 397 2648 901 
Q 3028 1406 3028 2181 
Q 3028 2634 2825 2865 
Q 2622 3097 2228 3097 
Q 1903 3097 1650 2945 
Q 1397 2794 1197 2484 
Q 1050 2253 970 1956 
Q 891 1659 891 1344 
z
" transform="scale(0.015625)"/>
       <path id="DejaVuSans-Oblique-74" d="M 2706 3500 
L 2619 3053 
L 1472 3053 
L 1100 1153 
Q 1081 1047 1072 975 
Q 1063 903 1063 863 
Q 1063 663 1183 572 
Q 1303 481 1569 481 
L 2150 481 
L 2053 0 
L 1503 0 
Q 991 0 739 200 
Q 488 400 488 806 
Q 488 878 497 964 
Q 506 1050 525 1153 
L 897 3053 
L 409 3053 
L 500 3500 
L 978 3500 
L 1172 4494 
L 1747 4494 
L 1556 3500 
L 2706 3500 
z
" transform="scale(0.015625)"/>
      </defs>
      <use xlink:href="#DejaVuSans-Oblique-43" transform="translate(0 0.015625)"/>
      <use xlink:href="#DejaVuSans-Oblique-4c" transform="translate(69.824219 -16.390625) scale(0.7)"/>
      <use xlink:href="#DejaVuSans-Oblique-62" transform="translate(111.557617 0.015625)"/>
      <use xlink:href="#DejaVuSans-Oblique-6f" transform="translate(175.03418 0.015625)"/>
      <use xlink:href="#DejaVuSans-Oblique-74" transform="translate(236.21582 0.015625)"/>
     </g>
    </g>
    <g id="line2d_28">
     <path d="M 66.6 263.607437 
L 76.6 263.607437 
L 86.6 263.607437 
" style="fill: none; stroke: #ff0000; stroke-width: 1.5; stroke-linecap: square"/>
    </g>
    <g id="text_15">
     <!-- $C_{D} bot$ -->
     <g transform="translate(94.6 267.107437) scale(0.1 -0.1)">
      <use xlink:href="#DejaVuSans-Oblique-43" transform="translate(0 0.015625)"/>
      <use xlink:href="#DejaVuSans-Oblique-44" transform="translate(69.824219 -16.390625) scale(0.7)"/>
      <use xlink:href="#DejaVuSans-Oblique-62" transform="translate(126.459961 0.015625)"/>
      <use xlink:href="#DejaVuSans-Oblique-6f" transform="translate(189.936523 0.015625)"/>
      <use xlink:href="#DejaVuSans-Oblique-74" transform="translate(251.118164 0.015625)"/>
     </g>
    </g>
    <g id="line2d_29">
     <path d="M 66.6 278.285562 
L 76.6 278.285562 
L 86.6 278.285562 
" style="fill: none; stroke-dasharray: 5.55,2.4; stroke-dashoffset: 0; stroke: #008000; stroke-width: 1.5"/>
    </g>
    <g id="text_16">
     <!-- $C_{L} top$ -->
     <g transform="translate(94.6 281.785562) scale(0.1 -0.1)">
      <defs>
       <path id="DejaVuSans-Oblique-70" d="M 3175 2156 
Q 3175 2616 2975 2859 
Q 2775 3103 2400 3103 
Q 2144 3103 1911 2972 
Q 1678 2841 1497 2591 
Q 1319 2344 1212 1994 
Q 1106 1644 1106 1300 
Q 1106 863 1306 627 
Q 1506 391 1875 391 
Q 2147 391 2380 519 
Q 2613 647 2778 891 
Q 2956 1147 3065 1494 
Q 3175 1841 3175 2156 
z
M 1394 2969 
Q 1625 3272 1939 3428 
Q 2253 3584 2638 3584 
Q 3175 3584 3472 3232 
Q 3769 2881 3769 2247 
Q 3769 1728 3584 1258 
Q 3400 788 3053 416 
Q 2822 169 2531 39 
Q 2241 -91 1919 -91 
Q 1547 -91 1294 64 
Q 1041 219 916 525 
L 556 -1331 
L -19 -1331 
L 922 3500 
L 1497 3500 
L 1394 2969 
z
" transform="scale(0.015625)"/>
      </defs>
      <use xlink:href="#DejaVuSans-Oblique-43" transform="translate(0 0.78125)"/>
      <use xlink:href="#DejaVuSans-Oblique-4c" transform="translate(69.824219 -15.625) scale(0.7)"/>
      <use xlink:href="#DejaVuSans-Oblique-74" transform="translate(111.557617 0.78125)"/>
      <use xlink:href="#DejaVuSans-Oblique-6f" transform="translate(150.766602 0.78125)"/>
      <use xlink:href="#DejaVuSans-Oblique-70" transform="translate(211.948242 0.78125)"/>
     </g>
    </g>
    <g id="line2d_30">
     <path d="M 66.6 292.984 
L 76.6 292.984 
L 86.6 292.984 
" style="fill: none; stroke-dasharray: 5.55,2.4; stroke-dashoffset: 0; stroke: #000000; stroke-width: 1.5"/>
    </g>
    <g id="text_17">
     <!-- $C_{D} top$ -->
     <g transform="translate(94.6 296.484) scale(0.1 -0.1)">
      <use xlink:href="#DejaVuSans-Oblique-43" transform="translate(0 0.78125)"/>
      <use xlink:href="#DejaVuSans-Oblique-44" transform="translate(69.824219 -15.625) scale(0.7)"/>
      <use xlink:href="#DejaVuSans-Oblique-74" transform="translate(126.459961 0.78125)"/>
      <use xlink:href="#DejaVuSans-Oblique-6f" transform="translate(165.668945 0.78125)"/>
      <use xlink:href="#DejaVuSans-Oblique-70" transform="translate(226.850586 0.78125)"/>
     </g>
    </g>
   </g>
  </g>
 </g>
 <defs>
  <clipPath id="pcc15963034">
   <rect x="57.6" y="41.472" width="357.12" height="266.112"/>
  </clipPath>
 </defs>
</svg>
