<?xml version="1.0" encoding="utf-8" standalone="no"?>
<!DOCTYPE svg PUBLIC "-//W3C//DTD SVG 1.1//EN"
  "http://www.w3.org/Graphics/SVG/1.1/DTD/svg11.dtd">
<svg xmlns:xlink="http://www.w3.org/1999/xlink" width="460.8pt" height="345.6pt" viewBox="0 0 460.8 345.6" xmlns="http://www.w3.org/2000/svg" version="1.1">
 <metadata>
  <rdf:RDF xmlns:dc="http://purl.org/dc/elements/1.1/" xmlns:cc="http://creativecommons.org/ns#" xmlns:rdf="http://www.w3.org/1999/02/22-rdf-syntax-ns#">
   <cc:Work>
    <dc:type rdf:resource="http://purl.org/dc/dcmitype/StillImage"/>
    <dc:date>2023-08-06T18:18:38.677686</dc:date>
    <dc:format>image/svg+xml</dc:format>
    <dc:creator>
     <cc:Agent>
      <dc:title>Matplotlib v3.6.3, https://matplotlib.org/</dc:title>
     </cc:Agent>
    </dc:creator>
   </cc:Work>
  </rdf:RDF>
 </metadata>
 <defs>
  <style type="text/css">*{stroke-linejoin: round; stroke-linecap: butt}</style>
 </defs>
 <g id="figure_1">
  <g id="patch_1">
   <path d="M 0 345.6 
L 460.8 345.6 
L 460.8 0 
L 0 0 
z
" style="fill: #ffffff"/>
  </g>
  <g id="axes_1">
   <g id="patch_2">
    <path d="M 57.6 307.584 
L 414.72 307.584 
L 414.72 41.472 
L 57.6 41.472 
z
" style="fill: #ffffff"/>
   </g>
   <g id="matplotlib.axis_1">
    <g id="xtick_1">
     <g id="line2d_1">
      <path d="M 57.6 307.584 
L 57.6 41.472 
" clip-path="url(#pd62165f0d2)" style="fill: none; stroke: #b0b0b0; stroke-width: 0.8; stroke-linecap: square"/>
     </g>
     <g id="line2d_2">
      <defs>
       <path id="m7416e3c1d8" d="M 0 0 
L 0 3.5 
" style="stroke: #000000; stroke-width: 0.8"/>
      </defs>
      <g>
       <use xlink:href="#m7416e3c1d8" x="57.6" y="307.584" style="stroke: #000000; stroke-width: 0.8"/>
      </g>
     </g>
     <g id="text_1">
      <!-- 0.00 -->
      <g transform="translate(46.467188 322.182437) scale(0.1 -0.1)">
       <defs>
        <path id="DejaVuSans-30" d="M 2034 4250 
Q 1547 4250 1301 3770 
Q 1056 3291 1056 2328 
Q 1056 1369 1301 889 
Q 1547 409 2034 409 
Q 2525 409 2770 889 
Q 3016 1369 3016 2328 
Q 3016 3291 2770 3770 
Q 2525 4250 2034 4250 
z
M 2034 4750 
Q 2819 4750 3233 4129 
Q 3647 3509 3647 2328 
Q 3647 1150 3233 529 
Q 2819 -91 2034 -91 
Q 1250 -91 836 529 
Q 422 1150 422 2328 
Q 422 3509 836 4129 
Q 1250 4750 2034 4750 
z
" transform="scale(0.015625)"/>
        <path id="DejaVuSans-2e" d="M 684 794 
L 1344 794 
L 1344 0 
L 684 0 
L 684 794 
z
" transform="scale(0.015625)"/>
       </defs>
       <use xlink:href="#DejaVuSans-30"/>
       <use xlink:href="#DejaVuSans-2e" x="63.623047"/>
       <use xlink:href="#DejaVuSans-30" x="95.410156"/>
       <use xlink:href="#DejaVuSans-30" x="159.033203"/>
      </g>
     </g>
    </g>
    <g id="xtick_2">
     <g id="line2d_3">
      <path d="M 129.024 307.584 
L 129.024 41.472 
" clip-path="url(#pd62165f0d2)" style="fill: none; stroke: #b0b0b0; stroke-width: 0.8; stroke-linecap: square"/>
     </g>
     <g id="line2d_4">
      <g>
       <use xlink:href="#m7416e3c1d8" x="129.024" y="307.584" style="stroke: #000000; stroke-width: 0.8"/>
      </g>
     </g>
     <g id="text_2">
      <!-- 0.01 -->
      <g transform="translate(117.891188 322.182437) scale(0.1 -0.1)">
       <defs>
        <path id="DejaVuSans-31" d="M 794 531 
L 1825 531 
L 1825 4091 
L 703 3866 
L 703 4441 
L 1819 4666 
L 2450 4666 
L 2450 531 
L 3481 531 
L 3481 0 
L 794 0 
L 794 531 
z
" transform="scale(0.015625)"/>
       </defs>
       <use xlink:href="#DejaVuSans-30"/>
       <use xlink:href="#DejaVuSans-2e" x="63.623047"/>
       <use xlink:href="#DejaVuSans-30" x="95.410156"/>
       <use xlink:href="#DejaVuSans-31" x="159.033203"/>
      </g>
     </g>
    </g>
    <g id="xtick_3">
     <g id="line2d_5">
      <path d="M 200.448 307.584 
L 200.448 41.472 
" clip-path="url(#pd62165f0d2)" style="fill: none; stroke: #b0b0b0; stroke-width: 0.8; stroke-linecap: square"/>
     </g>
     <g id="line2d_6">
      <g>
       <use xlink:href="#m7416e3c1d8" x="200.448" y="307.584" style="stroke: #000000; stroke-width: 0.8"/>
      </g>
     </g>
     <g id="text_3">
      <!-- 0.02 -->
      <g transform="translate(189.315187 322.182437) scale(0.1 -0.1)">
       <defs>
        <path id="DejaVuSans-32" d="M 1228 531 
L 3431 531 
L 3431 0 
L 469 0 
L 469 531 
Q 828 903 1448 1529 
Q 2069 2156 2228 2338 
Q 2531 2678 2651 2914 
Q 2772 3150 2772 3378 
Q 2772 3750 2511 3984 
Q 2250 4219 1831 4219 
Q 1534 4219 1204 4116 
Q 875 4013 500 3803 
L 500 4441 
Q 881 4594 1212 4672 
Q 1544 4750 1819 4750 
Q 2544 4750 2975 4387 
Q 3406 4025 3406 3419 
Q 3406 3131 3298 2873 
Q 3191 2616 2906 2266 
Q 2828 2175 2409 1742 
Q 1991 1309 1228 531 
z
" transform="scale(0.015625)"/>
       </defs>
       <use xlink:href="#DejaVuSans-30"/>
       <use xlink:href="#DejaVuSans-2e" x="63.623047"/>
       <use xlink:href="#DejaVuSans-30" x="95.410156"/>
       <use xlink:href="#DejaVuSans-32" x="159.033203"/>
      </g>
     </g>
    </g>
    <g id="xtick_4">
     <g id="line2d_7">
      <path d="M 271.872 307.584 
L 271.872 41.472 
" clip-path="url(#pd62165f0d2)" style="fill: none; stroke: #b0b0b0; stroke-width: 0.8; stroke-linecap: square"/>
     </g>
     <g id="line2d_8">
      <g>
       <use xlink:href="#m7416e3c1d8" x="271.872" y="307.584" style="stroke: #000000; stroke-width: 0.8"/>
      </g>
     </g>
     <g id="text_4">
      <!-- 0.03 -->
      <g transform="translate(260.739188 322.182437) scale(0.1 -0.1)">
       <defs>
        <path id="DejaVuSans-33" d="M 2597 2516 
Q 3050 2419 3304 2112 
Q 3559 1806 3559 1356 
Q 3559 666 3084 287 
Q 2609 -91 1734 -91 
Q 1441 -91 1130 -33 
Q 819 25 488 141 
L 488 750 
Q 750 597 1062 519 
Q 1375 441 1716 441 
Q 2309 441 2620 675 
Q 2931 909 2931 1356 
Q 2931 1769 2642 2001 
Q 2353 2234 1838 2234 
L 1294 2234 
L 1294 2753 
L 1863 2753 
Q 2328 2753 2575 2939 
Q 2822 3125 2822 3475 
Q 2822 3834 2567 4026 
Q 2313 4219 1838 4219 
Q 1578 4219 1281 4162 
Q 984 4106 628 3988 
L 628 4550 
Q 988 4650 1302 4700 
Q 1616 4750 1894 4750 
Q 2613 4750 3031 4423 
Q 3450 4097 3450 3541 
Q 3450 3153 3228 2886 
Q 3006 2619 2597 2516 
z
" transform="scale(0.015625)"/>
       </defs>
       <use xlink:href="#DejaVuSans-30"/>
       <use xlink:href="#DejaVuSans-2e" x="63.623047"/>
       <use xlink:href="#DejaVuSans-30" x="95.410156"/>
       <use xlink:href="#DejaVuSans-33" x="159.033203"/>
      </g>
     </g>
    </g>
    <g id="xtick_5">
     <g id="line2d_9">
      <path d="M 343.296 307.584 
L 343.296 41.472 
" clip-path="url(#pd62165f0d2)" style="fill: none; stroke: #b0b0b0; stroke-width: 0.8; stroke-linecap: square"/>
     </g>
     <g id="line2d_10">
      <g>
       <use xlink:href="#m7416e3c1d8" x="343.296" y="307.584" style="stroke: #000000; stroke-width: 0.8"/>
      </g>
     </g>
     <g id="text_5">
      <!-- 0.04 -->
      <g transform="translate(332.163187 322.182437) scale(0.1 -0.1)">
       <defs>
        <path id="DejaVuSans-34" d="M 2419 4116 
L 825 1625 
L 2419 1625 
L 2419 4116 
z
M 2253 4666 
L 3047 4666 
L 3047 1625 
L 3713 1625 
L 3713 1100 
L 3047 1100 
L 3047 0 
L 2419 0 
L 2419 1100 
L 313 1100 
L 313 1709 
L 2253 4666 
z
" transform="scale(0.015625)"/>
       </defs>
       <use xlink:href="#DejaVuSans-30"/>
       <use xlink:href="#DejaVuSans-2e" x="63.623047"/>
       <use xlink:href="#DejaVuSans-30" x="95.410156"/>
       <use xlink:href="#DejaVuSans-34" x="159.033203"/>
      </g>
     </g>
    </g>
    <g id="xtick_6">
     <g id="line2d_11">
      <path d="M 414.72 307.584 
L 414.72 41.472 
" clip-path="url(#pd62165f0d2)" style="fill: none; stroke: #b0b0b0; stroke-width: 0.8; stroke-linecap: square"/>
     </g>
     <g id="line2d_12">
      <g>
       <use xlink:href="#m7416e3c1d8" x="414.72" y="307.584" style="stroke: #000000; stroke-width: 0.8"/>
      </g>
     </g>
     <g id="text_6">
      <!-- 0.05 -->
      <g transform="translate(403.587188 322.182437) scale(0.1 -0.1)">
       <defs>
        <path id="DejaVuSans-35" d="M 691 4666 
L 3169 4666 
L 3169 4134 
L 1269 4134 
L 1269 2991 
Q 1406 3038 1543 3061 
Q 1681 3084 1819 3084 
Q 2600 3084 3056 2656 
Q 3513 2228 3513 1497 
Q 3513 744 3044 326 
Q 2575 -91 1722 -91 
Q 1428 -91 1123 -41 
Q 819 9 494 109 
L 494 744 
Q 775 591 1075 516 
Q 1375 441 1709 441 
Q 2250 441 2565 725 
Q 2881 1009 2881 1497 
Q 2881 1984 2565 2268 
Q 2250 2553 1709 2553 
Q 1456 2553 1204 2497 
Q 953 2441 691 2322 
L 691 4666 
z
" transform="scale(0.015625)"/>
       </defs>
       <use xlink:href="#DejaVuSans-30"/>
       <use xlink:href="#DejaVuSans-2e" x="63.623047"/>
       <use xlink:href="#DejaVuSans-30" x="95.410156"/>
       <use xlink:href="#DejaVuSans-35" x="159.033203"/>
      </g>
     </g>
    </g>
    <g id="text_7">
     <!-- Time (s) -->
     <g transform="translate(215.831094 335.860562) scale(0.1 -0.1)">
      <defs>
       <path id="DejaVuSans-54" d="M -19 4666 
L 3928 4666 
L 3928 4134 
L 2272 4134 
L 2272 0 
L 1638 0 
L 1638 4134 
L -19 4134 
L -19 4666 
z
" transform="scale(0.015625)"/>
       <path id="DejaVuSans-69" d="M 603 3500 
L 1178 3500 
L 1178 0 
L 603 0 
L 603 3500 
z
M 603 4863 
L 1178 4863 
L 1178 4134 
L 603 4134 
L 603 4863 
z
" transform="scale(0.015625)"/>
       <path id="DejaVuSans-6d" d="M 3328 2828 
Q 3544 3216 3844 3400 
Q 4144 3584 4550 3584 
Q 5097 3584 5394 3201 
Q 5691 2819 5691 2113 
L 5691 0 
L 5113 0 
L 5113 2094 
Q 5113 2597 4934 2840 
Q 4756 3084 4391 3084 
Q 3944 3084 3684 2787 
Q 3425 2491 3425 1978 
L 3425 0 
L 2847 0 
L 2847 2094 
Q 2847 2600 2669 2842 
Q 2491 3084 2119 3084 
Q 1678 3084 1418 2786 
Q 1159 2488 1159 1978 
L 1159 0 
L 581 0 
L 581 3500 
L 1159 3500 
L 1159 2956 
Q 1356 3278 1631 3431 
Q 1906 3584 2284 3584 
Q 2666 3584 2933 3390 
Q 3200 3197 3328 2828 
z
" transform="scale(0.015625)"/>
       <path id="DejaVuSans-65" d="M 3597 1894 
L 3597 1613 
L 953 1613 
Q 991 1019 1311 708 
Q 1631 397 2203 397 
Q 2534 397 2845 478 
Q 3156 559 3463 722 
L 3463 178 
Q 3153 47 2828 -22 
Q 2503 -91 2169 -91 
Q 1331 -91 842 396 
Q 353 884 353 1716 
Q 353 2575 817 3079 
Q 1281 3584 2069 3584 
Q 2775 3584 3186 3129 
Q 3597 2675 3597 1894 
z
M 3022 2063 
Q 3016 2534 2758 2815 
Q 2500 3097 2075 3097 
Q 1594 3097 1305 2825 
Q 1016 2553 972 2059 
L 3022 2063 
z
" transform="scale(0.015625)"/>
       <path id="DejaVuSans-20" transform="scale(0.015625)"/>
       <path id="DejaVuSans-28" d="M 1984 4856 
Q 1566 4138 1362 3434 
Q 1159 2731 1159 2009 
Q 1159 1288 1364 580 
Q 1569 -128 1984 -844 
L 1484 -844 
Q 1016 -109 783 600 
Q 550 1309 550 2009 
Q 550 2706 781 3412 
Q 1013 4119 1484 4856 
L 1984 4856 
z
" transform="scale(0.015625)"/>
       <path id="DejaVuSans-73" d="M 2834 3397 
L 2834 2853 
Q 2591 2978 2328 3040 
Q 2066 3103 1784 3103 
Q 1356 3103 1142 2972 
Q 928 2841 928 2578 
Q 928 2378 1081 2264 
Q 1234 2150 1697 2047 
L 1894 2003 
Q 2506 1872 2764 1633 
Q 3022 1394 3022 966 
Q 3022 478 2636 193 
Q 2250 -91 1575 -91 
Q 1294 -91 989 -36 
Q 684 19 347 128 
L 347 722 
Q 666 556 975 473 
Q 1284 391 1588 391 
Q 1994 391 2212 530 
Q 2431 669 2431 922 
Q 2431 1156 2273 1281 
Q 2116 1406 1581 1522 
L 1381 1569 
Q 847 1681 609 1914 
Q 372 2147 372 2553 
Q 372 3047 722 3315 
Q 1072 3584 1716 3584 
Q 2034 3584 2315 3537 
Q 2597 3491 2834 3397 
z
" transform="scale(0.015625)"/>
       <path id="DejaVuSans-29" d="M 513 4856 
L 1013 4856 
Q 1481 4119 1714 3412 
Q 1947 2706 1947 2009 
Q 1947 1309 1714 600 
Q 1481 -109 1013 -844 
L 513 -844 
Q 928 -128 1133 580 
Q 1338 1288 1338 2009 
Q 1338 2731 1133 3434 
Q 928 4138 513 4856 
z
" transform="scale(0.015625)"/>
      </defs>
      <use xlink:href="#DejaVuSans-54"/>
      <use xlink:href="#DejaVuSans-69" x="57.958984"/>
      <use xlink:href="#DejaVuSans-6d" x="85.742188"/>
      <use xlink:href="#DejaVuSans-65" x="183.154297"/>
      <use xlink:href="#DejaVuSans-20" x="244.677734"/>
      <use xlink:href="#DejaVuSans-28" x="276.464844"/>
      <use xlink:href="#DejaVuSans-73" x="315.478516"/>
      <use xlink:href="#DejaVuSans-29" x="367.578125"/>
     </g>
    </g>
   </g>
   <g id="matplotlib.axis_2">
    <g id="ytick_1">
     <g id="line2d_13">
      <path d="M 57.6 276.878769 
L 414.72 276.878769 
" clip-path="url(#pd62165f0d2)" style="fill: none; stroke: #b0b0b0; stroke-width: 0.8; stroke-linecap: square"/>
     </g>
     <g id="line2d_14">
      <defs>
       <path id="m8627a0d82d" d="M 0 0 
L -3.5 0 
" style="stroke: #000000; stroke-width: 0.8"/>
      </defs>
      <g>
       <use xlink:href="#m8627a0d82d" x="57.6" y="276.878769" style="stroke: #000000; stroke-width: 0.8"/>
      </g>
     </g>
     <g id="text_8">
      <!-- −1.0 -->
      <g transform="translate(26.317187 280.677988) scale(0.1 -0.1)">
       <defs>
        <path id="DejaVuSans-2212" d="M 678 2272 
L 4684 2272 
L 4684 1741 
L 678 1741 
L 678 2272 
z
" transform="scale(0.015625)"/>
       </defs>
       <use xlink:href="#DejaVuSans-2212"/>
       <use xlink:href="#DejaVuSans-31" x="83.789062"/>
       <use xlink:href="#DejaVuSans-2e" x="147.412109"/>
       <use xlink:href="#DejaVuSans-30" x="179.199219"/>
      </g>
     </g>
    </g>
    <g id="ytick_2">
     <g id="line2d_15">
      <path d="M 57.6 225.703385 
L 414.72 225.703385 
" clip-path="url(#pd62165f0d2)" style="fill: none; stroke: #b0b0b0; stroke-width: 0.8; stroke-linecap: square"/>
     </g>
     <g id="line2d_16">
      <g>
       <use xlink:href="#m8627a0d82d" x="57.6" y="225.703385" style="stroke: #000000; stroke-width: 0.8"/>
      </g>
     </g>
     <g id="text_9">
      <!-- −0.5 -->
      <g transform="translate(26.317187 229.502603) scale(0.1 -0.1)">
       <use xlink:href="#DejaVuSans-2212"/>
       <use xlink:href="#DejaVuSans-30" x="83.789062"/>
       <use xlink:href="#DejaVuSans-2e" x="147.412109"/>
       <use xlink:href="#DejaVuSans-35" x="179.199219"/>
      </g>
     </g>
    </g>
    <g id="ytick_3">
     <g id="line2d_17">
      <path d="M 57.6 174.528 
L 414.72 174.528 
" clip-path="url(#pd62165f0d2)" style="fill: none; stroke: #b0b0b0; stroke-width: 0.8; stroke-linecap: square"/>
     </g>
     <g id="line2d_18">
      <g>
       <use xlink:href="#m8627a0d82d" x="57.6" y="174.528" style="stroke: #000000; stroke-width: 0.8"/>
      </g>
     </g>
     <g id="text_10">
      <!-- 0.0 -->
      <g transform="translate(34.696875 178.327219) scale(0.1 -0.1)">
       <use xlink:href="#DejaVuSans-30"/>
       <use xlink:href="#DejaVuSans-2e" x="63.623047"/>
       <use xlink:href="#DejaVuSans-30" x="95.410156"/>
      </g>
     </g>
    </g>
    <g id="ytick_4">
     <g id="line2d_19">
      <path d="M 57.6 123.352615 
L 414.72 123.352615 
" clip-path="url(#pd62165f0d2)" style="fill: none; stroke: #b0b0b0; stroke-width: 0.8; stroke-linecap: square"/>
     </g>
     <g id="line2d_20">
      <g>
       <use xlink:href="#m8627a0d82d" x="57.6" y="123.352615" style="stroke: #000000; stroke-width: 0.8"/>
      </g>
     </g>
     <g id="text_11">
      <!-- 0.5 -->
      <g transform="translate(34.696875 127.151834) scale(0.1 -0.1)">
       <use xlink:href="#DejaVuSans-30"/>
       <use xlink:href="#DejaVuSans-2e" x="63.623047"/>
       <use xlink:href="#DejaVuSans-35" x="95.410156"/>
      </g>
     </g>
    </g>
    <g id="ytick_5">
     <g id="line2d_21">
      <path d="M 57.6 72.177231 
L 414.72 72.177231 
" clip-path="url(#pd62165f0d2)" style="fill: none; stroke: #b0b0b0; stroke-width: 0.8; stroke-linecap: square"/>
     </g>
     <g id="line2d_22">
      <g>
       <use xlink:href="#m8627a0d82d" x="57.6" y="72.177231" style="stroke: #000000; stroke-width: 0.8"/>
      </g>
     </g>
     <g id="text_12">
      <!-- 1.0 -->
      <g transform="translate(34.696875 75.97645) scale(0.1 -0.1)">
       <use xlink:href="#DejaVuSans-31"/>
       <use xlink:href="#DejaVuSans-2e" x="63.623047"/>
       <use xlink:href="#DejaVuSans-30" x="95.410156"/>
      </g>
     </g>
    </g>
    <g id="text_13">
     <!-- $C_{L}$ $C_{D}$ -->
     <g transform="translate(20.2375 188.028) rotate(-90) scale(0.1 -0.1)">
      <defs>
       <path id="DejaVuSans-Oblique-43" d="M 4447 4306 
L 4319 3641 
Q 4019 3944 3683 4091 
Q 3347 4238 2956 4238 
Q 2422 4238 2017 3981 
Q 1613 3725 1319 3200 
Q 1131 2863 1032 2486 
Q 934 2109 934 1728 
Q 934 1091 1264 756 
Q 1594 422 2222 422 
Q 2656 422 3056 561 
Q 3456 700 3834 978 
L 3688 231 
Q 3316 72 2936 -9 
Q 2556 -91 2175 -91 
Q 1278 -91 773 396 
Q 269 884 269 1753 
Q 269 2309 461 2846 
Q 653 3384 1013 3828 
Q 1394 4300 1883 4525 
Q 2372 4750 3022 4750 
Q 3422 4750 3780 4639 
Q 4138 4528 4447 4306 
z
" transform="scale(0.015625)"/>
       <path id="DejaVuSans-Oblique-4c" d="M 1075 4666 
L 1709 4666 
L 909 525 
L 3181 525 
L 3078 0 
L 172 0 
L 1075 4666 
z
" transform="scale(0.015625)"/>
       <path id="DejaVuSans-Oblique-44" d="M 1081 4666 
L 2438 4666 
Q 3519 4666 4070 4208 
Q 4622 3750 4622 2847 
Q 4622 2250 4412 1698 
Q 4203 1147 3834 769 
Q 3463 381 2891 190 
Q 2319 0 1538 0 
L 172 0 
L 1081 4666 
z
M 1613 4147 
L 909 519 
L 1734 519 
Q 2794 519 3375 1128 
Q 3956 1738 3956 2847 
Q 3956 3519 3581 3833 
Q 3206 4147 2406 4147 
L 1613 4147 
z
" transform="scale(0.015625)"/>
      </defs>
      <use xlink:href="#DejaVuSans-Oblique-43" transform="translate(0 0.78125)"/>
      <use xlink:href="#DejaVuSans-Oblique-4c" transform="translate(69.824219 -15.625) scale(0.7)"/>
      <use xlink:href="#DejaVuSans-20" transform="translate(111.557617 0.78125)"/>
      <use xlink:href="#DejaVuSans-Oblique-43" transform="translate(143.344727 0.78125)"/>
      <use xlink:href="#DejaVuSans-Oblique-44" transform="translate(213.168945 -15.625) scale(0.7)"/>
     </g>
    </g>
   </g>
   <g id="line2d_23">
    <path d="M 57.6 174.528 
L 57.928749 179.130863 
L 57.981903 178.131242 
L 58.201076 176.564983 
L 58.258194 176.655184 
L 58.316454 176.849291 
L 58.375928 176.224709 
L 58.436695 176.866192 
L 58.498843 176.68197 
L 58.56247 176.371451 
L 58.627689 176.481371 
L 58.692907 176.556368 
L 58.759888 176.466863 
L 58.96477 175.541179 
L 59.387986 176.215351 
L 59.530644 176.23612 
L 59.673301 176.395871 
L 59.815958 175.99852 
L 60.034401 176.471575 
L 60.261761 176.326483 
L 60.489121 176.571239 
L 60.640694 176.471998 
L 60.868054 176.882245 
L 60.94384 176.796627 
L 61.095413 176.73427 
L 61.252364 176.691988 
L 61.414691 176.52309 
L 61.577018 176.502498 
L 61.820509 176.449078 
L 61.982836 176.487731 
L 62.550982 176.385801 
L 62.9568 176.267837 
L 63.281455 176.418391 
L 63.524945 176.386286 
L 63.687273 176.370679 
L 64.7424 177.035238 
L 65.167543 177.287845 
L 69.56352 181.525236 
L 70.72416 182.338008 
L 70.90272 182.368155 
L 71.08128 182.697521 
L 71.70624 183.174103 
L 71.976369 183.306819 
L 73.624615 185.424079 
L 75.842076 189.912707 
L 77.096822 193.227529 
L 78.062011 196.320698 
L 79.537371 202.087035 
L 79.945509 202.748409 
L 80.251611 202.955937 
L 80.353646 202.743045 
L 80.45568 202.81718 
L 81.271954 200.987603 
L 82.5984 196.512699 
L 83.123576 195.514639 
L 83.543718 195.176216 
L 83.963859 195.190487 
L 85.119247 196.543937 
L 85.434353 196.982558 
L 86.1696 197.645433 
L 86.494255 197.612018 
L 87.143564 197.460375 
L 87.792873 196.938899 
L 88.225745 196.4249 
L 89.091491 194.961332 
L 90.2988 191.703307 
L 91.287982 188.055798 
L 93.098945 180.216946 
L 94.5768 172.962805 
L 96.39178 163.200812 
L 100.099102 141.774519 
L 102.916489 126.076012 
L 104.278612 119.72401 
L 105.274068 116.117431 
L 106.006835 114.203086 
L 106.563323 113.212666 
L 107.040312 112.760975 
L 107.358305 112.660177 
L 107.840291 112.849797 
L 108.408436 113.60698 
L 108.895418 114.704672 
L 109.463564 116.565493 
L 110.112873 119.472866 
L 110.843345 123.796157 
L 111.832409 131.329506 
L 112.829023 140.792344 
L 114.074791 154.942665 
L 115.752777 176.948428 
L 119.390294 225.810649 
L 120.434082 236.500692 
L 121.261235 243.04057 
L 121.973169 247.17881 
L 122.569677 249.404283 
L 123.066767 250.482084 
L 123.46444 250.852165 
L 123.762694 250.84262 
L 124.060948 250.529287 
L 124.558038 249.580168 
L 125.055128 247.980015 
L 125.6512 245.366278 
L 126.4448 240.810407 
L 127.4368 233.672582 
L 128.6272 223.55662 
L 129.969318 210.06833 
L 131.718384 190.016303 
L 135.770788 139.089145 
L 136.852053 128.093417 
L 138.012842 118.267991 
L 139.035377 111.459789 
L 139.970504 106.692833 
L 141.648278 99.33255 
L 142.622634 95.810943 
L 143.532 93.933287 
L 143.904 93.570709 
L 144.273989 93.519039 
L 144.491157 93.638259 
L 144.997881 94.233155 
L 145.432216 95.118644 
L 145.938941 96.740496 
L 146.9544 101.782315 
L 147.624 106.611883 
L 148.6656 116.375304 
L 149.6328 128.069722 
L 150.770576 144.581278 
L 152.008367 165.819889 
L 153.84524 201.781319 
L 155.518172 233.430974 
L 156.506471 248.645114 
L 157.324064 258.149397 
L 157.969516 263.212391 
L 158.533389 265.99774 
L 159.003284 267.051927 
L 159.285221 267.291139 
L 159.473179 267.274581 
L 159.755116 266.972207 
L 160.131032 266.13598 
L 160.600926 264.472995 
L 161.1648 261.734733 
L 162.010611 256.391419 
L 163.044379 248.575861 
L 165.141553 230.640186 
L 167.490259 208.425772 
L 169.428792 190.272952 
L 171.135782 174.517778 
L 172.997997 154.646405 
L 176.17641 114.826038 
L 177.282562 105.539571 
L 178.416195 99.316693 
L 179.248749 95.920697 
L 179.994442 93.316115 
L 180.736602 91.753656 
L 181.107681 91.481578 
L 181.330329 91.451178 
L 181.548338 91.597426 
L 181.826648 91.987234 
L 182.31369 93.426934 
L 182.664882 94.764442 
L 183.02929 96.755719 
L 184.049633 103.644913 
L 184.632686 109.102359 
L 185.871673 123.423006 
L 187.187979 143.588216 
L 188.581925 169.585143 
L 192.752946 251.672449 
L 193.592476 262.856977 
L 194.155503 268.330638 
L 194.71853 271.960617 
L 195.174923 273.582137 
L 195.44364 274.004853 
L 195.712358 274.161405 
L 195.981075 274.007547 
L 196.339365 273.379681 
L 196.787228 271.974182 
L 197.334646 269.496165 
L 197.975631 265.602254 
L 199.166031 256.730917 
L 201.334219 238.344792 
L 204.884945 204.537148 
L 206.511104 189.434372 
L 208.602541 169.858989 
L 209.765749 156.685531 
L 211.409653 134.925017 
L 212.243803 124.361561 
L 213.214819 114.32017 
L 214.013756 108.239477 
L 214.7328 104.178037 
L 216.11344 98.063384 
L 216.793269 95.607997 
L 217.322025 94.329551 
L 217.67273 93.84193 
L 218.093577 93.766756 
L 218.4528 94.140047 
L 218.8248 95.042584 
L 219.5688 98.110969 
L 220.3872 103.106069 
L 221.2056 110.064023 
L 222.559047 124.869012 
L 223.642417 139.869304 
L 224.975796 161.936926 
L 226.689777 195.437696 
L 228.819735 237.7455 
L 229.796612 253.087372 
L 230.558847 261.954853 
L 231.204741 266.919048 
L 231.666094 269.05428 
L 232.035177 270.027867 
L 232.311988 270.280506 
L 232.5888 270.204139 
L 232.955077 269.569744 
L 233.321354 268.491457 
L 233.870769 266.091446 
L 234.603323 261.678252 
L 235.885292 252.0085 
L 237.797919 235.682871 
L 242.90988 191.077293 
L 244.82927 174.680774 
L 245.99902 162.356937 
L 247.819629 137.599902 
L 248.979134 122.819686 
L 249.865771 113.913804 
L 250.4448 109.64082 
L 251.304533 104.611202 
L 252.372519 99.742551 
L 253.717185 95.039299 
L 254.2392 93.994667 
L 254.388 93.913915 
L 254.60774 93.737572 
L 254.898419 93.796222 
L 255.334437 94.188761 
L 255.988465 95.947999 
L 256.497153 97.787281 
L 257.223851 102.092314 
L 258.097371 109.046772 
L 259.27353 122.200604 
L 260.253662 136.338789 
L 261.398369 156.091247 
L 266.306642 245.14269 
L 267.256241 257.024995 
L 267.92096 263.069129 
L 268.488758 266.601211 
L 268.958653 268.428577 
L 269.334568 269.228055 
L 269.992421 269.450551 
L 270.274358 269.160947 
L 270.744253 268.290927 
L 271.308126 266.539169 
L 272.153937 262.814436 
L 273.187705 257.072998 
L 274.221474 250.393704 
L 275.4432 241.291052 
L 276.336 233.928833 
L 277.567733 222.605971 
L 279.116434 206.239421 
L 283.828124 152.193906 
L 286.956559 115.055572 
L 287.89093 107.437717 
L 289.307005 99.231883 
L 290.3232 94.998386 
L 291.051938 92.784792 
L 291.486892 91.869007 
L 292.066831 91.298129 
L 292.284308 91.340194 
L 292.719262 91.817102 
L 293.081723 92.69558 
L 293.584896 94.612297 
L 294.227712 98.014853 
L 294.941952 103.361396 
L 295.656192 110.095925 
L 296.51328 120.33891 
L 298.020698 144.742583 
L 299.21695 168.825302 
L 302.054747 226.744152 
L 302.935871 239.148093 
L 303.567788 245.246152 
L 304.106779 248.412601 
L 304.482695 249.689808 
L 304.952589 250.067585 
L 305.234526 249.838903 
L 305.516463 249.22856 
L 306.174316 246.96631 
L 307.020126 242.650276 
L 309.224822 228.029346 
L 310.962162 216.049174 
L 312.9408 202.558419 
L 314.7264 188.447961 
L 315.920801 177.188917 
L 317.43331 159.033486 
L 320.322376 122.540167 
L 321.150817 115.01159 
L 321.8688 109.76437 
L 323.478538 100.517939 
L 325.667949 89.209474 
L 326.351796 86.948125 
L 326.942774 85.951663 
L 327.386009 85.679908 
L 327.607626 85.819822 
L 327.976987 86.136415 
L 328.272477 86.610818 
L 328.617214 87.40171 
L 329.958661 93.764498 
L 330.687478 99.534884 
L 332.072229 116.020867 
L 333.023003 131.41918 
L 334.517151 160.387777 
L 336.918174 206.469622 
L 339.359939 246.612902 
L 340.2208 255.960243 
L 340.896 261.305815 
L 341.568 264.940926 
L 341.952 266.224854 
L 342.528 267.646098 
L 342.816 267.970696 
L 343.104 268.131051 
L 343.296 268.117683 
L 343.765895 267.622985 
L 344.141811 266.935454 
L 344.705684 265.368599 
L 345.551495 262.111186 
L 346.303326 258.460214 
L 347.349795 252.453252 
L 349.087135 240.6249 
L 350.744503 226.841166 
L 352.462975 209.687279 
L 357.66016 149.900149 
L 360.053641 119.409616 
L 360.87741 111.73901 
L 361.531915 107.350463 
L 362.215762 103.62461 
L 363.051574 100.164554 
L 364.362281 96.052106 
L 364.872 95.35025 
L 365.244 95.207448 
L 365.536156 95.51376 
L 365.826498 96.157435 
L 366.189424 97.489333 
L 366.479766 98.774633 
L 367.278205 103.711239 
L 368.221815 111.373758 
L 369.1872 121.566987 
L 370.163328 134.274311 
L 371.401344 153.314798 
L 372.695593 175.893382 
L 375.258026 221.835716 
L 376.215812 234.821926 
L 376.889788 241.208391 
L 377.4456 244.609925 
L 377.813224 245.896177 
L 378.088941 246.401298 
L 378.364659 246.555307 
L 378.640376 246.396562 
L 378.824188 246.180981 
L 379.289937 244.882964 
L 379.759832 243.080875 
L 380.511663 239.073935 
L 382.109305 228.56969 
L 384.220022 213.095933 
L 385.571286 203.507859 
L 387.372126 189.631645 
L 388.781811 177.730833 
L 389.439663 171.152824 
L 390.362585 160.543032 
L 392.541394 132.54183 
L 393.462857 123.091005 
L 394.463062 115.263763 
L 395.200981 110.988551 
L 395.834512 108.078613 
L 396.864 104.379623 
L 397.730695 101.953483 
L 398.580682 100.396861 
L 399.044312 100.090899 
L 399.276126 100.093621 
L 399.43067 100.209868 
L 399.971571 100.857067 
L 400.511183 102.133273 
L 401.650928 106.935153 
L 402.714689 114.049873 
L 403.550502 121.354271 
L 404.654199 133.379803 
L 405.895484 149.937319 
L 407.948964 181.240722 
L 410.678236 221.781635 
L 412.169143 240.752951 
L 413.155474 250.95088 
L 413.937737 257.087121 
L 414.636186 260.704507 
L 414.72 261.006159 
L 414.72 261.006159 
" clip-path="url(#pd62165f0d2)" style="fill: none; stroke: #0000ff; stroke-width: 1.5; stroke-linecap: square"/>
   </g>
   <g id="line2d_24">
    <path d="M 57.6 173.184354 
L 57.63236 -1 
M 57.927862 -1 
L 58.035959 96.751268 
L 58.316454 102.458702 
L 58.375928 104.100468 
L 58.436695 103.95686 
L 58.498843 103.803995 
L 59.102672 106.937233 
L 59.174001 106.719035 
L 59.245329 106.82452 
L 59.673301 108.360764 
L 60.413334 111.481281 
L 60.868054 114.201417 
L 61.252364 116.354312 
L 62.388655 121.929468 
L 63.362618 125.34551 
L 64.912457 130.919913 
L 68.3136 142.267043 
L 69.11712 144.34547 
L 69.74208 145.635 
L 70.45632 146.546434 
L 71.08128 146.647517 
L 71.52768 146.192295 
L 71.79552 145.705737 
L 72.434215 143.79041 
L 73.258338 140.044122 
L 74.2656 133.609714 
L 75.649038 122.782701 
L 76.903784 112.918246 
L 77.579416 108.570436 
L 78.15853 106.014539 
L 78.544605 104.878183 
L 78.737643 104.584078 
L 78.930681 104.299913 
L 79.537371 104.535066 
L 79.74144 104.802365 
L 80.557714 106.64246 
L 82.496366 113.204807 
L 83.753788 116.852619 
L 84.594071 118.578965 
L 85.119247 119.12727 
L 85.329318 119.296434 
L 85.854494 119.167531 
L 86.1696 118.948695 
L 86.818909 117.90228 
L 87.576436 116.499451 
L 88.442182 115.210038 
L 88.983273 114.757635 
L 89.632582 114.523584 
L 89.964 114.560739 
L 90.2988 114.645939 
L 90.9684 114.889602 
L 91.714091 115.256875 
L 93.420218 116.447027 
L 94.681636 117.461038 
L 95.703791 118.057707 
L 96.39178 118.158451 
L 96.8832 118.058117 
L 97.4784 117.700112 
L 98.158629 117.026388 
L 98.923886 115.956628 
L 100.365576 113.466883 
L 102.575224 109.413082 
L 104.942249 104.790281 
L 106.404326 101.48632 
L 107.358305 99.089716 
L 110.2752 91.91632 
L 111.086836 90.667854 
L 111.583256 90.216566 
L 112.081563 90.038074 
L 112.496819 90.126014 
L 112.912074 90.442902 
L 113.410381 91.13902 
L 113.99174 92.390517 
L 114.7392 94.670307 
L 115.847503 99.177405 
L 118.523753 110.757268 
L 119.173659 112.377418 
L 119.710324 113.186626 
L 120.227294 113.463837 
L 120.640871 113.41944 
L 121.261235 113.023326 
L 123.066767 111.366108 
L 123.663276 111.138514 
L 124.259784 111.135907 
L 124.756874 111.333432 
L 127.536 112.992805 
L 128.4288 112.80881 
L 129.234071 112.189924 
L 129.759247 111.510598 
L 130.512761 110.33395 
L 132.5952 105.960687 
L 134.16752 101.513966 
L 135.171719 97.862258 
L 136.682314 91.682569 
L 137.602185 88.499615 
L 138.411179 86.627896 
L 139.035377 85.842123 
L 139.269451 85.6971 
L 139.425501 85.736283 
L 139.970504 85.742226 
L 141.950191 86.948238 
L 142.622634 87.877552 
L 142.965717 88.669605 
L 143.6064 90.595698 
L 144.635935 94.876599 
L 148.5168 112.045397 
L 149.1864 113.913762 
L 149.7072 114.761362 
L 150.0792 114.839674 
L 150.4512 114.58058 
L 150.68928 114.208508 
L 151.258349 112.599127 
L 151.924449 109.576314 
L 153.048018 102.806668 
L 154.215438 96.075035 
L 154.809175 93.748912 
L 155.221683 92.759238 
L 155.617002 92.237045 
L 155.913492 92.13394 
L 156.209982 92.273313 
L 156.605301 92.755156 
L 157.144373 93.979614 
L 157.781558 96.138711 
L 158.627368 100.000916 
L 160.131032 108.960059 
L 162.386526 122.925901 
L 163.138358 126.456691 
L 163.702232 128.287646 
L 164.266105 129.572163 
L 164.642021 129.974091 
L 165.039435 130.058495 
L 165.345788 129.816444 
L 165.754259 129.240471 
L 166.469082 127.310566 
L 167.081788 124.927692 
L 168.102965 120.081366 
L 169.232824 114.563757 
L 170.485991 109.162308 
L 171.599918 105.472475 
L 172.026227 104.432251 
L 172.292233 103.971128 
L 173.939238 101.534121 
L 174.526601 101.094092 
L 174.694419 100.968449 
L 175.233834 100.801021 
L 175.52896 100.866856 
L 175.691371 100.827044 
L 175.934988 100.840061 
L 176.334432 100.946776 
L 176.887507 101.042141 
L 177.282562 101.086465 
L 177.433713 101.214064 
L 177.887166 101.301205 
L 178.491771 101.372753 
L 178.794073 101.232362 
L 179.0208 101.146214 
L 179.623363 100.739513 
L 180.068658 100.295855 
L 180.662386 99.897155 
L 181.330329 99.898167 
L 181.757071 100.142717 
L 182.104958 100.563335 
L 183.320816 102.561468 
L 184.632686 104.462763 
L 184.924212 104.713924 
L 185.944555 105.178345 
L 186.551374 104.996984 
L 186.869676 104.678602 
L 187.108404 104.3769 
L 187.594089 103.445472 
L 188.252646 101.592996 
L 188.911204 99.252525 
L 190.014057 95.356649 
L 190.592571 93.830709 
L 190.994501 93.22644 
L 191.396431 92.940802 
L 191.798362 92.965975 
L 192.200292 93.272693 
L 193.029273 94.517416 
L 193.873989 96.368894 
L 194.812368 99.336719 
L 195.44364 101.939432 
L 196.8768 109.231761 
L 199.807015 125.489568 
L 200.448 127.624529 
L 201.035888 128.939744 
L 201.433663 129.341338 
L 201.731994 129.391328 
L 202.030325 129.221547 
L 202.328656 128.795205 
L 202.726431 127.942085 
L 203.323094 126.007859 
L 204.343855 121.141122 
L 207.001693 106.561923 
L 208.048274 101.866605 
L 208.96812 99.006785 
L 209.242305 98.412456 
L 209.678509 97.245353 
L 210.289193 96.070642 
L 210.88243 94.982946 
L 211.1616 94.542827 
L 211.994903 93.643908 
L 212.326769 93.485969 
L 212.735457 93.313439 
L 213.134925 93.327684 
L 213.694181 93.365552 
L 214.3067 93.759606 
L 214.7328 93.985069 
L 215.198609 94.15914 
L 215.811294 94.128243 
L 215.962367 94.176128 
L 216.566659 93.724644 
L 217.170952 93.711639 
L 217.462307 93.74021 
L 218.093577 94.593805 
L 218.3784 95.377329 
L 218.8248 96.697017 
L 220.4616 103.043174 
L 221.652 107.173576 
L 222.559047 109.585541 
L 223.093379 110.501104 
L 223.407115 110.736571 
L 223.877719 110.673642 
L 224.113021 110.405053 
L 224.583626 109.40662 
L 225.211098 107.135985 
L 226.327672 101.236872 
L 227.731478 93.956945 
L 228.325073 92.080444 
L 228.720803 91.404183 
L 229.0176 91.198927 
L 229.411482 91.278128 
L 229.796612 91.78292 
L 230.181741 92.61122 
L 230.743388 94.420803 
L 231.389282 97.280409 
L 232.311988 102.559526 
L 233.596062 111.822353 
L 235.335877 124.409215 
L 236.16 128.945669 
L 236.734614 131.1046 
L 237.411263 132.644435 
L 237.701255 132.903798 
L 237.991247 132.947361 
L 238.377903 132.609012 
L 238.764559 131.937459 
L 239.537872 129.5176 
L 240.241371 126.463465 
L 242.90988 114.514812 
L 243.886263 111.324338 
L 244.457574 110.06074 
L 245.108042 109.16562 
L 245.200967 109.19022 
L 246.173936 108.226531 
L 246.348852 108.36411 
L 246.698684 108.065109 
L 247.22201 107.813368 
L 247.396215 107.879509 
L 248.158361 107.778123 
L 248.327727 107.827759 
L 248.490579 107.830328 
L 248.897708 108.101781 
L 249.711967 108.520423 
L 250.52416 108.911004 
L 250.60352 108.8544 
L 250.839711 109.070586 
L 251.769356 109.26488 
L 252.223112 109.182215 
L 253.119556 108.612317 
L 253.717185 108.177574 
L 254.016 108.030661 
L 254.3136 107.919378 
L 255.770456 107.863059 
L 256.933172 107.853285 
L 257.660082 107.51819 
L 258.46178 106.504475 
L 259.047346 105.446707 
L 259.725899 103.794635 
L 261.083005 99.162143 
L 262.725744 93.073484 
L 263.161365 92.34897 
L 263.509861 92.071 
L 263.858358 92.189871 
L 264.119731 92.507303 
L 264.826119 93.979324 
L 265.328143 95.474221 
L 265.724497 96.746662 
L 266.591522 99.519594 
L 267.826001 102.812361 
L 268.770695 104.667173 
L 270.650274 108.293116 
L 271.778021 111.187843 
L 274.315453 118.293778 
L 275.067284 119.483973 
L 275.6416 119.959258 
L 276.2368 119.874569 
L 276.637733 119.490027 
L 277.1544 118.604116 
L 278.187733 115.245947 
L 278.911067 111.77523 
L 279.8208 106.292717 
L 282.5856 88.698971 
L 283.301718 84.750894 
L 284.25936 80.246275 
L 285.258013 76.613699 
L 286.075092 74.487679 
L 286.639823 73.570059 
L 287.114927 73.095725 
L 287.737841 72.77686 
L 287.967475 73.016198 
L 288.197109 73.064102 
L 288.579831 73.25212 
L 288.88601 73.459787 
L 289.517502 74.005937 
L 291.196923 75.778984 
L 292.3568 78.718663 
L 292.864246 80.955108 
L 293.65632 85.348716 
L 297.174332 105.725714 
L 297.708323 107.608674 
L 298.176885 108.578818 
L 298.567353 108.916059 
L 298.808733 108.900289 
L 299.21695 108.50223 
L 299.625167 107.734874 
L 300.19667 106.355709 
L 300.714139 104.903728 
L 301.467331 103.125451 
L 302.054747 102.372822 
L 302.446358 102.223627 
L 302.642163 102.279366 
L 303.033774 102.692142 
L 303.389783 103.278481 
L 303.923798 104.749106 
L 304.576674 107.04286 
L 305.516463 111.665037 
L 307.680519 122.375137 
L 308.163114 123.650969 
L 308.549189 124.328864 
L 308.935265 124.489484 
L 309.224822 124.407503 
L 309.707416 123.731919 
L 310.093492 122.794819 
L 311.058681 119.845678 
L 311.9488 117.192561 
L 313.1392 114.064323 
L 313.9328 112.482518 
L 315.227568 111.22046 
L 317.251809 110.025693 
L 317.43331 109.892947 
L 317.951884 109.517264 
L 318.124742 109.51907 
L 318.389169 109.268944 
L 318.839591 108.971681 
L 319.549164 108.564627 
L 321.310369 107.647929 
L 322.278124 107.471536 
L 324.42004 106.926537 
L 325.077884 106.614797 
L 325.591966 106.681567 
L 326.275813 107.034214 
L 326.573413 107.32917 
L 327.459881 108.132566 
L 328.05086 108.463494 
L 328.272477 108.552412 
L 328.420221 108.569287 
L 328.55155 108.526741 
L 329.084082 108.410146 
L 329.740016 107.598003 
L 330.250188 106.698011 
L 330.760359 105.414793 
L 331.416294 103.09287 
L 332.217992 99.259203 
L 333.321155 92.769554 
L 334.290149 87.289732 
L 334.828856 85.431583 
L 335.062634 84.949437 
L 335.218486 84.852284 
L 335.452265 84.945431 
L 335.686043 85.234798 
L 336.075674 86.253059 
L 336.918174 89.931298 
L 337.626847 93.893077 
L 339.9232 105.128583 
L 340.512 106.535369 
L 341.088 107.448046 
L 342.72 109.634743 
L 343.483958 111.349637 
L 344.705684 115.499036 
L 346.397305 121.561615 
L 347.156757 123.717691 
L 348.025427 125.466477 
L 348.411503 125.884473 
L 349.183654 126.16879 
L 349.473211 126.047141 
L 349.762768 125.773342 
L 350.245362 124.944036 
L 350.846537 123.284698 
L 351.560777 120.423287 
L 352.366311 115.941636 
L 353.671276 106.800044 
L 355.2744 95.702738 
L 357.144424 84.256637 
L 359.190644 75.253229 
L 359.818278 73.484399 
L 359.975187 73.185844 
L 360.367458 72.542727 
L 361.152 71.87067 
L 361.303966 71.900622 
L 361.455932 71.911602 
L 362.443711 72.063329 
L 362.975591 72.172911 
L 363.712626 71.875902 
L 363.856994 71.808574 
L 364.001362 71.776205 
L 364.362281 71.769622 
L 364.9464 72.316766 
L 365.463571 73.638764 
L 366.189424 77.471111 
L 366.697522 81.093516 
L 370.70496 112.369846 
L 371.246592 114.17863 
L 371.556096 114.588032 
L 371.788224 114.599278 
L 372.027927 114.33356 
L 372.443643 113.312205 
L 372.866918 111.608921 
L 374.185379 104.512155 
L 374.989864 100.886216 
L 375.4368 99.691083 
L 375.7344 99.271569 
L 376.023247 99.171176 
L 376.312094 99.443358 
L 376.697224 100.189506 
L 377.353694 102.68764 
L 378.180847 107.277149 
L 380.699621 122.370424 
L 381.263495 124.406812 
L 381.733389 125.443386 
L 382.109305 125.754681 
L 382.391242 125.79892 
L 382.675719 125.594159 
L 383.351351 124.366041 
L 384.026984 122.501935 
L 384.895654 119.831473 
L 385.571286 117.880077 
L 386.996211 114.42858 
L 388.311916 112.885021 
L 388.875789 112.511694 
L 389.157726 112.332595 
L 389.533642 112.075998 
L 389.996308 111.800362 
L 390.362585 111.656822 
L 390.631569 111.451861 
L 392.541394 110.494105 
L 394.545853 109.655074 
L 395.992895 108.459256 
L 396.705617 107.664427 
L 398.889768 104.925507 
L 400.4352 104.137936 
L 401.498962 103.803967 
L 401.95486 103.712131 
L 402.866655 103.596277 
L 403.094604 103.581032 
L 404.0064 103.554733 
L 407.241177 104.114637 
L 407.854851 103.989425 
L 408.607754 103.803987 
L 409.642995 103.482761 
L 410.772349 102.879945 
L 412.067109 101.65966 
L 413.35104 99.841352 
L 414.133303 98.756802 
L 414.72 98.182663 
L 414.72 98.182663 
" clip-path="url(#pd62165f0d2)" style="fill: none; stroke: #ff0000; stroke-width: 1.5; stroke-linecap: square"/>
   </g>
   <g id="line2d_25">
    <path d="M 57.6 174.528 
L 57.928749 170.097761 
L 58.145036 172.414413 
L 58.201076 172.465229 
L 58.316454 172.178473 
L 58.375928 172.77232 
L 58.436695 172.132812 
L 58.498843 172.312266 
L 58.56247 172.622667 
L 58.627689 172.511722 
L 58.759888 172.535705 
L 58.96477 173.515566 
L 59.387986 172.845701 
L 59.530644 172.82414 
L 59.673301 172.663834 
L 59.815958 173.061909 
L 60.034401 172.58757 
L 60.261761 172.733647 
L 60.489121 172.49304 
L 60.640694 172.591909 
L 60.868054 172.18049 
L 60.94384 172.270419 
L 61.095413 172.331204 
L 61.252364 172.374226 
L 61.414691 172.542512 
L 61.577018 172.563809 
L 61.820509 172.614197 
L 62.064 172.577354 
L 62.550982 172.675954 
L 62.9568 172.796493 
L 63.281455 172.644364 
L 63.524945 172.675017 
L 63.687273 172.693471 
L 64.661236 171.962872 
L 64.827429 172.00479 
L 65.167543 171.781572 
L 69.47424 167.630214 
L 71.08128 166.417007 
L 71.70624 165.945189 
L 71.976369 165.808762 
L 73.533046 163.895619 
L 73.990892 163.002609 
L 74.540308 161.92485 
L 76.228151 158.243905 
L 76.807265 156.653915 
L 77.579416 154.288008 
L 78.737643 150.12551 
L 79.231269 148.020307 
L 79.74144 146.600612 
L 80.149577 146.140865 
L 80.251611 146.038963 
L 80.353646 146.255601 
L 80.45568 146.18264 
L 81.271954 148.009598 
L 82.5984 152.47478 
L 83.123576 153.465602 
L 83.543718 153.800358 
L 83.963859 153.78186 
L 85.119247 152.414725 
L 85.434353 151.970921 
L 86.1696 151.294926 
L 86.494255 151.324103 
L 87.143564 151.460089 
L 87.901091 152.065427 
L 88.5504 152.94602 
L 89.199709 154.192953 
L 89.8524 155.800085 
L 90.8568 159.051682 
L 92.459782 165.655936 
L 95.310655 179.547881 
L 99.566155 203.712146 
L 102.063326 217.983703 
L 103.769651 226.657148 
L 104.859295 231.153069 
L 105.76834 233.972704 
L 106.24533 234.986977 
L 106.722319 235.714217 
L 107.199309 236.080829 
L 107.517302 236.109311 
L 108.002618 235.818404 
L 108.4896 235.104527 
L 108.976582 233.975772 
L 109.544727 232.082251 
L 110.194036 229.153706 
L 110.924509 224.820118 
L 111.832409 217.988199 
L 112.829023 208.711097 
L 114.074791 194.817912 
L 115.752777 173.156569 
L 119.710324 120.977544 
L 120.847659 110.231757 
L 121.716169 104.179874 
L 122.370841 101.178092 
L 122.867931 99.703046 
L 123.265604 99.039844 
L 123.563858 98.830152 
L 123.762694 98.826202 
L 124.060948 99.059027 
L 124.45862 99.725031 
L 124.856292 100.718978 
L 125.4528 102.9774 
L 126.1472 106.525742 
L 127.04 112.275411 
L 128.3296 122.534352 
L 129.654212 135.093826 
L 131.389578 154.289296 
L 132.697234 170.709898 
L 135.849911 210.244023 
L 137.021791 222.075116 
L 138.177105 231.669729 
L 139.035377 237.367884 
L 139.970504 242.246101 
L 141.950191 250.721257 
L 142.828484 253.588128 
L 143.3088 254.645995 
L 144.0528 255.440536 
L 144.418768 255.428571 
L 144.708324 255.184842 
L 145.142659 254.554641 
L 145.504605 253.775999 
L 146.156108 251.541583 
L 146.735222 248.686584 
L 147.4008 244.540919 
L 148.5912 233.83216 
L 149.5584 222.517399 
L 150.851871 203.891889 
L 152.176203 181.013915 
L 156.506471 101.325228 
L 157.324064 91.695347 
L 157.969516 86.529347 
L 158.533389 83.696437 
L 158.909305 82.631771 
L 159.191242 82.285401 
L 159.473179 82.200884 
L 159.755116 82.453365 
L 160.131032 83.208481 
L 160.600926 84.839175 
L 161.258779 88.013552 
L 162.386526 95.476314 
L 163.608253 105.071665 
L 165.754259 123.92413 
L 172.111812 185.528824 
L 172.997997 195.954569 
L 176.255421 236.20528 
L 177.12454 243.431756 
L 178.265044 249.755056 
L 179.248749 253.795898 
L 180.365522 257.188715 
L 180.885034 257.898251 
L 181.256113 257.924724 
L 181.617916 257.547938 
L 182.03538 256.439671 
L 182.810645 253.194557 
L 183.247935 250.426516 
L 183.903869 245.62182 
L 184.632686 238.72072 
L 186.473739 215.011199 
L 187.676409 194.697077 
L 189.075843 167.006083 
L 191.898844 108.933988 
L 192.937164 92.212909 
L 193.686313 83.223356 
L 194.343178 77.909246 
L 194.812368 75.714065 
L 195.174923 74.819706 
L 195.533213 74.562466 
L 195.80193 74.700296 
L 196.070648 75.113623 
L 196.428938 76.098811 
L 197.059938 78.83017 
L 197.792492 83.332357 
L 198.799754 90.920883 
L 200.837 108.296386 
L 209.329546 184.020154 
L 210.289193 195.584185 
L 211.58007 213.569593 
L 212.655563 227.048978 
L 213.694181 236.881728 
L 214.51975 242.242075 
L 215.198609 245.655115 
L 215.962367 248.847185 
L 217.170952 252.821152 
L 217.532448 253.539448 
L 217.953295 253.961639 
L 218.233859 254.024183 
L 218.6016 253.687908 
L 219.3456 251.973503 
L 220.6104 245.421823 
L 221.1312 241.281915 
L 222.255115 230.56633 
L 223.250247 218.137093 
L 224.426757 199.993248 
L 225.707707 176.828619 
L 229.604047 102.82492 
L 230.651118 88.666636 
L 231.389282 81.766139 
L 231.942906 78.574871 
L 232.404259 77.075675 
L 232.5888 76.751108 
L 233.138215 76.719033 
L 233.504492 77.242288 
L 233.962338 78.428128 
L 234.511754 80.642889 
L 235.335877 85.377505 
L 236.541286 94.107025 
L 237.604591 102.769666 
L 240.766119 132.429368 
L 243.10614 156.802681 
L 247.309112 200.300179 
L 249.793393 230.770616 
L 250.52416 237.581462 
L 251.149592 242.326464 
L 252.148408 247.97666 
L 253.268963 252.809977 
L 253.941296 255.052249 
L 254.60774 256.560679 
L 255.116428 256.994559 
L 255.697786 256.352809 
L 255.843126 256.089529 
L 256.351814 254.35869 
L 256.933172 251.489458 
L 257.660082 246.493698 
L 258.316016 240.77481 
L 259.27353 230.121976 
L 260.178268 217.81223 
L 261.31712 198.912143 
L 262.899992 167.973114 
L 265.52632 115.3541 
L 266.401602 102.084427 
L 267.161281 93.72645 
L 267.731041 89.662817 
L 268.3008 87.298101 
L 268.676716 86.604954 
L 268.958653 86.627032 
L 269.240589 86.913356 
L 269.616505 87.785073 
L 270.0864 89.443275 
L 270.556295 91.779888 
L 271.308126 96.254443 
L 272.623832 105.529324 
L 279.524571 162.504902 
L 280.696606 174.346613 
L 281.735553 187.125686 
L 282.855612 203.070598 
L 284.25936 221.82237 
L 285.176305 231.304336 
L 285.911676 237.222753 
L 286.956559 243.65018 
L 288.579831 252.476018 
L 289.447337 256.71565 
L 290.1 259.041855 
L 290.544492 260.118115 
L 291.051938 260.710489 
L 291.341908 260.70206 
L 291.994338 259.91547 
L 292.3568 259.018619 
L 293.154215 255.982856 
L 293.870592 251.79696 
L 294.513408 246.543407 
L 295.299072 238.601475 
L 296.013312 229.447627 
L 296.8704 216.191146 
L 298.254979 190.047284 
L 300.805768 140.102732 
L 302.740066 106.650573 
L 303.567788 96.459595 
L 304.200758 91.02822 
L 304.670653 88.305085 
L 305.234526 86.325193 
L 305.7984 85.783045 
L 306.080337 85.720449 
L 306.456253 86.07794 
L 306.926147 86.870472 
L 307.680519 88.990177 
L 308.356151 91.447835 
L 309.707416 97.369124 
L 311.058681 104.354701 
L 312.7424 115.189598 
L 313.9328 124.15191 
L 315.227568 135.194205 
L 317.43331 156.551451 
L 319.195968 173.354709 
L 321.549697 195.333978 
L 323.635455 218.289592 
L 325.22273 236.095684 
L 326.275813 245.146251 
L 327.090519 250.343463 
L 327.533753 252.3131 
L 328.198604 254.548429 
L 328.682879 255.560134 
L 329.375608 256.181178 
L 329.740016 256.106873 
L 330.177306 255.606713 
L 330.541714 254.901277 
L 331.051886 253.368119 
L 331.562057 251.024302 
L 332.290873 246.346406 
L 333.172079 237.977614 
L 333.991997 227.92464 
L 335.062634 211.403256 
L 336.489957 185.519346 
L 338.903862 141.796795 
L 339.9232 127.494046 
L 340.896 117.08775 
L 341.568 111.928156 
L 342.144 108.994785 
L 342.624 107.553954 
L 343.008 107.057115 
L 343.2 107.054269 
L 343.483958 107.331405 
L 343.765895 107.880795 
L 344.235789 109.490643 
L 344.705684 111.742317 
L 345.457516 116.630765 
L 346.303326 123.559557 
L 347.928908 139.198135 
L 349.280173 154.048587 
L 351.458743 180.121586 
L 353.671276 206.248413 
L 354.830862 217.167427 
L 355.968634 225.157087 
L 357.144424 231.66439 
L 358.067937 236.335976 
L 360.524366 249.279039 
L 361.531915 252.82206 
L 362.291745 254.888506 
L 363.051574 256.510514 
L 363.640443 257.325947 
L 364.145729 257.679282 
L 364.651016 257.647439 
L 364.7976 257.574036 
L 365.1696 257.169363 
L 365.536156 256.491234 
L 366.26201 254.216448 
L 366.987863 250.786363 
L 368.076644 243.458496 
L 369.0384 234.288304 
L 369.9312 223.398749 
L 370.859712 209.360861 
L 372.111071 185.789283 
L 375.258026 123.681459 
L 376.215812 110.431205 
L 376.889788 104.002033 
L 377.353694 101.024543 
L 377.813224 99.165203 
L 378.180847 98.308039 
L 378.548471 97.967386 
L 378.824188 97.929533 
L 379.101979 98.173874 
L 379.477895 98.841769 
L 379.853811 99.932645 
L 380.605642 103.26403 
L 381.733389 109.907551 
L 384.220022 126.451716 
L 386.808253 143.503564 
L 389.251705 157.005951 
L 391.607354 168.784701 
L 393.20931 177.969482 
L 394.380271 185.300995 
L 397.653423 206.39236 
L 398.657954 210.207889 
L 399.044312 211.055423 
L 399.43067 211.457054 
L 399.817027 211.535674 
L 400.4352 210.803565 
L 400.663149 210.297124 
L 400.967081 209.542549 
L 401.574945 207.594281 
L 402.48674 203.731527 
L 403.930417 196.249451 
L 405.895484 184.412666 
L 406.652436 179.837403 
L 407.760738 173.723766 
L 409.266544 166.971842 
L 410.678236 161.646055 
L 411.965074 157.495642 
L 412.862126 155.264229 
L 413.546606 154.111444 
L 414.03552 153.634069 
L 414.468558 153.475347 
L 414.72 153.51729 
L 414.72 153.51729 
" clip-path="url(#pd62165f0d2)" style="fill: none; stroke-dasharray: 5.55,2.4; stroke-dashoffset: 0; stroke: #008000; stroke-width: 1.5"/>
   </g>
   <g id="line2d_26">
    <path d="M 57.6 173.184354 
L 57.632364 -1 
M 57.927863 -1 
L 58.035959 96.786566 
L 58.316454 102.441028 
L 58.375928 104.080867 
L 58.436695 103.938455 
L 58.498843 103.800877 
L 59.102672 106.931667 
L 59.174001 106.712596 
L 59.245329 106.819192 
L 59.673301 108.361129 
L 60.413334 111.479709 
L 60.868054 114.199454 
L 61.252364 116.355034 
L 62.388655 121.932791 
L 63.200291 124.823975 
L 64.580073 129.819315 
L 65.252571 132.213357 
L 65.762743 133.953509 
L 67.208229 138.843193 
L 68.58144 143.023062 
L 69.47424 145.143434 
L 70.18848 146.301844 
L 70.63488 146.607209 
L 71.08128 146.651054 
L 71.52768 146.195377 
L 71.79552 145.707184 
L 72.434215 143.790792 
L 73.258338 140.041018 
L 74.2656 133.606591 
L 75.649038 122.786365 
L 76.807265 113.590444 
L 77.772454 107.673339 
L 78.351568 105.379836 
L 78.834162 104.403807 
L 79.0272 104.338408 
L 79.129234 104.350412 
L 79.333303 104.454757 
L 79.639406 104.649377 
L 80.149577 105.547816 
L 81.067886 108.333664 
L 81.476023 109.679165 
L 82.292297 112.605524 
L 82.5984 113.527568 
L 83.753788 116.846936 
L 84.594071 118.569913 
L 85.224282 119.242665 
L 85.539388 119.278484 
L 85.854494 119.148879 
L 86.1696 118.927954 
L 86.818909 117.880417 
L 87.576436 116.47347 
L 88.442182 115.180546 
L 88.983273 114.732098 
L 89.632582 114.497411 
L 89.964 114.539011 
L 90.4104 114.653176 
L 91.820618 115.322448 
L 93.420218 116.482022 
L 94.786473 117.60596 
L 95.605507 118.106069 
L 96.096927 118.246604 
L 96.784916 118.216129 
L 97.3792 117.921058 
L 98.158629 117.176716 
L 99.019543 115.96395 
L 100.545969 113.316037 
L 103.428386 108.025566 
L 105.108159 104.6742 
L 106.960814 100.327303 
L 110.599855 91.403837 
L 111.168 90.562468 
L 111.832409 90.01443 
L 112.247665 89.93138 
L 112.662921 90.072207 
L 113.078177 90.448965 
L 113.576484 91.225969 
L 114.157842 92.574462 
L 114.830769 94.719714 
L 115.65805 98.045529 
L 117.457859 106.559952 
L 118.415435 110.526082 
L 119.065341 112.427336 
L 119.710324 113.655346 
L 120.537476 114.054825 
L 121.054447 113.86908 
L 122.072587 112.921174 
L 122.967349 111.998492 
L 123.663276 111.584657 
L 124.259784 111.459734 
L 124.95571 111.622696 
L 127.6352 112.801496 
L 128.032 112.739299 
L 128.6272 112.517684 
L 129.549176 111.654963 
L 131.49918 108.542925 
L 132.901303 105.455443 
L 134.072335 102.349442 
L 135.262145 98.182946 
L 136.253502 94.131618 
L 137.766448 88.540146 
L 138.411179 86.959515 
L 139.347476 85.687929 
L 139.58155 85.768891 
L 140.203409 85.826053 
L 141.723757 86.6657 
L 142.252104 87.219302 
L 142.8971 88.248103 
L 143.6064 90.237611 
L 144.273989 92.76749 
L 148.5912 111.703706 
L 149.2608 113.588628 
L 149.7816 114.461429 
L 150.0792 114.58437 
L 150.4512 114.48256 
L 150.851871 113.837411 
L 151.258349 112.76333 
L 151.840531 110.404838 
L 152.782278 105.188712 
L 154.118919 97.405957 
L 154.809175 94.566102 
L 155.320513 93.336975 
L 155.715832 92.867138 
L 156.012322 92.79334 
L 156.308812 92.961588 
L 156.695147 93.459992 
L 157.144373 94.451448 
L 157.687579 96.13769 
L 158.533389 99.798794 
L 159.473179 104.939461 
L 163.044379 125.84439 
L 163.608253 127.751931 
L 164.266105 129.26822 
L 164.642021 129.679055 
L 164.937318 129.773943 
L 165.243671 129.63476 
L 165.754259 128.937229 
L 166.5712 126.645248 
L 167.183906 124.176743 
L 168.3072 118.730279 
L 169.624761 112.489226 
L 170.8573 107.236363 
L 172.292233 103.286939 
L 173.939238 100.394196 
L 174.442692 99.852127 
L 174.61051 99.759522 
L 174.862237 99.539865 
L 175.305756 99.417572 
L 177.12454 99.354541 
L 177.282562 99.525357 
L 177.736015 99.550292 
L 177.962742 99.643763 
L 178.265044 99.617912 
L 178.718498 99.50613 
L 179.096783 99.342817 
L 179.324732 99.189241 
L 179.771795 98.743917 
L 179.994442 98.506266 
L 180.21709 98.444876 
L 180.662386 98.189476 
L 180.885034 98.187557 
L 181.330329 98.419907 
L 181.617916 98.733769 
L 182.31369 100.052727 
L 182.592 100.673388 
L 183.320816 102.418046 
L 184.851331 105.232521 
L 185.580147 105.918043 
L 186.31847 106.097865 
L 186.790101 105.780505 
L 187.267555 105.005045 
L 187.758729 103.766226 
L 188.252646 102.085025 
L 189.075843 98.612703 
L 190.204995 94.097394 
L 190.693053 92.640607 
L 191.295949 91.596447 
L 191.697879 91.373037 
L 191.999327 91.398331 
L 192.476619 91.809119 
L 192.937164 92.597467 
L 193.592476 94.094149 
L 194.249341 96.201393 
L 195.08535 99.876868 
L 196.608083 108.808383 
L 199.349169 126.664818 
L 200.173292 130.131415 
L 200.641038 131.305689 
L 201.135332 132.099591 
L 201.433663 132.269969 
L 201.731994 132.167994 
L 202.030325 131.849208 
L 202.4281 131.064172 
L 202.925319 129.567692 
L 203.323094 128.053857 
L 204.884945 120.064806 
L 206.216751 113.196196 
L 207.099811 109.415646 
L 207.953931 106.477779 
L 208.876725 104.559525 
L 208.96812 104.575614 
L 210.027471 103.147715 
L 210.114712 103.279922 
L 211.022015 102.390617 
L 211.091807 102.48332 
L 211.1616 102.39833 
L 211.239235 102.431778 
L 211.494862 102.193147 
L 211.994903 102.092477 
L 212.81535 102.259894 
L 212.975138 102.360137 
L 213.214819 102.409561 
L 215.353878 103.419242 
L 215.886831 103.33929 
L 216.415586 103.147103 
L 216.642196 102.958111 
L 217.322025 102.6141 
L 218.233859 102.779408 
L 218.7504 103.230957 
L 218.9736 103.496203 
L 219.4944 104.302362 
L 220.2384 105.393201 
L 221.0568 106.549776 
L 221.3544 106.900341 
L 222.786996 107.654573 
L 223.250247 107.53822 
L 223.799285 106.992644 
L 224.505191 105.540422 
L 225.05423 103.850467 
L 225.533502 101.94006 
L 226.969116 96.156247 
L 227.731478 94.111354 
L 228.325073 93.389858 
L 228.819735 93.507503 
L 229.216 93.808994 
L 229.700329 94.426759 
L 230.743388 96.332719 
L 231.942906 99.346702 
L 232.771938 102.173356 
L 234.603323 109.787079 
L 237.314599 121.910241 
L 237.894583 123.443223 
L 238.377903 124.365095 
L 238.764559 124.732811 
L 239.151216 124.767263 
L 239.441208 124.606774 
L 240.037303 123.576094 
L 240.766119 121.28915 
L 241.611546 117.394184 
L 245.474273 96.193318 
L 246.173936 93.63893 
L 247.309112 90.50354 
L 247.734946 89.604688 
L 247.988995 89.173221 
L 248.490579 88.304499 
L 249.141986 87.505181 
L 249.467689 87.296607 
L 250.010529 87.092273 
L 250.300043 87.110224 
L 250.4448 87.05747 
L 251.304533 87.474103 
L 251.691886 87.813272 
L 252.59663 88.381173 
L 253.343667 88.594166 
L 253.567778 88.524274 
L 254.53507 88.815099 
L 254.971088 89.302748 
L 255.479777 90.321853 
L 255.988465 91.887678 
L 256.787833 95.033866 
L 257.951608 99.743355 
L 258.753306 102.700747 
L 259.27353 104.649522 
L 260.329057 107.49926 
L 260.781426 108.144293 
L 261.1584 108.308219 
L 261.479619 108.140888 
L 261.885867 107.598928 
L 262.55498 105.815275 
L 263.422737 102.661851 
L 264.468227 98.968468 
L 264.925396 97.87591 
L 265.427231 97.115698 
L 265.724497 96.937485 
L 266.116723 97.010236 
L 266.496562 97.414727 
L 266.876402 98.113612 
L 267.351201 99.392515 
L 268.20584 102.693973 
L 269.052632 107.245179 
L 270.556295 117.030605 
L 271.590063 123.074021 
L 272.341895 126.27176 
L 272.717811 127.376854 
L 273.281684 128.189751 
L 273.563621 128.260193 
L 273.939537 128.012274 
L 274.879326 125.932009 
L 275.5424 123.594382 
L 278.3944 113.504528 
L 279.524571 111.109096 
L 280.215771 110.084184 
L 280.507707 109.770929 
L 281.357754 108.683099 
L 281.452204 108.797074 
L 282.5856 107.63071 
L 283.212497 107.081545 
L 284.173113 106.431255 
L 284.518102 106.308989 
L 285.012889 106.131455 
L 285.258013 105.996667 
L 288.044019 105.712965 
L 289.166673 105.277696 
L 289.728 105.428598 
L 290.2488 106.055568 
L 290.472 106.329554 
L 292.501785 110.256237 
L 292.719262 110.57605 
L 293.009231 110.849139 
L 293.65632 111.173056 
L 294.441984 110.955239 
L 295.156224 109.692922 
L 295.870464 107.597332 
L 296.370432 105.558699 
L 297.326298 100.282737 
L 298.890377 90.548286 
L 299.380237 88.67461 
L 299.788453 88.130454 
L 300.115027 88.307539 
L 300.359957 88.658135 
L 300.897398 89.993916 
L 301.956844 93.698657 
L 303.834795 100.449001 
L 304.858611 102.793795 
L 306.926147 107.252388 
L 307.777038 109.956581 
L 310.962162 120.883497 
L 311.552 122.207826 
L 312.1472 123.334176 
L 312.9408 124.081153 
L 313.3376 124.101492 
L 314.2304 123.335354 
L 314.528 122.779327 
L 315.029502 121.513764 
L 315.821768 118.635924 
L 317.251809 111.192694 
L 318.480738 103.491991 
L 319.549164 97.394771 
L 320.408288 93.858384 
L 321.310369 91.349725 
L 321.951851 90.339994 
L 322.440271 89.78592 
L 322.683492 89.61948 
L 322.926714 89.362405 
L 324.42004 88.871096 
L 325.22273 89.082297 
L 325.515983 89.248757 
L 327.090519 90.432075 
L 327.238264 90.484853 
L 327.533753 90.760158 
L 328.05086 90.968009 
L 328.682879 91.101288 
L 328.945536 91.058443 
L 329.667135 90.909278 
L 330.104424 90.627448 
L 330.833241 90.330874 
L 331.343412 90.125003 
L 332.14511 90.100877 
L 332.5824 90.274484 
L 333.321155 90.640422 
L 333.991997 91.22395 
L 334.439225 91.928961 
L 335.14056 93.608718 
L 335.763969 95.944438 
L 336.489957 99.674233 
L 337.535632 106.515131 
L 338.812647 115.177037 
L 339.542369 119.049325 
L 340.1216 121.137807 
L 340.704 122.298048 
L 341.088 122.559802 
L 341.472 122.480567 
L 341.952 122.005895 
L 342.528 121.083168 
L 343.671916 118.797137 
L 344.987621 116.80016 
L 346.303326 115.43383 
L 346.679242 115.173867 
L 347.639351 114.131781 
L 348.218465 113.34104 
L 348.990616 111.821636 
L 349.762768 109.658686 
L 350.744503 106.139822 
L 351.254674 103.930207 
L 352.559639 97.116819 
L 354.375877 87.98763 
L 355.096985 85.709436 
L 355.798932 84.352609 
L 355.968634 84.321245 
L 356.477739 84.040256 
L 356.986844 84.027025 
L 357.986778 84.199276 
L 358.392575 84.23959 
L 358.717214 84.197043 
L 359.426007 84.463042 
L 360.132095 85.618673 
L 360.808763 87.645305 
L 361.987813 92.853305 
L 363.929178 102.919171 
L 366.189424 115.397284 
L 366.987863 119.108384 
L 367.931473 122.226509 
L 368.3688 122.909115 
L 368.8152 123.207246 
L 368.964 123.167015 
L 369.4848 122.385805 
L 370.163328 120.00034 
L 370.550208 117.846364 
L 371.169216 113.412822 
L 371.946764 106.237826 
L 373.380895 92.918388 
L 374.006605 89.430469 
L 374.453541 88.027625 
L 374.989864 87.357618 
L 375.347413 87.405323 
L 375.926965 88.020004 
L 376.600941 89.478957 
L 377.261788 91.316417 
L 377.813224 93.256424 
L 378.916094 97.229723 
L 379.665853 100.584878 
L 380.417684 104.879119 
L 381.451453 111.978571 
L 382.5792 119.67142 
L 383.44787 124.636927 
L 384.220022 128.090152 
L 384.895654 130.156884 
L 385.378249 130.985059 
L 385.860843 131.452528 
L 386.1504 131.480424 
L 386.808253 131.191463 
L 387.372126 130.456496 
L 388.875789 127.418123 
L 391.429938 121.315011 
L 392.875352 118.481278 
L 393.20931 117.921104 
L 393.800734 116.921383 
L 395.042599 115.31582 
L 395.200981 115.215717 
L 395.834512 114.652163 
L 396.547234 114.187107 
L 396.705617 114.050206 
L 397.10208 113.735579 
L 397.34016 113.618177 
L 397.730695 113.385155 
L 397.962509 113.324909 
L 398.580682 113.087722 
L 398.889768 112.92306 
L 399.43067 112.62107 
L 399.817027 112.347041 
L 400.126114 111.976061 
L 401.19503 110.164371 
L 402.562723 106.535357 
L 403.550502 103.682758 
L 404.166966 102.445097 
L 404.81661 101.698734 
L 405.222638 101.509828 
L 405.643167 101.541962 
L 406.063696 101.851264 
L 406.400119 102.295671 
L 407.072965 103.460775 
L 408.043077 105.956291 
L 411.1488 114.987413 
L 413.448823 120.038652 
L 414.72 122.573137 
L 414.72 122.573137 
" clip-path="url(#pd62165f0d2)" style="fill: none; stroke-dasharray: 5.55,2.4; stroke-dashoffset: 0; stroke: #000000; stroke-width: 1.5"/>
   </g>
   <g id="patch_3">
    <path d="M 57.6 307.584 
L 57.6 41.472 
" style="fill: none; stroke: #000000; stroke-width: 0.8; stroke-linejoin: miter; stroke-linecap: square"/>
   </g>
   <g id="patch_4">
    <path d="M 414.72 307.584 
L 414.72 41.472 
" style="fill: none; stroke: #000000; stroke-width: 0.8; stroke-linejoin: miter; stroke-linecap: square"/>
   </g>
   <g id="patch_5">
    <path d="M 57.6 307.584 
L 414.72 307.584 
" style="fill: none; stroke: #000000; stroke-width: 0.8; stroke-linejoin: miter; stroke-linecap: square"/>
   </g>
   <g id="patch_6">
    <path d="M 57.6 41.472 
L 414.72 41.472 
" style="fill: none; stroke: #000000; stroke-width: 0.8; stroke-linejoin: miter; stroke-linecap: square"/>
   </g>
   <g id="legend_1">
    <g id="patch_7">
     <path d="M 64.6 302.584 
L 125.7 302.584 
Q 127.7 302.584 127.7 300.584 
L 127.7 242.830875 
Q 127.7 240.830875 125.7 240.830875 
L 64.6 240.830875 
Q 62.6 240.830875 62.6 242.830875 
L 62.6 300.584 
Q 62.6 302.584 64.6 302.584 
z
" style="fill: #ffffff; opacity: 0.8; stroke: #cccccc; stroke-linejoin: miter"/>
    </g>
    <g id="line2d_27">
     <path d="M 66.6 248.929312 
L 76.6 248.929312 
L 86.6 248.929312 
" style="fill: none; stroke: #0000ff; stroke-width: 1.5; stroke-linecap: square"/>
    </g>
    <g id="text_14">
     <!-- $C_{L} bot$ -->
     <g transform="translate(94.6 252.429312) scale(0.1 -0.1)">
      <defs>
       <path id="DejaVuSans-Oblique-62" d="M 3169 2138 
Q 3169 2591 2961 2847 
Q 2753 3103 2388 3103 
Q 2122 3103 1889 2973 
Q 1656 2844 1484 2597 
Q 1303 2338 1198 1995 
Q 1094 1653 1094 1313 
Q 1094 881 1298 636 
Q 1503 391 1863 391 
Q 2134 391 2365 517 
Q 2597 644 2772 891 
Q 2950 1147 3059 1487 
Q 3169 1828 3169 2138 
z
M 1381 2969 
Q 1594 3256 1914 3420 
Q 2234 3584 2584 3584 
Q 3122 3584 3439 3221 
Q 3756 2859 3756 2241 
Q 3756 1734 3570 1259 
Q 3384 784 3041 416 
Q 2816 172 2522 40 
Q 2228 -91 1906 -91 
Q 1566 -91 1316 65 
Q 1066 222 909 531 
L 806 0 
L 231 0 
L 1178 4863 
L 1753 4863 
L 1381 2969 
z
" transform="scale(0.015625)"/>
       <path id="DejaVuSans-Oblique-6f" d="M 1625 -91 
Q 1009 -91 651 289 
Q 294 669 294 1325 
Q 294 1706 417 2101 
Q 541 2497 738 2766 
Q 1047 3184 1428 3384 
Q 1809 3584 2291 3584 
Q 2888 3584 3255 3212 
Q 3622 2841 3622 2241 
Q 3622 1825 3500 1412 
Q 3378 1000 3181 728 
Q 2875 309 2494 109 
Q 2113 -91 1625 -91 
z
M 891 1344 
Q 891 869 1089 633 
Q 1288 397 1691 397 
Q 2269 397 2648 901 
Q 3028 1406 3028 2181 
Q 3028 2634 2825 2865 
Q 2622 3097 2228 3097 
Q 1903 3097 1650 2945 
Q 1397 2794 1197 2484 
Q 1050 2253 970 1956 
Q 891 1659 891 1344 
z
" transform="scale(0.015625)"/>
       <path id="DejaVuSans-Oblique-74" d="M 2706 3500 
L 2619 3053 
L 1472 3053 
L 1100 1153 
Q 1081 1047 1072 975 
Q 1063 903 1063 863 
Q 1063 663 1183 572 
Q 1303 481 1569 481 
L 2150 481 
L 2053 0 
L 1503 0 
Q 991 0 739 200 
Q 488 400 488 806 
Q 488 878 497 964 
Q 506 1050 525 1153 
L 897 3053 
L 409 3053 
L 500 3500 
L 978 3500 
L 1172 4494 
L 1747 4494 
L 1556 3500 
L 2706 3500 
z
" transform="scale(0.015625)"/>
      </defs>
      <use xlink:href="#DejaVuSans-Oblique-43" transform="translate(0 0.015625)"/>
      <use xlink:href="#DejaVuSans-Oblique-4c" transform="translate(69.824219 -16.390625) scale(0.7)"/>
      <use xlink:href="#DejaVuSans-Oblique-62" transform="translate(111.557617 0.015625)"/>
      <use xlink:href="#DejaVuSans-Oblique-6f" transform="translate(175.03418 0.015625)"/>
      <use xlink:href="#DejaVuSans-Oblique-74" transform="translate(236.21582 0.015625)"/>
     </g>
    </g>
    <g id="line2d_28">
     <path d="M 66.6 263.607437 
L 76.6 263.607437 
L 86.6 263.607437 
" style="fill: none; stroke: #ff0000; stroke-width: 1.5; stroke-linecap: square"/>
    </g>
    <g id="text_15">
     <!-- $C_{D} bot$ -->
     <g transform="translate(94.6 267.107437) scale(0.1 -0.1)">
      <use xlink:href="#DejaVuSans-Oblique-43" transform="translate(0 0.015625)"/>
      <use xlink:href="#DejaVuSans-Oblique-44" transform="translate(69.824219 -16.390625) scale(0.7)"/>
      <use xlink:href="#DejaVuSans-Oblique-62" transform="translate(126.459961 0.015625)"/>
      <use xlink:href="#DejaVuSans-Oblique-6f" transform="translate(189.936523 0.015625)"/>
      <use xlink:href="#DejaVuSans-Oblique-74" transform="translate(251.118164 0.015625)"/>
     </g>
    </g>
    <g id="line2d_29">
     <path d="M 66.6 278.285562 
L 76.6 278.285562 
L 86.6 278.285562 
" style="fill: none; stroke-dasharray: 5.55,2.4; stroke-dashoffset: 0; stroke: #008000; stroke-width: 1.5"/>
    </g>
    <g id="text_16">
     <!-- $C_{L} top$ -->
     <g transform="translate(94.6 281.785562) scale(0.1 -0.1)">
      <defs>
       <path id="DejaVuSans-Oblique-70" d="M 3175 2156 
Q 3175 2616 2975 2859 
Q 2775 3103 2400 3103 
Q 2144 3103 1911 2972 
Q 1678 2841 1497 2591 
Q 1319 2344 1212 1994 
Q 1106 1644 1106 1300 
Q 1106 863 1306 627 
Q 1506 391 1875 391 
Q 2147 391 2380 519 
Q 2613 647 2778 891 
Q 2956 1147 3065 1494 
Q 3175 1841 3175 2156 
z
M 1394 2969 
Q 1625 3272 1939 3428 
Q 2253 3584 2638 3584 
Q 3175 3584 3472 3232 
Q 3769 2881 3769 2247 
Q 3769 1728 3584 1258 
Q 3400 788 3053 416 
Q 2822 169 2531 39 
Q 2241 -91 1919 -91 
Q 1547 -91 1294 64 
Q 1041 219 916 525 
L 556 -1331 
L -19 -1331 
L 922 3500 
L 1497 3500 
L 1394 2969 
z
" transform="scale(0.015625)"/>
      </defs>
      <use xlink:href="#DejaVuSans-Oblique-43" transform="translate(0 0.78125)"/>
      <use xlink:href="#DejaVuSans-Oblique-4c" transform="translate(69.824219 -15.625) scale(0.7)"/>
      <use xlink:href="#DejaVuSans-Oblique-74" transform="translate(111.557617 0.78125)"/>
      <use xlink:href="#DejaVuSans-Oblique-6f" transform="translate(150.766602 0.78125)"/>
      <use xlink:href="#DejaVuSans-Oblique-70" transform="translate(211.948242 0.78125)"/>
     </g>
    </g>
    <g id="line2d_30">
     <path d="M 66.6 292.984 
L 76.6 292.984 
L 86.6 292.984 
" style="fill: none; stroke-dasharray: 5.55,2.4; stroke-dashoffset: 0; stroke: #000000; stroke-width: 1.5"/>
    </g>
    <g id="text_17">
     <!-- $C_{D} top$ -->
     <g transform="translate(94.6 296.484) scale(0.1 -0.1)">
      <use xlink:href="#DejaVuSans-Oblique-43" transform="translate(0 0.78125)"/>
      <use xlink:href="#DejaVuSans-Oblique-44" transform="translate(69.824219 -15.625) scale(0.7)"/>
      <use xlink:href="#DejaVuSans-Oblique-74" transform="translate(126.459961 0.78125)"/>
      <use xlink:href="#DejaVuSans-Oblique-6f" transform="translate(165.668945 0.78125)"/>
      <use xlink:href="#DejaVuSans-Oblique-70" transform="translate(226.850586 0.78125)"/>
     </g>
    </g>
   </g>
  </g>
 </g>
 <defs>
  <clipPath id="pd62165f0d2">
   <rect x="57.6" y="41.472" width="357.12" height="266.112"/>
  </clipPath>
 </defs>
</svg>
