<?xml version="1.0" encoding="utf-8" standalone="no"?>
<!DOCTYPE svg PUBLIC "-//W3C//DTD SVG 1.1//EN"
  "http://www.w3.org/Graphics/SVG/1.1/DTD/svg11.dtd">
<svg xmlns:xlink="http://www.w3.org/1999/xlink" width="460.8pt" height="345.6pt" viewBox="0 0 460.8 345.6" xmlns="http://www.w3.org/2000/svg" version="1.1">
 <metadata>
  <rdf:RDF xmlns:dc="http://purl.org/dc/elements/1.1/" xmlns:cc="http://creativecommons.org/ns#" xmlns:rdf="http://www.w3.org/1999/02/22-rdf-syntax-ns#">
   <cc:Work>
    <dc:type rdf:resource="http://purl.org/dc/dcmitype/StillImage"/>
    <dc:date>2023-08-06T18:18:39.945087</dc:date>
    <dc:format>image/svg+xml</dc:format>
    <dc:creator>
     <cc:Agent>
      <dc:title>Matplotlib v3.6.3, https://matplotlib.org/</dc:title>
     </cc:Agent>
    </dc:creator>
   </cc:Work>
  </rdf:RDF>
 </metadata>
 <defs>
  <style type="text/css">*{stroke-linejoin: round; stroke-linecap: butt}</style>
 </defs>
 <g id="figure_1">
  <g id="patch_1">
   <path d="M 0 345.6 
L 460.8 345.6 
L 460.8 0 
L 0 0 
z
" style="fill: #ffffff"/>
  </g>
  <g id="axes_1">
   <g id="patch_2">
    <path d="M 57.6 307.584 
L 414.72 307.584 
L 414.72 41.472 
L 57.6 41.472 
z
" style="fill: #ffffff"/>
   </g>
   <g id="matplotlib.axis_1">
    <g id="xtick_1">
     <g id="line2d_1">
      <path d="M 57.6 307.584 
L 57.6 41.472 
" clip-path="url(#pdca5550311)" style="fill: none; stroke: #b0b0b0; stroke-width: 0.8; stroke-linecap: square"/>
     </g>
     <g id="line2d_2">
      <defs>
       <path id="m07b9f54501" d="M 0 0 
L 0 3.5 
" style="stroke: #000000; stroke-width: 0.8"/>
      </defs>
      <g>
       <use xlink:href="#m07b9f54501" x="57.6" y="307.584" style="stroke: #000000; stroke-width: 0.8"/>
      </g>
     </g>
     <g id="text_1">
      <!-- 0.00 -->
      <g transform="translate(46.467188 322.182437) scale(0.1 -0.1)">
       <defs>
        <path id="DejaVuSans-30" d="M 2034 4250 
Q 1547 4250 1301 3770 
Q 1056 3291 1056 2328 
Q 1056 1369 1301 889 
Q 1547 409 2034 409 
Q 2525 409 2770 889 
Q 3016 1369 3016 2328 
Q 3016 3291 2770 3770 
Q 2525 4250 2034 4250 
z
M 2034 4750 
Q 2819 4750 3233 4129 
Q 3647 3509 3647 2328 
Q 3647 1150 3233 529 
Q 2819 -91 2034 -91 
Q 1250 -91 836 529 
Q 422 1150 422 2328 
Q 422 3509 836 4129 
Q 1250 4750 2034 4750 
z
" transform="scale(0.015625)"/>
        <path id="DejaVuSans-2e" d="M 684 794 
L 1344 794 
L 1344 0 
L 684 0 
L 684 794 
z
" transform="scale(0.015625)"/>
       </defs>
       <use xlink:href="#DejaVuSans-30"/>
       <use xlink:href="#DejaVuSans-2e" x="63.623047"/>
       <use xlink:href="#DejaVuSans-30" x="95.410156"/>
       <use xlink:href="#DejaVuSans-30" x="159.033203"/>
      </g>
     </g>
    </g>
    <g id="xtick_2">
     <g id="line2d_3">
      <path d="M 129.024 307.584 
L 129.024 41.472 
" clip-path="url(#pdca5550311)" style="fill: none; stroke: #b0b0b0; stroke-width: 0.8; stroke-linecap: square"/>
     </g>
     <g id="line2d_4">
      <g>
       <use xlink:href="#m07b9f54501" x="129.024" y="307.584" style="stroke: #000000; stroke-width: 0.8"/>
      </g>
     </g>
     <g id="text_2">
      <!-- 0.01 -->
      <g transform="translate(117.891188 322.182437) scale(0.1 -0.1)">
       <defs>
        <path id="DejaVuSans-31" d="M 794 531 
L 1825 531 
L 1825 4091 
L 703 3866 
L 703 4441 
L 1819 4666 
L 2450 4666 
L 2450 531 
L 3481 531 
L 3481 0 
L 794 0 
L 794 531 
z
" transform="scale(0.015625)"/>
       </defs>
       <use xlink:href="#DejaVuSans-30"/>
       <use xlink:href="#DejaVuSans-2e" x="63.623047"/>
       <use xlink:href="#DejaVuSans-30" x="95.410156"/>
       <use xlink:href="#DejaVuSans-31" x="159.033203"/>
      </g>
     </g>
    </g>
    <g id="xtick_3">
     <g id="line2d_5">
      <path d="M 200.448 307.584 
L 200.448 41.472 
" clip-path="url(#pdca5550311)" style="fill: none; stroke: #b0b0b0; stroke-width: 0.8; stroke-linecap: square"/>
     </g>
     <g id="line2d_6">
      <g>
       <use xlink:href="#m07b9f54501" x="200.448" y="307.584" style="stroke: #000000; stroke-width: 0.8"/>
      </g>
     </g>
     <g id="text_3">
      <!-- 0.02 -->
      <g transform="translate(189.315187 322.182437) scale(0.1 -0.1)">
       <defs>
        <path id="DejaVuSans-32" d="M 1228 531 
L 3431 531 
L 3431 0 
L 469 0 
L 469 531 
Q 828 903 1448 1529 
Q 2069 2156 2228 2338 
Q 2531 2678 2651 2914 
Q 2772 3150 2772 3378 
Q 2772 3750 2511 3984 
Q 2250 4219 1831 4219 
Q 1534 4219 1204 4116 
Q 875 4013 500 3803 
L 500 4441 
Q 881 4594 1212 4672 
Q 1544 4750 1819 4750 
Q 2544 4750 2975 4387 
Q 3406 4025 3406 3419 
Q 3406 3131 3298 2873 
Q 3191 2616 2906 2266 
Q 2828 2175 2409 1742 
Q 1991 1309 1228 531 
z
" transform="scale(0.015625)"/>
       </defs>
       <use xlink:href="#DejaVuSans-30"/>
       <use xlink:href="#DejaVuSans-2e" x="63.623047"/>
       <use xlink:href="#DejaVuSans-30" x="95.410156"/>
       <use xlink:href="#DejaVuSans-32" x="159.033203"/>
      </g>
     </g>
    </g>
    <g id="xtick_4">
     <g id="line2d_7">
      <path d="M 271.872 307.584 
L 271.872 41.472 
" clip-path="url(#pdca5550311)" style="fill: none; stroke: #b0b0b0; stroke-width: 0.8; stroke-linecap: square"/>
     </g>
     <g id="line2d_8">
      <g>
       <use xlink:href="#m07b9f54501" x="271.872" y="307.584" style="stroke: #000000; stroke-width: 0.8"/>
      </g>
     </g>
     <g id="text_4">
      <!-- 0.03 -->
      <g transform="translate(260.739188 322.182437) scale(0.1 -0.1)">
       <defs>
        <path id="DejaVuSans-33" d="M 2597 2516 
Q 3050 2419 3304 2112 
Q 3559 1806 3559 1356 
Q 3559 666 3084 287 
Q 2609 -91 1734 -91 
Q 1441 -91 1130 -33 
Q 819 25 488 141 
L 488 750 
Q 750 597 1062 519 
Q 1375 441 1716 441 
Q 2309 441 2620 675 
Q 2931 909 2931 1356 
Q 2931 1769 2642 2001 
Q 2353 2234 1838 2234 
L 1294 2234 
L 1294 2753 
L 1863 2753 
Q 2328 2753 2575 2939 
Q 2822 3125 2822 3475 
Q 2822 3834 2567 4026 
Q 2313 4219 1838 4219 
Q 1578 4219 1281 4162 
Q 984 4106 628 3988 
L 628 4550 
Q 988 4650 1302 4700 
Q 1616 4750 1894 4750 
Q 2613 4750 3031 4423 
Q 3450 4097 3450 3541 
Q 3450 3153 3228 2886 
Q 3006 2619 2597 2516 
z
" transform="scale(0.015625)"/>
       </defs>
       <use xlink:href="#DejaVuSans-30"/>
       <use xlink:href="#DejaVuSans-2e" x="63.623047"/>
       <use xlink:href="#DejaVuSans-30" x="95.410156"/>
       <use xlink:href="#DejaVuSans-33" x="159.033203"/>
      </g>
     </g>
    </g>
    <g id="xtick_5">
     <g id="line2d_9">
      <path d="M 343.296 307.584 
L 343.296 41.472 
" clip-path="url(#pdca5550311)" style="fill: none; stroke: #b0b0b0; stroke-width: 0.8; stroke-linecap: square"/>
     </g>
     <g id="line2d_10">
      <g>
       <use xlink:href="#m07b9f54501" x="343.296" y="307.584" style="stroke: #000000; stroke-width: 0.8"/>
      </g>
     </g>
     <g id="text_5">
      <!-- 0.04 -->
      <g transform="translate(332.163187 322.182437) scale(0.1 -0.1)">
       <defs>
        <path id="DejaVuSans-34" d="M 2419 4116 
L 825 1625 
L 2419 1625 
L 2419 4116 
z
M 2253 4666 
L 3047 4666 
L 3047 1625 
L 3713 1625 
L 3713 1100 
L 3047 1100 
L 3047 0 
L 2419 0 
L 2419 1100 
L 313 1100 
L 313 1709 
L 2253 4666 
z
" transform="scale(0.015625)"/>
       </defs>
       <use xlink:href="#DejaVuSans-30"/>
       <use xlink:href="#DejaVuSans-2e" x="63.623047"/>
       <use xlink:href="#DejaVuSans-30" x="95.410156"/>
       <use xlink:href="#DejaVuSans-34" x="159.033203"/>
      </g>
     </g>
    </g>
    <g id="xtick_6">
     <g id="line2d_11">
      <path d="M 414.72 307.584 
L 414.72 41.472 
" clip-path="url(#pdca5550311)" style="fill: none; stroke: #b0b0b0; stroke-width: 0.8; stroke-linecap: square"/>
     </g>
     <g id="line2d_12">
      <g>
       <use xlink:href="#m07b9f54501" x="414.72" y="307.584" style="stroke: #000000; stroke-width: 0.8"/>
      </g>
     </g>
     <g id="text_6">
      <!-- 0.05 -->
      <g transform="translate(403.587188 322.182437) scale(0.1 -0.1)">
       <defs>
        <path id="DejaVuSans-35" d="M 691 4666 
L 3169 4666 
L 3169 4134 
L 1269 4134 
L 1269 2991 
Q 1406 3038 1543 3061 
Q 1681 3084 1819 3084 
Q 2600 3084 3056 2656 
Q 3513 2228 3513 1497 
Q 3513 744 3044 326 
Q 2575 -91 1722 -91 
Q 1428 -91 1123 -41 
Q 819 9 494 109 
L 494 744 
Q 775 591 1075 516 
Q 1375 441 1709 441 
Q 2250 441 2565 725 
Q 2881 1009 2881 1497 
Q 2881 1984 2565 2268 
Q 2250 2553 1709 2553 
Q 1456 2553 1204 2497 
Q 953 2441 691 2322 
L 691 4666 
z
" transform="scale(0.015625)"/>
       </defs>
       <use xlink:href="#DejaVuSans-30"/>
       <use xlink:href="#DejaVuSans-2e" x="63.623047"/>
       <use xlink:href="#DejaVuSans-30" x="95.410156"/>
       <use xlink:href="#DejaVuSans-35" x="159.033203"/>
      </g>
     </g>
    </g>
    <g id="text_7">
     <!-- Time (s) -->
     <g transform="translate(215.831094 335.860562) scale(0.1 -0.1)">
      <defs>
       <path id="DejaVuSans-54" d="M -19 4666 
L 3928 4666 
L 3928 4134 
L 2272 4134 
L 2272 0 
L 1638 0 
L 1638 4134 
L -19 4134 
L -19 4666 
z
" transform="scale(0.015625)"/>
       <path id="DejaVuSans-69" d="M 603 3500 
L 1178 3500 
L 1178 0 
L 603 0 
L 603 3500 
z
M 603 4863 
L 1178 4863 
L 1178 4134 
L 603 4134 
L 603 4863 
z
" transform="scale(0.015625)"/>
       <path id="DejaVuSans-6d" d="M 3328 2828 
Q 3544 3216 3844 3400 
Q 4144 3584 4550 3584 
Q 5097 3584 5394 3201 
Q 5691 2819 5691 2113 
L 5691 0 
L 5113 0 
L 5113 2094 
Q 5113 2597 4934 2840 
Q 4756 3084 4391 3084 
Q 3944 3084 3684 2787 
Q 3425 2491 3425 1978 
L 3425 0 
L 2847 0 
L 2847 2094 
Q 2847 2600 2669 2842 
Q 2491 3084 2119 3084 
Q 1678 3084 1418 2786 
Q 1159 2488 1159 1978 
L 1159 0 
L 581 0 
L 581 3500 
L 1159 3500 
L 1159 2956 
Q 1356 3278 1631 3431 
Q 1906 3584 2284 3584 
Q 2666 3584 2933 3390 
Q 3200 3197 3328 2828 
z
" transform="scale(0.015625)"/>
       <path id="DejaVuSans-65" d="M 3597 1894 
L 3597 1613 
L 953 1613 
Q 991 1019 1311 708 
Q 1631 397 2203 397 
Q 2534 397 2845 478 
Q 3156 559 3463 722 
L 3463 178 
Q 3153 47 2828 -22 
Q 2503 -91 2169 -91 
Q 1331 -91 842 396 
Q 353 884 353 1716 
Q 353 2575 817 3079 
Q 1281 3584 2069 3584 
Q 2775 3584 3186 3129 
Q 3597 2675 3597 1894 
z
M 3022 2063 
Q 3016 2534 2758 2815 
Q 2500 3097 2075 3097 
Q 1594 3097 1305 2825 
Q 1016 2553 972 2059 
L 3022 2063 
z
" transform="scale(0.015625)"/>
       <path id="DejaVuSans-20" transform="scale(0.015625)"/>
       <path id="DejaVuSans-28" d="M 1984 4856 
Q 1566 4138 1362 3434 
Q 1159 2731 1159 2009 
Q 1159 1288 1364 580 
Q 1569 -128 1984 -844 
L 1484 -844 
Q 1016 -109 783 600 
Q 550 1309 550 2009 
Q 550 2706 781 3412 
Q 1013 4119 1484 4856 
L 1984 4856 
z
" transform="scale(0.015625)"/>
       <path id="DejaVuSans-73" d="M 2834 3397 
L 2834 2853 
Q 2591 2978 2328 3040 
Q 2066 3103 1784 3103 
Q 1356 3103 1142 2972 
Q 928 2841 928 2578 
Q 928 2378 1081 2264 
Q 1234 2150 1697 2047 
L 1894 2003 
Q 2506 1872 2764 1633 
Q 3022 1394 3022 966 
Q 3022 478 2636 193 
Q 2250 -91 1575 -91 
Q 1294 -91 989 -36 
Q 684 19 347 128 
L 347 722 
Q 666 556 975 473 
Q 1284 391 1588 391 
Q 1994 391 2212 530 
Q 2431 669 2431 922 
Q 2431 1156 2273 1281 
Q 2116 1406 1581 1522 
L 1381 1569 
Q 847 1681 609 1914 
Q 372 2147 372 2553 
Q 372 3047 722 3315 
Q 1072 3584 1716 3584 
Q 2034 3584 2315 3537 
Q 2597 3491 2834 3397 
z
" transform="scale(0.015625)"/>
       <path id="DejaVuSans-29" d="M 513 4856 
L 1013 4856 
Q 1481 4119 1714 3412 
Q 1947 2706 1947 2009 
Q 1947 1309 1714 600 
Q 1481 -109 1013 -844 
L 513 -844 
Q 928 -128 1133 580 
Q 1338 1288 1338 2009 
Q 1338 2731 1133 3434 
Q 928 4138 513 4856 
z
" transform="scale(0.015625)"/>
      </defs>
      <use xlink:href="#DejaVuSans-54"/>
      <use xlink:href="#DejaVuSans-69" x="57.958984"/>
      <use xlink:href="#DejaVuSans-6d" x="85.742188"/>
      <use xlink:href="#DejaVuSans-65" x="183.154297"/>
      <use xlink:href="#DejaVuSans-20" x="244.677734"/>
      <use xlink:href="#DejaVuSans-28" x="276.464844"/>
      <use xlink:href="#DejaVuSans-73" x="315.478516"/>
      <use xlink:href="#DejaVuSans-29" x="367.578125"/>
     </g>
    </g>
   </g>
   <g id="matplotlib.axis_2">
    <g id="ytick_1">
     <g id="line2d_13">
      <path d="M 57.6 276.878769 
L 414.72 276.878769 
" clip-path="url(#pdca5550311)" style="fill: none; stroke: #b0b0b0; stroke-width: 0.8; stroke-linecap: square"/>
     </g>
     <g id="line2d_14">
      <defs>
       <path id="m1ac50c2b34" d="M 0 0 
L -3.5 0 
" style="stroke: #000000; stroke-width: 0.8"/>
      </defs>
      <g>
       <use xlink:href="#m1ac50c2b34" x="57.6" y="276.878769" style="stroke: #000000; stroke-width: 0.8"/>
      </g>
     </g>
     <g id="text_8">
      <!-- −1.0 -->
      <g transform="translate(26.317187 280.677988) scale(0.1 -0.1)">
       <defs>
        <path id="DejaVuSans-2212" d="M 678 2272 
L 4684 2272 
L 4684 1741 
L 678 1741 
L 678 2272 
z
" transform="scale(0.015625)"/>
       </defs>
       <use xlink:href="#DejaVuSans-2212"/>
       <use xlink:href="#DejaVuSans-31" x="83.789062"/>
       <use xlink:href="#DejaVuSans-2e" x="147.412109"/>
       <use xlink:href="#DejaVuSans-30" x="179.199219"/>
      </g>
     </g>
    </g>
    <g id="ytick_2">
     <g id="line2d_15">
      <path d="M 57.6 225.703385 
L 414.72 225.703385 
" clip-path="url(#pdca5550311)" style="fill: none; stroke: #b0b0b0; stroke-width: 0.8; stroke-linecap: square"/>
     </g>
     <g id="line2d_16">
      <g>
       <use xlink:href="#m1ac50c2b34" x="57.6" y="225.703385" style="stroke: #000000; stroke-width: 0.8"/>
      </g>
     </g>
     <g id="text_9">
      <!-- −0.5 -->
      <g transform="translate(26.317187 229.502603) scale(0.1 -0.1)">
       <use xlink:href="#DejaVuSans-2212"/>
       <use xlink:href="#DejaVuSans-30" x="83.789062"/>
       <use xlink:href="#DejaVuSans-2e" x="147.412109"/>
       <use xlink:href="#DejaVuSans-35" x="179.199219"/>
      </g>
     </g>
    </g>
    <g id="ytick_3">
     <g id="line2d_17">
      <path d="M 57.6 174.528 
L 414.72 174.528 
" clip-path="url(#pdca5550311)" style="fill: none; stroke: #b0b0b0; stroke-width: 0.8; stroke-linecap: square"/>
     </g>
     <g id="line2d_18">
      <g>
       <use xlink:href="#m1ac50c2b34" x="57.6" y="174.528" style="stroke: #000000; stroke-width: 0.8"/>
      </g>
     </g>
     <g id="text_10">
      <!-- 0.0 -->
      <g transform="translate(34.696875 178.327219) scale(0.1 -0.1)">
       <use xlink:href="#DejaVuSans-30"/>
       <use xlink:href="#DejaVuSans-2e" x="63.623047"/>
       <use xlink:href="#DejaVuSans-30" x="95.410156"/>
      </g>
     </g>
    </g>
    <g id="ytick_4">
     <g id="line2d_19">
      <path d="M 57.6 123.352615 
L 414.72 123.352615 
" clip-path="url(#pdca5550311)" style="fill: none; stroke: #b0b0b0; stroke-width: 0.8; stroke-linecap: square"/>
     </g>
     <g id="line2d_20">
      <g>
       <use xlink:href="#m1ac50c2b34" x="57.6" y="123.352615" style="stroke: #000000; stroke-width: 0.8"/>
      </g>
     </g>
     <g id="text_11">
      <!-- 0.5 -->
      <g transform="translate(34.696875 127.151834) scale(0.1 -0.1)">
       <use xlink:href="#DejaVuSans-30"/>
       <use xlink:href="#DejaVuSans-2e" x="63.623047"/>
       <use xlink:href="#DejaVuSans-35" x="95.410156"/>
      </g>
     </g>
    </g>
    <g id="ytick_5">
     <g id="line2d_21">
      <path d="M 57.6 72.177231 
L 414.72 72.177231 
" clip-path="url(#pdca5550311)" style="fill: none; stroke: #b0b0b0; stroke-width: 0.8; stroke-linecap: square"/>
     </g>
     <g id="line2d_22">
      <g>
       <use xlink:href="#m1ac50c2b34" x="57.6" y="72.177231" style="stroke: #000000; stroke-width: 0.8"/>
      </g>
     </g>
     <g id="text_12">
      <!-- 1.0 -->
      <g transform="translate(34.696875 75.97645) scale(0.1 -0.1)">
       <use xlink:href="#DejaVuSans-31"/>
       <use xlink:href="#DejaVuSans-2e" x="63.623047"/>
       <use xlink:href="#DejaVuSans-30" x="95.410156"/>
      </g>
     </g>
    </g>
    <g id="text_13">
     <!-- $C_{L}$ $C_{D}$ -->
     <g transform="translate(20.2375 188.028) rotate(-90) scale(0.1 -0.1)">
      <defs>
       <path id="DejaVuSans-Oblique-43" d="M 4447 4306 
L 4319 3641 
Q 4019 3944 3683 4091 
Q 3347 4238 2956 4238 
Q 2422 4238 2017 3981 
Q 1613 3725 1319 3200 
Q 1131 2863 1032 2486 
Q 934 2109 934 1728 
Q 934 1091 1264 756 
Q 1594 422 2222 422 
Q 2656 422 3056 561 
Q 3456 700 3834 978 
L 3688 231 
Q 3316 72 2936 -9 
Q 2556 -91 2175 -91 
Q 1278 -91 773 396 
Q 269 884 269 1753 
Q 269 2309 461 2846 
Q 653 3384 1013 3828 
Q 1394 4300 1883 4525 
Q 2372 4750 3022 4750 
Q 3422 4750 3780 4639 
Q 4138 4528 4447 4306 
z
" transform="scale(0.015625)"/>
       <path id="DejaVuSans-Oblique-4c" d="M 1075 4666 
L 1709 4666 
L 909 525 
L 3181 525 
L 3078 0 
L 172 0 
L 1075 4666 
z
" transform="scale(0.015625)"/>
       <path id="DejaVuSans-Oblique-44" d="M 1081 4666 
L 2438 4666 
Q 3519 4666 4070 4208 
Q 4622 3750 4622 2847 
Q 4622 2250 4412 1698 
Q 4203 1147 3834 769 
Q 3463 381 2891 190 
Q 2319 0 1538 0 
L 172 0 
L 1081 4666 
z
M 1613 4147 
L 909 519 
L 1734 519 
Q 2794 519 3375 1128 
Q 3956 1738 3956 2847 
Q 3956 3519 3581 3833 
Q 3206 4147 2406 4147 
L 1613 4147 
z
" transform="scale(0.015625)"/>
      </defs>
      <use xlink:href="#DejaVuSans-Oblique-43" transform="translate(0 0.78125)"/>
      <use xlink:href="#DejaVuSans-Oblique-4c" transform="translate(69.824219 -15.625) scale(0.7)"/>
      <use xlink:href="#DejaVuSans-20" transform="translate(111.557617 0.78125)"/>
      <use xlink:href="#DejaVuSans-Oblique-43" transform="translate(143.344727 0.78125)"/>
      <use xlink:href="#DejaVuSans-Oblique-44" transform="translate(213.168945 -15.625) scale(0.7)"/>
     </g>
    </g>
   </g>
   <g id="line2d_23">
    <path d="M 57.6 174.528 
L 57.874708 176.385668 
L 57.941983 171.608939 
L 58.007885 172.288972 
L 58.142495 172.659696 
L 58.354037 173.188855 
L 58.428173 173.039818 
L 58.504368 173.121527 
L 58.663692 173.292477 
L 58.744579 173.273028 
L 58.911932 173.71316 
L 58.998827 173.597038 
L 59.085722 173.938365 
L 59.172617 173.81995 
L 59.354306 174.124817 
L 59.535996 174.285626 
L 59.717685 174.28327 
L 59.80853 174.506916 
L 60.081064 174.386926 
L 60.353598 174.283988 
L 60.444442 174.325301 
L 60.626132 174.219486 
L 60.807821 174.256827 
L 61.364238 173.964407 
L 61.460757 173.850676 
L 61.659644 173.913648 
L 62.156863 173.995677 
L 62.35575 173.956471 
L 62.77082 174.076281 
L 62.978355 174.136652 
L 63.393424 174.328791 
L 63.497191 174.245707 
L 63.808494 174.507926 
L 64.016028 174.506516 
L 64.7424 174.77248 
L 65.067055 174.989215 
L 65.283491 174.975716 
L 67.339636 175.553561 
L 67.988945 175.853081 
L 68.205382 175.839315 
L 69.395782 176.435426 
L 70.153309 177.021311 
L 70.369745 177.18047 
L 70.802618 177.716585 
L 71.127273 177.938712 
L 71.776582 178.927059 
L 73.1124 180.480622 
L 73.5588 181.125371 
L 74.34 182.080059 
L 75.456 183.573436 
L 75.9024 184.011437 
L 76.3488 184.493886 
L 76.572 184.611506 
L 77.5764 185.932647 
L 78.0228 186.563126 
L 78.3576 186.921753 
L 78.804 188.115689 
L 79.2576 189.626442 
L 79.7184 191.77768 
L 79.9488 193.003832 
L 80.2944 194.124605 
L 80.5248 194.84487 
L 80.9856 195.713672 
L 81.1008 195.711972 
L 81.216 195.857274 
L 81.3312 195.762971 
L 81.4464 195.845319 
L 81.6768 195.627291 
L 82.2528 194.177079 
L 82.4832 193.537778 
L 83.2896 191.127026 
L 83.8656 190.016056 
L 84.2112 189.82737 
L 84.672 189.991725 
L 85.0176 190.375304 
L 87.0912 193.570666 
L 87.552 194.128241 
L 88.9344 195.603786 
L 89.856 196.190318 
L 90.432 196.307485 
L 91.584 195.954427 
L 92.16 195.480964 
L 94.3488 192.903214 
L 95.5008 191.094746 
L 96.4224 189.442315 
L 97.8048 186.434458 
L 99.072 183.052518 
L 100.3392 179.07123 
L 101.76384 173.852532 
L 103.31136 167.347987 
L 105.301029 157.81271 
L 108.834438 140.521355 
L 110.274771 134.588447 
L 111.40608 130.836811 
L 112.335508 128.450742 
L 113.022277 127.183482 
L 113.709046 126.35709 
L 114.281354 126.039686 
L 114.7392 126.048532 
L 115.1856 126.2787 
L 115.632 126.748048 
L 116.19 127.692934 
L 116.748 129.069819 
L 117.4176 131.272879 
L 118.1988 134.701203 
L 119.0916 139.749375 
L 120.096 146.88141 
L 121.212 156.490423 
L 122.59584 170.542281 
L 124.50048 192.499171 
L 125.8992 208.837854 
L 127.307077 223.700745 
L 128.420394 233.433471 
L 129.324272 239.585089 
L 130.117224 243.518565 
L 130.61282 245.155357 
L 131.186667 246.365665 
L 131.562275 246.699455 
L 131.937884 246.72778 
L 132.407396 246.422976 
L 132.788238 245.853882 
L 133.270832 244.72724 
L 133.946465 242.426922 
L 134.622097 239.262531 
L 135.394249 234.70098 
L 136.3648 227.698404 
L 137.467904 218.274261 
L 139.118592 201.927775 
L 141.295942 177.630937 
L 145.181451 133.956036 
L 146.517643 121.507675 
L 147.5217 114.089818 
L 148.3897 109.033071 
L 149.111225 105.840503 
L 149.935825 103.127498 
L 150.961371 100.646911 
L 151.675611 99.500417 
L 152.083749 99.164139 
L 152.389851 99.101083 
L 152.695954 99.218021 
L 153.169685 99.799188 
L 153.643416 100.834078 
L 154.2208 102.740619 
L 155.0144 106.333607 
L 155.9072 111.709661 
L 156.5024 116.03542 
L 157.4944 124.513678 
L 158.311484 132.619023 
L 159.89666 151.065787 
L 161.6112 174.351511 
L 163.66185 205.739706 
L 166.118652 241.438466 
L 167.070195 251.33415 
L 167.736274 256.011411 
L 168.3072 258.704854 
L 169.036495 260.654248 
L 169.494867 261.243153 
L 169.861565 261.310834 
L 170.228262 261.011815 
L 170.594959 260.11689 
L 170.961657 258.753493 
L 171.603377 255.152582 
L 172.348295 249.303429 
L 174.133895 232.625845 
L 175.9456 216.676313 
L 177.380693 205.692152 
L 178.918293 195.350092 
L 180.36 186.674026 
L 183.666332 167.003453 
L 184.855317 156.676092 
L 187.19736 134.910283 
L 188.220825 129.3769 
L 188.8695 127.09839 
L 189.846 124.908024 
L 190.2924 124.201709 
L 191.5944 122.686029 
L 191.91525 122.537563 
L 192.34305 122.327935 
L 192.8778 122.260886 
L 193.3056 122.466521 
L 193.630255 122.658653 
L 194.171345 123.185721 
L 194.820655 124.277633 
L 195.469964 125.988144 
L 196.119273 128.276977 
L 196.768582 131.27677 
L 197.417891 134.928369 
L 198.391855 141.857259 
L 199.582255 152.389195 
L 200.920717 166.275065 
L 205.868571 221.672687 
L 206.982696 231.348194 
L 207.998537 238.733956 
L 208.991671 244.414281 
L 209.682103 247.218645 
L 210.273902 248.860738 
L 210.668434 249.504506 
L 211.354638 249.69311 
L 211.644195 249.454162 
L 212.126789 248.575986 
L 212.512865 247.463895 
L 213.091978 245.038981 
L 213.671092 241.759332 
L 214.539762 235.381035 
L 215.5264 226.314622 
L 216.863763 211.679851 
L 218.5272 190.742904 
L 221.998345 147.221834 
L 222.933718 138.308065 
L 223.673618 132.848741 
L 224.453314 128.570592 
L 225.085278 126.109962 
L 225.822316 124.060081 
L 226.928135 121.757003 
L 227.564059 120.468189 
L 228.563368 118.465523 
L 229.111579 117.701076 
L 229.675453 117.314243 
L 230.051368 117.259387 
L 230.615242 117.596122 
L 231.085137 118.149459 
L 231.649011 119.133632 
L 232.400842 121.081273 
L 233.184 123.939718 
L 233.8784 127.286215 
L 234.8704 133.387119 
L 236.16 142.968245 
L 239.291961 165.609748 
L 240.4008 171.985322 
L 241.81812 179.238231 
L 247.503812 207.119987 
L 248.6592 210.066202 
L 248.974306 210.337835 
L 249.499482 210.25954 
L 249.814588 209.957514 
L 250.553018 208.74048 
L 251.310545 207.112357 
L 251.851636 205.831938 
L 252.176291 205.093339 
L 253.042036 202.777782 
L 254.574 198.070879 
L 255.3552 195.031428 
L 256.9176 187.725234 
L 258.2784 181.019406 
L 260.6976 170.14258 
L 262.3488 163.845447 
L 269.37216 138.656368 
L 270.747733 134.49789 
L 271.759573 132.040837 
L 272.6784 130.377488 
L 273.3696 129.561483 
L 273.9456 129.190679 
L 274.4064 129.123642 
L 274.8384 129.235011 
L 275.4432 129.751025 
L 276.1128 130.732059 
L 276.7824 132.175543 
L 277.5636 134.468186 
L 278.4564 137.849331 
L 279.4752 142.684551 
L 280.512 148.689741 
L 281.7792 157.511242 
L 283.189957 169.174658 
L 284.796997 184.640628 
L 288.581213 224.306489 
L 289.830034 235.202882 
L 290.850377 242.154679 
L 291.536048 245.622291 
L 292.221718 248.044052 
L 292.711483 249.10564 
L 293.395719 249.543018 
L 293.685276 249.467788 
L 294.071351 249.066413 
L 294.553946 248.07178 
L 295.036541 246.576501 
L 295.615654 244.078315 
L 296.387805 239.651042 
L 297.2672 233.271969 
L 298.4576 222.523575 
L 300.0448 205.233434 
L 304.608 150.676757 
L 305.7984 139.428736 
L 307.015523 130.138383 
L 307.899106 125.065853 
L 308.614024 121.890172 
L 309.833788 118.119516 
L 312.379611 112.225256 
L 312.991817 111.703897 
L 313.29792 111.682483 
L 313.604023 111.754891 
L 314.216229 112.338337 
L 314.7264 113.156905 
L 315.251576 114.323105 
L 315.881788 116.231651 
L 316.512 118.76764 
L 317.352282 123.039305 
L 318.927812 133.729699 
L 320.713412 147.69769 
L 324.916747 182.879404 
L 329.521371 224.791708 
L 330.724526 233.406951 
L 331.21344 235.756036 
L 331.800137 237.805201 
L 332.386834 239.049956 
L 332.6816 239.317319 
L 333.1776 239.438416 
L 333.6736 239.142711 
L 334.1696 238.503644 
L 334.7648 237.232798 
L 335.2608 235.715045 
L 335.9552 232.735189 
L 336.86784 227.510164 
L 337.480046 223.061109 
L 339.01056 209.035722 
L 340.374109 194.24521 
L 341.780945 176.366426 
L 345.204083 132.522235 
L 346.322727 121.369034 
L 347.0904 115.713067 
L 347.755708 112.163052 
L 348.394444 109.835552 
L 349.71166 107.479589 
L 350.6368 106.4115 
L 351.232 105.984669 
L 351.6288 106.004681 
L 351.9264 106.203238 
L 352.3232 106.703978 
L 352.8192 107.812502 
L 353.4144 109.670594 
L 354.213669 113.095859 
L 355.131977 118.225556 
L 356.254354 126.140912 
L 357.5808 136.981729 
L 359.051294 149.030526 
L 360.941929 163.119805 
L 362.1564 171.783501 
L 363.983116 184.944224 
L 366.493795 204.658057 
L 369.314743 227.064861 
L 369.92209 230.322356 
L 370.602318 232.767281 
L 371.185371 233.99318 
L 371.574073 234.419285 
L 372.2624 234.698088 
L 372.56 234.65335 
L 373.552 233.735746 
L 374.1472 232.706464 
L 375.3376 229.391792 
L 376.049006 226.528188 
L 377.069349 221.105165 
L 378.089691 214.291744 
L 379.549091 202.28078 
L 380.538514 192.44825 
L 382.239086 172.883434 
L 385.31712 136.489746 
L 386.6112 123.264711 
L 387.738157 113.957319 
L 388.619687 108.520899 
L 389.324911 105.302999 
L 389.931671 103.50359 
L 390.771953 101.780174 
L 391.383898 101.0237 
L 391.785772 100.762699 
L 392.187646 100.737317 
L 392.489052 100.869954 
L 392.890926 101.26563 
L 393.2928 101.938866 
L 393.802971 103.185856 
L 394.517211 105.690696 
L 395.333486 109.557037 
L 396.14976 114.509051 
L 397.170103 121.896804 
L 398.700617 134.897507 
L 400.759855 154.718091 
L 402.422479 172.567042 
L 404.639312 198.913561 
L 408.34392 242.517854 
L 409.11768 248.893492 
L 409.8592 253.371652 
L 410.872457 256.643255 
L 411.242779 257.179398 
L 411.524716 257.4166 
L 412.088589 257.376802 
L 412.464505 256.901256 
L 412.840421 255.994449 
L 413.310316 254.233616 
L 413.874189 251.14621 
L 414.626021 245.720573 
L 414.72 244.87765 
L 414.72 244.87765 
" clip-path="url(#pdca5550311)" style="fill: none; stroke: #0000ff; stroke-width: 1.5; stroke-linecap: square"/>
   </g>
   <g id="line2d_24">
    <path d="M 57.6 172.7741 
L 57.634108 -1 
M 57.93959 -1 
L 58.007885 86.33266 
L 58.142495 102.109596 
L 58.354037 105.574401 
L 58.428173 105.45813 
L 58.744579 107.550983 
L 59.085722 109.671732 
L 59.172617 109.622723 
L 60.081064 112.299974 
L 60.444442 114.15769 
L 62.057419 122.7154 
L 63.600959 129.06209 
L 67.339636 141.696705 
L 68.3136 144.525408 
L 69.179345 146.572281 
L 70.045091 148.033731 
L 70.6944 148.483877 
L 71.343709 148.277445 
L 71.776582 147.748189 
L 72.2196 146.919383 
L 73.3356 143.073462 
L 74.0052 139.834431 
L 75.0096 133.881744 
L 76.3488 124.571875 
L 77.688 115.558754 
L 78.246 112.775324 
L 79.1424 109.79582 
L 79.6032 109.068288 
L 79.8336 109.107212 
L 80.064 109.356036 
L 80.64 109.866536 
L 81.5616 112.11131 
L 83.2896 117.59192 
L 83.9808 119.318259 
L 84.672 120.478263 
L 85.4784 121.113233 
L 85.9392 121.193685 
L 86.1696 121.093314 
L 86.8608 120.476 
L 87.7824 118.876973 
L 88.8192 117.102717 
L 89.856 116.105383 
L 90.5472 115.864041 
L 91.008 115.898423 
L 92.9664 116.910158 
L 95.5008 119.313874 
L 96.6528 120.445563 
L 97.5744 121.095201 
L 98.3808 121.378272 
L 99.072 121.380919 
L 99.8784 121.156549 
L 100.81152 120.717056 
L 102.95424 119.599834 
L 105.045943 118.678666 
L 106.831543 117.679908 
L 108.465981 116.359257 
L 109.571352 115.152322 
L 110.721385 113.556404 
L 111.877662 111.582626 
L 113.2512 108.782986 
L 116.9712 100.44695 
L 117.864 99.139963 
L 118.5336 98.541289 
L 119.0916 98.337628 
L 119.538 98.365561 
L 120.096 98.64895 
L 120.654 99.201235 
L 121.3236 100.196747 
L 122.35776 102.261725 
L 125.241173 108.430579 
L 125.7876 109.047911 
L 126.341308 109.328186 
L 126.770538 109.329714 
L 127.199769 109.204943 
L 128.822798 107.720012 
L 129.819867 106.870309 
L 130.414582 106.624024 
L 130.90496 106.672729 
L 131.468373 106.909797 
L 131.937884 107.471282 
L 132.5952 108.296701 
L 133.849946 110.568175 
L 136.069881 115.077336 
L 136.8608 116.053662 
L 137.67424 116.363529 
L 138.086912 116.296458 
L 138.70592 115.800716 
L 139.428096 114.751921 
L 140.401338 112.840531 
L 141.407767 110.466752 
L 142.07872 108.995651 
L 143.431945 106.180881 
L 144.145336 104.852519 
L 145.974107 102.249258 
L 146.9792 101.459569 
L 147.8472 101.365941 
L 148.3897 101.549712 
L 148.698925 101.752197 
L 149.42045 102.47447 
L 151.981714 105.437487 
L 152.491886 106.305222 
L 153.453923 108.779272 
L 156.304 117.740054 
L 157.296 119.700119 
L 157.695634 120.06151 
L 158.103771 120.193926 
L 158.734198 119.607891 
L 159.368268 118.052326 
L 160.108016 115.08309 
L 160.847765 111.073429 
L 163.457673 96.14062 
L 164.24775 93.73297 
L 164.937153 92.89749 
L 165.333629 92.625041 
L 165.531867 92.629511 
L 166.023498 92.781043 
L 166.404115 93.134868 
L 166.97504 94.182459 
L 167.64112 95.832531 
L 168.07883 97.312736 
L 170.686634 106.812599 
L 171.511703 112.103234 
L 173.100126 123.724146 
L 173.945937 128.101364 
L 174.509811 129.937214 
L 174.979705 130.618716 
L 175.261642 130.708456 
L 175.648 130.447787 
L 176.150613 129.53906 
L 176.86816 127.432291 
L 177.995733 123.239104 
L 179.1324 119.073568 
L 180.0252 116.464173 
L 180.918 114.834143 
L 181.476 114.408171 
L 182.034 114.401358 
L 182.4804 114.756151 
L 183.547434 116.799976 
L 185.093114 120.175016 
L 186.061287 122.314507 
L 188.112713 126.702761 
L 188.977613 127.395918 
L 189.626287 127.164403 
L 190.1808 126.524012 
L 191.05965 124.703912 
L 192.8778 120.063753 
L 193.846691 117.521431 
L 195.6864 112.267669 
L 199.2576 101.670909 
L 199.906909 100.65681 
L 200.448 100.200542 
L 200.801545 100.24626 
L 201.03989 100.305943 
L 202.112441 102.098439 
L 203.133919 104.970456 
L 205.3305 111.767072 
L 206.07114 113.195839 
L 206.57756 113.744638 
L 207.08398 113.866384 
L 207.489116 113.668193 
L 207.998537 113.083841 
L 208.498505 112.159408 
L 209.188937 110.444183 
L 212.512865 101.396747 
L 213.091978 100.519151 
L 213.574573 100.063202 
L 214.057168 99.894668 
L 214.443243 99.911392 
L 214.9312 100.130286 
L 216.143644 101.214555 
L 217.686756 102.575778 
L 218.098252 102.652608 
L 218.6388 102.520678 
L 218.9736 102.225856 
L 219.42 101.714518 
L 220.121486 100.245476 
L 220.822971 98.131922 
L 221.407543 95.838501 
L 222.47773 90.479157 
L 224.166058 81.387309 
L 224.724156 79.491944 
L 225.265839 78.401889 
L 225.540379 78.127131 
L 225.728337 78.135079 
L 226.198232 78.130686 
L 227.29152 78.747864 
L 227.654905 79.051418 
L 228.018291 79.390913 
L 228.472522 80.059856 
L 229.0176 81.232578 
L 229.675453 83.481735 
L 230.239326 86.171085 
L 231.085137 91.19795 
L 232.494821 101.515552 
L 233.8784 113.398251 
L 235.3664 125.541901 
L 235.9616 129.072357 
L 236.580141 131.634324 
L 237.000282 132.555912 
L 237.315388 132.828256 
L 237.644817 132.75596 
L 237.864436 132.437458 
L 238.523294 130.684151 
L 239.182152 127.926166 
L 241.28802 118.095896 
L 242.03016 115.695823 
L 242.98434 113.796371 
L 243.836509 113.215131 
L 244.360145 113.281574 
L 244.779055 113.482749 
L 244.988509 113.651814 
L 245.407418 114.136177 
L 245.931055 114.939899 
L 248.449129 119.04951 
L 249.289412 119.720109 
L 249.709553 119.775364 
L 250.339765 119.3805 
L 250.985891 118.41371 
L 251.851636 116.434407 
L 253.258473 112.877224 
L 254.016 111.557629 
L 254.3508 111.146502 
L 254.7972 110.745467 
L 255.5784 110.327172 
L 256.4712 110.360336 
L 257.0292 110.761941 
L 257.8176 111.538819 
L 258.7392 112.849255 
L 260.4672 115.720219 
L 261.51552 117.14288 
L 262.22976 117.81117 
L 262.944 118.187597 
L 263.65824 118.261971 
L 264.49152 118.00454 
L 265.714759 117.132707 
L 266.823062 116.101837 
L 268.3008 114.435923 
L 270.52288 111.270256 
L 272.2176 108.308075 
L 276.894 99.731015 
L 278.1216 98.269672 
L 278.9028 97.665199 
L 279.5904 97.391683 
L 280.1664 97.382975 
L 280.7424 97.587765 
L 281.3184 98.042551 
L 282.0096 98.901604 
L 282.82368 100.372549 
L 283.808049 102.661054 
L 285.590215 107.667916 
L 286.5024 109.99921 
L 287.291077 111.483887 
L 287.844923 112.115256 
L 288.059946 112.200531 
L 288.372706 112.335905 
L 288.789719 112.255961 
L 289.206733 111.914033 
L 289.830034 111.054855 
L 290.646309 109.461763 
L 292.221718 106.219621 
L 292.907388 105.288615 
L 293.685276 104.600529 
L 294.553946 104.448927 
L 295.133059 104.655271 
L 295.808692 105.162578 
L 298.0608 107.493908 
L 298.7552 107.844686 
L 299.2512 107.882122 
L 299.8464 107.702567 
L 300.2432 107.413418 
L 300.982691 106.617706 
L 301.523782 105.791892 
L 302.542016 103.59593 
L 303.786526 100.000606 
L 304.48896 97.50945 
L 306.81024 89.577032 
L 307.489254 88.258312 
L 308.004141 87.739899 
L 308.614024 87.59089 
L 309.630494 88.384757 
L 311.767406 91.488359 
L 312.379611 93.140959 
L 313.093851 95.965749 
L 313.910126 100.158573 
L 315.566682 110.148729 
L 318.087529 125.410258 
L 318.822776 128.564256 
L 319.452988 130.360669 
L 319.873129 130.884914 
L 320.398306 130.992612 
L 320.713412 130.597619 
L 321.133553 129.654569 
L 321.8688 126.97336 
L 322.734545 122.582112 
L 325.021398 110.288965 
L 325.872873 107.406459 
L 326.402369 106.350671 
L 326.924135 105.829063 
L 327.445901 105.766182 
L 327.654608 105.840409 
L 328.176374 106.440312 
L 328.547408 107.072864 
L 328.825683 107.459661 
L 330.235611 110.250423 
L 331.311223 112.319143 
L 331.89792 113.100273 
L 332.7808 113.678509 
L 333.376 113.493511 
L 333.9712 112.9573 
L 335.1616 111.113962 
L 336.0544 109.575119 
L 337.58208 107.220213 
L 339.01056 105.723233 
L 340.049455 105.234973 
L 340.265891 105.329595 
L 341.131636 105.049051 
L 341.780945 104.607784 
L 342.754909 103.620278 
L 343.65312 102.086984 
L 344.372525 100.333685 
L 345.560465 96.569136 
L 347.4252 90.143818 
L 347.970323 88.92582 
L 348.394444 88.294917 
L 348.59884 88.221307 
L 349.007631 88.125262 
L 349.314224 88.091261 
L 350.4384 88.805189 
L 350.8352 89.371763 
L 351.5296 90.912628 
L 352.1248 93.133543 
L 352.72 96.184582 
L 353.6128 101.930898 
L 356.764526 123.294008 
L 357.376731 125.98979 
L 357.895906 127.468652 
L 358.316047 128.103418 
L 358.631153 128.268211 
L 359.051294 127.912945 
L 359.576471 126.990915 
L 360.206682 125.038205 
L 363.348758 112.772414 
L 364.088842 111.024759 
L 364.617474 110.264752 
L 365.038306 109.901533 
L 365.458447 109.820825 
L 365.878588 109.957794 
L 366.493795 110.559646 
L 366.993963 111.481093 
L 368.094333 113.840027 
L 369.314743 116.739135 
L 370.213616 118.505959 
L 370.893845 119.283507 
L 371.282547 119.534721 
L 371.671249 119.462607 
L 372.1632 119.138464 
L 372.7584 118.27394 
L 373.4528 116.851556 
L 374.9408 112.868089 
L 377.069349 107.02204 
L 378.191726 104.697464 
L 378.803931 103.867006 
L 378.905966 103.862039 
L 379.224436 103.554718 
L 379.440873 103.494347 
L 380.765257 103.848167 
L 381.445486 104.389963 
L 382.81728 105.902483 
L 384.00768 106.973315 
L 384.60288 107.120904 
L 384.84096 107.079014 
L 385.31712 106.760446 
L 385.91232 105.904406 
L 386.496 104.648884 
L 387.1872 102.671865 
L 388.928223 97.363985 
L 389.523256 96.236898 
L 390.456847 95.493979 
L 390.876988 95.532375 
L 391.182961 95.677294 
L 391.685303 96.210004 
L 392.288115 97.418945 
L 392.790457 98.851858 
L 393.598903 102.045505 
L 394.72128 107.623401 
L 396.864 118.589868 
L 397.680274 121.660439 
L 398.190446 122.965783 
L 398.700617 123.726253 
L 399.108754 123.927647 
L 399.414857 123.749194 
L 399.822994 123.252874 
L 400.651636 120.938113 
L 401.409164 117.761099 
L 402.535616 112.118945 
L 403.901966 105.603518 
L 404.744251 102.792776 
L 405.365139 101.587109 
L 405.968538 100.876976 
L 406.270237 100.805088 
L 406.47137 100.80112 
L 406.672503 100.918716 
L 407.175334 101.174063 
L 407.7636 101.908774 
L 408.44064 103.064366 
L 409.951314 106.481037 
L 410.227657 107.147327 
L 411.618695 109.725644 
L 412.088589 110.305484 
L 412.9344 111.671135 
L 413.404295 112.728566 
L 414.438063 115.983969 
L 414.72 116.870703 
L 414.72 116.870703 
" clip-path="url(#pdca5550311)" style="fill: none; stroke: #ff0000; stroke-width: 1.5; stroke-linecap: square"/>
   </g>
   <g id="line2d_25">
    <path d="M 57.6 174.528 
L 57.874708 172.352545 
L 57.941983 177.517105 
L 58.007885 176.734364 
L 58.142495 176.397502 
L 58.354037 175.838704 
L 58.428173 175.999663 
L 58.504368 175.904041 
L 58.663692 175.775836 
L 58.744579 175.794001 
L 58.911932 175.356908 
L 58.998827 175.472389 
L 59.085722 175.131388 
L 59.172617 175.248189 
L 59.354306 174.933598 
L 59.535996 174.76824 
L 59.717685 174.771176 
L 59.80853 174.543625 
L 59.990219 174.600473 
L 60.353598 174.788774 
L 60.444442 174.73684 
L 60.626132 174.850821 
L 60.807821 174.811518 
L 61.659644 175.15813 
L 62.156863 175.071613 
L 62.35575 175.112262 
L 63.393424 174.743475 
L 63.497191 174.823459 
L 63.808494 174.558932 
L 64.016028 174.564799 
L 64.7424 174.298484 
L 65.067055 174.075788 
L 65.283491 174.094147 
L 67.447855 173.452683 
L 68.205382 173.23284 
L 69.071127 172.832335 
L 69.936873 172.161837 
L 70.369745 171.892333 
L 70.802618 171.357484 
L 71.127273 171.132618 
L 71.776582 170.144032 
L 73.224 168.373084 
L 76.3488 164.573585 
L 76.572 164.45479 
L 77.5764 163.13194 
L 78.0228 162.498482 
L 78.3576 162.136831 
L 78.804 160.941975 
L 79.2576 159.428618 
L 79.7184 157.282365 
L 79.9488 156.05169 
L 80.2944 154.933012 
L 80.64 153.928852 
L 80.9856 153.323866 
L 81.1008 153.328147 
L 81.216 153.184326 
L 81.3312 153.275028 
L 81.4464 153.196984 
L 81.6768 153.406728 
L 82.2528 154.866702 
L 82.368 155.069185 
L 83.1744 157.651314 
L 83.8656 159.021219 
L 84.2112 159.211522 
L 84.672 159.045314 
L 85.0176 158.662048 
L 87.2064 155.344456 
L 87.4368 155.079171 
L 87.8976 154.506558 
L 88.9344 153.401396 
L 89.856 152.80518 
L 90.432 152.684007 
L 91.4688 152.956502 
L 92.16 153.495699 
L 94.2336 155.899598 
L 95.3856 157.655062 
L 96.8832 160.427512 
L 98.2656 163.633124 
L 99.4176 166.885358 
L 100.81152 171.462542 
L 102.35904 177.417733 
L 104.153143 185.417283 
L 106.193829 195.549378 
L 108.834438 208.365237 
L 110.274771 214.320439 
L 111.40608 218.096907 
L 112.335508 220.512518 
L 113.022277 221.799916 
L 113.709046 222.64776 
L 114.166892 222.952844 
L 114.624738 223.026768 
L 115.074 222.867672 
L 115.632 222.341814 
L 116.19 221.425798 
L 116.748 220.07856 
L 117.4176 217.914945 
L 118.1988 214.536499 
L 119.0916 209.547724 
L 120.096 202.484571 
L 121.212 192.946639 
L 122.59584 178.965468 
L 124.50048 157.058589 
L 125.8992 140.706381 
L 127.307077 125.776515 
L 128.520995 115.192653 
L 129.423391 109.171466 
L 130.216344 105.332404 
L 130.90496 103.296434 
L 131.374471 102.550197 
L 131.562275 102.41823 
L 131.937884 102.343852 
L 132.5952 102.872886 
L 133.077795 103.777714 
L 133.656908 105.44718 
L 134.332541 108.179963 
L 135.201211 112.928291 
L 136.1664 119.528608 
L 137.467904 130.458765 
L 139.015424 145.693672 
L 140.736815 164.601757 
L 144.728504 210.160439 
L 146.20058 224.575492 
L 147.1962 232.572887 
L 148.1727 238.779466 
L 149.00815 242.76656 
L 149.935825 245.880879 
L 150.859337 248.140585 
L 151.471543 249.238349 
L 151.981714 249.814297 
L 152.389851 249.93496 
L 152.7907 249.734725 
L 153.169685 249.258945 
L 153.643416 248.239162 
L 154.2208 246.363871 
L 155.1136 242.255934 
L 156.0064 236.793734 
L 156.8 230.755412 
L 157.899703 220.83964 
L 158.945554 209.543632 
L 160.319373 192.748612 
L 161.8344 171.655306 
L 166.499269 103.362695 
L 167.260503 96.301271 
L 167.831429 92.57149 
L 168.392229 90.105018 
L 169.036495 88.375623 
L 169.494867 87.775385 
L 169.861565 87.682117 
L 170.228262 87.967141 
L 170.594959 88.802822 
L 171.053331 90.588263 
L 171.603377 93.698816 
L 172.536253 101.135685 
L 173.851958 113.443496 
L 175.7472 130.521998 
L 177.4832 144.048654 
L 179.0208 154.49444 
L 180.2484 162.011075 
L 183.666332 182.851025 
L 184.61752 190.893784 
L 186.73608 211.600544 
L 187.54332 217.31138 
L 188.112713 220.314451 
L 188.8695 223.087064 
L 189.518175 224.697484 
L 190.404 226.247777 
L 190.84575 226.8093 
L 191.70135 227.690271 
L 192.12915 227.835913 
L 192.6639 228.023212 
L 193.0917 227.941551 
L 194.387782 226.693558 
L 195.145309 225.079609 
L 195.6864 223.36742 
L 196.335709 220.748465 
L 197.093236 216.770732 
L 197.958982 210.975279 
L 198.932945 202.742828 
L 200.015127 191.963066 
L 201.754924 172.216879 
L 205.760957 125.188882 
L 206.982696 114.005158 
L 207.998537 106.6138 
L 208.794405 102.119211 
L 209.484837 99.332712 
L 209.978002 97.985485 
L 210.273902 97.559306 
L 210.668434 97.222417 
L 211.062967 97.286571 
L 211.354638 97.575358 
L 211.740714 98.285477 
L 212.223308 99.759731 
L 212.802422 102.359176 
L 213.381535 105.823753 
L 214.153686 111.7639 
L 215.2288 122.050466 
L 216.555141 137.113708 
L 218.862 167.019073 
L 221.290629 197.782774 
L 222.358983 208.317989 
L 223.256493 215.079035 
L 224.06757 219.595094 
L 224.904717 222.905984 
L 225.265839 223.829424 
L 226.010274 225.572353 
L 227.018981 227.836262 
L 228.381676 230.837448 
L 228.835907 231.442704 
L 229.393516 231.756446 
L 229.769432 231.66996 
L 230.145347 231.463703 
L 230.8032 230.670768 
L 231.367074 229.627233 
L 232.118905 227.565531 
L 232.9856 224.197727 
L 233.7792 220.057753 
L 234.8704 212.931835 
L 238.852723 184.923397 
L 240.1776 178.030543 
L 241.81812 170.765786 
L 244.150691 160.64104 
L 244.5696 158.497396 
L 245.197964 155.602647 
L 246.978635 147.038066 
L 247.398776 145.738637 
L 248.028988 144.463708 
L 248.449129 144.10309 
L 248.764235 144.108522 
L 249.289412 144.578909 
L 249.604518 145.051042 
L 250.129694 145.929745 
L 252.176291 150.191843 
L 253.474909 153.543759 
L 254.2392 155.955967 
L 255.9132 162.470491 
L 259.3152 175.892834 
L 260.352 179.121933 
L 262.11072 183.829721 
L 266.330483 194.657799 
L 269.37216 202.354588 
L 270.635307 204.949854 
L 271.647147 206.561224 
L 272.448 207.494084 
L 273.1392 208.024992 
L 273.7152 208.236298 
L 274.4064 208.245606 
L 274.9392 208.052981 
L 275.5548 207.584017 
L 276.336 206.674578 
L 277.1172 205.345884 
L 278.01 203.325837 
L 278.9028 200.77696 
L 279.936 197.179673 
L 281.088 192.38988 
L 282.3552 186.240508 
L 283.931668 177.484447 
L 285.816849 165.684942 
L 290.94833 132.878226 
L 292.123765 127.187519 
L 293.005341 123.901702 
L 293.781795 121.843973 
L 294.360908 120.88411 
L 294.843503 120.47322 
L 295.133059 120.413978 
L 295.519135 120.537116 
L 296.387805 121.664845 
L 296.9696 123.087551 
L 297.5648 125.069987 
L 298.3584 128.530191 
L 299.2512 133.413029 
L 300.4416 141.372808 
L 301.750056 151.62765 
L 303.560251 167.70985 
L 308.715671 214.915092 
L 309.833788 222.710068 
L 310.850259 228.316631 
L 311.767406 232.084003 
L 312.481646 234.164151 
L 313.195886 235.675027 
L 313.808091 236.508551 
L 314.420297 237.02781 
L 314.831435 237.193325 
L 315.461647 237.117752 
L 315.986824 236.706181 
L 316.512 235.981488 
L 317.037176 234.877357 
L 317.772424 232.781513 
L 318.717741 228.919998 
L 319.663059 224.041019 
L 321.343624 212.909307 
L 322.626327 202.597584 
L 323.966171 190.464989 
L 325.872873 171.714843 
L 330.626743 124.012855 
L 331.89792 115.501141 
L 332.6816 112.302029 
L 333.1776 111.031434 
L 333.6736 110.397271 
L 334.0704 110.219099 
L 334.4672 110.435968 
L 334.864 110.888677 
L 335.2608 111.708592 
L 335.7568 113.142672 
L 336.459703 116.140068 
L 337.173943 120.261621 
L 338.092251 127.350901 
L 339.214629 138.075358 
L 340.9152 157.641128 
L 345.887149 218.859371 
L 346.8672 226.898277 
L 347.6484 231.620216 
L 348.292246 234.428623 
L 348.803235 235.999457 
L 349.51862 237.597806 
L 350.8352 239.720925 
L 351.4304 240.481617 
L 351.9264 240.872422 
L 352.224 240.921609 
L 352.5216 240.858498 
L 352.9184 240.471996 
L 353.4144 239.671685 
L 354.111634 237.924191 
L 354.927909 234.936046 
L 355.744183 230.869346 
L 356.764526 224.15068 
L 357.895906 215.012568 
L 362.4912 177.006713 
L 370.019265 120.160005 
L 370.699494 117.427513 
L 371.088196 116.242524 
L 371.8656 115.098015 
L 372.2624 114.957273 
L 372.7584 115.16018 
L 373.3536 115.749414 
L 373.8496 116.537356 
L 374.6432 118.290869 
L 375.538834 121.136136 
L 376.355109 124.605816 
L 377.273417 129.548308 
L 378.497829 137.617507 
L 380.538514 155.885665 
L 382.93632 182.872615 
L 386.03136 216.56977 
L 387.407583 228.952091 
L 388.509496 236.826704 
L 389.424083 241.776676 
L 390.141741 244.510921 
L 390.876988 246.542214 
L 391.685303 248.042394 
L 392.388583 248.689627 
L 392.790457 248.783221 
L 393.192331 248.635165 
L 393.598903 248.221352 
L 394.00704 247.512485 
L 394.517211 246.261026 
L 395.129417 244.203282 
L 396.047726 239.940582 
L 396.864 235.036301 
L 397.986377 226.771355 
L 399.414857 213.821322 
L 400.759855 199.573531 
L 402.422479 179.822265 
L 404.639312 150.486224 
L 407.86032 109.263848 
L 408.82752 100.070259 
L 409.674971 94.435762 
L 410.504 91.431301 
L 410.964571 90.365798 
L 411.618695 89.844947 
L 411.900632 89.874524 
L 412.370526 90.408002 
L 412.746442 91.305929 
L 413.216337 93.0444 
L 413.780211 96.103247 
L 414.72 103.039208 
L 414.72 103.039208 
" clip-path="url(#pdca5550311)" style="fill: none; stroke-dasharray: 5.55,2.4; stroke-dashoffset: 0; stroke: #008000; stroke-width: 1.5"/>
   </g>
   <g id="line2d_26">
    <path d="M 57.6 172.7741 
L 57.634117 -1 
M 57.939596 -1 
L 58.007885 86.362179 
L 58.142495 102.114409 
L 58.354037 105.548007 
L 58.428173 105.433327 
L 58.744579 107.549121 
L 59.085722 109.669154 
L 59.172617 109.610875 
L 60.171908 112.648509 
L 60.626132 115.087552 
L 61.957975 122.241057 
L 63.185889 127.497306 
L 67.014982 140.71798 
L 68.530036 145.103354 
L 69.179345 146.567012 
L 70.045091 148.027633 
L 70.6944 148.478722 
L 71.343709 148.272422 
L 71.776582 147.743544 
L 72.2196 146.915414 
L 73.3356 143.069018 
L 74.0052 139.832478 
L 75.0096 133.886238 
L 76.3488 124.579247 
L 77.688 115.565267 
L 78.246 112.77944 
L 79.1424 109.798361 
L 79.6032 109.069556 
L 79.8336 109.103582 
L 80.064 109.355362 
L 80.64 109.858963 
L 81.792 112.749852 
L 82.4832 115.02084 
L 83.8656 119.117179 
L 84.9024 120.730782 
L 85.3632 121.099807 
L 86.1696 121.089545 
L 86.8608 120.471124 
L 87.7824 118.871485 
L 88.8192 117.097554 
L 89.856 116.098283 
L 90.5472 115.855994 
L 91.008 115.892006 
L 92.8512 116.804757 
L 94.6944 118.470262 
L 97.1136 120.802447 
L 97.92 121.252846 
L 98.6112 121.398609 
L 99.3024 121.33858 
L 100.224 121.019468 
L 107.341714 117.370203 
L 108.5888 116.305861 
L 109.694171 115.072631 
L 110.721385 113.635336 
L 111.877662 111.667944 
L 113.365662 108.613753 
L 115.1856 104.3373 
L 116.748 100.901647 
L 117.6408 99.439186 
L 118.3104 98.69802 
L 118.8684 98.374699 
L 119.4264 98.29837 
L 119.9844 98.510633 
L 120.5424 98.995164 
L 121.212 99.913632 
L 122.00064 101.365836 
L 124.81792 107.712015 
L 125.5644 108.82581 
L 126.1224 109.275723 
L 126.663231 109.405464 
L 127.199769 109.306803 
L 129.126034 107.541869 
L 129.819867 106.96955 
L 130.513701 106.687698 
L 130.998862 106.753598 
L 131.656178 107.185565 
L 132.407396 107.987854 
L 133.849946 110.500108 
L 136.1664 115.115631 
L 136.96 116.022582 
L 137.467904 116.276448 
L 137.880576 116.296968 
L 138.809088 115.657779 
L 139.845818 114.017034 
L 142.861498 107.342497 
L 143.907539 105.303856 
L 145.068214 103.388589 
L 146.698821 101.529175 
L 147.6302 101.24763 
L 148.0642 101.31013 
L 148.698925 101.578323 
L 149.00815 101.919548 
L 151.267474 104.433843 
L 151.87968 105.167856 
L 152.59392 106.419359 
L 153.264431 108.080906 
L 154.2208 111.14116 
L 156.7008 118.475347 
L 157.5936 119.956544 
L 158.001737 120.164634 
L 158.205806 120.105858 
L 158.734198 119.625195 
L 159.473946 117.746321 
L 160.213695 114.677768 
L 161.388 107.909519 
L 162.605455 100.31633 
L 163.351145 96.68075 
L 164.05245 94.30245 
L 164.5407 93.362845 
L 165.135391 92.824203 
L 165.531867 92.698672 
L 165.829224 92.762513 
L 166.213806 93.044006 
L 166.784732 93.873074 
L 167.64112 95.873804 
L 168.002706 97.116815 
L 169.311519 101.571752 
L 169.76989 102.999328 
L 170.594959 106.446054 
L 171.145005 109.637653 
L 172.066358 116.179125 
L 173.194105 124.141728 
L 173.851958 127.580747 
L 174.509811 129.807102 
L 174.979705 130.505785 
L 175.167663 130.614591 
L 175.648 130.330925 
L 176.150613 129.42904 
L 176.86816 127.299872 
L 177.79072 123.861529 
L 179.5788 117.392492 
L 180.2484 115.652616 
L 181.1412 114.237015 
L 181.476 114.002156 
L 182.034 113.960848 
L 182.3688 114.144863 
L 183.428536 115.997393 
L 184.974215 119.287 
L 186.50544 122.687291 
L 187.31268 124.494578 
L 188.220825 125.98622 
L 188.653275 126.408292 
L 189.085725 126.532183 
L 189.626287 126.295228 
L 190.2924 125.491453 
L 191.05965 123.914974 
L 195.253527 113.544905 
L 198.283636 104.600482 
L 198.932945 102.883382 
L 199.798691 101.168119 
L 200.448 100.461636 
L 200.801545 100.365402 
L 201.635752 101.052612 
L 202.231614 102.081628 
L 203.133919 104.328603 
L 205.007657 109.664554 
L 205.760957 111.05186 
L 206.273708 111.634815 
L 206.780128 111.841457 
L 207.185264 111.658245 
L 207.692434 111.078001 
L 208.301239 109.976043 
L 209.188937 107.669409 
L 211.644195 100.948103 
L 212.319827 99.822419 
L 212.802422 99.336092 
L 213.381535 99.165872 
L 214.057168 99.397526 
L 214.636281 99.811147 
L 216.760889 101.809405 
L 217.481007 102.019269 
L 217.78963 101.886923 
L 218.098252 101.6492 
L 218.5272 101.121877 
L 219.3084 99.435198 
L 219.653829 98.514323 
L 220.355314 95.933834 
L 221.0568 92.721638 
L 222.47773 84.536671 
L 223.465056 79.199487 
L 224.06757 76.987544 
L 224.724156 75.682427 
L 224.904717 75.378781 
L 224.994997 75.45895 
L 225.822316 75.479567 
L 227.745752 76.704294 
L 228.472522 77.994529 
L 228.926754 79.40722 
L 229.581474 82.37132 
L 230.427284 87.424858 
L 231.555032 95.70317 
L 232.9856 108.286958 
L 235.0688 126.644245 
L 235.664 130.115414 
L 236.16 132.128597 
L 236.580141 133.075459 
L 236.895247 133.316836 
L 237.105318 133.251496 
L 237.425198 132.840874 
L 237.864436 131.60965 
L 238.303675 130.065396 
L 239.182152 125.847491 
L 240.4008 120.164587 
L 241.182 117.500544 
L 241.7121 116.212896 
L 242.45424 115.104331 
L 242.98434 114.710172 
L 243.941236 114.710162 
L 244.360145 114.874892 
L 244.5696 115.065912 
L 245.302691 115.952105 
L 246.035782 116.968243 
L 247.608847 119.387651 
L 248.764235 120.50704 
L 249.184376 120.584472 
L 249.604518 120.422415 
L 250.234729 119.725625 
L 251.310545 117.606291 
L 252.8256 114.406416 
L 253.474909 113.49767 
L 254.3508 112.838871 
L 254.9088 112.673004 
L 255.69 112.810404 
L 256.6944 113.589678 
L 257.8176 114.964312 
L 260.0064 118.326518 
L 260.928 119.405539 
L 261.51552 119.86992 
L 262.3488 120.228172 
L 262.944 120.242303 
L 263.65824 120.064132 
L 264.97589 119.337532 
L 269.61024 116.132867 
L 272.448 113.909263 
L 275.04 111.511924 
L 277.2288 109.674056 
L 278.3448 109.02619 
L 279.2448 108.738956 
L 280.0512 108.682309 
L 280.8576 108.842074 
L 281.7792 109.283907 
L 282.70464 110.015063 
L 284.055286 111.562765 
L 285.250265 113.337315 
L 287.623385 117.416467 
L 289.310986 120.058251 
L 290.340206 121.258914 
L 291.144236 121.856839 
L 291.829906 122.089446 
L 292.417624 122.075519 
L 293.103294 121.797269 
L 293.781795 121.264894 
L 294.650465 120.261317 
L 296.00173 118.273378 
L 296.773881 117.043512 
L 298.0608 115.269064 
L 298.8544 114.487422 
L 299.648 113.989472 
L 300.549818 113.730265 
L 302.315742 113.96835 
L 303.560251 114.263015 
L 304.72704 114.274406 
L 305.44128 114.037807 
L 306.147017 113.581807 
L 307.205016 112.353241 
L 308.004141 111.089428 
L 309.122259 108.869449 
L 310.443671 106.295087 
L 311.257234 105.214687 
L 311.767406 104.864048 
L 312.379611 104.743729 
L 312.685714 104.924565 
L 313.195886 105.280628 
L 314.01216 106.259699 
L 315.041506 108.005263 
L 316.091859 110.411477 
L 317.247247 113.741437 
L 319.558024 120.780345 
L 320.503341 122.970011 
L 320.923482 123.612378 
L 321.553694 124.324352 
L 322.085236 124.430974 
L 322.626327 124.10707 
L 322.950982 123.636273 
L 323.399314 122.818014 
L 324.288844 120.18765 
L 325.872873 114.020418 
L 327.028488 109.61396 
L 327.863314 107.261684 
L 328.454649 106.14491 
L 329.317303 105.415045 
L 329.521371 105.400675 
L 330.031543 105.367015 
L 330.626743 105.527588 
L 331.21344 105.897147 
L 331.409006 105.934719 
L 332.191269 106.403569 
L 332.88 106.642082 
L 333.7728 106.66394 
L 335.1616 105.630078 
L 335.6576 104.960427 
L 336.969874 103.529357 
L 338.092251 102.948015 
L 338.806491 102.93931 
L 341.564509 103.544898 
L 342.1056 103.271229 
L 342.754909 102.571021 
L 343.187782 101.92523 
L 343.77216 100.669515 
L 344.491319 98.615244 
L 345.204083 96.002456 
L 347.863015 85.630055 
L 348.394444 84.689352 
L 348.701037 84.339151 
L 348.905433 84.384784 
L 349.212026 84.429035 
L 349.416422 84.466274 
L 349.984188 84.962992 
L 350.5376 85.591834 
L 351.6288 87.533499 
L 352.224 89.386214 
L 353.0176 93.03384 
L 354.111634 99.603378 
L 355.744183 111.088879 
L 357.274697 121.528669 
L 358.316047 126.491864 
L 358.946259 128.118891 
L 359.3664 128.497133 
L 359.681506 128.364613 
L 360.206682 127.615303 
L 360.731859 126.023323 
L 361.4868 122.917138 
L 362.4912 118.014753 
L 363.560211 113.190394 
L 364.511747 110.157317 
L 365.038306 109.08297 
L 365.458447 108.54676 
L 365.983624 108.302835 
L 366.393761 108.450741 
L 366.793896 108.734042 
L 367.294064 109.370312 
L 367.894266 110.745716 
L 368.194366 111.512144 
L 369.92209 115.918621 
L 370.893845 117.880968 
L 371.282547 118.385549 
L 371.8656 118.802506 
L 372.3616 118.697115 
L 372.8576 118.271781 
L 373.3536 117.519209 
L 373.9488 116.212308 
L 374.4448 114.960936 
L 377.477486 106.489449 
L 378.191726 105.136144 
L 378.905966 104.338896 
L 379.981964 104.290222 
L 380.311771 104.378902 
L 381.105371 104.969863 
L 382.5792 106.973338 
L 382.93632 107.437661 
L 383.88864 108.787717 
L 384.48384 109.363227 
L 384.84096 109.499969 
L 385.31712 109.459837 
L 385.79328 109.11615 
L 386.2656 108.449367 
L 386.9568 106.945451 
L 387.958539 103.925217 
L 389.225739 100.089046 
L 389.931671 98.592862 
L 390.141741 98.377734 
L 390.666918 97.846234 
L 391.383898 97.712794 
L 391.785772 97.902255 
L 392.288115 98.447184 
L 392.890926 99.60463 
L 393.496869 101.21827 
L 394.415177 104.457986 
L 398.088411 119.124817 
L 398.802651 120.72344 
L 399.210789 121.172103 
L 399.72096 121.289037 
L 400.231131 120.720281 
L 400.543418 120.106132 
L 400.976291 118.920547 
L 401.856793 115.408046 
L 403.066491 109.0776 
L 404.219557 103.431493 
L 404.954129 100.819391 
L 405.566272 99.24313 
L 405.767405 98.926272 
L 406.169671 98.426197 
L 406.571936 98.167123 
L 406.974202 97.99056 
L 407.336241 97.978387 
L 407.497147 98.056651 
L 407.86032 98.316163 
L 408.34392 98.823346 
L 409.11768 100.237115 
L 410.135543 102.771202 
L 411.056686 105.113685 
L 412.558484 108.880426 
L 413.310316 111.670971 
L 414.532042 117.692641 
L 414.72 118.645848 
L 414.72 118.645848 
" clip-path="url(#pdca5550311)" style="fill: none; stroke-dasharray: 5.55,2.4; stroke-dashoffset: 0; stroke: #000000; stroke-width: 1.5"/>
   </g>
   <g id="patch_3">
    <path d="M 57.6 307.584 
L 57.6 41.472 
" style="fill: none; stroke: #000000; stroke-width: 0.8; stroke-linejoin: miter; stroke-linecap: square"/>
   </g>
   <g id="patch_4">
    <path d="M 414.72 307.584 
L 414.72 41.472 
" style="fill: none; stroke: #000000; stroke-width: 0.8; stroke-linejoin: miter; stroke-linecap: square"/>
   </g>
   <g id="patch_5">
    <path d="M 57.6 307.584 
L 414.72 307.584 
" style="fill: none; stroke: #000000; stroke-width: 0.8; stroke-linejoin: miter; stroke-linecap: square"/>
   </g>
   <g id="patch_6">
    <path d="M 57.6 41.472 
L 414.72 41.472 
" style="fill: none; stroke: #000000; stroke-width: 0.8; stroke-linejoin: miter; stroke-linecap: square"/>
   </g>
   <g id="legend_1">
    <g id="patch_7">
     <path d="M 64.6 302.584 
L 125.7 302.584 
Q 127.7 302.584 127.7 300.584 
L 127.7 242.830875 
Q 127.7 240.830875 125.7 240.830875 
L 64.6 240.830875 
Q 62.6 240.830875 62.6 242.830875 
L 62.6 300.584 
Q 62.6 302.584 64.6 302.584 
z
" style="fill: #ffffff; opacity: 0.8; stroke: #cccccc; stroke-linejoin: miter"/>
    </g>
    <g id="line2d_27">
     <path d="M 66.6 248.929312 
L 76.6 248.929312 
L 86.6 248.929312 
" style="fill: none; stroke: #0000ff; stroke-width: 1.5; stroke-linecap: square"/>
    </g>
    <g id="text_14">
     <!-- $C_{L} bot$ -->
     <g transform="translate(94.6 252.429312) scale(0.1 -0.1)">
      <defs>
       <path id="DejaVuSans-Oblique-62" d="M 3169 2138 
Q 3169 2591 2961 2847 
Q 2753 3103 2388 3103 
Q 2122 3103 1889 2973 
Q 1656 2844 1484 2597 
Q 1303 2338 1198 1995 
Q 1094 1653 1094 1313 
Q 1094 881 1298 636 
Q 1503 391 1863 391 
Q 2134 391 2365 517 
Q 2597 644 2772 891 
Q 2950 1147 3059 1487 
Q 3169 1828 3169 2138 
z
M 1381 2969 
Q 1594 3256 1914 3420 
Q 2234 3584 2584 3584 
Q 3122 3584 3439 3221 
Q 3756 2859 3756 2241 
Q 3756 1734 3570 1259 
Q 3384 784 3041 416 
Q 2816 172 2522 40 
Q 2228 -91 1906 -91 
Q 1566 -91 1316 65 
Q 1066 222 909 531 
L 806 0 
L 231 0 
L 1178 4863 
L 1753 4863 
L 1381 2969 
z
" transform="scale(0.015625)"/>
       <path id="DejaVuSans-Oblique-6f" d="M 1625 -91 
Q 1009 -91 651 289 
Q 294 669 294 1325 
Q 294 1706 417 2101 
Q 541 2497 738 2766 
Q 1047 3184 1428 3384 
Q 1809 3584 2291 3584 
Q 2888 3584 3255 3212 
Q 3622 2841 3622 2241 
Q 3622 1825 3500 1412 
Q 3378 1000 3181 728 
Q 2875 309 2494 109 
Q 2113 -91 1625 -91 
z
M 891 1344 
Q 891 869 1089 633 
Q 1288 397 1691 397 
Q 2269 397 2648 901 
Q 3028 1406 3028 2181 
Q 3028 2634 2825 2865 
Q 2622 3097 2228 3097 
Q 1903 3097 1650 2945 
Q 1397 2794 1197 2484 
Q 1050 2253 970 1956 
Q 891 1659 891 1344 
z
" transform="scale(0.015625)"/>
       <path id="DejaVuSans-Oblique-74" d="M 2706 3500 
L 2619 3053 
L 1472 3053 
L 1100 1153 
Q 1081 1047 1072 975 
Q 1063 903 1063 863 
Q 1063 663 1183 572 
Q 1303 481 1569 481 
L 2150 481 
L 2053 0 
L 1503 0 
Q 991 0 739 200 
Q 488 400 488 806 
Q 488 878 497 964 
Q 506 1050 525 1153 
L 897 3053 
L 409 3053 
L 500 3500 
L 978 3500 
L 1172 4494 
L 1747 4494 
L 1556 3500 
L 2706 3500 
z
" transform="scale(0.015625)"/>
      </defs>
      <use xlink:href="#DejaVuSans-Oblique-43" transform="translate(0 0.015625)"/>
      <use xlink:href="#DejaVuSans-Oblique-4c" transform="translate(69.824219 -16.390625) scale(0.7)"/>
      <use xlink:href="#DejaVuSans-Oblique-62" transform="translate(111.557617 0.015625)"/>
      <use xlink:href="#DejaVuSans-Oblique-6f" transform="translate(175.03418 0.015625)"/>
      <use xlink:href="#DejaVuSans-Oblique-74" transform="translate(236.21582 0.015625)"/>
     </g>
    </g>
    <g id="line2d_28">
     <path d="M 66.6 263.607437 
L 76.6 263.607437 
L 86.6 263.607437 
" style="fill: none; stroke: #ff0000; stroke-width: 1.5; stroke-linecap: square"/>
    </g>
    <g id="text_15">
     <!-- $C_{D} bot$ -->
     <g transform="translate(94.6 267.107437) scale(0.1 -0.1)">
      <use xlink:href="#DejaVuSans-Oblique-43" transform="translate(0 0.015625)"/>
      <use xlink:href="#DejaVuSans-Oblique-44" transform="translate(69.824219 -16.390625) scale(0.7)"/>
      <use xlink:href="#DejaVuSans-Oblique-62" transform="translate(126.459961 0.015625)"/>
      <use xlink:href="#DejaVuSans-Oblique-6f" transform="translate(189.936523 0.015625)"/>
      <use xlink:href="#DejaVuSans-Oblique-74" transform="translate(251.118164 0.015625)"/>
     </g>
    </g>
    <g id="line2d_29">
     <path d="M 66.6 278.285562 
L 76.6 278.285562 
L 86.6 278.285562 
" style="fill: none; stroke-dasharray: 5.55,2.4; stroke-dashoffset: 0; stroke: #008000; stroke-width: 1.5"/>
    </g>
    <g id="text_16">
     <!-- $C_{L} top$ -->
     <g transform="translate(94.6 281.785562) scale(0.1 -0.1)">
      <defs>
       <path id="DejaVuSans-Oblique-70" d="M 3175 2156 
Q 3175 2616 2975 2859 
Q 2775 3103 2400 3103 
Q 2144 3103 1911 2972 
Q 1678 2841 1497 2591 
Q 1319 2344 1212 1994 
Q 1106 1644 1106 1300 
Q 1106 863 1306 627 
Q 1506 391 1875 391 
Q 2147 391 2380 519 
Q 2613 647 2778 891 
Q 2956 1147 3065 1494 
Q 3175 1841 3175 2156 
z
M 1394 2969 
Q 1625 3272 1939 3428 
Q 2253 3584 2638 3584 
Q 3175 3584 3472 3232 
Q 3769 2881 3769 2247 
Q 3769 1728 3584 1258 
Q 3400 788 3053 416 
Q 2822 169 2531 39 
Q 2241 -91 1919 -91 
Q 1547 -91 1294 64 
Q 1041 219 916 525 
L 556 -1331 
L -19 -1331 
L 922 3500 
L 1497 3500 
L 1394 2969 
z
" transform="scale(0.015625)"/>
      </defs>
      <use xlink:href="#DejaVuSans-Oblique-43" transform="translate(0 0.78125)"/>
      <use xlink:href="#DejaVuSans-Oblique-4c" transform="translate(69.824219 -15.625) scale(0.7)"/>
      <use xlink:href="#DejaVuSans-Oblique-74" transform="translate(111.557617 0.78125)"/>
      <use xlink:href="#DejaVuSans-Oblique-6f" transform="translate(150.766602 0.78125)"/>
      <use xlink:href="#DejaVuSans-Oblique-70" transform="translate(211.948242 0.78125)"/>
     </g>
    </g>
    <g id="line2d_30">
     <path d="M 66.6 292.984 
L 76.6 292.984 
L 86.6 292.984 
" style="fill: none; stroke-dasharray: 5.55,2.4; stroke-dashoffset: 0; stroke: #000000; stroke-width: 1.5"/>
    </g>
    <g id="text_17">
     <!-- $C_{D} top$ -->
     <g transform="translate(94.6 296.484) scale(0.1 -0.1)">
      <use xlink:href="#DejaVuSans-Oblique-43" transform="translate(0 0.78125)"/>
      <use xlink:href="#DejaVuSans-Oblique-44" transform="translate(69.824219 -15.625) scale(0.7)"/>
      <use xlink:href="#DejaVuSans-Oblique-74" transform="translate(126.459961 0.78125)"/>
      <use xlink:href="#DejaVuSans-Oblique-6f" transform="translate(165.668945 0.78125)"/>
      <use xlink:href="#DejaVuSans-Oblique-70" transform="translate(226.850586 0.78125)"/>
     </g>
    </g>
   </g>
  </g>
 </g>
 <defs>
  <clipPath id="pdca5550311">
   <rect x="57.6" y="41.472" width="357.12" height="266.112"/>
  </clipPath>
 </defs>
</svg>
