<?xml version="1.0" encoding="utf-8" standalone="no"?>
<!DOCTYPE svg PUBLIC "-//W3C//DTD SVG 1.1//EN"
  "http://www.w3.org/Graphics/SVG/1.1/DTD/svg11.dtd">
<svg xmlns:xlink="http://www.w3.org/1999/xlink" width="460.8pt" height="345.6pt" viewBox="0 0 460.8 345.6" xmlns="http://www.w3.org/2000/svg" version="1.1">
 <metadata>
  <rdf:RDF xmlns:dc="http://purl.org/dc/elements/1.1/" xmlns:cc="http://creativecommons.org/ns#" xmlns:rdf="http://www.w3.org/1999/02/22-rdf-syntax-ns#">
   <cc:Work>
    <dc:type rdf:resource="http://purl.org/dc/dcmitype/StillImage"/>
    <dc:date>2023-08-06T18:18:40.755494</dc:date>
    <dc:format>image/svg+xml</dc:format>
    <dc:creator>
     <cc:Agent>
      <dc:title>Matplotlib v3.6.3, https://matplotlib.org/</dc:title>
     </cc:Agent>
    </dc:creator>
   </cc:Work>
  </rdf:RDF>
 </metadata>
 <defs>
  <style type="text/css">*{stroke-linejoin: round; stroke-linecap: butt}</style>
 </defs>
 <g id="figure_1">
  <g id="patch_1">
   <path d="M 0 345.6 
L 460.8 345.6 
L 460.8 0 
L 0 0 
z
" style="fill: #ffffff"/>
  </g>
  <g id="axes_1">
   <g id="patch_2">
    <path d="M 57.6 307.584 
L 414.72 307.584 
L 414.72 41.472 
L 57.6 41.472 
z
" style="fill: #ffffff"/>
   </g>
   <g id="matplotlib.axis_1">
    <g id="xtick_1">
     <g id="line2d_1">
      <path d="M 57.6 307.584 
L 57.6 41.472 
" clip-path="url(#pbfc6c720b7)" style="fill: none; stroke: #b0b0b0; stroke-width: 0.8; stroke-linecap: square"/>
     </g>
     <g id="line2d_2">
      <defs>
       <path id="me204c7ce0c" d="M 0 0 
L 0 3.5 
" style="stroke: #000000; stroke-width: 0.8"/>
      </defs>
      <g>
       <use xlink:href="#me204c7ce0c" x="57.6" y="307.584" style="stroke: #000000; stroke-width: 0.8"/>
      </g>
     </g>
     <g id="text_1">
      <!-- 0.00 -->
      <g transform="translate(46.467188 322.182437) scale(0.1 -0.1)">
       <defs>
        <path id="DejaVuSans-30" d="M 2034 4250 
Q 1547 4250 1301 3770 
Q 1056 3291 1056 2328 
Q 1056 1369 1301 889 
Q 1547 409 2034 409 
Q 2525 409 2770 889 
Q 3016 1369 3016 2328 
Q 3016 3291 2770 3770 
Q 2525 4250 2034 4250 
z
M 2034 4750 
Q 2819 4750 3233 4129 
Q 3647 3509 3647 2328 
Q 3647 1150 3233 529 
Q 2819 -91 2034 -91 
Q 1250 -91 836 529 
Q 422 1150 422 2328 
Q 422 3509 836 4129 
Q 1250 4750 2034 4750 
z
" transform="scale(0.015625)"/>
        <path id="DejaVuSans-2e" d="M 684 794 
L 1344 794 
L 1344 0 
L 684 0 
L 684 794 
z
" transform="scale(0.015625)"/>
       </defs>
       <use xlink:href="#DejaVuSans-30"/>
       <use xlink:href="#DejaVuSans-2e" x="63.623047"/>
       <use xlink:href="#DejaVuSans-30" x="95.410156"/>
       <use xlink:href="#DejaVuSans-30" x="159.033203"/>
      </g>
     </g>
    </g>
    <g id="xtick_2">
     <g id="line2d_3">
      <path d="M 129.024 307.584 
L 129.024 41.472 
" clip-path="url(#pbfc6c720b7)" style="fill: none; stroke: #b0b0b0; stroke-width: 0.8; stroke-linecap: square"/>
     </g>
     <g id="line2d_4">
      <g>
       <use xlink:href="#me204c7ce0c" x="129.024" y="307.584" style="stroke: #000000; stroke-width: 0.8"/>
      </g>
     </g>
     <g id="text_2">
      <!-- 0.01 -->
      <g transform="translate(117.891188 322.182437) scale(0.1 -0.1)">
       <defs>
        <path id="DejaVuSans-31" d="M 794 531 
L 1825 531 
L 1825 4091 
L 703 3866 
L 703 4441 
L 1819 4666 
L 2450 4666 
L 2450 531 
L 3481 531 
L 3481 0 
L 794 0 
L 794 531 
z
" transform="scale(0.015625)"/>
       </defs>
       <use xlink:href="#DejaVuSans-30"/>
       <use xlink:href="#DejaVuSans-2e" x="63.623047"/>
       <use xlink:href="#DejaVuSans-30" x="95.410156"/>
       <use xlink:href="#DejaVuSans-31" x="159.033203"/>
      </g>
     </g>
    </g>
    <g id="xtick_3">
     <g id="line2d_5">
      <path d="M 200.448 307.584 
L 200.448 41.472 
" clip-path="url(#pbfc6c720b7)" style="fill: none; stroke: #b0b0b0; stroke-width: 0.8; stroke-linecap: square"/>
     </g>
     <g id="line2d_6">
      <g>
       <use xlink:href="#me204c7ce0c" x="200.448" y="307.584" style="stroke: #000000; stroke-width: 0.8"/>
      </g>
     </g>
     <g id="text_3">
      <!-- 0.02 -->
      <g transform="translate(189.315187 322.182437) scale(0.1 -0.1)">
       <defs>
        <path id="DejaVuSans-32" d="M 1228 531 
L 3431 531 
L 3431 0 
L 469 0 
L 469 531 
Q 828 903 1448 1529 
Q 2069 2156 2228 2338 
Q 2531 2678 2651 2914 
Q 2772 3150 2772 3378 
Q 2772 3750 2511 3984 
Q 2250 4219 1831 4219 
Q 1534 4219 1204 4116 
Q 875 4013 500 3803 
L 500 4441 
Q 881 4594 1212 4672 
Q 1544 4750 1819 4750 
Q 2544 4750 2975 4387 
Q 3406 4025 3406 3419 
Q 3406 3131 3298 2873 
Q 3191 2616 2906 2266 
Q 2828 2175 2409 1742 
Q 1991 1309 1228 531 
z
" transform="scale(0.015625)"/>
       </defs>
       <use xlink:href="#DejaVuSans-30"/>
       <use xlink:href="#DejaVuSans-2e" x="63.623047"/>
       <use xlink:href="#DejaVuSans-30" x="95.410156"/>
       <use xlink:href="#DejaVuSans-32" x="159.033203"/>
      </g>
     </g>
    </g>
    <g id="xtick_4">
     <g id="line2d_7">
      <path d="M 271.872 307.584 
L 271.872 41.472 
" clip-path="url(#pbfc6c720b7)" style="fill: none; stroke: #b0b0b0; stroke-width: 0.8; stroke-linecap: square"/>
     </g>
     <g id="line2d_8">
      <g>
       <use xlink:href="#me204c7ce0c" x="271.872" y="307.584" style="stroke: #000000; stroke-width: 0.8"/>
      </g>
     </g>
     <g id="text_4">
      <!-- 0.03 -->
      <g transform="translate(260.739188 322.182437) scale(0.1 -0.1)">
       <defs>
        <path id="DejaVuSans-33" d="M 2597 2516 
Q 3050 2419 3304 2112 
Q 3559 1806 3559 1356 
Q 3559 666 3084 287 
Q 2609 -91 1734 -91 
Q 1441 -91 1130 -33 
Q 819 25 488 141 
L 488 750 
Q 750 597 1062 519 
Q 1375 441 1716 441 
Q 2309 441 2620 675 
Q 2931 909 2931 1356 
Q 2931 1769 2642 2001 
Q 2353 2234 1838 2234 
L 1294 2234 
L 1294 2753 
L 1863 2753 
Q 2328 2753 2575 2939 
Q 2822 3125 2822 3475 
Q 2822 3834 2567 4026 
Q 2313 4219 1838 4219 
Q 1578 4219 1281 4162 
Q 984 4106 628 3988 
L 628 4550 
Q 988 4650 1302 4700 
Q 1616 4750 1894 4750 
Q 2613 4750 3031 4423 
Q 3450 4097 3450 3541 
Q 3450 3153 3228 2886 
Q 3006 2619 2597 2516 
z
" transform="scale(0.015625)"/>
       </defs>
       <use xlink:href="#DejaVuSans-30"/>
       <use xlink:href="#DejaVuSans-2e" x="63.623047"/>
       <use xlink:href="#DejaVuSans-30" x="95.410156"/>
       <use xlink:href="#DejaVuSans-33" x="159.033203"/>
      </g>
     </g>
    </g>
    <g id="xtick_5">
     <g id="line2d_9">
      <path d="M 343.296 307.584 
L 343.296 41.472 
" clip-path="url(#pbfc6c720b7)" style="fill: none; stroke: #b0b0b0; stroke-width: 0.8; stroke-linecap: square"/>
     </g>
     <g id="line2d_10">
      <g>
       <use xlink:href="#me204c7ce0c" x="343.296" y="307.584" style="stroke: #000000; stroke-width: 0.8"/>
      </g>
     </g>
     <g id="text_5">
      <!-- 0.04 -->
      <g transform="translate(332.163187 322.182437) scale(0.1 -0.1)">
       <defs>
        <path id="DejaVuSans-34" d="M 2419 4116 
L 825 1625 
L 2419 1625 
L 2419 4116 
z
M 2253 4666 
L 3047 4666 
L 3047 1625 
L 3713 1625 
L 3713 1100 
L 3047 1100 
L 3047 0 
L 2419 0 
L 2419 1100 
L 313 1100 
L 313 1709 
L 2253 4666 
z
" transform="scale(0.015625)"/>
       </defs>
       <use xlink:href="#DejaVuSans-30"/>
       <use xlink:href="#DejaVuSans-2e" x="63.623047"/>
       <use xlink:href="#DejaVuSans-30" x="95.410156"/>
       <use xlink:href="#DejaVuSans-34" x="159.033203"/>
      </g>
     </g>
    </g>
    <g id="xtick_6">
     <g id="line2d_11">
      <path d="M 414.72 307.584 
L 414.72 41.472 
" clip-path="url(#pbfc6c720b7)" style="fill: none; stroke: #b0b0b0; stroke-width: 0.8; stroke-linecap: square"/>
     </g>
     <g id="line2d_12">
      <g>
       <use xlink:href="#me204c7ce0c" x="414.72" y="307.584" style="stroke: #000000; stroke-width: 0.8"/>
      </g>
     </g>
     <g id="text_6">
      <!-- 0.05 -->
      <g transform="translate(403.587188 322.182437) scale(0.1 -0.1)">
       <defs>
        <path id="DejaVuSans-35" d="M 691 4666 
L 3169 4666 
L 3169 4134 
L 1269 4134 
L 1269 2991 
Q 1406 3038 1543 3061 
Q 1681 3084 1819 3084 
Q 2600 3084 3056 2656 
Q 3513 2228 3513 1497 
Q 3513 744 3044 326 
Q 2575 -91 1722 -91 
Q 1428 -91 1123 -41 
Q 819 9 494 109 
L 494 744 
Q 775 591 1075 516 
Q 1375 441 1709 441 
Q 2250 441 2565 725 
Q 2881 1009 2881 1497 
Q 2881 1984 2565 2268 
Q 2250 2553 1709 2553 
Q 1456 2553 1204 2497 
Q 953 2441 691 2322 
L 691 4666 
z
" transform="scale(0.015625)"/>
       </defs>
       <use xlink:href="#DejaVuSans-30"/>
       <use xlink:href="#DejaVuSans-2e" x="63.623047"/>
       <use xlink:href="#DejaVuSans-30" x="95.410156"/>
       <use xlink:href="#DejaVuSans-35" x="159.033203"/>
      </g>
     </g>
    </g>
    <g id="text_7">
     <!-- Time (s) -->
     <g transform="translate(215.831094 335.860562) scale(0.1 -0.1)">
      <defs>
       <path id="DejaVuSans-54" d="M -19 4666 
L 3928 4666 
L 3928 4134 
L 2272 4134 
L 2272 0 
L 1638 0 
L 1638 4134 
L -19 4134 
L -19 4666 
z
" transform="scale(0.015625)"/>
       <path id="DejaVuSans-69" d="M 603 3500 
L 1178 3500 
L 1178 0 
L 603 0 
L 603 3500 
z
M 603 4863 
L 1178 4863 
L 1178 4134 
L 603 4134 
L 603 4863 
z
" transform="scale(0.015625)"/>
       <path id="DejaVuSans-6d" d="M 3328 2828 
Q 3544 3216 3844 3400 
Q 4144 3584 4550 3584 
Q 5097 3584 5394 3201 
Q 5691 2819 5691 2113 
L 5691 0 
L 5113 0 
L 5113 2094 
Q 5113 2597 4934 2840 
Q 4756 3084 4391 3084 
Q 3944 3084 3684 2787 
Q 3425 2491 3425 1978 
L 3425 0 
L 2847 0 
L 2847 2094 
Q 2847 2600 2669 2842 
Q 2491 3084 2119 3084 
Q 1678 3084 1418 2786 
Q 1159 2488 1159 1978 
L 1159 0 
L 581 0 
L 581 3500 
L 1159 3500 
L 1159 2956 
Q 1356 3278 1631 3431 
Q 1906 3584 2284 3584 
Q 2666 3584 2933 3390 
Q 3200 3197 3328 2828 
z
" transform="scale(0.015625)"/>
       <path id="DejaVuSans-65" d="M 3597 1894 
L 3597 1613 
L 953 1613 
Q 991 1019 1311 708 
Q 1631 397 2203 397 
Q 2534 397 2845 478 
Q 3156 559 3463 722 
L 3463 178 
Q 3153 47 2828 -22 
Q 2503 -91 2169 -91 
Q 1331 -91 842 396 
Q 353 884 353 1716 
Q 353 2575 817 3079 
Q 1281 3584 2069 3584 
Q 2775 3584 3186 3129 
Q 3597 2675 3597 1894 
z
M 3022 2063 
Q 3016 2534 2758 2815 
Q 2500 3097 2075 3097 
Q 1594 3097 1305 2825 
Q 1016 2553 972 2059 
L 3022 2063 
z
" transform="scale(0.015625)"/>
       <path id="DejaVuSans-20" transform="scale(0.015625)"/>
       <path id="DejaVuSans-28" d="M 1984 4856 
Q 1566 4138 1362 3434 
Q 1159 2731 1159 2009 
Q 1159 1288 1364 580 
Q 1569 -128 1984 -844 
L 1484 -844 
Q 1016 -109 783 600 
Q 550 1309 550 2009 
Q 550 2706 781 3412 
Q 1013 4119 1484 4856 
L 1984 4856 
z
" transform="scale(0.015625)"/>
       <path id="DejaVuSans-73" d="M 2834 3397 
L 2834 2853 
Q 2591 2978 2328 3040 
Q 2066 3103 1784 3103 
Q 1356 3103 1142 2972 
Q 928 2841 928 2578 
Q 928 2378 1081 2264 
Q 1234 2150 1697 2047 
L 1894 2003 
Q 2506 1872 2764 1633 
Q 3022 1394 3022 966 
Q 3022 478 2636 193 
Q 2250 -91 1575 -91 
Q 1294 -91 989 -36 
Q 684 19 347 128 
L 347 722 
Q 666 556 975 473 
Q 1284 391 1588 391 
Q 1994 391 2212 530 
Q 2431 669 2431 922 
Q 2431 1156 2273 1281 
Q 2116 1406 1581 1522 
L 1381 1569 
Q 847 1681 609 1914 
Q 372 2147 372 2553 
Q 372 3047 722 3315 
Q 1072 3584 1716 3584 
Q 2034 3584 2315 3537 
Q 2597 3491 2834 3397 
z
" transform="scale(0.015625)"/>
       <path id="DejaVuSans-29" d="M 513 4856 
L 1013 4856 
Q 1481 4119 1714 3412 
Q 1947 2706 1947 2009 
Q 1947 1309 1714 600 
Q 1481 -109 1013 -844 
L 513 -844 
Q 928 -128 1133 580 
Q 1338 1288 1338 2009 
Q 1338 2731 1133 3434 
Q 928 4138 513 4856 
z
" transform="scale(0.015625)"/>
      </defs>
      <use xlink:href="#DejaVuSans-54"/>
      <use xlink:href="#DejaVuSans-69" x="57.958984"/>
      <use xlink:href="#DejaVuSans-6d" x="85.742188"/>
      <use xlink:href="#DejaVuSans-65" x="183.154297"/>
      <use xlink:href="#DejaVuSans-20" x="244.677734"/>
      <use xlink:href="#DejaVuSans-28" x="276.464844"/>
      <use xlink:href="#DejaVuSans-73" x="315.478516"/>
      <use xlink:href="#DejaVuSans-29" x="367.578125"/>
     </g>
    </g>
   </g>
   <g id="matplotlib.axis_2">
    <g id="ytick_1">
     <g id="line2d_13">
      <path d="M 57.6 276.878769 
L 414.72 276.878769 
" clip-path="url(#pbfc6c720b7)" style="fill: none; stroke: #b0b0b0; stroke-width: 0.8; stroke-linecap: square"/>
     </g>
     <g id="line2d_14">
      <defs>
       <path id="ma746e0886e" d="M 0 0 
L -3.5 0 
" style="stroke: #000000; stroke-width: 0.8"/>
      </defs>
      <g>
       <use xlink:href="#ma746e0886e" x="57.6" y="276.878769" style="stroke: #000000; stroke-width: 0.8"/>
      </g>
     </g>
     <g id="text_8">
      <!-- −1.0 -->
      <g transform="translate(26.317187 280.677988) scale(0.1 -0.1)">
       <defs>
        <path id="DejaVuSans-2212" d="M 678 2272 
L 4684 2272 
L 4684 1741 
L 678 1741 
L 678 2272 
z
" transform="scale(0.015625)"/>
       </defs>
       <use xlink:href="#DejaVuSans-2212"/>
       <use xlink:href="#DejaVuSans-31" x="83.789062"/>
       <use xlink:href="#DejaVuSans-2e" x="147.412109"/>
       <use xlink:href="#DejaVuSans-30" x="179.199219"/>
      </g>
     </g>
    </g>
    <g id="ytick_2">
     <g id="line2d_15">
      <path d="M 57.6 225.703385 
L 414.72 225.703385 
" clip-path="url(#pbfc6c720b7)" style="fill: none; stroke: #b0b0b0; stroke-width: 0.8; stroke-linecap: square"/>
     </g>
     <g id="line2d_16">
      <g>
       <use xlink:href="#ma746e0886e" x="57.6" y="225.703385" style="stroke: #000000; stroke-width: 0.8"/>
      </g>
     </g>
     <g id="text_9">
      <!-- −0.5 -->
      <g transform="translate(26.317187 229.502603) scale(0.1 -0.1)">
       <use xlink:href="#DejaVuSans-2212"/>
       <use xlink:href="#DejaVuSans-30" x="83.789062"/>
       <use xlink:href="#DejaVuSans-2e" x="147.412109"/>
       <use xlink:href="#DejaVuSans-35" x="179.199219"/>
      </g>
     </g>
    </g>
    <g id="ytick_3">
     <g id="line2d_17">
      <path d="M 57.6 174.528 
L 414.72 174.528 
" clip-path="url(#pbfc6c720b7)" style="fill: none; stroke: #b0b0b0; stroke-width: 0.8; stroke-linecap: square"/>
     </g>
     <g id="line2d_18">
      <g>
       <use xlink:href="#ma746e0886e" x="57.6" y="174.528" style="stroke: #000000; stroke-width: 0.8"/>
      </g>
     </g>
     <g id="text_10">
      <!-- 0.0 -->
      <g transform="translate(34.696875 178.327219) scale(0.1 -0.1)">
       <use xlink:href="#DejaVuSans-30"/>
       <use xlink:href="#DejaVuSans-2e" x="63.623047"/>
       <use xlink:href="#DejaVuSans-30" x="95.410156"/>
      </g>
     </g>
    </g>
    <g id="ytick_4">
     <g id="line2d_19">
      <path d="M 57.6 123.352615 
L 414.72 123.352615 
" clip-path="url(#pbfc6c720b7)" style="fill: none; stroke: #b0b0b0; stroke-width: 0.8; stroke-linecap: square"/>
     </g>
     <g id="line2d_20">
      <g>
       <use xlink:href="#ma746e0886e" x="57.6" y="123.352615" style="stroke: #000000; stroke-width: 0.8"/>
      </g>
     </g>
     <g id="text_11">
      <!-- 0.5 -->
      <g transform="translate(34.696875 127.151834) scale(0.1 -0.1)">
       <use xlink:href="#DejaVuSans-30"/>
       <use xlink:href="#DejaVuSans-2e" x="63.623047"/>
       <use xlink:href="#DejaVuSans-35" x="95.410156"/>
      </g>
     </g>
    </g>
    <g id="ytick_5">
     <g id="line2d_21">
      <path d="M 57.6 72.177231 
L 414.72 72.177231 
" clip-path="url(#pbfc6c720b7)" style="fill: none; stroke: #b0b0b0; stroke-width: 0.8; stroke-linecap: square"/>
     </g>
     <g id="line2d_22">
      <g>
       <use xlink:href="#ma746e0886e" x="57.6" y="72.177231" style="stroke: #000000; stroke-width: 0.8"/>
      </g>
     </g>
     <g id="text_12">
      <!-- 1.0 -->
      <g transform="translate(34.696875 75.97645) scale(0.1 -0.1)">
       <use xlink:href="#DejaVuSans-31"/>
       <use xlink:href="#DejaVuSans-2e" x="63.623047"/>
       <use xlink:href="#DejaVuSans-30" x="95.410156"/>
      </g>
     </g>
    </g>
    <g id="text_13">
     <!-- $C_{L}$ $C_{D}$ -->
     <g transform="translate(20.2375 188.028) rotate(-90) scale(0.1 -0.1)">
      <defs>
       <path id="DejaVuSans-Oblique-43" d="M 4447 4306 
L 4319 3641 
Q 4019 3944 3683 4091 
Q 3347 4238 2956 4238 
Q 2422 4238 2017 3981 
Q 1613 3725 1319 3200 
Q 1131 2863 1032 2486 
Q 934 2109 934 1728 
Q 934 1091 1264 756 
Q 1594 422 2222 422 
Q 2656 422 3056 561 
Q 3456 700 3834 978 
L 3688 231 
Q 3316 72 2936 -9 
Q 2556 -91 2175 -91 
Q 1278 -91 773 396 
Q 269 884 269 1753 
Q 269 2309 461 2846 
Q 653 3384 1013 3828 
Q 1394 4300 1883 4525 
Q 2372 4750 3022 4750 
Q 3422 4750 3780 4639 
Q 4138 4528 4447 4306 
z
" transform="scale(0.015625)"/>
       <path id="DejaVuSans-Oblique-4c" d="M 1075 4666 
L 1709 4666 
L 909 525 
L 3181 525 
L 3078 0 
L 172 0 
L 1075 4666 
z
" transform="scale(0.015625)"/>
       <path id="DejaVuSans-Oblique-44" d="M 1081 4666 
L 2438 4666 
Q 3519 4666 4070 4208 
Q 4622 3750 4622 2847 
Q 4622 2250 4412 1698 
Q 4203 1147 3834 769 
Q 3463 381 2891 190 
Q 2319 0 1538 0 
L 172 0 
L 1081 4666 
z
M 1613 4147 
L 909 519 
L 1734 519 
Q 2794 519 3375 1128 
Q 3956 1738 3956 2847 
Q 3956 3519 3581 3833 
Q 3206 4147 2406 4147 
L 1613 4147 
z
" transform="scale(0.015625)"/>
      </defs>
      <use xlink:href="#DejaVuSans-Oblique-43" transform="translate(0 0.78125)"/>
      <use xlink:href="#DejaVuSans-Oblique-4c" transform="translate(69.824219 -15.625) scale(0.7)"/>
      <use xlink:href="#DejaVuSans-20" transform="translate(111.557617 0.78125)"/>
      <use xlink:href="#DejaVuSans-Oblique-43" transform="translate(143.344727 0.78125)"/>
      <use xlink:href="#DejaVuSans-Oblique-44" transform="translate(213.168945 -15.625) scale(0.7)"/>
     </g>
    </g>
   </g>
   <g id="line2d_23">
    <path d="M 57.6 174.528 
L 57.874708 175.856925 
L 57.940638 172.880312 
L 58.005249 173.058611 
L 58.274947 172.814582 
L 58.647839 173.278704 
L 58.808178 173.222278 
L 58.892572 173.295227 
L 58.976965 173.172875 
L 59.145752 173.50228 
L 59.318376 173.389818 
L 59.406606 173.554398 
L 59.583065 173.504651 
L 59.759524 173.525451 
L 59.847754 173.454599 
L 60.024214 173.698512 
L 60.377132 173.663453 
L 60.553592 173.834837 
L 60.641822 173.671588 
L 60.818281 173.939015 
L 60.906511 173.851289 
L 61.08297 173.84837 
L 61.1712 174.059463 
L 61.445908 173.820256 
L 61.634279 173.912824 
L 61.916835 173.992351 
L 62.011021 173.971809 
L 62.199392 174.071864 
L 63.268192 174.298419 
L 63.366473 174.405831 
L 63.563034 174.343614 
L 63.857875 174.502241 
L 64.250997 174.662743 
L 64.844434 174.854554 
L 65.150537 174.97086 
L 70.939482 178.293449 
L 71.044518 178.4408 
L 71.149553 178.373355 
L 71.464659 178.732579 
L 71.993018 179.181755 
L 72.425891 179.413199 
L 73.832727 180.836764 
L 74.2656 181.292477 
L 75.239564 182.627002 
L 75.456 182.790178 
L 77.2416 185.520202 
L 78.804 189.274424 
L 79.1424 190.53255 
L 79.488 192.278477 
L 80.2944 195.081659 
L 80.7552 195.804258 
L 80.9856 195.738566 
L 81.1008 195.749334 
L 81.6768 194.531545 
L 83.4048 188.479715 
L 83.9808 187.616072 
L 84.096 187.647315 
L 84.3264 187.590814 
L 84.5568 187.6795 
L 84.9024 188.018419 
L 85.7088 189.279724 
L 86.4 190.505034 
L 87.4368 191.825519 
L 88.0128 192.298782 
L 88.8192 192.787695 
L 89.1648 192.856403 
L 89.5104 192.912257 
L 90.0864 192.715937 
L 90.8928 192.155189 
L 92.2752 190.179884 
L 94.5024 185.905842 
L 96.52608 181.206516 
L 98.0736 176.990824 
L 99.74016 171.764795 
L 101.28768 166.133985 
L 103.15264 158.422505 
L 108.026788 137.239778 
L 109.186188 133.375159 
L 110.124941 130.934491 
L 110.959388 129.352546 
L 111.474103 128.67783 
L 112.086309 128.184871 
L 112.59648 128.037255 
L 113.106651 128.162418 
L 113.616823 128.562346 
L 114.229029 129.39487 
L 114.841234 130.645149 
L 115.555474 132.671096 
L 116.269714 135.365496 
L 117.085989 139.258474 
L 118.004297 144.717151 
L 119.045647 152.239011 
L 120.306071 163.101649 
L 121.671529 176.758754 
L 126.630713 229.054983 
L 127.567217 235.923287 
L 128.361826 240.307302 
L 129.024 242.832267 
L 129.621629 244.154717 
L 130.018105 244.559908 
L 130.414582 244.607363 
L 131.009296 243.906131 
L 131.504891 242.770524 
L 132.099605 240.637338 
L 132.7936 237.25545 
L 133.7856 230.811757 
L 134.8768 221.960683 
L 136.271435 208.236847 
L 138.111247 187.399064 
L 142.79641 131.898664 
L 143.91173 122.412928 
L 144.983605 115.282551 
L 145.931803 110.555151 
L 147.423735 105.491228 
L 148.249407 103.176213 
L 148.969577 101.573462 
L 149.492503 100.829234 
L 149.928274 100.545481 
L 150.276891 100.552932 
L 150.80832 101.02693 
L 151.43328 102.183258 
L 151.96896 103.736372 
L 152.6832 106.613969 
L 153.39744 110.52379 
L 154.386568 117.396134 
L 156.310787 135.695571 
L 158.784 166.128828 
L 160.233183 187.342736 
L 163.870288 241.866626 
L 164.832519 252.736006 
L 165.592971 258.72989 
L 166.060942 261.14615 
L 166.7161 263.294728 
L 167.090477 263.843089 
L 167.371259 264.068865 
L 167.652041 264.014497 
L 167.932824 263.638513 
L 168.213606 262.990098 
L 168.871074 260.278745 
L 169.528926 255.940687 
L 170.468716 247.71712 
L 171.8784 233.080034 
L 176.0076 188.233743 
L 180.582636 139.168102 
L 181.769988 124.882609 
L 182.592 116.610457 
L 183.729753 108.056974 
L 184.478506 104.162938 
L 185.810846 98.439451 
L 186.69888 94.896063 
L 187.23456 93.522077 
L 187.68096 93.091464 
L 187.85952 93.063054 
L 188.12736 93.369225 
L 188.57376 94.421785 
L 189.02016 96.169244 
L 189.908605 101.247185 
L 190.953834 109.374115 
L 191.824859 117.378633 
L 194.433347 145.622291 
L 196.286075 169.816896 
L 197.401976 187.022097 
L 201.123632 244.611171 
L 201.98072 254.498855 
L 202.721986 260.479093 
L 203.370593 263.881777 
L 203.926542 265.741027 
L 204.568615 266.836835 
L 204.843323 266.920057 
L 205.026462 266.846968 
L 205.392738 266.199241 
L 205.850585 264.590156 
L 206.308431 262.094244 
L 206.949415 257.378684 
L 208.154274 246.094141 
L 210.691705 222.015227 
L 212.090841 210.938665 
L 214.204408 196.518151 
L 215.994764 186.038905 
L 218.409035 171.484115 
L 219.249318 164.322375 
L 219.979313 156.489005 
L 221.476066 139.153514 
L 222.4704 130.859325 
L 223.0656 127.474177 
L 223.7352 124.839236 
L 224.495733 122.758357 
L 225.634358 120.698491 
L 226.104253 120.136881 
L 226.480168 119.807884 
L 226.574147 119.798647 
L 226.856084 119.585977 
L 227.232 119.527498 
L 227.513937 119.618374 
L 227.983832 119.870679 
L 228.547705 120.541708 
L 229.0176 121.430982 
L 229.863411 123.84179 
L 230.427284 126.175353 
L 231.179116 130.272141 
L 231.930947 135.622445 
L 232.784596 143.155353 
L 233.876638 155.013236 
L 235.323987 173.630233 
L 239.7312 232.357754 
L 240.885852 243.759787 
L 241.629405 249.316234 
L 242.18707 252.395609 
L 242.930623 255.055329 
L 243.393969 255.856676 
L 243.668677 255.96907 
L 244.218092 255.491879 
L 244.584369 254.639494 
L 245.133785 252.614307 
L 245.866338 248.46916 
L 246.782031 241.464829 
L 247.935308 230.257828 
L 249.672649 210.855494 
L 252.438895 175.763037 
L 254.91456 145.294448 
L 255.882908 136.031496 
L 256.812522 129.362068 
L 257.689234 124.824399 
L 258.486957 121.68865 
L 259.836171 117.217606 
L 261.816253 111.460591 
L 262.826526 109.756429 
L 263.370262 109.311105 
L 263.913997 109.154989 
L 264.638977 109.522208 
L 265.184903 110.143941 
L 265.808082 111.379774 
L 266.25321 112.710905 
L 266.87639 115.212895 
L 267.677621 119.532003 
L 268.667077 126.668856 
L 269.765908 136.382776 
L 271.414154 152.899823 
L 274.724 190.799352 
L 278.7264 238.142381 
L 279.786551 248.147033 
L 280.462184 252.990238 
L 281.137816 256.453476 
L 282.054746 258.763836 
L 282.408649 259.032189 
L 282.679579 258.96984 
L 282.961516 258.757634 
L 283.431411 258.072849 
L 283.901305 256.645593 
L 284.465179 254.139006 
L 284.935074 251.155898 
L 285.592926 246.001081 
L 286.5536 236.572269 
L 287.744 222.566016 
L 292.623919 159.405242 
L 294.548147 135.310749 
L 295.745333 122.510558 
L 296.682889 114.834275 
L 297.722524 108.886464 
L 300.173102 99.188992 
L 300.70944 97.692723 
L 301.15584 96.930395 
L 301.42368 96.740672 
L 301.69152 96.804139 
L 302.2272 97.584416 
L 302.6736 98.799915 
L 303.2595 101.024392 
L 303.9291 104.239248 
L 304.796722 109.707042 
L 305.841951 117.987977 
L 307.409795 132.328179 
L 310.114363 158.07808 
L 312.932004 188.289751 
L 317.354426 238.485687 
L 318.108965 244.05406 
L 318.767495 247.431323 
L 319.331368 249.342977 
L 320.177179 250.709515 
L 320.647074 250.809195 
L 320.929011 250.660077 
L 321.304926 250.254432 
L 321.962779 248.729481 
L 322.338695 247.426484 
L 322.902568 244.797435 
L 323.6544 240.030785 
L 324.688168 231.431625 
L 325.936 218.720731 
L 329.119418 181.275195 
L 330.903152 157.129218 
L 333.098028 127.149953 
L 334.292835 115.158036 
L 335.062324 109.711855 
L 335.698902 106.598364 
L 336.435537 103.959225 
L 337.900503 99.885304 
L 338.447792 98.832673 
L 339.051213 98.33374 
L 339.388007 98.397665 
L 339.640602 98.678006 
L 339.99264 99.373261 
L 340.43904 100.802941 
L 340.97472 103.0853 
L 341.68896 107.052441 
L 342.67104 113.786454 
L 344.01024 124.717617 
L 345.70656 139.692948 
L 347.994947 161.448205 
L 349.749221 181.663139 
L 351.471247 204.6838 
L 354.685232 248.539324 
L 355.54232 256.553909 
L 356.098269 260.069313 
L 356.654218 262.402342 
L 357.117509 263.530531 
L 357.395484 263.82038 
L 358.038646 263.758124 
L 358.404923 263.061776 
L 358.954338 261.156968 
L 359.595323 257.385496 
L 360.511015 249.977132 
L 362.467705 230.252973 
L 367.552689 177.426984 
L 369.823733 154.307204 
L 373.246464 116.775371 
L 374.00832 111.834763 
L 374.865408 108.08896 
L 377.098105 100.626873 
L 377.461895 100.009643 
L 377.734737 99.863172 
L 378.098526 100.061498 
L 378.371368 100.580779 
L 378.826105 102.080667 
L 379.460896 105.394257 
L 379.817274 107.591814 
L 381.064595 117.083606 
L 387.268655 176.491797 
L 389.21057 199.444133 
L 391.313953 224.146962 
L 392.638681 237.924384 
L 393.668716 246.690764 
L 394.514526 251.994247 
L 395.172379 254.938624 
L 396.112168 257.201634 
L 396.582063 257.591471 
L 396.864 257.565148 
L 397.230277 257.237546 
L 397.688123 256.485696 
L 398.145969 255.27196 
L 398.603815 253.430601 
L 399.2448 250.216683 
L 400.160492 244.016993 
L 401.301895 234.626618 
L 403.523453 213.58976 
L 405.157474 198.823639 
L 406.525371 188.437645 
L 409.706667 164.950488 
L 411.906327 146.649628 
L 412.7461 141.414173 
L 413.473327 138.272954 
L 413.888884 136.977518 
L 414.616111 135.508987 
L 414.72 135.390228 
L 414.72 135.390228 
" clip-path="url(#pbfc6c720b7)" style="fill: none; stroke: #0000ff; stroke-width: 1.5; stroke-linecap: square"/>
   </g>
   <g id="line2d_24">
    <path d="M 57.6 173.223955 
L 57.634459 -1 
M 57.938533 -1 
L 58.005249 84.280717 
L 58.138597 100.603681 
L 58.418039 105.97605 
L 58.492449 105.64274 
L 59.061359 108.62832 
L 59.230146 108.542491 
L 59.406606 108.915057 
L 59.671295 109.510184 
L 60.465362 112.699234 
L 62.293577 122.717679 
L 62.973351 125.43019 
L 64.349278 130.454962 
L 65.252571 133.544384 
L 68.418635 143.608836 
L 69.258918 145.738024 
L 70.519341 147.747795 
L 70.939482 147.929935 
L 71.044518 147.873343 
L 71.149553 147.975041 
L 71.674729 147.54229 
L 72.101236 146.876297 
L 72.642327 145.315708 
L 73.183418 143.186112 
L 74.049164 138.687162 
L 75.131345 131.568054 
L 76.3488 122.328202 
L 77.4648 114.259075 
L 78.0228 111.031248 
L 78.6924 108.572709 
L 79.1424 107.406217 
L 79.488 107.012904 
L 79.7184 107.374328 
L 79.9488 107.382741 
L 80.2944 107.872005 
L 80.8704 109.119464 
L 81.216 110.239734 
L 82.8288 115.901621 
L 84.4416 119.45578 
L 84.9024 119.974686 
L 85.3632 120.419019 
L 86.0544 120.469679 
L 86.6304 120.07895 
L 87.2064 119.24309 
L 88.4736 117.094736 
L 89.3952 116.133625 
L 90.2016 115.809261 
L 91.008 115.985037 
L 92.5056 116.810689 
L 94.85952 119.04279 
L 96.52608 120.630562 
L 97.35936 121.095932 
L 98.0736 121.249119 
L 98.78784 121.111915 
L 99.50208 120.74085 
L 100.33536 120.109846 
L 103.26176 117.481536 
L 106.5984 114.288426 
L 108.456047 112.169904 
L 110.124941 109.844897 
L 111.678171 107.200529 
L 113.718857 103.082005 
L 115.759543 99.164469 
L 116.677851 97.951797 
L 117.290057 97.473627 
L 117.902263 97.317452 
L 118.3104 97.403171 
L 118.940612 97.862683 
L 119.465788 98.532498 
L 120.201035 99.884148 
L 121.146353 102.273313 
L 122.33916 105.896973 
L 124.06896 110.871463 
L 124.830072 112.313363 
L 125.141436 112.651771 
L 125.349012 112.812325 
L 125.777455 113.056465 
L 126.210327 113.008852 
L 126.734769 112.690045 
L 127.463161 111.87341 
L 129.621629 109.18252 
L 130.414582 108.714881 
L 130.711939 108.761952 
L 131.207534 108.737545 
L 132.099605 109.039142 
L 134.976 110.552353 
L 135.6704 110.545702 
L 136.271435 110.355103 
L 137.785976 109.251361 
L 138.870212 107.856675 
L 139.629176 106.587723 
L 141.771631 101.704421 
L 142.898888 98.207129 
L 144.010672 95.115378 
L 144.604326 93.9275 
L 145.078425 93.281091 
L 145.552524 92.978643 
L 145.836983 92.843623 
L 146.121442 93.092338 
L 146.804144 93.584763 
L 148.43289 95.881247 
L 149.318194 97.844522 
L 150.102583 100.535816 
L 151.52256 107.03202 
L 153.48672 116.327524 
L 154.386568 119.928746 
L 155.302863 122.271608 
L 155.669381 122.833649 
L 155.944269 122.995759 
L 156.310787 123.003067 
L 156.860564 122.17985 
L 157.227082 121.155469 
L 157.8912 118.469036 
L 158.887513 112.633743 
L 161.061287 98.77529 
L 161.689976 96.253775 
L 162.299181 94.807237 
L 162.806852 94.363693 
L 163.100766 94.397881 
L 163.389337 94.506401 
L 163.774098 94.849894 
L 164.63981 96.529657 
L 165.405783 98.849902 
L 166.24813 101.837351 
L 167.371259 105.63064 
L 168.683116 110.417379 
L 169.340968 113.488082 
L 171.032589 121.093889 
L 171.596463 122.541836 
L 171.9776 123.042763 
L 172.2752 123.14826 
L 172.7712 122.747369 
L 173.080246 122.161513 
L 173.389292 121.366568 
L 174.1104 118.673038 
L 174.831508 115.201545 
L 177.607847 101.137143 
L 178.694734 97.260069 
L 179.342073 95.375245 
L 180.281232 93.202217 
L 180.482168 92.914354 
L 181.285914 91.646553 
L 181.587318 91.462947 
L 181.769988 91.270683 
L 182.043992 91.112556 
L 182.592 91.143007 
L 183.916942 92.178467 
L 184.92996 93.206951 
L 185.282314 93.332049 
L 185.634669 93.325402 
L 185.898934 93.167283 
L 186.1632 93.003825 
L 186.78816 92.839196 
L 187.14528 93.175614 
L 187.5024 93.762954 
L 188.03808 95.617326 
L 188.66304 98.891488 
L 191.650654 116.343317 
L 192.434576 119.302858 
L 192.782985 120.089164 
L 193.218498 120.583977 
L 193.399579 120.589597 
L 193.681516 120.408581 
L 193.963453 119.956076 
L 194.339368 118.868364 
L 194.809263 116.915069 
L 195.301534 114.192764 
L 196.286075 106.941673 
L 198.559776 90.099645 
L 199.056677 88.219305 
L 199.553578 87.230877 
L 199.951099 87.001675 
L 200.24924 87.104306 
L 200.641038 87.66752 
L 201.027114 88.451797 
L 202.073379 91.787195 
L 203.092618 96.25488 
L 204.477046 102.368453 
L 205.2096 105.707729 
L 206.033723 110.835986 
L 207.040985 118.599989 
L 208.060295 126.007419 
L 208.718147 129.6154 
L 209.282021 131.642737 
L 209.563958 132.193605 
L 210.033853 132.672262 
L 210.315789 132.575959 
L 210.597726 132.23667 
L 211.067621 131.158919 
L 211.671771 129.097643 
L 212.302198 126.502472 
L 214.204408 117.825754 
L 214.9632 115.111744 
L 215.6544 113.372313 
L 216.214691 112.56267 
L 216.654545 112.314822 
L 217.314327 112.516398 
L 217.832727 113.177395 
L 218.619106 114.902478 
L 219.774494 117.315961 
L 221.9744 121.740814 
L 222.5696 122.988173 
L 223.259867 123.990977 
L 223.640133 124.293932 
L 224.115467 124.377929 
L 224.685867 124.043119 
L 225.540379 122.832308 
L 226.480168 120.853426 
L 227.419958 118.744331 
L 229.205558 114.46764 
L 229.769432 113.041012 
L 230.991158 109.67057 
L 231.649011 107.781399 
L 234.27897 100.699415 
L 235.219485 99.451503 
L 235.53299 99.420171 
L 236.055498 99.683773 
L 236.2716 99.887976 
L 236.81844 100.949392 
L 237.766885 103.544085 
L 240.406832 110.999078 
L 241.071741 111.853548 
L 241.443517 112.059242 
L 241.908238 111.962193 
L 242.18707 111.774369 
L 243.116512 110.447352 
L 244.034954 108.514023 
L 245.774769 104.764279 
L 246.324185 103.929941 
L 247.645751 102.730101 
L 248.321384 102.51379 
L 248.514422 102.477408 
L 248.900497 102.366365 
L 249.093535 102.381875 
L 249.57613 102.348764 
L 249.962205 102.338305 
L 250.874788 101.851916 
L 251.425042 101.246255 
L 252.889496 98.453785 
L 253.565399 96.363352 
L 254.35776 93.364307 
L 255.456835 88.045438 
L 256.909357 80.529372 
L 257.5872 78.259352 
L 258.091188 77.322321 
L 258.289072 77.121884 
L 258.585899 77.117168 
L 259.269501 77.206358 
L 260.78062 78.376953 
L 261.722274 79.888243 
L 262.464036 81.910625 
L 263.279639 85.39217 
L 264.095242 89.933066 
L 265.004308 95.905579 
L 266.431262 107.348183 
L 268.033723 120.512929 
L 268.941785 125.760094 
L 269.4912 127.72291 
L 269.949046 128.374786 
L 270.223754 128.574885 
L 270.590031 128.302313 
L 271.047877 127.209265 
L 271.597292 125.049265 
L 272.368 120.791714 
L 275.340457 101.253813 
L 276.066635 98.51293 
L 276.574871 97.421216 
L 276.981459 96.97702 
L 277.3824 96.843572 
L 277.7664 97.024293 
L 278.0544 97.268969 
L 279.0144 98.958373 
L 281.877795 106.367271 
L 283.055495 108.413895 
L 283.713347 109.312588 
L 284.841095 110.913509 
L 286.1568 112.885408 
L 286.5536 113.225503 
L 286.9504 113.368816 
L 287.4464 113.113895 
L 287.744 112.776167 
L 288.24 111.800723 
L 288.736 110.423471 
L 289.6288 107.089358 
L 293.393179 88.720749 
L 295.052984 80.908452 
L 295.745333 78.713287 
L 296.307867 77.684466 
L 296.966919 77.14094 
L 297.159957 77.278686 
L 297.816285 77.617732 
L 298.285092 78.041902 
L 299.00961 78.593537 
L 299.278108 78.645646 
L 300.352101 79.162975 
L 300.53088 79.441642 
L 300.97728 80.485276 
L 301.42368 82.187152 
L 302.13792 86.526973 
L 303.1758 94.766538 
L 306.277463 120.417296 
L 306.88718 123.550018 
L 307.409795 125.097294 
L 307.675569 125.411171 
L 307.950277 125.548405 
L 308.411175 124.838724 
L 308.69504 123.995559 
L 309.262769 121.570279 
L 310.019742 117.200927 
L 311.770924 106.682049 
L 312.615346 103.094659 
L 313.143109 101.703726 
L 313.557201 101.157174 
L 313.946934 101.001405 
L 314.1418 101.052751 
L 314.4341 101.324412 
L 315.128535 102.857433 
L 315.821768 105.008097 
L 316.977156 109.349797 
L 318.014648 113.206394 
L 318.955453 115.910369 
L 319.425347 116.950387 
L 320.271158 118.149006 
L 320.929011 118.602149 
L 321.492884 118.886018 
L 323.560421 119.374254 
L 323.842358 119.324875 
L 324.594189 118.881924 
L 325.5392 117.515167 
L 326.7296 114.539909 
L 331.239002 100.602615 
L 333.705225 92.604519 
L 334.39077 90.922867 
L 334.78251 90.201561 
L 335.335143 89.41041 
L 335.517022 89.472693 
L 336.247579 89.282566 
L 336.897139 89.352305 
L 337.261999 89.41994 
L 337.535643 89.33539 
L 337.991718 89.47852 
L 338.539007 89.923262 
L 338.967015 90.828361 
L 339.472205 92.627777 
L 339.99264 95.263692 
L 340.70688 99.968116 
L 342.58176 113.371763 
L 343.47456 118.488408 
L 344.1888 121.363711 
L 344.6352 122.404913 
L 344.99232 122.749602 
L 345.528 122.577862 
L 346.06368 121.527619 
L 346.51008 119.997454 
L 347.149137 117.134722 
L 348.088926 111.9482 
L 349.946129 101.674134 
L 350.753506 98.652256 
L 351.369713 97.244533 
L 351.877384 96.677272 
L 352.385054 96.715373 
L 353.149546 97.774343 
L 354.0096 99.857784 
L 354.87827 102.521994 
L 357.117509 110.114699 
L 357.947077 112.243758 
L 359.045908 115.711226 
L 359.595323 117.973287 
L 361.152 124.530798 
L 361.715874 126.005662 
L 362.185768 126.660054 
L 362.56577 126.738224 
L 362.859965 126.471967 
L 363.252225 125.783104 
L 363.644485 124.669247 
L 364.232875 122.259683 
L 365.029303 118.016525 
L 367.446731 104.035547 
L 368.6292 98.863186 
L 369.501333 95.906917 
L 371.256622 91.188579 
L 371.662607 90.493263 
L 371.8656 90.344312 
L 372.2624 89.823275 
L 372.8576 89.594402 
L 373.817856 89.95586 
L 374.770176 90.685225 
L 375.4368 91.027735 
L 376.000674 90.780454 
L 377.007158 89.85347 
L 377.461895 90.190236 
L 377.825684 90.894118 
L 378.280421 92.611073 
L 378.917053 96.245292 
L 382.222822 117.67701 
L 382.762338 119.627604 
L 383.134002 120.505443 
L 383.511052 120.863985 
L 383.699577 120.956838 
L 383.888101 120.848419 
L 384.265151 120.185979 
L 384.736463 118.79768 
L 385.490563 115.184778 
L 386.451006 109.192856 
L 387.984097 99.33322 
L 388.903952 95.171741 
L 389.517188 93.66155 
L 389.925669 93.256745 
L 390.32453 93.259104 
L 390.720299 93.579045 
L 391.891117 96.210844 
L 395.0784 105.829423 
L 396.864 110.376055 
L 397.413415 111.479308 
L 398.420677 113.881192 
L 400.722358 118.973257 
L 401.012126 119.190882 
L 401.301895 119.261963 
L 401.688253 119.048831 
L 402.1712 118.319531 
L 403.040505 115.557104 
L 403.716632 112.359725 
L 406.209703 98.625991 
L 407.472377 93.339164 
L 408.0384 91.866989 
L 408.708267 90.801743 
L 408.930133 90.685785 
L 409.152 90.501279 
L 409.706667 90.277795 
L 409.928533 90.192003 
L 410.1504 90.362986 
L 410.359941 90.466062 
L 410.557156 90.494722 
L 411.050193 90.763693 
L 411.365236 91.134528 
L 411.581673 91.273512 
L 412.226653 91.91952 
L 413.057769 92.918067 
L 413.681105 93.618615 
L 414.72 94.851327 
L 414.72 94.851327 
" clip-path="url(#pbfc6c720b7)" style="fill: none; stroke: #ff0000; stroke-width: 1.5; stroke-linecap: square"/>
   </g>
   <g id="line2d_25">
    <path d="M 57.6 174.528 
L 57.874708 173.217916 
L 57.940638 176.155611 
L 58.005249 175.990264 
L 58.274947 176.170562 
L 58.492449 175.973968 
L 58.568984 175.954444 
L 58.647839 175.747256 
L 58.726694 175.805547 
L 58.976965 175.857628 
L 59.145752 175.536676 
L 59.318376 175.65715 
L 59.406606 175.498551 
L 59.583065 175.55243 
L 59.759524 175.538455 
L 59.847754 175.611037 
L 60.024214 175.364201 
L 60.377132 175.404726 
L 60.553592 175.229597 
L 60.641822 175.398998 
L 60.818281 175.126014 
L 60.906511 175.212281 
L 61.08297 175.219702 
L 61.1712 175.004073 
L 61.445908 175.248123 
L 61.634279 175.151751 
L 61.916835 175.073405 
L 62.011021 175.094876 
L 62.199392 174.992881 
L 63.268192 174.767579 
L 63.366473 174.658731 
L 63.563034 174.721203 
L 63.857875 174.562171 
L 64.250997 174.402817 
L 64.844434 174.21344 
L 65.150537 174.097723 
L 70.939482 170.764483 
L 71.044518 170.618278 
L 71.149553 170.68363 
L 71.464659 170.326398 
L 71.993018 169.870369 
L 72.425891 169.638368 
L 73.832727 168.211144 
L 74.2656 167.754191 
L 75.239564 166.418195 
L 75.456 166.255003 
L 77.2416 163.517959 
L 78.804 159.753909 
L 79.1424 158.497092 
L 79.488 156.75525 
L 80.2944 153.948341 
L 80.7552 153.228943 
L 80.9856 153.294596 
L 81.1008 153.278873 
L 81.6768 154.498469 
L 83.52 160.761772 
L 83.9808 161.413427 
L 84.096 161.381722 
L 84.3264 161.437451 
L 84.5568 161.349572 
L 84.9024 161.010212 
L 85.7088 159.748062 
L 86.4 158.519226 
L 87.4368 157.189758 
L 88.0128 156.707807 
L 88.8192 156.214897 
L 89.1648 156.142221 
L 89.5104 156.082445 
L 90.0864 156.27223 
L 90.8928 156.832003 
L 92.0448 158.398327 
L 95.57376 165.426803 
L 96.8832 168.620983 
L 98.43072 172.955793 
L 99.74016 177.103348 
L 101.28768 182.708575 
L 103.15264 190.390088 
L 108.135106 211.958724 
L 109.290494 215.738328 
L 110.229247 218.116476 
L 111.063694 219.661555 
L 111.576137 220.290099 
L 112.188343 220.745508 
L 112.59648 220.861712 
L 113.106651 220.76138 
L 113.616823 220.386619 
L 114.229029 219.581317 
L 114.841234 218.373668 
L 115.555474 216.400934 
L 116.269714 213.769529 
L 117.085989 209.96041 
L 118.004297 204.609255 
L 119.045647 197.212327 
L 120.306071 186.528128 
L 121.8816 170.811322 
L 124.06896 146.591022 
L 125.885673 127.538817 
L 127.046937 117.57615 
L 127.983441 111.385588 
L 128.645615 108.175952 
L 129.225153 106.23198 
L 129.720748 105.241481 
L 130.117224 104.874101 
L 130.513701 104.864496 
L 131.009296 105.415825 
L 131.504891 106.487442 
L 132.000486 108.120633 
L 132.6944 111.248202 
L 133.6864 117.369975 
L 134.6784 125.071985 
L 135.6704 134.180158 
L 137.135435 149.682699 
L 139.195482 174.484602 
L 141.874109 207.116486 
L 143.206322 220.429465 
L 144.307499 229.200115 
L 145.268064 235.140824 
L 146.121442 239.13014 
L 147.148511 242.69735 
L 148.157666 245.547461 
L 148.969577 247.395289 
L 149.579657 248.233874 
L 150.015429 248.470907 
L 150.364046 248.417091 
L 150.80832 248.019103 
L 151.43328 246.888908 
L 151.96896 245.36685 
L 152.6832 242.525558 
L 153.39744 238.647671 
L 154.294939 232.520125 
L 155.027975 226.337979 
L 156.310787 213.691274 
L 158.3872 188.678031 
L 160.026157 165.424537 
L 164.158859 104.115325 
L 165.025557 95.03856 
L 165.686565 90.124837 
L 166.154536 87.830142 
L 166.7161 86.042558 
L 167.090477 85.433148 
L 167.464853 85.209876 
L 167.745635 85.31856 
L 168.026418 85.765879 
L 168.589137 87.504 
L 169.153011 90.486239 
L 169.810863 95.275966 
L 171.032589 106.789266 
L 173.080246 129.156005 
L 176.0076 161.266457 
L 180.075927 205.321718 
L 181.861322 226.493874 
L 182.785038 235.00141 
L 183.542565 240.464446 
L 184.5721 245.600109 
L 186.69888 254.381861 
L 187.14528 255.444996 
L 187.41312 255.73785 
L 187.68096 255.814078 
L 187.85952 255.732039 
L 188.12736 255.291282 
L 188.57376 254.01995 
L 189.02016 252.070836 
L 189.821502 247.386835 
L 190.866732 239.214798 
L 192.260371 225.904858 
L 194.527326 201.369443 
L 196.187621 180.211078 
L 197.510763 160.285657 
L 200.544519 112.889307 
L 201.98072 95.176502 
L 202.721986 88.974308 
L 203.555909 84.668741 
L 204.0192 83.246164 
L 204.477046 82.407735 
L 204.843323 82.190925 
L 205.118031 82.321374 
L 205.392738 82.750838 
L 205.759015 83.908271 
L 206.125292 85.53486 
L 206.674708 89.055565 
L 207.407262 95.15401 
L 208.906105 109.686386 
L 210.785684 127.385125 
L 212.302198 140.096439 
L 214.415765 156.098075 
L 216.984436 173.29936 
L 218.115491 181.573686 
L 219.144282 191.376007 
L 221.476066 218.66763 
L 222.5696 227.38406 
L 223.7352 232.744596 
L 224.495733 234.789789 
L 225.4464 236.575165 
L 226.010274 237.256728 
L 226.668126 237.656755 
L 227.044042 237.630333 
L 227.232 237.536674 
L 227.983832 236.49464 
L 228.453726 235.408855 
L 229.205558 232.62255 
L 229.769432 229.994639 
L 230.427284 226.055127 
L 231.179116 220.275492 
L 232.024926 212.230627 
L 233.082425 199.830101 
L 234.487973 179.673766 
L 237.353345 133.829202 
L 239.347199 103.420785 
L 240.117276 93.839978 
L 240.978796 85.931458 
L 241.629405 82.070641 
L 242.001182 80.753395 
L 242.372959 79.923623 
L 242.651791 79.677018 
L 242.930623 79.60221 
L 243.209456 79.803816 
L 243.485538 80.27034 
L 243.943385 81.675093 
L 244.309662 83.253145 
L 245.042215 87.906452 
L 246.049477 96.594566 
L 247.066638 106.832239 
L 249.769168 136.788312 
L 251.537692 155.667445 
L 255.669871 197.663807 
L 257.791269 221.672629 
L 258.486957 227.806726 
L 259.269501 233.350578 
L 260.02506 237.394726 
L 261.063955 241.955065 
L 263.098394 250.330679 
L 263.551507 251.292829 
L 263.913997 251.628892 
L 264.185865 251.566244 
L 264.548355 251.078383 
L 264.912738 250.235486 
L 265.451979 248.335663 
L 266.075159 245.351455 
L 266.965415 239.8993 
L 267.855672 233.015626 
L 269.124923 221.814895 
L 272.1696 192.96003 
L 273.491086 179.005187 
L 275.340457 156.637403 
L 278.4384 118.609853 
L 279.496995 107.866185 
L 280.365665 101.363056 
L 281.041297 97.753686 
L 281.789319 95.35572 
L 282.231697 94.563166 
L 282.679579 94.219628 
L 283.055495 94.243991 
L 283.431411 94.575038 
L 283.901305 95.633277 
L 284.277221 96.846979 
L 284.935074 99.915451 
L 285.686905 104.645464 
L 286.752 113.339489 
L 288.0416 126.040877 
L 290.598074 154.448032 
L 293.920392 192.341893 
L 296.495378 224.629323 
L 297.44124 234.520363 
L 298.285092 241.33275 
L 299.00961 245.409713 
L 299.725605 248.507083 
L 301.87008 255.949411 
L 302.31648 256.536019 
L 302.58432 256.536106 
L 302.841 256.270354 
L 303.1758 255.517063 
L 303.5106 254.336511 
L 304.099902 251.379719 
L 304.883824 246.156846 
L 305.841951 238.031455 
L 307.148488 225.127251 
L 311.060578 182.500958 
L 312.826451 159.517866 
L 316.411252 111.37065 
L 317.543061 99.338053 
L 318.485558 92.346584 
L 319.237389 89.019517 
L 319.801263 87.432324 
L 320.459116 86.543206 
L 320.741053 86.446818 
L 321.022989 86.566768 
L 321.304926 86.906254 
L 321.680842 87.833393 
L 322.150737 89.678369 
L 322.808589 93.411946 
L 323.466442 98.318425 
L 324.500211 107.478261 
L 325.936 121.621004 
L 330.007554 162.269138 
L 331.864055 178.631958 
L 333.705225 196.089144 
L 337.170784 235.147549 
L 337.991718 241.301638 
L 338.798618 245.540854 
L 340.52832 251.243765 
L 341.064 252.547792 
L 341.5104 253.25074 
L 341.86752 253.437427 
L 342.22464 253.247499 
L 342.49248 252.803902 
L 343.02816 251.396271 
L 343.7424 248.084964 
L 344.54592 243.082575 
L 344.99232 239.607055 
L 345.70656 233.239746 
L 347.525053 212.880855 
L 349.060042 191.831285 
L 350.648471 166.577475 
L 354.106119 109.443877 
L 355.071308 96.89333 
L 355.727637 90.625088 
L 356.376244 86.471676 
L 357.210167 83.859178 
L 357.672369 83.411614 
L 357.947077 83.400186 
L 358.221785 83.636605 
L 358.588062 84.317045 
L 359.045908 85.921409 
L 359.595323 88.802487 
L 360.327877 93.979735 
L 361.527916 104.338007 
L 364.036745 127.024589 
L 365.335406 136.808723 
L 366.70502 145.513064 
L 368.188441 153.335991 
L 371.9648 172.762076 
L 372.9568 179.569105 
L 374.103552 191.073583 
L 375.341568 204.146949 
L 376.188632 210.364906 
L 376.916211 213.653958 
L 377.461895 215.225774 
L 377.916632 216.085743 
L 378.64421 217.057273 
L 379.460896 217.761914 
L 379.639085 218.028447 
L 379.906368 218.185955 
L 380.440935 218.174643 
L 381.15369 217.919413 
L 381.688256 217.329489 
L 382.401011 216.231285 
L 383.699577 213.261461 
L 384.547938 210.410688 
L 385.207776 207.607339 
L 386.3488 201.900482 
L 389.108364 184.77925 
L 389.925669 179.815563 
L 391.61078 171.249285 
L 392.919018 165.766899 
L 397.047138 149.575573 
L 398.0544 146.649321 
L 398.970092 144.674175 
L 399.702646 143.573661 
L 400.4352 142.870965 
L 401.108716 142.541817 
L 401.784842 142.44189 
L 402.364379 142.52536 
L 403.330274 142.884171 
L 404.841806 143.802412 
L 407.051486 145.509354 
L 408.597333 147.135834 
L 409.8176 148.801469 
L 411.050193 150.878 
L 412.434432 153.658637 
L 413.992774 157.294951 
L 414.72 159.179433 
L 414.72 159.179433 
" clip-path="url(#pbfc6c720b7)" style="fill: none; stroke-dasharray: 5.55,2.4; stroke-dashoffset: 0; stroke: #008000; stroke-width: 1.5"/>
   </g>
   <g id="line2d_26">
    <path d="M 57.6 173.223955 
L 57.63446 -1 
M 57.938535 -1 
L 58.005249 84.279264 
L 58.138597 100.595009 
L 58.418039 105.957692 
L 58.492449 105.6408 
L 59.061359 108.633302 
L 59.230146 108.539587 
L 59.406606 108.909099 
L 59.671295 109.506781 
L 60.465362 112.699077 
L 62.293577 122.718776 
L 62.973351 125.426748 
L 64.250997 130.15526 
L 65.150537 133.167887 
L 66.681051 138.34372 
L 67.701394 141.50715 
L 68.733741 144.484326 
L 69.468988 146.16084 
L 70.0992 147.267446 
L 70.519341 147.742732 
L 70.939482 147.922826 
L 71.044518 147.868277 
L 71.149553 147.966188 
L 71.674729 147.533369 
L 72.101236 146.868411 
L 72.642327 145.307481 
L 73.183418 143.179558 
L 74.049164 138.683827 
L 75.131345 131.564595 
L 76.3488 122.327909 
L 77.4648 114.257371 
L 78.0228 111.030295 
L 78.804 108.181663 
L 79.1424 107.405186 
L 79.488 107.007404 
L 79.7184 107.368373 
L 79.9488 107.376358 
L 80.2944 107.861538 
L 80.8704 109.111023 
L 81.216 110.229394 
L 82.944 116.175355 
L 83.52 117.784239 
L 84.096 118.918576 
L 84.7872 119.871152 
L 85.5936 120.440164 
L 86.0544 120.460317 
L 86.6304 120.07086 
L 87.2064 119.234469 
L 88.4736 117.088476 
L 89.3952 116.127514 
L 90.2016 115.802391 
L 91.008 115.981834 
L 92.3904 116.721255 
L 93.78816 117.932623 
L 96.52608 120.651099 
L 97.35936 121.11989 
L 97.95456 121.2739 
L 98.54976 121.219299 
L 99.14496 120.998272 
L 100.21632 120.258073 
L 103.91648 116.980251 
L 106.709333 114.28508 
L 108.456047 112.292495 
L 110.124941 109.976314 
L 111.678171 107.358721 
L 113.412754 103.902269 
L 115.555474 99.676596 
L 116.473783 98.323156 
L 117.085989 97.727298 
L 117.698194 97.431521 
L 118.208366 97.432115 
L 118.730541 97.707015 
L 119.360753 98.37646 
L 120.096 99.635018 
L 120.831247 101.350408 
L 121.8816 104.38302 
L 124.06896 110.910491 
L 124.830072 112.441491 
L 125.141436 112.85671 
L 125.349012 112.983795 
L 125.669236 113.28925 
L 126.210327 113.357014 
L 126.734769 113.080616 
L 127.359105 112.45592 
L 128.456422 110.925053 
L 129.423391 109.743848 
L 130.018105 109.257754 
L 130.61282 108.971633 
L 130.910177 108.956012 
L 131.405772 108.95742 
L 132.099605 109.143353 
L 133.1904 109.692938 
L 133.984 110.099886 
L 134.8768 110.467537 
L 136.271435 110.294499 
L 137.8944 109.19458 
L 138.870212 108.011383 
L 139.629176 106.814488 
L 140.783451 104.666459 
L 141.874109 101.878036 
L 144.406442 94.648483 
L 144.983605 93.670817 
L 145.552524 93.180134 
L 145.931803 92.989473 
L 146.216262 93.23809 
L 146.500721 93.420358 
L 147.882442 95.038806 
L 149.056731 97.120595 
L 149.84112 99.410884 
L 150.62976 102.564839 
L 151.7904 108.02168 
L 153.93312 117.911459 
L 154.844716 121.046292 
L 155.577752 122.535106 
L 155.944269 122.84788 
L 156.310787 122.898331 
L 156.585676 122.594988 
L 157.135453 121.489429 
L 157.792 119.066692 
L 158.4864 115.430919 
L 159.405078 109.485946 
L 160.957774 99.70063 
L 161.584941 96.972129 
L 162.096113 95.536408 
L 162.806852 94.614555 
L 163.004576 94.574171 
L 163.774098 95.041959 
L 164.158859 95.620055 
L 165.025557 97.731778 
L 166.060942 101.237766 
L 167.652041 106.658944 
L 168.683116 110.436603 
L 169.998821 116.53738 
L 170.938611 120.408998 
L 171.502484 121.952515 
L 171.8784 122.512477 
L 172.176 122.708266 
L 172.5728 122.538053 
L 172.874215 122.185688 
L 173.492308 120.631205 
L 174.1104 118.303942 
L 175.5612 111.068082 
L 177.39047 101.710192 
L 178.912111 95.968117 
L 180.3817 92.091363 
L 181.386382 90.375088 
L 181.48685 90.388841 
L 182.043992 89.888755 
L 182.592 89.920607 
L 183.074595 90.172894 
L 183.355377 90.316495 
L 183.636159 90.672624 
L 185.106137 91.933048 
L 185.54658 91.912332 
L 185.898934 91.705315 
L 186.25248 91.482597 
L 186.69888 91.476619 
L 187.056 91.851947 
L 187.41312 92.597902 
L 187.77024 93.838058 
L 188.30592 96.529757 
L 191.737756 117.285896 
L 192.434576 119.775467 
L 192.782985 120.514981 
L 193.131395 120.810962 
L 193.399579 120.877188 
L 193.775495 120.392157 
L 194.057432 119.742322 
L 194.433347 118.445056 
L 195.006171 115.630362 
L 195.69535 111.148469 
L 198.559776 90.614645 
L 199.056677 88.996673 
L 199.454198 88.327283 
L 199.752339 88.1842 
L 200.050479 88.282472 
L 200.34862 88.622099 
L 200.737557 89.417777 
L 201.220151 90.693238 
L 201.888062 93.037645 
L 203.370593 99.725803 
L 205.759015 110.649287 
L 206.674708 116.884988 
L 208.060295 126.480076 
L 208.812126 130.157029 
L 209.282021 131.540771 
L 209.657937 132.286395 
L 209.939874 132.467163 
L 210.127832 132.47925 
L 210.597726 131.962828 
L 210.879663 131.31916 
L 211.467703 129.440803 
L 212.196519 126.299089 
L 215.0784 112.653742 
L 215.7696 110.660391 
L 216.324655 109.67387 
L 216.874473 109.202328 
L 217.204364 109.118089 
L 217.424291 109.151569 
L 219.354353 111.480311 
L 219.564424 111.707896 
L 223.0656 116.252475 
L 223.45 116.473444 
L 224.210533 116.517659 
L 225.1612 115.872317 
L 226.010274 114.870168 
L 226.950063 113.780023 
L 227.419958 113.412221 
L 228.359747 112.916905 
L 228.641684 112.860735 
L 228.829642 112.84807 
L 229.205558 112.746513 
L 229.487495 112.737062 
L 230.615242 112.465839 
L 230.991158 112.260602 
L 231.555032 111.813791 
L 232.212884 110.963189 
L 232.5888 110.2782 
L 234.27897 104.861881 
L 236.055498 97.777236 
L 236.60268 96.233647 
L 237.14208 95.330215 
L 237.45673 95.097802 
L 237.6635 94.917588 
L 238.07704 94.799055 
L 238.675196 94.756717 
L 239.059198 94.917654 
L 239.924238 95.379624 
L 241.815294 96.94996 
L 242.18707 97.73496 
L 242.930623 98.978503 
L 243.760246 101.035585 
L 244.401231 103.328805 
L 245.133785 106.763547 
L 246.8736 115.184019 
L 247.452714 116.848492 
L 247.935308 117.531261 
L 248.417903 117.577381 
L 248.610941 117.38643 
L 248.997016 116.734101 
L 249.479611 115.389474 
L 250.058724 113.089379 
L 251.091424 108.024799 
L 253.565399 95.446398 
L 254.2464 92.799216 
L 255.456835 88.848749 
L 256.202463 86.915914 
L 257.296696 84.781225 
L 258.19013 84.009412 
L 259.363946 84.718156 
L 260.02506 85.554484 
L 260.78062 86.469159 
L 261.628295 86.931949 
L 262.098189 86.756365 
L 262.373414 86.821742 
L 262.645281 86.88547 
L 263.098394 87.423149 
L 263.551507 88.582587 
L 264.276487 92.104139 
L 264.7296 95.04435 
L 265.808082 103.037008 
L 268.3008 120.888682 
L 268.941785 123.986032 
L 269.4912 125.744434 
L 269.857477 126.226711 
L 270.132185 126.276108 
L 270.315323 126.109788 
L 270.590031 125.658473 
L 271.047877 124.329868 
L 271.505723 122.334484 
L 272.2688 117.877276 
L 273.799314 107.582229 
L 274.724 102.274034 
L 275.340457 99.758863 
L 275.758306 98.687198 
L 276.269929 98.050308 
L 276.574871 98.039262 
L 276.778165 98.159935 
L 277.184753 98.826002 
L 278.0544 100.96386 
L 279.400476 105.468388 
L 280.751741 110.071893 
L 281.96627 113.393155 
L 282.961516 115.406055 
L 284.089263 117.629529 
L 285.123032 120.110264 
L 286.256 122.667784 
L 286.752 123.386458 
L 287.1488 123.687994 
L 287.5456 123.71251 
L 288.3392 122.681285 
L 288.736 121.684877 
L 289.4304 119.219276 
L 290.377309 114.778003 
L 293.13038 101.914837 
L 293.815034 99.303142 
L 294.851049 95.668971 
L 295.456854 93.797978 
L 295.745333 92.943037 
L 296.682889 90.911161 
L 297.159957 90.254737 
L 297.816285 90.004649 
L 298.378853 90.107257 
L 298.651613 90.246809 
L 299.00961 90.531247 
L 299.636106 91.084466 
L 300.4416 91.297974 
L 300.888 91.077792 
L 301.3344 90.866415 
L 301.7808 90.920746 
L 302.40576 91.988573 
L 303.1758 95.450496 
L 304.448312 104.18328 
L 306.016156 114.457965 
L 306.974283 119.167499 
L 307.675569 121.101887 
L 308.041846 121.447314 
L 308.316554 121.417156 
L 308.600418 121.154282 
L 309.073526 120.046671 
L 309.452012 118.707523 
L 310.303606 114.397539 
L 311.563337 106.090158 
L 312.720899 98.739895 
L 313.459767 95.373249 
L 314.044367 93.808335 
L 314.4341 93.285422 
L 314.930469 93.328418 
L 315.227568 93.574462 
L 315.524668 94.048094 
L 316.118868 95.475352 
L 317.543061 99.787917 
L 318.2976 102.346932 
L 318.955453 104.440671 
L 319.707284 106.563427 
L 321.8688 111.897941 
L 322.526653 114.631608 
L 324.688168 123.887118 
L 325.252042 125.166666 
L 325.6384 125.493005 
L 326.0352 125.429445 
L 326.432 124.89514 
L 326.928 123.635778 
L 327.5232 121.343468 
L 328.3168 117.259887 
L 330.791203 103.939179 
L 331.453572 101.516175 
L 332.171917 99.588297 
L 332.687435 98.740514 
L 333.19988 98.245635 
L 334.58664 97.862975 
L 334.971385 97.925422 
L 335.244203 97.962594 
L 335.517022 98.131127 
L 335.789841 98.286178 
L 335.971721 98.324362 
L 337.718073 99.965258 
L 338.174147 100.567934 
L 339.388007 101.960748 
L 339.99264 102.347341 
L 341.24256 102.334492 
L 342.04608 103.041196 
L 342.4032 103.704358 
L 342.76032 104.648642 
L 343.92096 108.518996 
L 344.81376 111.680474 
L 346.33152 115.96723 
L 346.961179 116.892102 
L 347.243116 117.054793 
L 347.525053 117.024882 
L 347.806989 116.778062 
L 348.276884 115.846645 
L 348.863134 113.698828 
L 349.749221 108.597894 
L 350.543435 102.81787 
L 352.080452 91.987121 
L 352.7673 88.850626 
L 353.340669 87.313034 
L 353.722915 86.781405 
L 354.0096 86.654216 
L 354.299157 86.583189 
L 354.685232 86.747713 
L 355.167827 87.369909 
L 356.283586 90.412622 
L 357.117509 94.065445 
L 358.679631 102.20841 
L 359.503754 108.094316 
L 362.185768 128.230865 
L 362.859965 131.053293 
L 363.35029 132.235271 
L 363.644485 132.570162 
L 364.232875 132.494527 
L 364.52707 132.134107 
L 365.233371 130.506585 
L 366.387144 126.69643 
L 368.188441 120.79227 
L 368.8524 119.360634 
L 369.393867 118.554075 
L 369.9312 118.161128 
L 370.647644 118.209768 
L 371.05363 118.461771 
L 371.662607 119.288339 
L 374.294016 125.229357 
L 374.674944 125.971806 
L 375.718737 128.626434 
L 376.916211 131.268986 
L 377.461895 131.862472 
L 377.734737 131.914624 
L 378.098526 131.662731 
L 378.371368 131.360708 
L 378.826105 130.474685 
L 379.460896 128.635345 
L 380.084557 126.144446 
L 382.311917 116.414353 
L 384.830726 104.880457 
L 385.867613 101.361385 
L 386.3488 100.349366 
L 386.757624 99.677991 
L 387.166448 99.388432 
L 387.473067 99.418311 
L 387.779685 99.586291 
L 388.495127 100.599923 
L 388.903952 101.670346 
L 389.925669 105.100366 
L 393.574737 119.831641 
L 394.420547 121.878592 
L 395.548295 123.855283 
L 396.770021 125.43578 
L 398.237538 126.953058 
L 399.2448 127.70379 
L 400.252062 128.145446 
L 400.915537 128.237965 
L 401.784842 128.112466 
L 402.364379 127.867633 
L 403.040505 127.427511 
L 403.813221 126.701131 
L 405.36792 124.845055 
L 408.708267 120.587192 
L 410.852978 118.652192 
L 412.122764 117.837384 
L 413.888884 117.035806 
L 414.72 116.78406 
L 414.72 116.78406 
" clip-path="url(#pbfc6c720b7)" style="fill: none; stroke-dasharray: 5.55,2.4; stroke-dashoffset: 0; stroke: #000000; stroke-width: 1.5"/>
   </g>
   <g id="patch_3">
    <path d="M 57.6 307.584 
L 57.6 41.472 
" style="fill: none; stroke: #000000; stroke-width: 0.8; stroke-linejoin: miter; stroke-linecap: square"/>
   </g>
   <g id="patch_4">
    <path d="M 414.72 307.584 
L 414.72 41.472 
" style="fill: none; stroke: #000000; stroke-width: 0.8; stroke-linejoin: miter; stroke-linecap: square"/>
   </g>
   <g id="patch_5">
    <path d="M 57.6 307.584 
L 414.72 307.584 
" style="fill: none; stroke: #000000; stroke-width: 0.8; stroke-linejoin: miter; stroke-linecap: square"/>
   </g>
   <g id="patch_6">
    <path d="M 57.6 41.472 
L 414.72 41.472 
" style="fill: none; stroke: #000000; stroke-width: 0.8; stroke-linejoin: miter; stroke-linecap: square"/>
   </g>
   <g id="legend_1">
    <g id="patch_7">
     <path d="M 64.6 302.584 
L 125.7 302.584 
Q 127.7 302.584 127.7 300.584 
L 127.7 242.830875 
Q 127.7 240.830875 125.7 240.830875 
L 64.6 240.830875 
Q 62.6 240.830875 62.6 242.830875 
L 62.6 300.584 
Q 62.6 302.584 64.6 302.584 
z
" style="fill: #ffffff; opacity: 0.8; stroke: #cccccc; stroke-linejoin: miter"/>
    </g>
    <g id="line2d_27">
     <path d="M 66.6 248.929312 
L 76.6 248.929312 
L 86.6 248.929312 
" style="fill: none; stroke: #0000ff; stroke-width: 1.5; stroke-linecap: square"/>
    </g>
    <g id="text_14">
     <!-- $C_{L} bot$ -->
     <g transform="translate(94.6 252.429312) scale(0.1 -0.1)">
      <defs>
       <path id="DejaVuSans-Oblique-62" d="M 3169 2138 
Q 3169 2591 2961 2847 
Q 2753 3103 2388 3103 
Q 2122 3103 1889 2973 
Q 1656 2844 1484 2597 
Q 1303 2338 1198 1995 
Q 1094 1653 1094 1313 
Q 1094 881 1298 636 
Q 1503 391 1863 391 
Q 2134 391 2365 517 
Q 2597 644 2772 891 
Q 2950 1147 3059 1487 
Q 3169 1828 3169 2138 
z
M 1381 2969 
Q 1594 3256 1914 3420 
Q 2234 3584 2584 3584 
Q 3122 3584 3439 3221 
Q 3756 2859 3756 2241 
Q 3756 1734 3570 1259 
Q 3384 784 3041 416 
Q 2816 172 2522 40 
Q 2228 -91 1906 -91 
Q 1566 -91 1316 65 
Q 1066 222 909 531 
L 806 0 
L 231 0 
L 1178 4863 
L 1753 4863 
L 1381 2969 
z
" transform="scale(0.015625)"/>
       <path id="DejaVuSans-Oblique-6f" d="M 1625 -91 
Q 1009 -91 651 289 
Q 294 669 294 1325 
Q 294 1706 417 2101 
Q 541 2497 738 2766 
Q 1047 3184 1428 3384 
Q 1809 3584 2291 3584 
Q 2888 3584 3255 3212 
Q 3622 2841 3622 2241 
Q 3622 1825 3500 1412 
Q 3378 1000 3181 728 
Q 2875 309 2494 109 
Q 2113 -91 1625 -91 
z
M 891 1344 
Q 891 869 1089 633 
Q 1288 397 1691 397 
Q 2269 397 2648 901 
Q 3028 1406 3028 2181 
Q 3028 2634 2825 2865 
Q 2622 3097 2228 3097 
Q 1903 3097 1650 2945 
Q 1397 2794 1197 2484 
Q 1050 2253 970 1956 
Q 891 1659 891 1344 
z
" transform="scale(0.015625)"/>
       <path id="DejaVuSans-Oblique-74" d="M 2706 3500 
L 2619 3053 
L 1472 3053 
L 1100 1153 
Q 1081 1047 1072 975 
Q 1063 903 1063 863 
Q 1063 663 1183 572 
Q 1303 481 1569 481 
L 2150 481 
L 2053 0 
L 1503 0 
Q 991 0 739 200 
Q 488 400 488 806 
Q 488 878 497 964 
Q 506 1050 525 1153 
L 897 3053 
L 409 3053 
L 500 3500 
L 978 3500 
L 1172 4494 
L 1747 4494 
L 1556 3500 
L 2706 3500 
z
" transform="scale(0.015625)"/>
      </defs>
      <use xlink:href="#DejaVuSans-Oblique-43" transform="translate(0 0.015625)"/>
      <use xlink:href="#DejaVuSans-Oblique-4c" transform="translate(69.824219 -16.390625) scale(0.7)"/>
      <use xlink:href="#DejaVuSans-Oblique-62" transform="translate(111.557617 0.015625)"/>
      <use xlink:href="#DejaVuSans-Oblique-6f" transform="translate(175.03418 0.015625)"/>
      <use xlink:href="#DejaVuSans-Oblique-74" transform="translate(236.21582 0.015625)"/>
     </g>
    </g>
    <g id="line2d_28">
     <path d="M 66.6 263.607437 
L 76.6 263.607437 
L 86.6 263.607437 
" style="fill: none; stroke: #ff0000; stroke-width: 1.5; stroke-linecap: square"/>
    </g>
    <g id="text_15">
     <!-- $C_{D} bot$ -->
     <g transform="translate(94.6 267.107437) scale(0.1 -0.1)">
      <use xlink:href="#DejaVuSans-Oblique-43" transform="translate(0 0.015625)"/>
      <use xlink:href="#DejaVuSans-Oblique-44" transform="translate(69.824219 -16.390625) scale(0.7)"/>
      <use xlink:href="#DejaVuSans-Oblique-62" transform="translate(126.459961 0.015625)"/>
      <use xlink:href="#DejaVuSans-Oblique-6f" transform="translate(189.936523 0.015625)"/>
      <use xlink:href="#DejaVuSans-Oblique-74" transform="translate(251.118164 0.015625)"/>
     </g>
    </g>
    <g id="line2d_29">
     <path d="M 66.6 278.285562 
L 76.6 278.285562 
L 86.6 278.285562 
" style="fill: none; stroke-dasharray: 5.55,2.4; stroke-dashoffset: 0; stroke: #008000; stroke-width: 1.5"/>
    </g>
    <g id="text_16">
     <!-- $C_{L} top$ -->
     <g transform="translate(94.6 281.785562) scale(0.1 -0.1)">
      <defs>
       <path id="DejaVuSans-Oblique-70" d="M 3175 2156 
Q 3175 2616 2975 2859 
Q 2775 3103 2400 3103 
Q 2144 3103 1911 2972 
Q 1678 2841 1497 2591 
Q 1319 2344 1212 1994 
Q 1106 1644 1106 1300 
Q 1106 863 1306 627 
Q 1506 391 1875 391 
Q 2147 391 2380 519 
Q 2613 647 2778 891 
Q 2956 1147 3065 1494 
Q 3175 1841 3175 2156 
z
M 1394 2969 
Q 1625 3272 1939 3428 
Q 2253 3584 2638 3584 
Q 3175 3584 3472 3232 
Q 3769 2881 3769 2247 
Q 3769 1728 3584 1258 
Q 3400 788 3053 416 
Q 2822 169 2531 39 
Q 2241 -91 1919 -91 
Q 1547 -91 1294 64 
Q 1041 219 916 525 
L 556 -1331 
L -19 -1331 
L 922 3500 
L 1497 3500 
L 1394 2969 
z
" transform="scale(0.015625)"/>
      </defs>
      <use xlink:href="#DejaVuSans-Oblique-43" transform="translate(0 0.78125)"/>
      <use xlink:href="#DejaVuSans-Oblique-4c" transform="translate(69.824219 -15.625) scale(0.7)"/>
      <use xlink:href="#DejaVuSans-Oblique-74" transform="translate(111.557617 0.78125)"/>
      <use xlink:href="#DejaVuSans-Oblique-6f" transform="translate(150.766602 0.78125)"/>
      <use xlink:href="#DejaVuSans-Oblique-70" transform="translate(211.948242 0.78125)"/>
     </g>
    </g>
    <g id="line2d_30">
     <path d="M 66.6 292.984 
L 76.6 292.984 
L 86.6 292.984 
" style="fill: none; stroke-dasharray: 5.55,2.4; stroke-dashoffset: 0; stroke: #000000; stroke-width: 1.5"/>
    </g>
    <g id="text_17">
     <!-- $C_{D} top$ -->
     <g transform="translate(94.6 296.484) scale(0.1 -0.1)">
      <use xlink:href="#DejaVuSans-Oblique-43" transform="translate(0 0.78125)"/>
      <use xlink:href="#DejaVuSans-Oblique-44" transform="translate(69.824219 -15.625) scale(0.7)"/>
      <use xlink:href="#DejaVuSans-Oblique-74" transform="translate(126.459961 0.78125)"/>
      <use xlink:href="#DejaVuSans-Oblique-6f" transform="translate(165.668945 0.78125)"/>
      <use xlink:href="#DejaVuSans-Oblique-70" transform="translate(226.850586 0.78125)"/>
     </g>
    </g>
   </g>
  </g>
 </g>
 <defs>
  <clipPath id="pbfc6c720b7">
   <rect x="57.6" y="41.472" width="357.12" height="266.112"/>
  </clipPath>
 </defs>
</svg>
