<?xml version="1.0" encoding="utf-8" standalone="no"?>
<!DOCTYPE svg PUBLIC "-//W3C//DTD SVG 1.1//EN"
  "http://www.w3.org/Graphics/SVG/1.1/DTD/svg11.dtd">
<svg xmlns:xlink="http://www.w3.org/1999/xlink" width="460.8pt" height="345.6pt" viewBox="0 0 460.8 345.6" xmlns="http://www.w3.org/2000/svg" version="1.1">
 <metadata>
  <rdf:RDF xmlns:dc="http://purl.org/dc/elements/1.1/" xmlns:cc="http://creativecommons.org/ns#" xmlns:rdf="http://www.w3.org/1999/02/22-rdf-syntax-ns#">
   <cc:Work>
    <dc:type rdf:resource="http://purl.org/dc/dcmitype/StillImage"/>
    <dc:date>2023-08-06T18:18:42.876332</dc:date>
    <dc:format>image/svg+xml</dc:format>
    <dc:creator>
     <cc:Agent>
      <dc:title>Matplotlib v3.6.3, https://matplotlib.org/</dc:title>
     </cc:Agent>
    </dc:creator>
   </cc:Work>
  </rdf:RDF>
 </metadata>
 <defs>
  <style type="text/css">*{stroke-linejoin: round; stroke-linecap: butt}</style>
 </defs>
 <g id="figure_1">
  <g id="patch_1">
   <path d="M 0 345.6 
L 460.8 345.6 
L 460.8 0 
L 0 0 
z
" style="fill: #ffffff"/>
  </g>
  <g id="axes_1">
   <g id="patch_2">
    <path d="M 57.6 307.584 
L 414.72 307.584 
L 414.72 41.472 
L 57.6 41.472 
z
" style="fill: #ffffff"/>
   </g>
   <g id="matplotlib.axis_1">
    <g id="xtick_1">
     <g id="line2d_1">
      <path d="M 57.6 307.584 
L 57.6 41.472 
" clip-path="url(#p812d06494e)" style="fill: none; stroke: #b0b0b0; stroke-width: 0.8; stroke-linecap: square"/>
     </g>
     <g id="line2d_2">
      <defs>
       <path id="m3adc5ce3f0" d="M 0 0 
L 0 3.5 
" style="stroke: #000000; stroke-width: 0.8"/>
      </defs>
      <g>
       <use xlink:href="#m3adc5ce3f0" x="57.6" y="307.584" style="stroke: #000000; stroke-width: 0.8"/>
      </g>
     </g>
     <g id="text_1">
      <!-- 0.00 -->
      <g transform="translate(46.467188 322.182437) scale(0.1 -0.1)">
       <defs>
        <path id="DejaVuSans-30" d="M 2034 4250 
Q 1547 4250 1301 3770 
Q 1056 3291 1056 2328 
Q 1056 1369 1301 889 
Q 1547 409 2034 409 
Q 2525 409 2770 889 
Q 3016 1369 3016 2328 
Q 3016 3291 2770 3770 
Q 2525 4250 2034 4250 
z
M 2034 4750 
Q 2819 4750 3233 4129 
Q 3647 3509 3647 2328 
Q 3647 1150 3233 529 
Q 2819 -91 2034 -91 
Q 1250 -91 836 529 
Q 422 1150 422 2328 
Q 422 3509 836 4129 
Q 1250 4750 2034 4750 
z
" transform="scale(0.015625)"/>
        <path id="DejaVuSans-2e" d="M 684 794 
L 1344 794 
L 1344 0 
L 684 0 
L 684 794 
z
" transform="scale(0.015625)"/>
       </defs>
       <use xlink:href="#DejaVuSans-30"/>
       <use xlink:href="#DejaVuSans-2e" x="63.623047"/>
       <use xlink:href="#DejaVuSans-30" x="95.410156"/>
       <use xlink:href="#DejaVuSans-30" x="159.033203"/>
      </g>
     </g>
    </g>
    <g id="xtick_2">
     <g id="line2d_3">
      <path d="M 129.024 307.584 
L 129.024 41.472 
" clip-path="url(#p812d06494e)" style="fill: none; stroke: #b0b0b0; stroke-width: 0.8; stroke-linecap: square"/>
     </g>
     <g id="line2d_4">
      <g>
       <use xlink:href="#m3adc5ce3f0" x="129.024" y="307.584" style="stroke: #000000; stroke-width: 0.8"/>
      </g>
     </g>
     <g id="text_2">
      <!-- 0.01 -->
      <g transform="translate(117.891188 322.182437) scale(0.1 -0.1)">
       <defs>
        <path id="DejaVuSans-31" d="M 794 531 
L 1825 531 
L 1825 4091 
L 703 3866 
L 703 4441 
L 1819 4666 
L 2450 4666 
L 2450 531 
L 3481 531 
L 3481 0 
L 794 0 
L 794 531 
z
" transform="scale(0.015625)"/>
       </defs>
       <use xlink:href="#DejaVuSans-30"/>
       <use xlink:href="#DejaVuSans-2e" x="63.623047"/>
       <use xlink:href="#DejaVuSans-30" x="95.410156"/>
       <use xlink:href="#DejaVuSans-31" x="159.033203"/>
      </g>
     </g>
    </g>
    <g id="xtick_3">
     <g id="line2d_5">
      <path d="M 200.448 307.584 
L 200.448 41.472 
" clip-path="url(#p812d06494e)" style="fill: none; stroke: #b0b0b0; stroke-width: 0.8; stroke-linecap: square"/>
     </g>
     <g id="line2d_6">
      <g>
       <use xlink:href="#m3adc5ce3f0" x="200.448" y="307.584" style="stroke: #000000; stroke-width: 0.8"/>
      </g>
     </g>
     <g id="text_3">
      <!-- 0.02 -->
      <g transform="translate(189.315187 322.182437) scale(0.1 -0.1)">
       <defs>
        <path id="DejaVuSans-32" d="M 1228 531 
L 3431 531 
L 3431 0 
L 469 0 
L 469 531 
Q 828 903 1448 1529 
Q 2069 2156 2228 2338 
Q 2531 2678 2651 2914 
Q 2772 3150 2772 3378 
Q 2772 3750 2511 3984 
Q 2250 4219 1831 4219 
Q 1534 4219 1204 4116 
Q 875 4013 500 3803 
L 500 4441 
Q 881 4594 1212 4672 
Q 1544 4750 1819 4750 
Q 2544 4750 2975 4387 
Q 3406 4025 3406 3419 
Q 3406 3131 3298 2873 
Q 3191 2616 2906 2266 
Q 2828 2175 2409 1742 
Q 1991 1309 1228 531 
z
" transform="scale(0.015625)"/>
       </defs>
       <use xlink:href="#DejaVuSans-30"/>
       <use xlink:href="#DejaVuSans-2e" x="63.623047"/>
       <use xlink:href="#DejaVuSans-30" x="95.410156"/>
       <use xlink:href="#DejaVuSans-32" x="159.033203"/>
      </g>
     </g>
    </g>
    <g id="xtick_4">
     <g id="line2d_7">
      <path d="M 271.872 307.584 
L 271.872 41.472 
" clip-path="url(#p812d06494e)" style="fill: none; stroke: #b0b0b0; stroke-width: 0.8; stroke-linecap: square"/>
     </g>
     <g id="line2d_8">
      <g>
       <use xlink:href="#m3adc5ce3f0" x="271.872" y="307.584" style="stroke: #000000; stroke-width: 0.8"/>
      </g>
     </g>
     <g id="text_4">
      <!-- 0.03 -->
      <g transform="translate(260.739188 322.182437) scale(0.1 -0.1)">
       <defs>
        <path id="DejaVuSans-33" d="M 2597 2516 
Q 3050 2419 3304 2112 
Q 3559 1806 3559 1356 
Q 3559 666 3084 287 
Q 2609 -91 1734 -91 
Q 1441 -91 1130 -33 
Q 819 25 488 141 
L 488 750 
Q 750 597 1062 519 
Q 1375 441 1716 441 
Q 2309 441 2620 675 
Q 2931 909 2931 1356 
Q 2931 1769 2642 2001 
Q 2353 2234 1838 2234 
L 1294 2234 
L 1294 2753 
L 1863 2753 
Q 2328 2753 2575 2939 
Q 2822 3125 2822 3475 
Q 2822 3834 2567 4026 
Q 2313 4219 1838 4219 
Q 1578 4219 1281 4162 
Q 984 4106 628 3988 
L 628 4550 
Q 988 4650 1302 4700 
Q 1616 4750 1894 4750 
Q 2613 4750 3031 4423 
Q 3450 4097 3450 3541 
Q 3450 3153 3228 2886 
Q 3006 2619 2597 2516 
z
" transform="scale(0.015625)"/>
       </defs>
       <use xlink:href="#DejaVuSans-30"/>
       <use xlink:href="#DejaVuSans-2e" x="63.623047"/>
       <use xlink:href="#DejaVuSans-30" x="95.410156"/>
       <use xlink:href="#DejaVuSans-33" x="159.033203"/>
      </g>
     </g>
    </g>
    <g id="xtick_5">
     <g id="line2d_9">
      <path d="M 343.296 307.584 
L 343.296 41.472 
" clip-path="url(#p812d06494e)" style="fill: none; stroke: #b0b0b0; stroke-width: 0.8; stroke-linecap: square"/>
     </g>
     <g id="line2d_10">
      <g>
       <use xlink:href="#m3adc5ce3f0" x="343.296" y="307.584" style="stroke: #000000; stroke-width: 0.8"/>
      </g>
     </g>
     <g id="text_5">
      <!-- 0.04 -->
      <g transform="translate(332.163187 322.182437) scale(0.1 -0.1)">
       <defs>
        <path id="DejaVuSans-34" d="M 2419 4116 
L 825 1625 
L 2419 1625 
L 2419 4116 
z
M 2253 4666 
L 3047 4666 
L 3047 1625 
L 3713 1625 
L 3713 1100 
L 3047 1100 
L 3047 0 
L 2419 0 
L 2419 1100 
L 313 1100 
L 313 1709 
L 2253 4666 
z
" transform="scale(0.015625)"/>
       </defs>
       <use xlink:href="#DejaVuSans-30"/>
       <use xlink:href="#DejaVuSans-2e" x="63.623047"/>
       <use xlink:href="#DejaVuSans-30" x="95.410156"/>
       <use xlink:href="#DejaVuSans-34" x="159.033203"/>
      </g>
     </g>
    </g>
    <g id="xtick_6">
     <g id="line2d_11">
      <path d="M 414.72 307.584 
L 414.72 41.472 
" clip-path="url(#p812d06494e)" style="fill: none; stroke: #b0b0b0; stroke-width: 0.8; stroke-linecap: square"/>
     </g>
     <g id="line2d_12">
      <g>
       <use xlink:href="#m3adc5ce3f0" x="414.72" y="307.584" style="stroke: #000000; stroke-width: 0.8"/>
      </g>
     </g>
     <g id="text_6">
      <!-- 0.05 -->
      <g transform="translate(403.587188 322.182437) scale(0.1 -0.1)">
       <defs>
        <path id="DejaVuSans-35" d="M 691 4666 
L 3169 4666 
L 3169 4134 
L 1269 4134 
L 1269 2991 
Q 1406 3038 1543 3061 
Q 1681 3084 1819 3084 
Q 2600 3084 3056 2656 
Q 3513 2228 3513 1497 
Q 3513 744 3044 326 
Q 2575 -91 1722 -91 
Q 1428 -91 1123 -41 
Q 819 9 494 109 
L 494 744 
Q 775 591 1075 516 
Q 1375 441 1709 441 
Q 2250 441 2565 725 
Q 2881 1009 2881 1497 
Q 2881 1984 2565 2268 
Q 2250 2553 1709 2553 
Q 1456 2553 1204 2497 
Q 953 2441 691 2322 
L 691 4666 
z
" transform="scale(0.015625)"/>
       </defs>
       <use xlink:href="#DejaVuSans-30"/>
       <use xlink:href="#DejaVuSans-2e" x="63.623047"/>
       <use xlink:href="#DejaVuSans-30" x="95.410156"/>
       <use xlink:href="#DejaVuSans-35" x="159.033203"/>
      </g>
     </g>
    </g>
    <g id="text_7">
     <!-- Time (s) -->
     <g transform="translate(215.831094 335.860562) scale(0.1 -0.1)">
      <defs>
       <path id="DejaVuSans-54" d="M -19 4666 
L 3928 4666 
L 3928 4134 
L 2272 4134 
L 2272 0 
L 1638 0 
L 1638 4134 
L -19 4134 
L -19 4666 
z
" transform="scale(0.015625)"/>
       <path id="DejaVuSans-69" d="M 603 3500 
L 1178 3500 
L 1178 0 
L 603 0 
L 603 3500 
z
M 603 4863 
L 1178 4863 
L 1178 4134 
L 603 4134 
L 603 4863 
z
" transform="scale(0.015625)"/>
       <path id="DejaVuSans-6d" d="M 3328 2828 
Q 3544 3216 3844 3400 
Q 4144 3584 4550 3584 
Q 5097 3584 5394 3201 
Q 5691 2819 5691 2113 
L 5691 0 
L 5113 0 
L 5113 2094 
Q 5113 2597 4934 2840 
Q 4756 3084 4391 3084 
Q 3944 3084 3684 2787 
Q 3425 2491 3425 1978 
L 3425 0 
L 2847 0 
L 2847 2094 
Q 2847 2600 2669 2842 
Q 2491 3084 2119 3084 
Q 1678 3084 1418 2786 
Q 1159 2488 1159 1978 
L 1159 0 
L 581 0 
L 581 3500 
L 1159 3500 
L 1159 2956 
Q 1356 3278 1631 3431 
Q 1906 3584 2284 3584 
Q 2666 3584 2933 3390 
Q 3200 3197 3328 2828 
z
" transform="scale(0.015625)"/>
       <path id="DejaVuSans-65" d="M 3597 1894 
L 3597 1613 
L 953 1613 
Q 991 1019 1311 708 
Q 1631 397 2203 397 
Q 2534 397 2845 478 
Q 3156 559 3463 722 
L 3463 178 
Q 3153 47 2828 -22 
Q 2503 -91 2169 -91 
Q 1331 -91 842 396 
Q 353 884 353 1716 
Q 353 2575 817 3079 
Q 1281 3584 2069 3584 
Q 2775 3584 3186 3129 
Q 3597 2675 3597 1894 
z
M 3022 2063 
Q 3016 2534 2758 2815 
Q 2500 3097 2075 3097 
Q 1594 3097 1305 2825 
Q 1016 2553 972 2059 
L 3022 2063 
z
" transform="scale(0.015625)"/>
       <path id="DejaVuSans-20" transform="scale(0.015625)"/>
       <path id="DejaVuSans-28" d="M 1984 4856 
Q 1566 4138 1362 3434 
Q 1159 2731 1159 2009 
Q 1159 1288 1364 580 
Q 1569 -128 1984 -844 
L 1484 -844 
Q 1016 -109 783 600 
Q 550 1309 550 2009 
Q 550 2706 781 3412 
Q 1013 4119 1484 4856 
L 1984 4856 
z
" transform="scale(0.015625)"/>
       <path id="DejaVuSans-73" d="M 2834 3397 
L 2834 2853 
Q 2591 2978 2328 3040 
Q 2066 3103 1784 3103 
Q 1356 3103 1142 2972 
Q 928 2841 928 2578 
Q 928 2378 1081 2264 
Q 1234 2150 1697 2047 
L 1894 2003 
Q 2506 1872 2764 1633 
Q 3022 1394 3022 966 
Q 3022 478 2636 193 
Q 2250 -91 1575 -91 
Q 1294 -91 989 -36 
Q 684 19 347 128 
L 347 722 
Q 666 556 975 473 
Q 1284 391 1588 391 
Q 1994 391 2212 530 
Q 2431 669 2431 922 
Q 2431 1156 2273 1281 
Q 2116 1406 1581 1522 
L 1381 1569 
Q 847 1681 609 1914 
Q 372 2147 372 2553 
Q 372 3047 722 3315 
Q 1072 3584 1716 3584 
Q 2034 3584 2315 3537 
Q 2597 3491 2834 3397 
z
" transform="scale(0.015625)"/>
       <path id="DejaVuSans-29" d="M 513 4856 
L 1013 4856 
Q 1481 4119 1714 3412 
Q 1947 2706 1947 2009 
Q 1947 1309 1714 600 
Q 1481 -109 1013 -844 
L 513 -844 
Q 928 -128 1133 580 
Q 1338 1288 1338 2009 
Q 1338 2731 1133 3434 
Q 928 4138 513 4856 
z
" transform="scale(0.015625)"/>
      </defs>
      <use xlink:href="#DejaVuSans-54"/>
      <use xlink:href="#DejaVuSans-69" x="57.958984"/>
      <use xlink:href="#DejaVuSans-6d" x="85.742188"/>
      <use xlink:href="#DejaVuSans-65" x="183.154297"/>
      <use xlink:href="#DejaVuSans-20" x="244.677734"/>
      <use xlink:href="#DejaVuSans-28" x="276.464844"/>
      <use xlink:href="#DejaVuSans-73" x="315.478516"/>
      <use xlink:href="#DejaVuSans-29" x="367.578125"/>
     </g>
    </g>
   </g>
   <g id="matplotlib.axis_2">
    <g id="ytick_1">
     <g id="line2d_13">
      <path d="M 57.6 276.878769 
L 414.72 276.878769 
" clip-path="url(#p812d06494e)" style="fill: none; stroke: #b0b0b0; stroke-width: 0.8; stroke-linecap: square"/>
     </g>
     <g id="line2d_14">
      <defs>
       <path id="m27bf5b56fe" d="M 0 0 
L -3.5 0 
" style="stroke: #000000; stroke-width: 0.8"/>
      </defs>
      <g>
       <use xlink:href="#m27bf5b56fe" x="57.6" y="276.878769" style="stroke: #000000; stroke-width: 0.8"/>
      </g>
     </g>
     <g id="text_8">
      <!-- −1.0 -->
      <g transform="translate(26.317187 280.677988) scale(0.1 -0.1)">
       <defs>
        <path id="DejaVuSans-2212" d="M 678 2272 
L 4684 2272 
L 4684 1741 
L 678 1741 
L 678 2272 
z
" transform="scale(0.015625)"/>
       </defs>
       <use xlink:href="#DejaVuSans-2212"/>
       <use xlink:href="#DejaVuSans-31" x="83.789062"/>
       <use xlink:href="#DejaVuSans-2e" x="147.412109"/>
       <use xlink:href="#DejaVuSans-30" x="179.199219"/>
      </g>
     </g>
    </g>
    <g id="ytick_2">
     <g id="line2d_15">
      <path d="M 57.6 225.703385 
L 414.72 225.703385 
" clip-path="url(#p812d06494e)" style="fill: none; stroke: #b0b0b0; stroke-width: 0.8; stroke-linecap: square"/>
     </g>
     <g id="line2d_16">
      <g>
       <use xlink:href="#m27bf5b56fe" x="57.6" y="225.703385" style="stroke: #000000; stroke-width: 0.8"/>
      </g>
     </g>
     <g id="text_9">
      <!-- −0.5 -->
      <g transform="translate(26.317187 229.502603) scale(0.1 -0.1)">
       <use xlink:href="#DejaVuSans-2212"/>
       <use xlink:href="#DejaVuSans-30" x="83.789062"/>
       <use xlink:href="#DejaVuSans-2e" x="147.412109"/>
       <use xlink:href="#DejaVuSans-35" x="179.199219"/>
      </g>
     </g>
    </g>
    <g id="ytick_3">
     <g id="line2d_17">
      <path d="M 57.6 174.528 
L 414.72 174.528 
" clip-path="url(#p812d06494e)" style="fill: none; stroke: #b0b0b0; stroke-width: 0.8; stroke-linecap: square"/>
     </g>
     <g id="line2d_18">
      <g>
       <use xlink:href="#m27bf5b56fe" x="57.6" y="174.528" style="stroke: #000000; stroke-width: 0.8"/>
      </g>
     </g>
     <g id="text_10">
      <!-- 0.0 -->
      <g transform="translate(34.696875 178.327219) scale(0.1 -0.1)">
       <use xlink:href="#DejaVuSans-30"/>
       <use xlink:href="#DejaVuSans-2e" x="63.623047"/>
       <use xlink:href="#DejaVuSans-30" x="95.410156"/>
      </g>
     </g>
    </g>
    <g id="ytick_4">
     <g id="line2d_19">
      <path d="M 57.6 123.352615 
L 414.72 123.352615 
" clip-path="url(#p812d06494e)" style="fill: none; stroke: #b0b0b0; stroke-width: 0.8; stroke-linecap: square"/>
     </g>
     <g id="line2d_20">
      <g>
       <use xlink:href="#m27bf5b56fe" x="57.6" y="123.352615" style="stroke: #000000; stroke-width: 0.8"/>
      </g>
     </g>
     <g id="text_11">
      <!-- 0.5 -->
      <g transform="translate(34.696875 127.151834) scale(0.1 -0.1)">
       <use xlink:href="#DejaVuSans-30"/>
       <use xlink:href="#DejaVuSans-2e" x="63.623047"/>
       <use xlink:href="#DejaVuSans-35" x="95.410156"/>
      </g>
     </g>
    </g>
    <g id="ytick_5">
     <g id="line2d_21">
      <path d="M 57.6 72.177231 
L 414.72 72.177231 
" clip-path="url(#p812d06494e)" style="fill: none; stroke: #b0b0b0; stroke-width: 0.8; stroke-linecap: square"/>
     </g>
     <g id="line2d_22">
      <g>
       <use xlink:href="#m27bf5b56fe" x="57.6" y="72.177231" style="stroke: #000000; stroke-width: 0.8"/>
      </g>
     </g>
     <g id="text_12">
      <!-- 1.0 -->
      <g transform="translate(34.696875 75.97645) scale(0.1 -0.1)">
       <use xlink:href="#DejaVuSans-31"/>
       <use xlink:href="#DejaVuSans-2e" x="63.623047"/>
       <use xlink:href="#DejaVuSans-30" x="95.410156"/>
      </g>
     </g>
    </g>
    <g id="text_13">
     <!-- $C_{L}$ $C_{D}$ -->
     <g transform="translate(20.2375 188.028) rotate(-90) scale(0.1 -0.1)">
      <defs>
       <path id="DejaVuSans-Oblique-43" d="M 4447 4306 
L 4319 3641 
Q 4019 3944 3683 4091 
Q 3347 4238 2956 4238 
Q 2422 4238 2017 3981 
Q 1613 3725 1319 3200 
Q 1131 2863 1032 2486 
Q 934 2109 934 1728 
Q 934 1091 1264 756 
Q 1594 422 2222 422 
Q 2656 422 3056 561 
Q 3456 700 3834 978 
L 3688 231 
Q 3316 72 2936 -9 
Q 2556 -91 2175 -91 
Q 1278 -91 773 396 
Q 269 884 269 1753 
Q 269 2309 461 2846 
Q 653 3384 1013 3828 
Q 1394 4300 1883 4525 
Q 2372 4750 3022 4750 
Q 3422 4750 3780 4639 
Q 4138 4528 4447 4306 
z
" transform="scale(0.015625)"/>
       <path id="DejaVuSans-Oblique-4c" d="M 1075 4666 
L 1709 4666 
L 909 525 
L 3181 525 
L 3078 0 
L 172 0 
L 1075 4666 
z
" transform="scale(0.015625)"/>
       <path id="DejaVuSans-Oblique-44" d="M 1081 4666 
L 2438 4666 
Q 3519 4666 4070 4208 
Q 4622 3750 4622 2847 
Q 4622 2250 4412 1698 
Q 4203 1147 3834 769 
Q 3463 381 2891 190 
Q 2319 0 1538 0 
L 172 0 
L 1081 4666 
z
M 1613 4147 
L 909 519 
L 1734 519 
Q 2794 519 3375 1128 
Q 3956 1738 3956 2847 
Q 3956 3519 3581 3833 
Q 3206 4147 2406 4147 
L 1613 4147 
z
" transform="scale(0.015625)"/>
      </defs>
      <use xlink:href="#DejaVuSans-Oblique-43" transform="translate(0 0.78125)"/>
      <use xlink:href="#DejaVuSans-Oblique-4c" transform="translate(69.824219 -15.625) scale(0.7)"/>
      <use xlink:href="#DejaVuSans-20" transform="translate(111.557617 0.78125)"/>
      <use xlink:href="#DejaVuSans-Oblique-43" transform="translate(143.344727 0.78125)"/>
      <use xlink:href="#DejaVuSans-Oblique-44" transform="translate(213.168945 -15.625) scale(0.7)"/>
     </g>
    </g>
   </g>
   <g id="line2d_23">
    <path d="M 57.6 174.528 
L 57.874708 176.835809 
L 57.938102 167.46899 
L 58.000277 170.087348 
L 58.128435 170.734853 
L 58.32707 173.164088 
L 58.467587 172.514039 
L 58.540658 172.71347 
L 59.013703 173.5567 
L 59.096683 173.411563 
L 59.179664 173.836908 
L 59.262645 173.660729 
L 59.345625 173.731992 
L 59.606422 173.812194 
L 59.867218 173.464886 
L 60.388811 174.006154 
L 60.649607 173.767757 
L 60.910404 173.596604 
L 61.084268 173.513926 
L 61.265179 173.403213 
L 62.230802 172.530084 
L 62.43173 172.550831 
L 63.134977 171.924492 
L 63.436369 171.864123 
L 63.737761 171.685373 
L 64.946469 171.351416 
L 65.45664 171.471192 
L 65.762743 171.518458 
L 66.272914 171.730391 
L 66.579017 171.868243 
L 66.783086 172.074191 
L 67.089189 172.209763 
L 67.701394 172.753155 
L 68.3136 173.680733 
L 68.530036 173.983281 
L 69.287564 175.426744 
L 69.828655 176.765321 
L 71.127273 180.371674 
L 72.966982 185.677133 
L 73.616291 187.46746 
L 75.239564 191.689779 
L 75.997091 193.394075 
L 76.862836 194.86365 
L 77.620364 195.821088 
L 78.702545 197.856337 
L 79.676509 201.590822 
L 80.001164 202.959771 
L 80.975127 206.001094 
L 81.408 206.770247 
L 81.624436 206.642779 
L 81.949091 206.56953 
L 82.057309 206.624534 
L 82.814836 205.445128 
L 83.680582 204.206486 
L 84.221673 203.834341 
L 84.755549 204.008074 
L 85.05856 204.331306 
L 85.260567 204.546276 
L 85.967593 205.73818 
L 87.430024 208.518121 
L 87.850165 209.080951 
L 88.480376 209.973331 
L 90.265976 211.413359 
L 91.106259 211.621794 
L 92.366682 211.338737 
L 92.996894 210.94531 
L 93.417035 210.566092 
L 94.257318 209.60892 
L 95.0976 208.297482 
L 95.937882 206.608749 
L 96.8832 204.235143 
L 98.0736 200.53262 
L 99.155782 196.454121 
L 100.346182 191.22174 
L 101.7936 183.885719 
L 103.4676 173.994743 
L 105.33504 161.430519 
L 109.9776 129.217453 
L 111.035733 123.555204 
L 111.933257 119.827584 
L 112.698514 117.551911 
L 113.336229 116.406553 
L 113.832229 115.85955 
L 114.058971 115.691353 
L 114.512457 115.656048 
L 114.85824 115.768015 
L 115.3344 116.18786 
L 115.805384 116.897057 
L 116.374706 118.185399 
L 117.057892 120.340294 
L 117.741078 123.212246 
L 118.4256 126.664153 
L 119.3472 132.463741 
L 120.4992 141.166833 
L 121.8816 153.46608 
L 123.31008 167.879448 
L 126.403412 199.972401 
L 128.423647 219.189132 
L 129.59688 228.658116 
L 130.6422 235.583529 
L 131.5722 240.208357 
L 132.4092 243.039402 
L 133.053046 244.345963 
L 133.602462 244.914868 
L 133.877169 245.07355 
L 134.151877 245.152258 
L 134.518154 245.112415 
L 134.976 244.71208 
L 135.433846 244.035782 
L 136.257969 242.095286 
L 136.898954 239.820285 
L 137.631508 236.393121 
L 138.638769 230.155971 
L 139.554462 223.153315 
L 140.92215 210.904075 
L 142.712138 192.556102 
L 145.090793 166.071724 
L 147.509933 138.909312 
L 148.660864 127.821233 
L 149.556032 121.116668 
L 150.339304 116.756978 
L 151.049939 114.196342 
L 151.763329 112.607759 
L 152.554004 111.736762 
L 153.005818 111.386512 
L 153.683539 111.13788 
L 154.0224 111.234427 
L 154.4688 111.670468 
L 154.9152 112.510702 
L 155.4732 114.225282 
L 156.1428 117.233292 
L 157.0356 122.392397 
L 158.2848 131.580896 
L 162.768196 168.23678 
L 166.892039 196.777621 
L 171.31296 224.855273 
L 172.264476 228.705975 
L 172.554032 229.58707 
L 173.326184 231.185066 
L 174.001816 231.896895 
L 174.58093 232.176562 
L 175.256562 232.047496 
L 176.31827 231.038375 
L 177.476497 229.035903 
L 178.538205 226.086556 
L 179.5168 222.459672 
L 180.608 217.275571 
L 181.7984 210.315678 
L 183.124179 201.336789 
L 184.209544 192.413335 
L 189.7344 142.07846 
L 191.335283 130.325984 
L 192.443586 123.593972 
L 193.433143 118.85449 
L 194.325943 115.682291 
L 194.836114 114.426396 
L 195.590743 113.33598 
L 196.0584 112.979879 
L 196.409143 112.899587 
L 196.8768 113.039942 
L 197.23392 113.379122 
L 197.71008 114.123506 
L 198.28048 115.429365 
L 198.96496 117.72249 
L 199.64944 120.779718 
L 200.448 125.272019 
L 201.3696 131.643633 
L 202.5216 141.540348 
L 203.904 155.918258 
L 205.885964 179.501302 
L 207.379375 197.43495 
L 209.605958 223.154485 
L 210.815902 235.001707 
L 211.725474 241.853725 
L 212.456747 245.886396 
L 213.185084 248.78823 
L 213.458211 249.345676 
L 213.913421 250.281602 
L 214.550716 251.002969 
L 214.82208 251.166632 
L 215.26848 251.175566 
L 215.98272 250.611286 
L 216.42912 249.862684 
L 217.05408 248.31019 
L 217.58976 246.395093 
L 218.48256 242.049342 
L 219.37536 236.447728 
L 220.62528 227.351199 
L 223.935669 203.021977 
L 226.307012 187.819161 
L 228.258635 176.446701 
L 229.0176 172.11994 
L 231.633067 155.795449 
L 233.204524 144.819024 
L 234.066538 140.31877 
L 234.805407 137.690532 
L 235.544276 136.260889 
L 236.036855 135.697497 
L 236.652579 135.33832 
L 237.268303 135.283356 
L 237.637738 135.275512 
L 238.007172 135.375391 
L 238.992331 135.623858 
L 239.48491 136.094629 
L 239.858743 136.445253 
L 240.624 137.424627 
L 240.879086 137.816489 
L 242.154514 140.714981 
L 243.047314 143.608163 
L 244.322743 148.681667 
L 245.853257 156.281894 
L 247.235657 164.793382 
L 249.030982 176.924533 
L 250.326982 185.909472 
L 253.814601 208.297179 
L 255.381459 217.341083 
L 256.786931 224.475888 
L 257.984 229.436949 
L 258.8768 232.236704 
L 259.55632 233.729643 
L 260.216 234.60594 
L 260.59296 234.727884 
L 260.96992 234.708051 
L 261.640995 234.190814 
L 262.123589 233.350748 
L 262.702703 231.878534 
L 263.378335 229.476837 
L 264.053968 226.344583 
L 264.8288 221.822291 
L 265.92 213.735108 
L 267.0112 203.763482 
L 268.3008 190.08514 
L 270.505033 164.244107 
L 272.470739 142.538792 
L 273.578656 132.664717 
L 274.448777 126.704953 
L 275.244315 122.827108 
L 275.897716 120.784628 
L 276.461561 119.738773 
L 276.79454 119.420491 
L 277.221863 119.208494 
L 277.74908 119.170584 
L 278.92402 119.829463 
L 279.522071 120.504921 
L 280.236894 121.915398 
L 280.8496 123.63324 
L 281.768659 127.190104 
L 282.795671 132.381515 
L 283.740988 138.18141 
L 285.211482 148.766114 
L 287.8308 168.038893 
L 288.92448 174.216582 
L 290.052655 179.127343 
L 290.9952 182.574405 
L 292.356655 186.899646 
L 293.911406 191.26489 
L 294.625646 193.046539 
L 296.360229 197.473047 
L 296.8704 198.803838 
L 297.176503 199.302024 
L 297.58464 199.794834 
L 298.29888 200.610026 
L 298.400914 200.665356 
L 298.502949 200.991955 
L 299.319223 200.430048 
L 299.931429 199.186808 
L 300.982691 195.794139 
L 301.523782 193.583851 
L 303.471709 185.264611 
L 305.50824 176.175616 
L 307.35336 168.493193 
L 308.89344 163.057631 
L 310.20288 159.218521 
L 311.40149 156.318311 
L 313.125517 152.881994 
L 314.603255 150.549426 
L 315.6192 149.196464 
L 317.022171 147.769597 
L 318.170057 146.982206 
L 318.958933 146.696459 
L 319.752533 146.671272 
L 320.413867 146.866317 
L 321.207467 147.390418 
L 321.736533 147.933261 
L 322.555569 149.110466 
L 323.352222 150.637 
L 324.265625 152.873513 
L 325.309514 156.073801 
L 326.498133 160.481677 
L 327.88032 166.622263 
L 329.380634 174.313503 
L 331.295537 185.364212 
L 337.308988 221.213187 
L 338.214918 225.206965 
L 339.120847 228.343665 
L 339.824 230.091223 
L 340.5184 231.212794 
L 340.816 231.408804 
L 341.2128 231.552159 
L 341.9072 231.272295 
L 342.5024 230.501162 
L 343.0976 229.194944 
L 343.792 226.988939 
L 344.5856 223.630908 
L 345.4784 218.68295 
L 346.6688 210.357337 
L 347.887543 200.013875 
L 349.474176 184.428521 
L 353.546667 143.597234 
L 354.774857 134.022039 
L 355.7952 127.914409 
L 356.560457 124.553357 
L 357.3576 122.114359 
L 358.05696 120.746825 
L 358.53312 120.281849 
L 359.216306 120.013529 
L 359.671763 120.021854 
L 360.241085 120.254369 
L 360.810407 120.674983 
L 361.3752 121.398468 
L 361.9332 122.470037 
L 362.6028 124.191896 
L 363.4956 127.308525 
L 364.5 131.794767 
L 365.76 138.793614 
L 367.0272 147.195917 
L 371.110383 174.017641 
L 373.563793 188.462018 
L 376.763246 205.721009 
L 378.497829 212.862103 
L 379.110034 214.458613 
L 379.212069 214.543986 
L 379.518171 215.263295 
L 380.130377 215.802104 
L 380.640549 215.716803 
L 381.252754 215.234746 
L 381.558857 214.827263 
L 382.375131 213.066244 
L 383.191406 210.890443 
L 384.72192 205.880474 
L 388.314764 190.884468 
L 391.6188 174.559879 
L 399.287314 136.449896 
L 400.709908 130.612735 
L 401.808738 126.922103 
L 402.632862 124.840956 
L 403.319631 123.635831 
L 403.869046 123.054524 
L 404.138667 122.920777 
L 404.535467 122.861857 
L 404.932267 122.992091 
L 405.43614 123.456089 
L 406.065981 124.481215 
L 406.569854 125.6702 
L 407.262679 127.772502 
L 408.063086 131.040267 
L 408.90562 135.461399 
L 409.850117 141.683606 
L 411.030738 151.192491 
L 412.3392 163.906122 
L 414.00576 182.668148 
L 414.72 191.287735 
L 414.72 191.287735 
" clip-path="url(#p812d06494e)" style="fill: none; stroke: #0000ff; stroke-width: 1.5; stroke-linecap: square"/>
   </g>
   <g id="line2d_24">
    <path d="M 57.6 173.287321 
L 57.635407 -1 
M 57.936236 -1 
L 58.000277 85.590668 
L 58.128435 104.522463 
L 58.615816 110.638928 
L 59.013703 112.49769 
L 59.179664 113.039058 
L 59.262645 112.975024 
L 59.432557 113.523738 
L 59.693354 114.250637 
L 60.910404 119.186807 
L 62.033595 125.244194 
L 63.134977 130.302302 
L 65.558674 138.396522 
L 66.476983 140.785658 
L 68.3136 144.705602 
L 68.638255 145.104801 
L 69.287564 145.919811 
L 70.045091 146.447115 
L 71.019055 146.247181 
L 71.668364 145.577226 
L 72.534109 143.877224 
L 73.183418 142.01341 
L 75.780655 130.095057 
L 76.538182 125.995654 
L 77.728582 120.329633 
L 79.460073 114.624052 
L 80.109382 113.206885 
L 80.2176 113.285385 
L 80.542255 112.902151 
L 80.866909 112.738279 
L 81.949091 113.121709 
L 82.165527 113.341057 
L 82.490182 113.498875 
L 82.5984 113.492676 
L 83.247709 113.973815 
L 84.546327 114.754801 
L 84.654545 114.781328 
L 84.755549 114.941209 
L 84.957556 114.900652 
L 85.361571 115.202243 
L 86.274635 115.562968 
L 86.904847 115.43577 
L 87.745129 114.558607 
L 88.690447 113.080999 
L 90.476047 110.279267 
L 91.211294 109.452444 
L 92.051576 108.851547 
L 93.627106 108.293269 
L 94.572424 108.311218 
L 95.412706 108.574641 
L 96.147953 108.970884 
L 98.0736 110.733678 
L 99.264 111.890221 
L 100.4544 113.003679 
L 102.24 114.589628 
L 104.85888 116.901645 
L 105.8112 117.444342 
L 106.52544 117.593611 
L 107.12064 117.479265 
L 107.729067 117.089791 
L 108.125867 116.683627 
L 108.7872 115.69252 
L 109.713067 113.740042 
L 110.903467 110.528487 
L 112.443429 106.367559 
L 113.081143 105.082039 
L 113.832229 103.93993 
L 114.625829 103.159333 
L 115.21536 102.971446 
L 115.69152 103.079069 
L 116.260842 103.470395 
L 116.944028 104.399651 
L 117.627214 105.759572 
L 118.656 108.45219 
L 120.96 114.788837 
L 122.11968 116.736604 
L 122.59584 116.943182 
L 122.95296 116.929204 
L 123.31008 116.729245 
L 123.873954 116.055174 
L 124.663377 114.40836 
L 126.922765 109.252893 
L 127.623176 108.355058 
L 128.323588 107.768754 
L 128.523706 107.739211 
L 128.863906 107.650289 
L 129.79032 107.882063 
L 130.8282 108.66665 
L 131.1072 108.875376 
L 133.053046 111.385242 
L 133.419323 111.917634 
L 133.877169 112.543829 
L 134.060308 112.708355 
L 134.151877 112.687893 
L 134.792862 113.402465 
L 135.800123 114.394646 
L 137.814646 116.52659 
L 138.913477 117.636375 
L 139.7376 118.002956 
L 140.424932 117.863659 
L 141.021594 117.394772 
L 141.618256 116.549429 
L 142.413806 114.883809 
L 143.3088 112.435196 
L 144.41984 109.014976 
L 146.097222 104.555244 
L 148.27722 100.406694 
L 149.172388 99.273705 
L 149.556032 98.99091 
L 150.115512 98.768197 
L 150.574345 98.745192 
L 151.287736 99.071915 
L 153.344679 100.541957 
L 154.0224 101.184746 
L 154.4688 101.928711 
L 155.1384 103.873709 
L 156.1428 108.43422 
L 158.8608 121.994774 
L 159.552 124.328255 
L 160.2432 125.764965 
L 160.704 126.172315 
L 161.1648 126.041532 
L 161.52192 125.600431 
L 161.981074 124.701988 
L 162.549551 123.166447 
L 164.36118 116.687986 
L 165.258539 114.044838 
L 165.780127 112.979639 
L 166.487708 111.851022 
L 167.094205 111.5995 
L 167.59962 111.726526 
L 168.4064 112.556608 
L 168.704 113.004522 
L 169.2 113.874222 
L 170.18208 115.875551 
L 170.65328 117.119963 
L 171.03024 118.00082 
L 171.4072 118.809972 
L 172.650551 121.136723 
L 173.133146 121.716315 
L 173.808778 122.221451 
L 174.098335 122.283982 
L 174.484411 122.273092 
L 175.256562 121.800982 
L 175.546119 121.521328 
L 176.221751 120.619377 
L 177.476497 118.144889 
L 179.5168 113.104703 
L 181.2032 109.005509 
L 182.096 107.455757 
L 182.1952 107.424795 
L 182.592 106.969041 
L 183.232715 106.872468 
L 183.883934 107.008312 
L 184.31808 107.284264 
L 186.054664 109.663383 
L 186.7392 111.004935 
L 188.352 113.899445 
L 189.0432 114.652299 
L 189.504 114.869563 
L 189.857545 114.858762 
L 190.350124 114.594627 
L 190.842703 113.996951 
L 191.458428 112.850533 
L 192.320441 110.610267 
L 195.0912 102.698758 
L 195.824571 101.440795 
L 196.526057 100.74334 
L 197.11488 100.567711 
L 197.472 100.630717 
L 197.93824 100.947404 
L 198.50864 101.653048 
L 199.19312 102.938568 
L 200.33392 105.740366 
L 202.4064 111.046411 
L 203.4432 112.426526 
L 203.7888 112.634677 
L 204.13824 112.594066 
L 204.49536 112.348873 
L 205.09056 111.52226 
L 205.431447 110.788463 
L 206.746298 107.190866 
L 208.010541 103.893688 
L 209.022592 101.923202 
L 209.800413 100.886285 
L 209.994869 100.734521 
L 210.815902 99.988671 
L 211.255579 99.839319 
L 211.910495 99.934246 
L 212.365705 100.291475 
L 213.185084 101.315246 
L 213.549253 102.196637 
L 214.368632 104.308017 
L 214.641758 104.734916 
L 215.71488 107.86557 
L 216.60768 110.960923 
L 218.83968 121.225785 
L 219.91104 126.007333 
L 220.80384 128.911619 
L 221.25024 129.860804 
L 221.69664 130.312657 
L 222.068238 130.441606 
L 222.454314 130.235812 
L 223.033427 129.309396 
L 223.633523 127.897338 
L 224.640677 124.679925 
L 225.873318 120.701903 
L 226.849129 118.114878 
L 227.608094 116.712547 
L 228.150212 116.092907 
L 228.258635 116.061442 
L 228.583906 115.777393 
L 229.248 115.942041 
L 229.960533 116.610182 
L 230.4384 117.317499 
L 231.1552 118.446506 
L 231.5136 119.106221 
L 232.83509 121.72279 
L 233.697103 123.628641 
L 234.066538 124.385153 
L 234.928552 125.94248 
L 235.667421 126.735151 
L 236.16 126.933836 
L 236.652579 126.823548 
L 237.022014 126.557743 
L 237.760883 125.614619 
L 238.253462 124.689872 
L 238.992331 123.037957 
L 241.5168 116.830465 
L 244.322743 109.934732 
L 245.343086 108.581351 
L 245.853257 108.227328 
L 246.448457 108.142293 
L 246.767314 108.31132 
L 246.9888 108.411621 
L 247.970618 109.735793 
L 248.441891 110.586697 
L 249.620073 113.17991 
L 251.468308 117.161098 
L 252.576 118.507583 
L 253.109706 118.853718 
L 253.512504 118.941978 
L 254.016 118.839704 
L 254.751247 118.307781 
L 255.381459 117.535729 
L 256.186729 116.166085 
L 257.187066 113.960571 
L 258.2816 111.133402 
L 260.96992 104.140014 
L 261.1584 103.674661 
L 261.640995 102.594587 
L 262.509665 101.054776 
L 263.281816 100.046852 
L 263.957449 99.49407 
L 264.440043 99.30853 
L 265.1264 99.384382 
L 265.6224 99.636556 
L 266.2176 100.230904 
L 267.0112 101.312369 
L 268.733673 104.112661 
L 269.4912 104.923591 
L 270.049378 105.179443 
L 270.505033 105.102147 
L 270.846775 104.874635 
L 271.302431 104.354644 
L 271.872 103.372808 
L 272.589637 101.645804 
L 273.454353 99.022224 
L 275.343758 93.154916 
L 275.897716 92.125983 
L 276.350568 91.644765 
L 276.683547 91.473323 
L 276.905533 91.62001 
L 277.327306 91.865628 
L 277.643636 92.231511 
L 278.38174 93.389163 
L 279.317835 95.58025 
L 280.032659 97.961229 
L 280.951718 102.185799 
L 282.177129 109.218719 
L 285.001412 125.954147 
L 285.946729 129.427071 
L 286.4916 130.60184 
L 286.938 130.933586 
L 287.1612 130.927431 
L 287.496 130.722007 
L 287.9424 130.142853 
L 288.5004 128.974655 
L 290.366836 123.895711 
L 290.9952 122.337924 
L 291.728291 120.927913 
L 292.461382 119.966044 
L 293.605303 119.248076 
L 293.911406 119.06405 
L 294.217509 118.933292 
L 295.135817 118.907151 
L 295.44192 118.897476 
L 295.850057 118.960217 
L 296.15616 119.025314 
L 296.258194 119.11567 
L 296.462263 119.055668 
L 297.074469 119.175931 
L 297.380571 119.50163 
L 298.400914 120.030773 
L 298.502949 119.933162 
L 298.707017 120.131593 
L 298.911086 120.240247 
L 299.625326 120.734622 
L 299.931429 120.796962 
L 300.339566 120.907441 
L 301.199127 120.85047 
L 303.038836 119.808544 
L 303.688145 119.198093 
L 304.93164 118.461421 
L 305.96952 118.339079 
L 307.0074 118.514161 
L 307.70304 118.899781 
L 309.60768 120.320544 
L 310.67904 120.918857 
L 311.40149 121.037943 
L 312.140359 120.984812 
L 312.756083 120.752604 
L 313.987531 119.879504 
L 314.853943 119.019187 
L 316.894629 116.673322 
L 319.223467 114.178783 
L 320.6784 112.989513 
L 321.472 112.536092 
L 322.555569 112.13446 
L 323.613194 112.044743 
L 324.657083 112.198266 
L 325.572267 112.548946 
L 326.74944 113.239584 
L 328.005973 114.204945 
L 329.873214 115.952932 
L 332.5824 118.507894 
L 333.934933 119.466963 
L 334.814476 119.796576 
L 335.741562 119.766756 
L 336.363671 119.495266 
L 336.993882 118.987239 
L 337.711623 118.121095 
L 338.516894 116.799441 
L 339.7248 114.333635 
L 342.1056 109.254566 
L 342.9984 107.778849 
L 343.6928 106.930577 
L 344.288 106.459269 
L 344.8832 106.210806 
L 345.776 106.286219 
L 346.5696 106.780523 
L 347.58144 107.772631 
L 349.045632 109.394901 
L 349.795584 110.011447 
L 350.331264 110.300516 
L 351.116267 110.402011 
L 351.810667 110.068754 
L 352.505067 109.394944 
L 353.199467 108.426742 
L 354.392229 106.270706 
L 356.050286 103.16592 
L 356.7996 102.239969 
L 357.1344 101.991263 
L 357.5808 101.883311 
L 358.05696 101.96321 
L 358.41408 102.316782 
L 358.988577 102.981417 
L 359.785628 104.31935 
L 360.810407 106.534324 
L 361.9332 109.809084 
L 363.0492 114.038411 
L 366.1056 126.029908 
L 366.912 128.066375 
L 367.488 128.986469 
L 367.8336 129.346227 
L 368.2944 129.502946 
L 368.885191 129.182832 
L 369.687609 127.867589 
L 370.13939 126.801202 
L 373.459737 116.497123 
L 374.292185 114.705089 
L 375.228688 113.665356 
L 375.946971 113.288467 
L 376.967314 113.322398 
L 377.57952 113.612064 
L 378.089691 114.109586 
L 378.599863 114.459455 
L 378.905966 114.804846 
L 380.232411 115.751095 
L 381.456823 115.880288 
L 382.375131 115.32917 
L 383.497509 114.136807 
L 385.844297 111.662595 
L 386.691491 111.295106 
L 387.449018 111.25253 
L 388.855855 112.110924 
L 389.613382 112.958562 
L 391.1724 115.464341 
L 392.958 118.534235 
L 393.888 119.747502 
L 394.60224 120.383517 
L 395.31648 120.719454 
L 395.91168 120.73391 
L 396.38784 120.611364 
L 396.991543 120.228831 
L 397.501714 119.764 
L 398.394514 118.588691 
L 399.414857 116.776264 
L 400.572554 114.19694 
L 401.808738 111.043207 
L 404.0064 105.383365 
L 404.667733 103.956171 
L 405.688076 101.918392 
L 406.82179 99.988079 
L 407.816229 98.710397 
L 408.551434 98.092963 
L 409.023682 97.899294 
L 409.732055 97.883614 
L 410.204303 98.030984 
L 410.794614 98.423136 
L 411.26784 98.923956 
L 412.3392 100.546045 
L 414.72 105.02025 
L 414.72 105.02025 
" clip-path="url(#p812d06494e)" style="fill: none; stroke: #ff0000; stroke-width: 1.5; stroke-linecap: square"/>
   </g>
   <g id="line2d_25">
    <path d="M 57.6 174.528 
L 57.874708 172.250616 
L 57.938102 181.569388 
L 58.000277 178.950191 
L 58.128435 178.336118 
L 58.32707 175.867422 
L 58.467587 176.510671 
L 58.540658 176.333971 
L 59.013703 175.49101 
L 59.096683 175.638752 
L 59.179664 175.209371 
L 59.262645 175.393424 
L 59.345625 175.321312 
L 59.606422 175.242987 
L 59.867218 175.59274 
L 60.388811 175.053002 
L 60.649607 175.290378 
L 60.910404 175.465319 
L 61.084268 175.544292 
L 61.265179 175.65167 
L 61.743366 176.011714 
L 62.331266 176.493735 
L 62.532194 176.612645 
L 63.235441 177.126669 
L 64.946469 177.710213 
L 65.45664 177.589436 
L 65.762743 177.543432 
L 66.272914 177.331032 
L 66.579017 177.193529 
L 66.783086 176.987233 
L 67.089189 176.849993 
L 67.701394 176.309418 
L 68.3136 175.383477 
L 68.530036 175.082185 
L 69.287564 173.639247 
L 69.828655 172.303393 
L 71.127273 168.694051 
L 72.966982 163.385341 
L 73.616291 161.59631 
L 76.321745 155.146002 
L 76.538182 154.804688 
L 77.079273 153.947729 
L 77.620364 153.240588 
L 78.702545 151.205732 
L 79.676509 147.470957 
L 80.001164 146.099076 
L 80.975127 143.055876 
L 81.408 142.285472 
L 81.624436 142.408792 
L 81.949091 142.487545 
L 82.057309 142.427867 
L 82.814836 143.605729 
L 83.680582 144.843467 
L 84.221673 145.21447 
L 84.755549 145.040308 
L 85.05856 144.718297 
L 85.361571 144.356885 
L 86.1696 142.967382 
L 88.060235 139.610821 
L 88.690447 138.868217 
L 89.845835 137.86437 
L 90.791153 137.454294 
L 91.5264 137.436117 
L 92.261647 137.647387 
L 92.996894 138.084578 
L 93.417035 138.460022 
L 94.362353 139.558471 
L 95.307671 141.101289 
L 96.252988 143.129934 
L 97.532509 146.692923 
L 98.614691 150.429947 
L 99.805091 155.308687 
L 101.124 161.58676 
L 102.5748 169.53927 
L 104.26368 180.166502 
L 106.52544 196.135991 
L 109.316267 215.704391 
L 110.638933 223.459928 
L 111.550629 227.719796 
L 112.315886 230.429283 
L 112.9536 232.005993 
L 113.591314 232.974933 
L 114.058971 233.359669 
L 114.512457 233.39945 
L 114.85824 233.293444 
L 115.3344 232.879546 
L 115.805384 232.179473 
L 116.374706 230.897582 
L 117.057892 228.753917 
L 117.741078 225.891765 
L 118.4256 222.44987 
L 119.3472 216.663417 
L 120.4992 207.973417 
L 121.7664 196.773086 
L 123.31008 181.279213 
L 126.508235 148.116857 
L 128.523706 129.048119 
L 129.79032 119.031732 
L 130.8282 112.474856 
L 132.0372 107.157108 
L 132.5022 105.794301 
L 133.144615 104.594706 
L 133.602462 104.139448 
L 133.877169 103.977718 
L 134.151877 103.898552 
L 134.609723 103.987479 
L 135.067569 104.436489 
L 135.616985 105.341724 
L 136.1664 106.656983 
L 136.898954 109.199895 
L 137.631508 112.618683 
L 138.5472 118.26124 
L 139.279754 123.612605 
L 140.424932 133.370529 
L 142.214919 151.123903 
L 144.531665 176.461603 
L 148.149339 216.53256 
L 149.172388 225.246676 
L 149.89172 229.972869 
L 150.574345 233.230945 
L 151.287736 235.498343 
L 151.876283 236.583644 
L 152.554004 237.31024 
L 153.005818 237.664232 
L 153.796493 237.906536 
L 154.134 237.739455 
L 154.5804 237.235503 
L 155.0268 236.271594 
L 155.5848 234.432778 
L 156.2544 231.289057 
L 157.1472 225.962233 
L 158.2848 217.550383 
L 162.768196 180.878982 
L 166.790956 152.98435 
L 170.84176 126.620742 
L 171.78416 122.108707 
L 172.650551 119.222255 
L 173.326184 117.843855 
L 174.001816 117.130704 
L 174.58093 116.848382 
L 175.256562 116.972389 
L 176.125232 117.731389 
L 176.993903 119.034295 
L 178.345168 122.335612 
L 179.12 124.973236 
L 180.5088 131.21159 
L 181.6992 138.07455 
L 183.015642 146.897258 
L 183.883934 153.815226 
L 186.054664 173.84416 
L 189.0432 201.278735 
L 190.473269 212.712394 
L 191.827862 221.945703 
L 192.813021 227.419593 
L 193.688229 231.275283 
L 194.453486 233.798678 
L 194.963657 234.893208 
L 195.590743 235.770752 
L 196.0584 236.124368 
L 196.409143 236.201736 
L 196.8768 236.05884 
L 197.23392 235.71938 
L 197.82416 234.733518 
L 198.28048 233.652627 
L 198.96496 231.348412 
L 199.64944 228.281208 
L 200.448 223.777054 
L 201.3696 217.399554 
L 202.6368 206.358903 
L 203.6736 195.701595 
L 205.772335 170.881231 
L 210.189324 119.947485 
L 211.1616 111.251991 
L 212.274663 104.062503 
L 213.003 100.925179 
L 213.367168 99.941618 
L 213.913421 98.767864 
L 214.459674 98.104772 
L 214.91136 97.848187 
L 215.35776 97.904697 
L 215.80416 98.214976 
L 216.16128 98.666797 
L 216.5184 99.347822 
L 217.32192 101.571433 
L 218.03616 104.590164 
L 219.10752 110.712054 
L 220.9824 124.334059 
L 223.230661 141.118151 
L 225.551435 156.603058 
L 229.1328 177.807966 
L 230.318933 184.584204 
L 231.5136 192.649316 
L 233.327669 205.256624 
L 234.189683 209.52681 
L 234.928552 211.983454 
L 235.790566 213.421921 
L 236.40629 213.967994 
L 237.145159 214.13237 
L 238.130317 214.017306 
L 238.746041 213.845475 
L 238.992331 213.776975 
L 239.858743 212.966404 
L 240.496457 212.143773 
L 241.006629 211.333994 
L 241.771886 209.707642 
L 242.919771 206.225421 
L 244.067657 201.738411 
L 245.088 196.9379 
L 246.342171 190.0001 
L 248.088436 178.606994 
L 252.132923 150.622395 
L 254.856282 133.79301 
L 256.386797 125.612724 
L 257.487166 120.689401 
L 258.48 117.190765 
L 259.1744 115.429897 
L 259.7448 114.455285 
L 260.216 114.022628 
L 260.6872 113.914809 
L 261.1584 114.083796 
L 261.737514 114.840385 
L 262.220108 115.859887 
L 262.799222 117.554922 
L 263.571373 120.69531 
L 264.343524 124.787009 
L 265.2256 130.766583 
L 266.2176 138.950969 
L 267.5072 151.754512 
L 269.274764 171.983024 
L 272.232942 205.724582 
L 273.33005 215.703281 
L 274.200171 221.844232 
L 274.945988 225.666973 
L 275.666851 228.106681 
L 276.239575 229.216495 
L 276.572554 229.591214 
L 277.221863 229.865223 
L 277.643636 229.851092 
L 278.74326 229.239475 
L 279.419953 228.451666 
L 280.032659 227.249914 
L 280.747482 225.21494 
L 281.666541 221.586101 
L 282.690635 216.343462 
L 283.740988 209.749158 
L 285.211482 198.975165 
L 287.8308 179.894216 
L 288.92448 173.957693 
L 291.099927 165.530387 
L 292.1472 162.298649 
L 296.8704 150.090939 
L 297.176503 149.789376 
L 297.278537 149.748753 
L 297.890743 148.754525 
L 298.094811 148.633464 
L 298.196846 148.648792 
L 298.400914 148.236706 
L 298.604983 148.334111 
L 299.115154 148.728486 
L 299.523291 149.398024 
L 300.339566 151.677834 
L 300.982691 153.975038 
L 303.579927 165.21296 
L 306.54612 178.204735 
L 308.06016 183.952672 
L 309.72672 189.189305 
L 311.1552 192.745838 
L 312.632938 195.709365 
L 313.741241 197.563964 
L 314.981486 199.281823 
L 316.256914 200.679513 
L 317.277257 201.511525 
L 318.2976 202.046242 
L 319.0912 202.197929 
L 319.752533 202.105226 
L 320.413867 201.819644 
L 321.207467 201.194279 
L 322.006154 200.179891 
L 322.960763 198.478652 
L 323.874166 196.334081 
L 324.918055 193.236254 
L 326.101333 188.968948 
L 327.252053 184.026007 
L 328.759893 176.613262 
L 330.476623 167.00802 
L 333.1584 150.56712 
L 335.432533 136.634671 
L 336.993882 128.255045 
L 338.114259 123.369926 
L 339.020188 120.380237 
L 339.7248 118.765221 
L 340.32 117.83508 
L 340.9152 117.559987 
L 341.4112 117.647644 
L 341.9072 118.054623 
L 342.4032 118.816104 
L 342.9984 120.228258 
L 343.6928 122.555721 
L 344.4864 126.061258 
L 345.3792 131.172569 
L 346.4704 138.881181 
L 347.785509 150.152218 
L 349.581312 168.061732 
L 353.3152 205.37378 
L 354.519771 214.776109 
L 355.540114 220.900146 
L 356.305371 224.287776 
L 357.0228 226.536977 
L 357.69984 227.952843 
L 358.176 228.49907 
L 358.646984 228.796828 
L 359.216306 228.870851 
L 359.785628 228.718002 
L 360.696543 228.067312 
L 361.2636 227.268635 
L 361.8216 226.129282 
L 362.6028 223.967333 
L 363.2724 221.553335 
L 364.2768 217.089726 
L 365.5296 210.161197 
L 368.41344 190.734457 
L 370.786719 175.769926 
L 373.771905 158.597693 
L 374.604352 154.282584 
L 376.049006 146.76486 
L 377.57952 139.453822 
L 377.885623 138.331105 
L 378.497829 136.337907 
L 378.905966 135.320997 
L 379.008 135.222178 
L 379.416137 134.41003 
L 379.926309 133.999819 
L 380.334446 134.029344 
L 381.15072 134.72505 
L 381.558857 135.386816 
L 382.069029 136.551257 
L 383.497509 140.584212 
L 385.028023 145.860415 
L 386.583273 152.065127 
L 391.0608 173.013058 
L 398.394514 208.571319 
L 400.052571 215.612642 
L 401.259323 219.901589 
L 402.2208 222.56395 
L 403.044923 224.156876 
L 403.594338 224.809364 
L 404.0064 225.098617 
L 404.667733 225.080184 
L 405.184203 224.707126 
L 405.688076 224.024526 
L 406.317917 222.765574 
L 406.947759 221.018609 
L 408.063086 216.689046 
L 408.90562 212.286956 
L 409.732055 206.966517 
L 410.794614 198.770476 
L 412.10112 186.653346 
L 413.76768 168.534349 
L 414.72 157.376911 
L 414.72 157.376911 
" clip-path="url(#p812d06494e)" style="fill: none; stroke-dasharray: 5.55,2.4; stroke-dashoffset: 0; stroke: #008000; stroke-width: 1.5"/>
   </g>
   <g id="line2d_26">
    <path d="M 57.6 173.287321 
L 57.635416 -1 
M 57.936242 -1 
L 58.000277 85.611992 
L 58.128435 104.53524 
L 58.615816 110.636659 
L 59.013703 112.500694 
L 59.179664 113.03794 
L 59.262645 112.979428 
L 59.432557 113.525525 
L 59.693354 114.254009 
L 60.910404 119.183302 
L 62.033595 125.245886 
L 63.134977 130.305464 
L 65.660709 138.69549 
L 66.783086 141.569446 
L 67.701394 143.600532 
L 68.854691 145.407016 
L 69.936873 146.376114 
L 70.153309 146.427142 
L 70.6944 146.428259 
L 71.235491 146.040606 
L 71.343709 146.002047 
L 72.317673 144.354053 
L 73.0752 142.342048 
L 73.724509 139.996552 
L 74.373818 137.204047 
L 75.672436 130.732482 
L 76.754618 124.946879 
L 78.377891 117.808626 
L 78.486109 117.656347 
L 79.0272 115.733842 
L 79.460073 114.629901 
L 80.109382 113.208558 
L 80.2176 113.286775 
L 80.542255 112.902259 
L 80.866909 112.736236 
L 81.949091 113.116586 
L 82.165527 113.338507 
L 82.490182 113.497147 
L 82.706618 113.595445 
L 83.355927 114.046866 
L 84.221673 114.568184 
L 85.462575 115.244759 
L 85.866589 115.436308 
L 86.274635 115.554599 
L 86.904847 115.425736 
L 87.745129 114.547229 
L 88.690447 113.067905 
L 90.581082 110.128235 
L 91.421365 109.262096 
L 92.471718 108.638783 
L 94.047247 108.250864 
L 94.992565 108.392884 
L 96.358024 109.108443 
L 105.216 117.151899 
L 106.04928 117.532813 
L 106.64448 117.603846 
L 107.12064 117.498737 
L 107.729067 117.11502 
L 108.125867 116.711957 
L 108.7872 115.725084 
L 109.713067 113.776771 
L 110.903467 110.567102 
L 112.570971 106.093428 
L 113.081143 105.105688 
L 113.832229 103.957841 
L 114.512457 103.257682 
L 114.97728 103.01656 
L 115.3344 102.982817 
L 115.805384 103.130486 
L 116.374706 103.589494 
L 117.057892 104.579039 
L 117.741078 106.005264 
L 119.0016 109.396637 
L 120.7296 114.223772 
L 121.4208 115.75397 
L 121.8816 116.45799 
L 122.23872 116.799019 
L 122.71488 116.957231 
L 122.95296 116.923684 
L 123.31008 116.73069 
L 123.873954 116.063183 
L 124.663377 114.428719 
L 126.717882 109.602839 
L 127.323 108.658732 
L 127.923353 108.042772 
L 128.123471 107.872452 
L 129.024 107.631379 
L 130.2702 108.14022 
L 131.9442 109.870325 
L 133.053046 111.362723 
L 133.419323 111.903418 
L 133.877169 112.527977 
L 134.060308 112.707873 
L 134.151877 112.680484 
L 134.976 113.5675 
L 137.448369 116.114838 
L 139.005046 117.689983 
L 140.027157 117.978228 
L 140.524375 117.802047 
L 141.121038 117.28599 
L 141.916588 116.015347 
L 142.712138 114.129235 
L 145.761745 105.363523 
L 146.320873 104.111873 
L 147.254171 102.218861 
L 148.532982 100.056819 
L 149.428151 99.048815 
L 150.574345 98.757616 
L 151.287736 99.075929 
L 153.231725 100.545066 
L 153.457632 100.629153 
L 154.134 101.336196 
L 154.4688 101.92075 
L 155.1384 103.850924 
L 156.1428 108.398214 
L 158.7456 121.489329 
L 159.4368 123.966858 
L 160.0128 125.352206 
L 160.3584 125.900076 
L 160.704 126.171623 
L 161.1648 126.045508 
L 161.52192 125.611683 
L 161.981074 124.723501 
L 162.549551 123.194114 
L 164.454885 116.402518 
L 165.363665 113.795889 
L 166.083376 112.359388 
L 166.386625 111.929906 
L 166.892039 111.639374 
L 167.195288 111.596452 
L 168.206117 112.255829 
L 169.0016 113.461593 
L 170.27632 116.148232 
L 172.650551 121.097171 
L 173.133146 121.685518 
L 173.808778 122.192367 
L 174.098335 122.256322 
L 174.484411 122.250166 
L 175.353081 121.721793 
L 175.835676 121.151845 
L 177.090422 118.996668 
L 178.538205 115.651346 
L 181.7984 107.879126 
L 182.3936 107.116729 
L 182.802071 106.902803 
L 183.992471 107.046971 
L 184.752226 107.705401 
L 186.2784 109.998549 
L 187.5456 112.513249 
L 188.4672 114.010747 
L 189.1584 114.697899 
L 189.6192 114.849766 
L 189.98069 114.782789 
L 190.473269 114.443508 
L 191.088993 113.550594 
L 191.704717 112.228527 
L 192.566731 109.816646 
L 194.836114 103.098004 
L 196.409143 100.800396 
L 196.8768 100.584839 
L 197.35296 100.573451 
L 197.82416 100.844185 
L 198.39456 101.499725 
L 198.96496 102.495765 
L 199.76352 104.306409 
L 202.752 111.74718 
L 203.4432 112.539388 
L 203.904 112.742992 
L 204.25728 112.627351 
L 204.73344 112.153865 
L 205.204189 111.382573 
L 205.545076 110.529511 
L 208.112188 103.681422 
L 209.605958 101.143066 
L 210.470204 100.255197 
L 210.988751 99.933215 
L 211.725474 99.889949 
L 212.092579 100.083661 
L 213.185084 101.35676 
L 213.549253 102.242461 
L 214.186547 103.806641 
L 216.33984 110.016179 
L 217.14336 113.201785 
L 218.66112 120.33525 
L 219.91104 125.969063 
L 220.80384 128.87755 
L 221.25024 129.823354 
L 221.78592 130.33373 
L 222.164757 130.367794 
L 222.550832 130.063027 
L 223.230661 128.890005 
L 223.935669 126.944403 
L 224.842108 123.951644 
L 225.981741 120.297865 
L 226.957553 117.785912 
L 227.716518 116.454922 
L 228.583906 115.681083 
L 229.1328 115.770541 
L 229.3632 115.921341 
L 229.7216 116.296933 
L 230.08 116.734809 
L 230.677333 117.558155 
L 231.035733 118.130888 
L 232.83509 121.614068 
L 233.697103 123.516325 
L 234.066538 124.266011 
L 234.805407 125.638313 
L 235.297986 126.279154 
L 235.790566 126.674329 
L 236.283145 126.796971 
L 236.775724 126.622856 
L 237.268303 126.158069 
L 238.376607 124.328942 
L 238.869186 123.197585 
L 240.241371 120.001886 
L 241.006629 118.080963 
L 241.644343 116.467443 
L 244.322743 109.90292 
L 245.215543 108.68172 
L 245.853257 108.157764 
L 246.235886 108.106329 
L 246.661029 108.186224 
L 247.359086 108.664284 
L 248.088436 109.769006 
L 248.677527 110.897684 
L 251.800615 117.483847 
L 252.576 118.325985 
L 253.210406 118.687501 
L 253.713902 118.700681 
L 254.226071 118.478455 
L 254.856282 117.892878 
L 255.586528 116.849251 
L 256.586864 114.857722 
L 257.8848 111.575303 
L 261.254919 102.70705 
L 261.930551 101.458042 
L 262.895741 100.020426 
L 263.571373 99.378974 
L 264.247005 99.068966 
L 265.0272 99.173654 
L 265.6224 99.555488 
L 266.2176 100.22829 
L 267.1104 101.55692 
L 268.950109 104.355989 
L 269.4912 104.778421 
L 270.049378 104.917489 
L 270.618947 104.652027 
L 271.074603 104.140051 
L 271.644172 103.189128 
L 272.35184 101.51619 
L 273.33005 98.553798 
L 275.045431 93.163111 
L 275.551418 92.065318 
L 276.128582 91.358786 
L 276.572554 91.235813 
L 277.221863 91.607112 
L 277.643636 92.168545 
L 278.38174 93.440543 
L 279.0144 94.898941 
L 279.930541 97.97501 
L 280.645365 101.221195 
L 281.870776 108.168682 
L 284.791341 125.735519 
L 285.631624 129.042222 
L 286.051765 130.137551 
L 286.38 130.726923 
L 286.8264 131.003781 
L 287.0496 130.974339 
L 287.3844 130.727104 
L 287.7192 130.314158 
L 288.2772 129.181505 
L 291.309382 121.424746 
L 292.042473 120.332098 
L 292.566109 119.817859 
L 293.194473 119.409782 
L 293.605303 119.271592 
L 294.319543 119.065703 
L 294.625646 119.064064 
L 295.135817 119.010897 
L 295.645989 119.10987 
L 295.952091 119.191508 
L 296.15616 119.257638 
L 296.360229 119.227755 
L 296.666331 119.32992 
L 296.972434 119.396398 
L 297.278537 119.726022 
L 297.686674 119.848212 
L 298.29888 120.111572 
L 298.707017 120.333005 
L 299.319223 120.761658 
L 299.523291 120.875261 
L 299.829394 120.939124 
L 300.033463 121.010514 
L 301.199127 120.871664 
L 301.523782 120.7577 
L 301.740218 120.595506 
L 302.064873 120.392794 
L 303.038836 119.692632 
L 303.471709 119.275057 
L 304.93164 118.417403 
L 306.20016 118.333613 
L 306.66144 118.411194 
L 307.0074 118.507756 
L 308.29824 119.321549 
L 309.72672 120.383244 
L 310.79808 120.884615 
L 311.894069 120.881203 
L 312.632938 120.610156 
L 313.741241 119.845064 
L 314.981486 118.592058 
L 317.659886 115.535393 
L 319.0912 114.079568 
L 320.546133 112.924764 
L 322.006154 112.25388 
L 323.091249 112.094179 
L 324.265625 112.239363 
L 325.179028 112.572092 
L 326.498133 113.336483 
L 329.380634 115.820538 
L 332.348425 118.584946 
L 333.4912 119.400116 
L 334.378667 119.770587 
L 335.123505 119.833183 
L 335.638552 119.73269 
L 336.258635 119.401211 
L 336.888847 118.837685 
L 337.711623 117.74367 
L 338.718212 115.928126 
L 340.1216 112.868847 
L 341.0144 110.960976 
L 341.6096 109.720697 
L 342.1056 108.747492 
L 343.1968 107.115894 
L 343.8912 106.434897 
L 344.5856 106.089744 
L 345.0816 106.080244 
L 345.5776 106.157374 
L 346.272 106.579451 
L 347.173303 107.438947 
L 348.509952 108.960503 
L 349.474176 109.842685 
L 350.331264 110.276521 
L 350.8848 110.303848 
L 351.5792 109.975374 
L 352.2736 109.301489 
L 352.968 108.328831 
L 354.0096 106.45941 
L 355.922743 102.887275 
L 356.560457 102.114855 
L 357.0228 101.802128 
L 357.4692 101.761371 
L 357.93792 101.90075 
L 358.41408 102.441518 
L 358.874713 103.032097 
L 359.671763 104.437541 
L 360.810407 107.058079 
L 361.71 109.759788 
L 362.9376 114.48044 
L 365.76 125.772822 
L 366.6816 128.172882 
L 367.2576 129.121948 
L 367.7184 129.546739 
L 368.1792 129.637224 
L 368.885191 129.066116 
L 369.458347 128.061204 
L 370.031502 126.681821 
L 371.218271 122.865935 
L 373.667849 115.720619 
L 374.084073 114.869132 
L 374.91652 113.854833 
L 375.538834 113.503689 
L 375.946971 113.391683 
L 376.86528 113.471283 
L 377.783589 114.133364 
L 380.028343 115.871653 
L 381.252754 116.045907 
L 382.069029 115.649052 
L 382.987337 114.802073 
L 384.925989 112.605302 
L 385.640229 112.123202 
L 386.475055 111.789629 
L 387.232582 111.798504 
L 387.881891 112.025316 
L 389.180509 113.200653 
L 390.0564 114.463739 
L 391.3956 116.721294 
L 392.958 119.237409 
L 393.888 120.282905 
L 394.60224 120.801843 
L 395.19744 120.993223 
L 395.91168 120.945182 
L 396.50688 120.67646 
L 397.246629 120.086788 
L 398.139429 118.98732 
L 399.032229 117.551433 
L 400.180114 115.22311 
L 401.808738 111.268293 
L 404.138667 105.545637 
L 405.43614 102.829722 
L 406.695822 100.6539 
L 407.6928 99.308705 
L 408.669496 98.527454 
L 409.377868 98.363602 
L 410.086241 98.467534 
L 410.794614 98.970408 
L 411.50592 99.846842 
L 412.3392 101.162721 
L 414.72 105.722308 
L 414.72 105.722308 
" clip-path="url(#p812d06494e)" style="fill: none; stroke-dasharray: 5.55,2.4; stroke-dashoffset: 0; stroke: #000000; stroke-width: 1.5"/>
   </g>
   <g id="patch_3">
    <path d="M 57.6 307.584 
L 57.6 41.472 
" style="fill: none; stroke: #000000; stroke-width: 0.8; stroke-linejoin: miter; stroke-linecap: square"/>
   </g>
   <g id="patch_4">
    <path d="M 414.72 307.584 
L 414.72 41.472 
" style="fill: none; stroke: #000000; stroke-width: 0.8; stroke-linejoin: miter; stroke-linecap: square"/>
   </g>
   <g id="patch_5">
    <path d="M 57.6 307.584 
L 414.72 307.584 
" style="fill: none; stroke: #000000; stroke-width: 0.8; stroke-linejoin: miter; stroke-linecap: square"/>
   </g>
   <g id="patch_6">
    <path d="M 57.6 41.472 
L 414.72 41.472 
" style="fill: none; stroke: #000000; stroke-width: 0.8; stroke-linejoin: miter; stroke-linecap: square"/>
   </g>
   <g id="legend_1">
    <g id="patch_7">
     <path d="M 64.6 302.584 
L 125.7 302.584 
Q 127.7 302.584 127.7 300.584 
L 127.7 242.830875 
Q 127.7 240.830875 125.7 240.830875 
L 64.6 240.830875 
Q 62.6 240.830875 62.6 242.830875 
L 62.6 300.584 
Q 62.6 302.584 64.6 302.584 
z
" style="fill: #ffffff; opacity: 0.8; stroke: #cccccc; stroke-linejoin: miter"/>
    </g>
    <g id="line2d_27">
     <path d="M 66.6 248.929312 
L 76.6 248.929312 
L 86.6 248.929312 
" style="fill: none; stroke: #0000ff; stroke-width: 1.5; stroke-linecap: square"/>
    </g>
    <g id="text_14">
     <!-- $C_{L} bot$ -->
     <g transform="translate(94.6 252.429312) scale(0.1 -0.1)">
      <defs>
       <path id="DejaVuSans-Oblique-62" d="M 3169 2138 
Q 3169 2591 2961 2847 
Q 2753 3103 2388 3103 
Q 2122 3103 1889 2973 
Q 1656 2844 1484 2597 
Q 1303 2338 1198 1995 
Q 1094 1653 1094 1313 
Q 1094 881 1298 636 
Q 1503 391 1863 391 
Q 2134 391 2365 517 
Q 2597 644 2772 891 
Q 2950 1147 3059 1487 
Q 3169 1828 3169 2138 
z
M 1381 2969 
Q 1594 3256 1914 3420 
Q 2234 3584 2584 3584 
Q 3122 3584 3439 3221 
Q 3756 2859 3756 2241 
Q 3756 1734 3570 1259 
Q 3384 784 3041 416 
Q 2816 172 2522 40 
Q 2228 -91 1906 -91 
Q 1566 -91 1316 65 
Q 1066 222 909 531 
L 806 0 
L 231 0 
L 1178 4863 
L 1753 4863 
L 1381 2969 
z
" transform="scale(0.015625)"/>
       <path id="DejaVuSans-Oblique-6f" d="M 1625 -91 
Q 1009 -91 651 289 
Q 294 669 294 1325 
Q 294 1706 417 2101 
Q 541 2497 738 2766 
Q 1047 3184 1428 3384 
Q 1809 3584 2291 3584 
Q 2888 3584 3255 3212 
Q 3622 2841 3622 2241 
Q 3622 1825 3500 1412 
Q 3378 1000 3181 728 
Q 2875 309 2494 109 
Q 2113 -91 1625 -91 
z
M 891 1344 
Q 891 869 1089 633 
Q 1288 397 1691 397 
Q 2269 397 2648 901 
Q 3028 1406 3028 2181 
Q 3028 2634 2825 2865 
Q 2622 3097 2228 3097 
Q 1903 3097 1650 2945 
Q 1397 2794 1197 2484 
Q 1050 2253 970 1956 
Q 891 1659 891 1344 
z
" transform="scale(0.015625)"/>
       <path id="DejaVuSans-Oblique-74" d="M 2706 3500 
L 2619 3053 
L 1472 3053 
L 1100 1153 
Q 1081 1047 1072 975 
Q 1063 903 1063 863 
Q 1063 663 1183 572 
Q 1303 481 1569 481 
L 2150 481 
L 2053 0 
L 1503 0 
Q 991 0 739 200 
Q 488 400 488 806 
Q 488 878 497 964 
Q 506 1050 525 1153 
L 897 3053 
L 409 3053 
L 500 3500 
L 978 3500 
L 1172 4494 
L 1747 4494 
L 1556 3500 
L 2706 3500 
z
" transform="scale(0.015625)"/>
      </defs>
      <use xlink:href="#DejaVuSans-Oblique-43" transform="translate(0 0.015625)"/>
      <use xlink:href="#DejaVuSans-Oblique-4c" transform="translate(69.824219 -16.390625) scale(0.7)"/>
      <use xlink:href="#DejaVuSans-Oblique-62" transform="translate(111.557617 0.015625)"/>
      <use xlink:href="#DejaVuSans-Oblique-6f" transform="translate(175.03418 0.015625)"/>
      <use xlink:href="#DejaVuSans-Oblique-74" transform="translate(236.21582 0.015625)"/>
     </g>
    </g>
    <g id="line2d_28">
     <path d="M 66.6 263.607437 
L 76.6 263.607437 
L 86.6 263.607437 
" style="fill: none; stroke: #ff0000; stroke-width: 1.5; stroke-linecap: square"/>
    </g>
    <g id="text_15">
     <!-- $C_{D} bot$ -->
     <g transform="translate(94.6 267.107437) scale(0.1 -0.1)">
      <use xlink:href="#DejaVuSans-Oblique-43" transform="translate(0 0.015625)"/>
      <use xlink:href="#DejaVuSans-Oblique-44" transform="translate(69.824219 -16.390625) scale(0.7)"/>
      <use xlink:href="#DejaVuSans-Oblique-62" transform="translate(126.459961 0.015625)"/>
      <use xlink:href="#DejaVuSans-Oblique-6f" transform="translate(189.936523 0.015625)"/>
      <use xlink:href="#DejaVuSans-Oblique-74" transform="translate(251.118164 0.015625)"/>
     </g>
    </g>
    <g id="line2d_29">
     <path d="M 66.6 278.285562 
L 76.6 278.285562 
L 86.6 278.285562 
" style="fill: none; stroke-dasharray: 5.55,2.4; stroke-dashoffset: 0; stroke: #008000; stroke-width: 1.5"/>
    </g>
    <g id="text_16">
     <!-- $C_{L} top$ -->
     <g transform="translate(94.6 281.785562) scale(0.1 -0.1)">
      <defs>
       <path id="DejaVuSans-Oblique-70" d="M 3175 2156 
Q 3175 2616 2975 2859 
Q 2775 3103 2400 3103 
Q 2144 3103 1911 2972 
Q 1678 2841 1497 2591 
Q 1319 2344 1212 1994 
Q 1106 1644 1106 1300 
Q 1106 863 1306 627 
Q 1506 391 1875 391 
Q 2147 391 2380 519 
Q 2613 647 2778 891 
Q 2956 1147 3065 1494 
Q 3175 1841 3175 2156 
z
M 1394 2969 
Q 1625 3272 1939 3428 
Q 2253 3584 2638 3584 
Q 3175 3584 3472 3232 
Q 3769 2881 3769 2247 
Q 3769 1728 3584 1258 
Q 3400 788 3053 416 
Q 2822 169 2531 39 
Q 2241 -91 1919 -91 
Q 1547 -91 1294 64 
Q 1041 219 916 525 
L 556 -1331 
L -19 -1331 
L 922 3500 
L 1497 3500 
L 1394 2969 
z
" transform="scale(0.015625)"/>
      </defs>
      <use xlink:href="#DejaVuSans-Oblique-43" transform="translate(0 0.78125)"/>
      <use xlink:href="#DejaVuSans-Oblique-4c" transform="translate(69.824219 -15.625) scale(0.7)"/>
      <use xlink:href="#DejaVuSans-Oblique-74" transform="translate(111.557617 0.78125)"/>
      <use xlink:href="#DejaVuSans-Oblique-6f" transform="translate(150.766602 0.78125)"/>
      <use xlink:href="#DejaVuSans-Oblique-70" transform="translate(211.948242 0.78125)"/>
     </g>
    </g>
    <g id="line2d_30">
     <path d="M 66.6 292.984 
L 76.6 292.984 
L 86.6 292.984 
" style="fill: none; stroke-dasharray: 5.55,2.4; stroke-dashoffset: 0; stroke: #000000; stroke-width: 1.5"/>
    </g>
    <g id="text_17">
     <!-- $C_{D} top$ -->
     <g transform="translate(94.6 296.484) scale(0.1 -0.1)">
      <use xlink:href="#DejaVuSans-Oblique-43" transform="translate(0 0.78125)"/>
      <use xlink:href="#DejaVuSans-Oblique-44" transform="translate(69.824219 -15.625) scale(0.7)"/>
      <use xlink:href="#DejaVuSans-Oblique-74" transform="translate(126.459961 0.78125)"/>
      <use xlink:href="#DejaVuSans-Oblique-6f" transform="translate(165.668945 0.78125)"/>
      <use xlink:href="#DejaVuSans-Oblique-70" transform="translate(226.850586 0.78125)"/>
     </g>
    </g>
   </g>
  </g>
 </g>
 <defs>
  <clipPath id="p812d06494e">
   <rect x="57.6" y="41.472" width="357.12" height="266.112"/>
  </clipPath>
 </defs>
</svg>
