<?xml version="1.0" encoding="utf-8" standalone="no"?>
<!DOCTYPE svg PUBLIC "-//W3C//DTD SVG 1.1//EN"
  "http://www.w3.org/Graphics/SVG/1.1/DTD/svg11.dtd">
<svg xmlns:xlink="http://www.w3.org/1999/xlink" width="460.8pt" height="345.6pt" viewBox="0 0 460.8 345.6" xmlns="http://www.w3.org/2000/svg" version="1.1">
 <metadata>
  <rdf:RDF xmlns:dc="http://purl.org/dc/elements/1.1/" xmlns:cc="http://creativecommons.org/ns#" xmlns:rdf="http://www.w3.org/1999/02/22-rdf-syntax-ns#">
   <cc:Work>
    <dc:type rdf:resource="http://purl.org/dc/dcmitype/StillImage"/>
    <dc:date>2023-08-06T18:18:44.721570</dc:date>
    <dc:format>image/svg+xml</dc:format>
    <dc:creator>
     <cc:Agent>
      <dc:title>Matplotlib v3.6.3, https://matplotlib.org/</dc:title>
     </cc:Agent>
    </dc:creator>
   </cc:Work>
  </rdf:RDF>
 </metadata>
 <defs>
  <style type="text/css">*{stroke-linejoin: round; stroke-linecap: butt}</style>
 </defs>
 <g id="figure_1">
  <g id="patch_1">
   <path d="M 0 345.6 
L 460.8 345.6 
L 460.8 0 
L 0 0 
z
" style="fill: #ffffff"/>
  </g>
  <g id="axes_1">
   <g id="patch_2">
    <path d="M 57.6 307.584 
L 414.72 307.584 
L 414.72 41.472 
L 57.6 41.472 
z
" style="fill: #ffffff"/>
   </g>
   <g id="matplotlib.axis_1">
    <g id="xtick_1">
     <g id="line2d_1">
      <path d="M 57.6 307.584 
L 57.6 41.472 
" clip-path="url(#p34fdf21863)" style="fill: none; stroke: #b0b0b0; stroke-width: 0.8; stroke-linecap: square"/>
     </g>
     <g id="line2d_2">
      <defs>
       <path id="ma5a629dcba" d="M 0 0 
L 0 3.5 
" style="stroke: #000000; stroke-width: 0.8"/>
      </defs>
      <g>
       <use xlink:href="#ma5a629dcba" x="57.6" y="307.584" style="stroke: #000000; stroke-width: 0.8"/>
      </g>
     </g>
     <g id="text_1">
      <!-- 0.00 -->
      <g transform="translate(46.467188 322.182437) scale(0.1 -0.1)">
       <defs>
        <path id="DejaVuSans-30" d="M 2034 4250 
Q 1547 4250 1301 3770 
Q 1056 3291 1056 2328 
Q 1056 1369 1301 889 
Q 1547 409 2034 409 
Q 2525 409 2770 889 
Q 3016 1369 3016 2328 
Q 3016 3291 2770 3770 
Q 2525 4250 2034 4250 
z
M 2034 4750 
Q 2819 4750 3233 4129 
Q 3647 3509 3647 2328 
Q 3647 1150 3233 529 
Q 2819 -91 2034 -91 
Q 1250 -91 836 529 
Q 422 1150 422 2328 
Q 422 3509 836 4129 
Q 1250 4750 2034 4750 
z
" transform="scale(0.015625)"/>
        <path id="DejaVuSans-2e" d="M 684 794 
L 1344 794 
L 1344 0 
L 684 0 
L 684 794 
z
" transform="scale(0.015625)"/>
       </defs>
       <use xlink:href="#DejaVuSans-30"/>
       <use xlink:href="#DejaVuSans-2e" x="63.623047"/>
       <use xlink:href="#DejaVuSans-30" x="95.410156"/>
       <use xlink:href="#DejaVuSans-30" x="159.033203"/>
      </g>
     </g>
    </g>
    <g id="xtick_2">
     <g id="line2d_3">
      <path d="M 129.024 307.584 
L 129.024 41.472 
" clip-path="url(#p34fdf21863)" style="fill: none; stroke: #b0b0b0; stroke-width: 0.8; stroke-linecap: square"/>
     </g>
     <g id="line2d_4">
      <g>
       <use xlink:href="#ma5a629dcba" x="129.024" y="307.584" style="stroke: #000000; stroke-width: 0.8"/>
      </g>
     </g>
     <g id="text_2">
      <!-- 0.01 -->
      <g transform="translate(117.891188 322.182437) scale(0.1 -0.1)">
       <defs>
        <path id="DejaVuSans-31" d="M 794 531 
L 1825 531 
L 1825 4091 
L 703 3866 
L 703 4441 
L 1819 4666 
L 2450 4666 
L 2450 531 
L 3481 531 
L 3481 0 
L 794 0 
L 794 531 
z
" transform="scale(0.015625)"/>
       </defs>
       <use xlink:href="#DejaVuSans-30"/>
       <use xlink:href="#DejaVuSans-2e" x="63.623047"/>
       <use xlink:href="#DejaVuSans-30" x="95.410156"/>
       <use xlink:href="#DejaVuSans-31" x="159.033203"/>
      </g>
     </g>
    </g>
    <g id="xtick_3">
     <g id="line2d_5">
      <path d="M 200.448 307.584 
L 200.448 41.472 
" clip-path="url(#p34fdf21863)" style="fill: none; stroke: #b0b0b0; stroke-width: 0.8; stroke-linecap: square"/>
     </g>
     <g id="line2d_6">
      <g>
       <use xlink:href="#ma5a629dcba" x="200.448" y="307.584" style="stroke: #000000; stroke-width: 0.8"/>
      </g>
     </g>
     <g id="text_3">
      <!-- 0.02 -->
      <g transform="translate(189.315187 322.182437) scale(0.1 -0.1)">
       <defs>
        <path id="DejaVuSans-32" d="M 1228 531 
L 3431 531 
L 3431 0 
L 469 0 
L 469 531 
Q 828 903 1448 1529 
Q 2069 2156 2228 2338 
Q 2531 2678 2651 2914 
Q 2772 3150 2772 3378 
Q 2772 3750 2511 3984 
Q 2250 4219 1831 4219 
Q 1534 4219 1204 4116 
Q 875 4013 500 3803 
L 500 4441 
Q 881 4594 1212 4672 
Q 1544 4750 1819 4750 
Q 2544 4750 2975 4387 
Q 3406 4025 3406 3419 
Q 3406 3131 3298 2873 
Q 3191 2616 2906 2266 
Q 2828 2175 2409 1742 
Q 1991 1309 1228 531 
z
" transform="scale(0.015625)"/>
       </defs>
       <use xlink:href="#DejaVuSans-30"/>
       <use xlink:href="#DejaVuSans-2e" x="63.623047"/>
       <use xlink:href="#DejaVuSans-30" x="95.410156"/>
       <use xlink:href="#DejaVuSans-32" x="159.033203"/>
      </g>
     </g>
    </g>
    <g id="xtick_4">
     <g id="line2d_7">
      <path d="M 271.872 307.584 
L 271.872 41.472 
" clip-path="url(#p34fdf21863)" style="fill: none; stroke: #b0b0b0; stroke-width: 0.8; stroke-linecap: square"/>
     </g>
     <g id="line2d_8">
      <g>
       <use xlink:href="#ma5a629dcba" x="271.872" y="307.584" style="stroke: #000000; stroke-width: 0.8"/>
      </g>
     </g>
     <g id="text_4">
      <!-- 0.03 -->
      <g transform="translate(260.739188 322.182437) scale(0.1 -0.1)">
       <defs>
        <path id="DejaVuSans-33" d="M 2597 2516 
Q 3050 2419 3304 2112 
Q 3559 1806 3559 1356 
Q 3559 666 3084 287 
Q 2609 -91 1734 -91 
Q 1441 -91 1130 -33 
Q 819 25 488 141 
L 488 750 
Q 750 597 1062 519 
Q 1375 441 1716 441 
Q 2309 441 2620 675 
Q 2931 909 2931 1356 
Q 2931 1769 2642 2001 
Q 2353 2234 1838 2234 
L 1294 2234 
L 1294 2753 
L 1863 2753 
Q 2328 2753 2575 2939 
Q 2822 3125 2822 3475 
Q 2822 3834 2567 4026 
Q 2313 4219 1838 4219 
Q 1578 4219 1281 4162 
Q 984 4106 628 3988 
L 628 4550 
Q 988 4650 1302 4700 
Q 1616 4750 1894 4750 
Q 2613 4750 3031 4423 
Q 3450 4097 3450 3541 
Q 3450 3153 3228 2886 
Q 3006 2619 2597 2516 
z
" transform="scale(0.015625)"/>
       </defs>
       <use xlink:href="#DejaVuSans-30"/>
       <use xlink:href="#DejaVuSans-2e" x="63.623047"/>
       <use xlink:href="#DejaVuSans-30" x="95.410156"/>
       <use xlink:href="#DejaVuSans-33" x="159.033203"/>
      </g>
     </g>
    </g>
    <g id="xtick_5">
     <g id="line2d_9">
      <path d="M 343.296 307.584 
L 343.296 41.472 
" clip-path="url(#p34fdf21863)" style="fill: none; stroke: #b0b0b0; stroke-width: 0.8; stroke-linecap: square"/>
     </g>
     <g id="line2d_10">
      <g>
       <use xlink:href="#ma5a629dcba" x="343.296" y="307.584" style="stroke: #000000; stroke-width: 0.8"/>
      </g>
     </g>
     <g id="text_5">
      <!-- 0.04 -->
      <g transform="translate(332.163187 322.182437) scale(0.1 -0.1)">
       <defs>
        <path id="DejaVuSans-34" d="M 2419 4116 
L 825 1625 
L 2419 1625 
L 2419 4116 
z
M 2253 4666 
L 3047 4666 
L 3047 1625 
L 3713 1625 
L 3713 1100 
L 3047 1100 
L 3047 0 
L 2419 0 
L 2419 1100 
L 313 1100 
L 313 1709 
L 2253 4666 
z
" transform="scale(0.015625)"/>
       </defs>
       <use xlink:href="#DejaVuSans-30"/>
       <use xlink:href="#DejaVuSans-2e" x="63.623047"/>
       <use xlink:href="#DejaVuSans-30" x="95.410156"/>
       <use xlink:href="#DejaVuSans-34" x="159.033203"/>
      </g>
     </g>
    </g>
    <g id="xtick_6">
     <g id="line2d_11">
      <path d="M 414.72 307.584 
L 414.72 41.472 
" clip-path="url(#p34fdf21863)" style="fill: none; stroke: #b0b0b0; stroke-width: 0.8; stroke-linecap: square"/>
     </g>
     <g id="line2d_12">
      <g>
       <use xlink:href="#ma5a629dcba" x="414.72" y="307.584" style="stroke: #000000; stroke-width: 0.8"/>
      </g>
     </g>
     <g id="text_6">
      <!-- 0.05 -->
      <g transform="translate(403.587188 322.182437) scale(0.1 -0.1)">
       <defs>
        <path id="DejaVuSans-35" d="M 691 4666 
L 3169 4666 
L 3169 4134 
L 1269 4134 
L 1269 2991 
Q 1406 3038 1543 3061 
Q 1681 3084 1819 3084 
Q 2600 3084 3056 2656 
Q 3513 2228 3513 1497 
Q 3513 744 3044 326 
Q 2575 -91 1722 -91 
Q 1428 -91 1123 -41 
Q 819 9 494 109 
L 494 744 
Q 775 591 1075 516 
Q 1375 441 1709 441 
Q 2250 441 2565 725 
Q 2881 1009 2881 1497 
Q 2881 1984 2565 2268 
Q 2250 2553 1709 2553 
Q 1456 2553 1204 2497 
Q 953 2441 691 2322 
L 691 4666 
z
" transform="scale(0.015625)"/>
       </defs>
       <use xlink:href="#DejaVuSans-30"/>
       <use xlink:href="#DejaVuSans-2e" x="63.623047"/>
       <use xlink:href="#DejaVuSans-30" x="95.410156"/>
       <use xlink:href="#DejaVuSans-35" x="159.033203"/>
      </g>
     </g>
    </g>
    <g id="text_7">
     <!-- Time (s) -->
     <g transform="translate(215.831094 335.860562) scale(0.1 -0.1)">
      <defs>
       <path id="DejaVuSans-54" d="M -19 4666 
L 3928 4666 
L 3928 4134 
L 2272 4134 
L 2272 0 
L 1638 0 
L 1638 4134 
L -19 4134 
L -19 4666 
z
" transform="scale(0.015625)"/>
       <path id="DejaVuSans-69" d="M 603 3500 
L 1178 3500 
L 1178 0 
L 603 0 
L 603 3500 
z
M 603 4863 
L 1178 4863 
L 1178 4134 
L 603 4134 
L 603 4863 
z
" transform="scale(0.015625)"/>
       <path id="DejaVuSans-6d" d="M 3328 2828 
Q 3544 3216 3844 3400 
Q 4144 3584 4550 3584 
Q 5097 3584 5394 3201 
Q 5691 2819 5691 2113 
L 5691 0 
L 5113 0 
L 5113 2094 
Q 5113 2597 4934 2840 
Q 4756 3084 4391 3084 
Q 3944 3084 3684 2787 
Q 3425 2491 3425 1978 
L 3425 0 
L 2847 0 
L 2847 2094 
Q 2847 2600 2669 2842 
Q 2491 3084 2119 3084 
Q 1678 3084 1418 2786 
Q 1159 2488 1159 1978 
L 1159 0 
L 581 0 
L 581 3500 
L 1159 3500 
L 1159 2956 
Q 1356 3278 1631 3431 
Q 1906 3584 2284 3584 
Q 2666 3584 2933 3390 
Q 3200 3197 3328 2828 
z
" transform="scale(0.015625)"/>
       <path id="DejaVuSans-65" d="M 3597 1894 
L 3597 1613 
L 953 1613 
Q 991 1019 1311 708 
Q 1631 397 2203 397 
Q 2534 397 2845 478 
Q 3156 559 3463 722 
L 3463 178 
Q 3153 47 2828 -22 
Q 2503 -91 2169 -91 
Q 1331 -91 842 396 
Q 353 884 353 1716 
Q 353 2575 817 3079 
Q 1281 3584 2069 3584 
Q 2775 3584 3186 3129 
Q 3597 2675 3597 1894 
z
M 3022 2063 
Q 3016 2534 2758 2815 
Q 2500 3097 2075 3097 
Q 1594 3097 1305 2825 
Q 1016 2553 972 2059 
L 3022 2063 
z
" transform="scale(0.015625)"/>
       <path id="DejaVuSans-20" transform="scale(0.015625)"/>
       <path id="DejaVuSans-28" d="M 1984 4856 
Q 1566 4138 1362 3434 
Q 1159 2731 1159 2009 
Q 1159 1288 1364 580 
Q 1569 -128 1984 -844 
L 1484 -844 
Q 1016 -109 783 600 
Q 550 1309 550 2009 
Q 550 2706 781 3412 
Q 1013 4119 1484 4856 
L 1984 4856 
z
" transform="scale(0.015625)"/>
       <path id="DejaVuSans-73" d="M 2834 3397 
L 2834 2853 
Q 2591 2978 2328 3040 
Q 2066 3103 1784 3103 
Q 1356 3103 1142 2972 
Q 928 2841 928 2578 
Q 928 2378 1081 2264 
Q 1234 2150 1697 2047 
L 1894 2003 
Q 2506 1872 2764 1633 
Q 3022 1394 3022 966 
Q 3022 478 2636 193 
Q 2250 -91 1575 -91 
Q 1294 -91 989 -36 
Q 684 19 347 128 
L 347 722 
Q 666 556 975 473 
Q 1284 391 1588 391 
Q 1994 391 2212 530 
Q 2431 669 2431 922 
Q 2431 1156 2273 1281 
Q 2116 1406 1581 1522 
L 1381 1569 
Q 847 1681 609 1914 
Q 372 2147 372 2553 
Q 372 3047 722 3315 
Q 1072 3584 1716 3584 
Q 2034 3584 2315 3537 
Q 2597 3491 2834 3397 
z
" transform="scale(0.015625)"/>
       <path id="DejaVuSans-29" d="M 513 4856 
L 1013 4856 
Q 1481 4119 1714 3412 
Q 1947 2706 1947 2009 
Q 1947 1309 1714 600 
Q 1481 -109 1013 -844 
L 513 -844 
Q 928 -128 1133 580 
Q 1338 1288 1338 2009 
Q 1338 2731 1133 3434 
Q 928 4138 513 4856 
z
" transform="scale(0.015625)"/>
      </defs>
      <use xlink:href="#DejaVuSans-54"/>
      <use xlink:href="#DejaVuSans-69" x="57.958984"/>
      <use xlink:href="#DejaVuSans-6d" x="85.742188"/>
      <use xlink:href="#DejaVuSans-65" x="183.154297"/>
      <use xlink:href="#DejaVuSans-20" x="244.677734"/>
      <use xlink:href="#DejaVuSans-28" x="276.464844"/>
      <use xlink:href="#DejaVuSans-73" x="315.478516"/>
      <use xlink:href="#DejaVuSans-29" x="367.578125"/>
     </g>
    </g>
   </g>
   <g id="matplotlib.axis_2">
    <g id="ytick_1">
     <g id="line2d_13">
      <path d="M 57.6 276.878769 
L 414.72 276.878769 
" clip-path="url(#p34fdf21863)" style="fill: none; stroke: #b0b0b0; stroke-width: 0.8; stroke-linecap: square"/>
     </g>
     <g id="line2d_14">
      <defs>
       <path id="mfc560d549c" d="M 0 0 
L -3.5 0 
" style="stroke: #000000; stroke-width: 0.8"/>
      </defs>
      <g>
       <use xlink:href="#mfc560d549c" x="57.6" y="276.878769" style="stroke: #000000; stroke-width: 0.8"/>
      </g>
     </g>
     <g id="text_8">
      <!-- −1.0 -->
      <g transform="translate(26.317187 280.677988) scale(0.1 -0.1)">
       <defs>
        <path id="DejaVuSans-2212" d="M 678 2272 
L 4684 2272 
L 4684 1741 
L 678 1741 
L 678 2272 
z
" transform="scale(0.015625)"/>
       </defs>
       <use xlink:href="#DejaVuSans-2212"/>
       <use xlink:href="#DejaVuSans-31" x="83.789062"/>
       <use xlink:href="#DejaVuSans-2e" x="147.412109"/>
       <use xlink:href="#DejaVuSans-30" x="179.199219"/>
      </g>
     </g>
    </g>
    <g id="ytick_2">
     <g id="line2d_15">
      <path d="M 57.6 225.703385 
L 414.72 225.703385 
" clip-path="url(#p34fdf21863)" style="fill: none; stroke: #b0b0b0; stroke-width: 0.8; stroke-linecap: square"/>
     </g>
     <g id="line2d_16">
      <g>
       <use xlink:href="#mfc560d549c" x="57.6" y="225.703385" style="stroke: #000000; stroke-width: 0.8"/>
      </g>
     </g>
     <g id="text_9">
      <!-- −0.5 -->
      <g transform="translate(26.317187 229.502603) scale(0.1 -0.1)">
       <use xlink:href="#DejaVuSans-2212"/>
       <use xlink:href="#DejaVuSans-30" x="83.789062"/>
       <use xlink:href="#DejaVuSans-2e" x="147.412109"/>
       <use xlink:href="#DejaVuSans-35" x="179.199219"/>
      </g>
     </g>
    </g>
    <g id="ytick_3">
     <g id="line2d_17">
      <path d="M 57.6 174.528 
L 414.72 174.528 
" clip-path="url(#p34fdf21863)" style="fill: none; stroke: #b0b0b0; stroke-width: 0.8; stroke-linecap: square"/>
     </g>
     <g id="line2d_18">
      <g>
       <use xlink:href="#mfc560d549c" x="57.6" y="174.528" style="stroke: #000000; stroke-width: 0.8"/>
      </g>
     </g>
     <g id="text_10">
      <!-- 0.0 -->
      <g transform="translate(34.696875 178.327219) scale(0.1 -0.1)">
       <use xlink:href="#DejaVuSans-30"/>
       <use xlink:href="#DejaVuSans-2e" x="63.623047"/>
       <use xlink:href="#DejaVuSans-30" x="95.410156"/>
      </g>
     </g>
    </g>
    <g id="ytick_4">
     <g id="line2d_19">
      <path d="M 57.6 123.352615 
L 414.72 123.352615 
" clip-path="url(#p34fdf21863)" style="fill: none; stroke: #b0b0b0; stroke-width: 0.8; stroke-linecap: square"/>
     </g>
     <g id="line2d_20">
      <g>
       <use xlink:href="#mfc560d549c" x="57.6" y="123.352615" style="stroke: #000000; stroke-width: 0.8"/>
      </g>
     </g>
     <g id="text_11">
      <!-- 0.5 -->
      <g transform="translate(34.696875 127.151834) scale(0.1 -0.1)">
       <use xlink:href="#DejaVuSans-30"/>
       <use xlink:href="#DejaVuSans-2e" x="63.623047"/>
       <use xlink:href="#DejaVuSans-35" x="95.410156"/>
      </g>
     </g>
    </g>
    <g id="ytick_5">
     <g id="line2d_21">
      <path d="M 57.6 72.177231 
L 414.72 72.177231 
" clip-path="url(#p34fdf21863)" style="fill: none; stroke: #b0b0b0; stroke-width: 0.8; stroke-linecap: square"/>
     </g>
     <g id="line2d_22">
      <g>
       <use xlink:href="#mfc560d549c" x="57.6" y="72.177231" style="stroke: #000000; stroke-width: 0.8"/>
      </g>
     </g>
     <g id="text_12">
      <!-- 1.0 -->
      <g transform="translate(34.696875 75.97645) scale(0.1 -0.1)">
       <use xlink:href="#DejaVuSans-31"/>
       <use xlink:href="#DejaVuSans-2e" x="63.623047"/>
       <use xlink:href="#DejaVuSans-30" x="95.410156"/>
      </g>
     </g>
    </g>
    <g id="text_13">
     <!-- $C_{L}$ $C_{D}$ -->
     <g transform="translate(20.2375 188.028) rotate(-90) scale(0.1 -0.1)">
      <defs>
       <path id="DejaVuSans-Oblique-43" d="M 4447 4306 
L 4319 3641 
Q 4019 3944 3683 4091 
Q 3347 4238 2956 4238 
Q 2422 4238 2017 3981 
Q 1613 3725 1319 3200 
Q 1131 2863 1032 2486 
Q 934 2109 934 1728 
Q 934 1091 1264 756 
Q 1594 422 2222 422 
Q 2656 422 3056 561 
Q 3456 700 3834 978 
L 3688 231 
Q 3316 72 2936 -9 
Q 2556 -91 2175 -91 
Q 1278 -91 773 396 
Q 269 884 269 1753 
Q 269 2309 461 2846 
Q 653 3384 1013 3828 
Q 1394 4300 1883 4525 
Q 2372 4750 3022 4750 
Q 3422 4750 3780 4639 
Q 4138 4528 4447 4306 
z
" transform="scale(0.015625)"/>
       <path id="DejaVuSans-Oblique-4c" d="M 1075 4666 
L 1709 4666 
L 909 525 
L 3181 525 
L 3078 0 
L 172 0 
L 1075 4666 
z
" transform="scale(0.015625)"/>
       <path id="DejaVuSans-Oblique-44" d="M 1081 4666 
L 2438 4666 
Q 3519 4666 4070 4208 
Q 4622 3750 4622 2847 
Q 4622 2250 4412 1698 
Q 4203 1147 3834 769 
Q 3463 381 2891 190 
Q 2319 0 1538 0 
L 172 0 
L 1081 4666 
z
M 1613 4147 
L 909 519 
L 1734 519 
Q 2794 519 3375 1128 
Q 3956 1738 3956 2847 
Q 3956 3519 3581 3833 
Q 3206 4147 2406 4147 
L 1613 4147 
z
" transform="scale(0.015625)"/>
      </defs>
      <use xlink:href="#DejaVuSans-Oblique-43" transform="translate(0 0.78125)"/>
      <use xlink:href="#DejaVuSans-Oblique-4c" transform="translate(69.824219 -15.625) scale(0.7)"/>
      <use xlink:href="#DejaVuSans-20" transform="translate(111.557617 0.78125)"/>
      <use xlink:href="#DejaVuSans-Oblique-43" transform="translate(143.344727 0.78125)"/>
      <use xlink:href="#DejaVuSans-Oblique-44" transform="translate(213.168945 -15.625) scale(0.7)"/>
     </g>
    </g>
   </g>
   <g id="line2d_23">
    <path d="M 57.6 174.528 
L 57.874708 176.082356 
L 57.938102 166.573294 
L 58.001496 169.344564 
L 58.195726 171.574228 
L 58.332585 172.677164 
L 58.476384 172.343071 
L 58.55124 172.388847 
L 58.864442 172.897077 
L 58.946826 173.070392 
L 59.02921 172.966737 
L 59.11489 173.176952 
L 59.200569 173.088775 
L 59.371928 173.300246 
L 59.457608 173.431924 
L 59.714647 173.231615 
L 59.971686 173.542967 
L 60.143045 173.491406 
L 60.400084 173.581491 
L 60.485763 173.493916 
L 60.742802 173.614018 
L 61.361768 173.354712 
L 61.554947 173.241228 
L 61.941305 173.115538 
L 62.810611 172.359538 
L 63.293558 172.169392 
L 64.066274 171.850536 
L 64.946469 171.955818 
L 65.966811 172.77658 
L 67.089189 174.35117 
L 67.59936 175.321267 
L 69.048847 178.648031 
L 69.468988 179.933146 
L 72.409976 188.20502 
L 73.250259 190.212197 
L 73.880471 191.587952 
L 74.825788 193.414199 
L 75.666071 194.700654 
L 76.506353 195.512306 
L 78.502024 197.139935 
L 80.077553 200.838774 
L 80.8128 202.453374 
L 82.073224 204.109186 
L 82.814836 204.849153 
L 89.425694 212.97967 
L 90.476047 214.006103 
L 91.736471 214.786723 
L 92.366682 214.91411 
L 92.996894 214.850627 
L 93.627106 214.615229 
L 94.677459 213.841468 
L 95.622776 212.742337 
L 96.252988 211.770359 
L 97.198306 209.925137 
L 98.143624 207.59605 
L 99.193976 204.360505 
L 100.244329 200.364757 
L 101.536582 194.361223 
L 102.726982 187.818154 
L 104.1408 178.763005 
L 105.5232 168.519476 
L 107.3664 153.061261 
L 110.249233 128.718223 
L 111.273035 121.856958 
L 112.113318 117.675878 
L 112.743529 115.558887 
L 113.268706 114.438651 
L 113.793882 113.865326 
L 114.214024 113.735154 
L 114.634165 113.813947 
L 115.150073 114.293367 
L 115.652773 115.093642 
L 116.144926 116.250873 
L 116.73551 118.222471 
L 117.569275 122.215958 
L 118.503438 128.054865 
L 119.854703 138.751607 
L 123.136346 166.52003 
L 125.552 181.288294 
L 127.3376 189.998725 
L 129.534171 199.07309 
L 131.631543 205.273548 
L 132.992 208.156208 
L 133.3888 208.518654 
L 133.488 208.654647 
L 133.7856 208.54624 
L 134.3808 208.580012 
L 134.6784 208.392002 
L 134.8768 208.246273 
L 134.976 208.266773 
L 135.2736 207.701532 
L 135.8688 206.369333 
L 136.796612 203.467777 
L 139.632565 190.179438 
L 143.54688 170.924168 
L 145.6896 161.703705 
L 146.88 156.760101 
L 152.91617 131.718093 
L 154.593792 125.989438 
L 155.879424 122.362155 
L 156.87936 120.1682 
L 157.701818 118.864678 
L 158.351701 118.249813 
L 158.863174 118.013352 
L 159.374646 118.01611 
L 159.866447 118.277563 
L 160.574639 118.994806 
L 161.28384 120.170501 
L 162.23616 122.440762 
L 162.9504 124.743101 
L 163.870255 128.586316 
L 164.736 133.21533 
L 165.5424 138.408163 
L 166.5792 146.362556 
L 167.7312 156.863361 
L 168.9984 170.538045 
L 172.938938 215.383877 
L 173.945818 224.123495 
L 174.797961 229.637228 
L 175.543579 232.866141 
L 176.013474 234.155616 
L 176.483368 234.929707 
L 176.671326 235.124233 
L 177.043156 235.36737 
L 177.492621 235.388769 
L 178.031978 235.081819 
L 178.481443 234.55125 
L 179.112369 233.379216 
L 179.753354 231.648776 
L 180.669046 228.215313 
L 181.859446 222.341155 
L 183.249853 213.908394 
L 186.56 193.483361 
L 187.7504 188.178718 
L 188.8416 184.583011 
L 189.536 182.866674 
L 189.950836 182.050283 
L 190.816582 180.703627 
L 191.898764 179.456561 
L 192.223418 179.229678 
L 193.197382 178.158003 
L 193.4172 178.016757 
L 194.4216 176.539373 
L 195.7608 173.792894 
L 196.2072 173.311467 
L 196.7652 173.111038 
L 197.2116 173.412396 
L 197.4348 173.682649 
L 197.9928 174.856178 
L 198.8856 177.182418 
L 199.89 179.878809 
L 202.7916 186.204894 
L 205.1064 192.683634 
L 207.0504 198.368396 
L 207.915055 200.016606 
L 208.672582 200.759327 
L 209.213673 200.983892 
L 210.512291 200.872326 
L 211.810909 200.191023 
L 213.109527 199.094206 
L 213.975273 197.99569 
L 214.7328 196.681515 
L 215.490327 194.927866 
L 216.464291 192.041658 
L 217.654691 187.628554 
L 219.1104 181.172769 
L 221.0688 170.848779 
L 222.730524 160.807883 
L 225.092155 144.915773 
L 227.505655 129.106143 
L 228.66869 122.914025 
L 229.600486 119.222075 
L 230.290097 117.338 
L 230.864772 116.370234 
L 231.324513 115.955935 
L 231.784254 115.886575 
L 232.129059 116.028128 
L 232.704 116.69352 
L 233.28 117.807234 
L 233.94816 119.741819 
L 234.611712 122.414643 
L 235.385856 126.540347 
L 236.268218 132.516742 
L 237.242182 140.564467 
L 238.432582 152.321421 
L 243.911314 212.755429 
L 245.368947 225.446675 
L 246.497437 233.369987 
L 247.429642 238.718898 
L 248.434695 242.959083 
L 249.165642 245.052345 
L 249.713853 246.091467 
L 250.262063 246.713989 
L 250.80192 247.03626 
L 251.42688 246.835744 
L 251.784 246.541011 
L 252.40896 245.626324 
L 253.30176 243.29919 
L 254.016 240.590636 
L 254.748554 237.020045 
L 256.122092 227.768699 
L 257.495631 216.203174 
L 259.763546 193.824681 
L 263.797072 149.278814 
L 264.984686 136.265843 
L 266.005029 127.499536 
L 266.770286 122.745512 
L 267.49728 119.582649 
L 268.186011 117.644984 
L 268.77696 116.684801 
L 269.25312 116.340133 
L 269.61024 116.309859 
L 269.96736 116.398667 
L 270.5328 116.868273 
L 271.5372 118.475293 
L 272.2176 120.099977 
L 272.9088 122.486272 
L 273.6 125.754137 
L 274.6368 132.197008 
L 275.5584 138.955238 
L 279.0144 165.602334 
L 280.346228 175.75658 
L 282.687634 193.421561 
L 283.707977 199.528406 
L 285.570103 209.112811 
L 287.121989 216.806967 
L 288.280216 221.282693 
L 289.052368 223.469468 
L 289.341924 224.053052 
L 289.728 224.636798 
L 290.307114 225.264242 
L 290.789708 225.340094 
L 291.754897 224.678872 
L 292.334011 223.714971 
L 292.720086 222.928643 
L 293.685276 220.405507 
L 295.036541 215.423186 
L 295.905211 211.431496 
L 296.972434 205.871124 
L 299.28181 192.33023 
L 301.76685 175.608094 
L 303.05025 166.917702 
L 309.01248 127.698583 
L 310.930347 116.44326 
L 311.9616 111.663117 
L 312.768 108.808555 
L 313.4592 107.115605 
L 314.1504 106.111045 
L 314.6112 105.881503 
L 315.072 105.943124 
L 315.4176 106.198997 
L 315.9936 106.967507 
L 316.4544 107.937887 
L 317.104941 109.775866 
L 317.755482 112.346332 
L 318.2976 115.187288 
L 319.070829 120.361966 
L 319.931743 127.825451 
L 320.900271 138.375465 
L 321.977018 152.672543 
L 326.835431 220.399311 
L 327.878362 229.830663 
L 328.680789 234.793515 
L 329.560615 237.91501 
L 330.101169 238.989808 
L 330.721477 239.603478 
L 331.696246 239.635361 
L 332.227938 239.17831 
L 332.85024 238.254309 
L 333.4752 236.932806 
L 334.27872 234.416355 
L 334.90368 231.768603 
L 335.79648 226.829405 
L 336.794585 219.871602 
L 339.821319 196.577662 
L 340.805189 190.831875 
L 342.000778 185.746412 
L 342.598573 184.024289 
L 343.096735 183.014461 
L 343.716141 182.310141 
L 344.766494 182.029176 
L 345.0816 182.072123 
L 345.291671 182.147384 
L 345.711812 182.391442 
L 346.762165 182.506052 
L 346.9788 182.344317 
L 347.0904 182.398427 
L 347.4252 182.096631 
L 347.9832 181.217712 
L 349.3224 178.576435 
L 349.931127 178.127115 
L 350.134036 178.157785 
L 350.546618 178.57503 
L 350.979491 179.473043 
L 351.520582 180.875646 
L 352.494545 183.460726 
L 353.576727 184.883801 
L 354.334255 185.453745 
L 355.741091 186.347123 
L 355.957527 186.391655 
L 356.3904 186.645431 
L 356.715055 186.741283 
L 358.446545 188.851299 
L 359.528727 190.349619 
L 360.069818 190.699053 
L 360.719127 190.729247 
L 361.043782 190.545229 
L 361.368436 190.253124 
L 362.125964 189.293492 
L 362.883491 187.729421 
L 364.614982 182.847285 
L 366.8436 175.328453 
L 368.1828 170.248448 
L 369.60384 164.201281 
L 371.38944 155.829923 
L 378.031262 125.054173 
L 379.518171 120.021624 
L 380.410971 117.745708 
L 381.176229 116.379916 
L 381.6864 115.813921 
L 382.196571 115.540668 
L 382.5792 115.520351 
L 383.089371 115.78932 
L 383.588452 116.32494 
L 384.076442 117.164749 
L 384.68643 118.601263 
L 385.479414 121.153257 
L 386.2656 124.41617 
L 387.1872 129.475294 
L 388.1088 135.773617 
L 389.189908 144.889585 
L 390.3912 157.085666 
L 391.842 174.492475 
L 394.912268 212.688159 
L 396.105432 224.35507 
L 396.960519 230.568406 
L 397.627377 233.925473 
L 398.188942 235.777463 
L 398.656912 236.694992 
L 399.105179 237.197696 
L 399.548519 237.323985 
L 400.080528 237.178589 
L 400.801477 236.390889 
L 401.442462 235.1906 
L 401.991877 233.755719 
L 402.724431 231.154531 
L 403.548554 227.393649 
L 404.922092 219.636317 
L 406.204062 211.433823 
L 408.156714 198.904076 
L 409.507978 192.057001 
L 410.376649 188.723809 
L 411.052281 186.609802 
L 411.673976 184.99759 
L 413.459576 182.102697 
L 414.8316 180.618695 
L 414.8316 180.618695 
" clip-path="url(#p34fdf21863)" style="fill: none; stroke: #0000ff; stroke-width: 1.5; stroke-linecap: square"/>
   </g>
   <g id="line2d_24">
    <path d="M 57.6 164.92517 
L 57.633511 -1 
M 57.936354 -1 
L 58.001496 80.216398 
L 58.195726 99.553434 
L 58.476384 105.062842 
L 58.864442 109.836683 
L 59.200569 112.284648 
L 61.554947 123.768431 
L 62.714021 129.337534 
L 63.873095 134.033667 
L 65.150537 138.033315 
L 66.17088 140.634746 
L 67.191223 142.700723 
L 68.418635 144.342116 
L 69.048847 144.92053 
L 69.258918 144.940379 
L 69.784094 145.020291 
L 70.0992 144.982379 
L 70.729412 144.633682 
L 71.359624 143.848255 
L 71.779765 143.007014 
L 72.304941 141.692605 
L 73.040188 139.430839 
L 74.615718 132.704337 
L 77.976847 116.393873 
L 78.922165 114.242633 
L 79.342306 113.712453 
L 80.077553 113.271723 
L 80.392659 113.384802 
L 80.602729 113.396792 
L 80.8128 113.359161 
L 81.548047 113.788817 
L 81.758118 113.80307 
L 82.178259 113.955743 
L 83.031273 114.042342 
L 83.464145 113.97013 
L 83.784291 113.89901 
L 84.613964 113.440002 
L 85.132509 113.063729 
L 87.219953 111.756201 
L 88.585412 111.472799 
L 90.476047 111.281769 
L 91.631435 110.734886 
L 92.681788 109.931164 
L 93.732141 109.158394 
L 94.887529 108.650708 
L 95.412706 108.586969 
L 96.358024 108.768714 
L 96.988235 109.012678 
L 100.139294 111.221426 
L 103.376291 114.307758 
L 105.408 116.479919 
L 106.0992 116.950015 
L 106.6752 117.076587 
L 107.136 116.928909 
L 107.5968 116.523286 
L 108.06475 115.780101 
L 108.639426 114.410735 
L 109.408992 111.760285 
L 110.351318 107.488915 
L 112.428424 97.532586 
L 113.478776 94.454238 
L 114.108988 93.491524 
L 114.424094 93.242932 
L 114.946181 93.167575 
L 115.252019 93.31342 
L 115.652773 93.815213 
L 116.144926 94.879733 
L 116.538648 96.107281 
L 117.198713 99.026817 
L 118.217759 104.972919 
L 121.205968 123.9061 
L 121.8816 126.555485 
L 122.364195 127.72709 
L 122.846789 128.367475 
L 123.232865 128.50522 
L 123.618941 128.412743 
L 124.294573 127.687569 
L 127.7344 122.048989 
L 128.8256 120.754517 
L 129.330103 120.322709 
L 129.534171 120.169026 
L 129.840274 119.862035 
L 130.350446 119.612932 
L 131.24608 119.460964 
L 131.535177 119.467777 
L 133.1904 119.635502 
L 133.488 119.577575 
L 133.8848 119.73019 
L 134.7776 119.640244 
L 134.976 119.468224 
L 136.0672 119.177589 
L 136.901647 118.806498 
L 137.636894 118.566765 
L 138.057035 118.460362 
L 138.792282 118.254698 
L 139.317459 118.358343 
L 139.8492 118.577471 
L 140.0724 118.70548 
L 141.1884 119.638152 
L 142.3044 121.165345 
L 145.45152 125.890999 
L 146.16576 126.312424 
L 146.64192 126.350458 
L 147.12629 126.172865 
L 147.618869 125.76934 
L 148.480883 124.655435 
L 149.958621 122.187897 
L 153.745842 115.629161 
L 155.022336 112.829196 
L 156.736512 108.307486 
L 161.64096 94.816688 
L 162.71232 92.626834 
L 163.42656 91.611634 
L 163.978473 91.190982 
L 164.411345 91.120647 
L 164.736 91.187033 
L 165.312 91.560852 
L 165.7728 92.081392 
L 166.464 93.193047 
L 167.2704 94.950301 
L 168.192 97.657696 
L 169.92 102.91424 
L 170.3808 103.754929 
L 170.8416 104.151207 
L 171.1728 104.074603 
L 171.576 103.642857 
L 171.986618 102.819508 
L 172.520495 101.186647 
L 173.344305 97.911329 
L 175.170326 90.308908 
L 175.825516 88.529601 
L 176.201432 87.975939 
L 176.483368 87.80164 
L 176.671326 87.835889 
L 176.953263 87.988884 
L 177.492621 88.792112 
L 177.852192 89.719053 
L 178.301657 91.216872 
L 178.930907 94.069469 
L 179.478646 97.157006 
L 180.394338 103.583801 
L 182.225723 118.879028 
L 183.437811 128.356661 
L 184.189642 132.842129 
L 184.753516 135.203526 
L 185.129432 136.152232 
L 185.599326 136.875836 
L 185.787284 137.000572 
L 185.975242 136.838882 
L 186.1632 136.928257 
L 186.56 136.563539 
L 187.7504 133.831711 
L 189.4368 128.913943 
L 190.816582 125.650802 
L 192.1152 123.43998 
L 192.980945 122.376091 
L 193.6404 121.965565 
L 194.0868 121.689198 
L 194.31 121.573108 
L 194.5332 121.552852 
L 194.868 121.564199 
L 195.426 121.579224 
L 196.542 122.712215 
L 198.1044 124.805714 
L 198.3276 124.950419 
L 198.8856 124.987121 
L 199.332 124.665859 
L 199.89 123.647779 
L 200.7828 121.203023 
L 202.3452 116.806645 
L 203.1264 115.388636 
L 203.5728 114.980683 
L 204.3504 114.775452 
L 204.7824 114.912637 
L 206.2944 116.304891 
L 207.3744 116.999216 
L 208.023273 116.928544 
L 208.672582 116.56899 
L 209.538327 115.670678 
L 210.404073 114.720854 
L 211.053382 114.221332 
L 211.594473 114.020552 
L 212.243782 114.007443 
L 213.217745 114.409 
L 214.299927 114.897735 
L 216.139636 115.143612 
L 217.1136 115.177493 
L 217.871127 115.333457 
L 218.7648 115.870264 
L 219.5712 116.610035 
L 222.360178 119.577152 
L 223.084769 119.978916 
L 223.793258 120.063758 
L 224.383666 119.849328 
L 224.855992 119.47508 
L 225.4464 118.74546 
L 226.185269 117.404766 
L 227.040441 115.287533 
L 228.436083 110.848684 
L 230.290097 104.781989 
L 231.209578 102.404559 
L 232.014124 100.903634 
L 232.704 100.080184 
L 233.28 99.744432 
L 233.616384 99.72889 
L 234.058752 99.966996 
L 234.50112 100.473744 
L 235.164672 101.749341 
L 236.049408 104.184103 
L 238.865455 112.72053 
L 239.406545 113.526501 
L 239.839418 113.837004 
L 240.272291 113.780204 
L 240.705164 113.353277 
L 241.246255 112.476024 
L 242.328436 109.768299 
L 243.710537 106.770355 
L 244.602514 105.784908 
L 245.180865 105.516733 
L 245.839151 105.577792 
L 246.309355 105.887935 
L 247.061558 106.590042 
L 247.886484 107.851284 
L 248.7088 109.377412 
L 249.165642 110.586193 
L 253.65888 121.083207 
L 255.2064 123.813918 
L 255.938954 124.628045 
L 256.671508 124.810601 
L 257.037785 124.544833 
L 257.495631 124.002784 
L 258.169427 122.490139 
L 258.767222 120.532206 
L 259.763546 116.349413 
L 260.660238 112.23445 
L 261.490036 109.078386 
L 262.281714 106.597592 
L 262.747978 105.563744 
L 263.913638 103.588797 
L 264.857143 102.728031 
L 265.6224 102.503146 
L 267.49728 102.655544 
L 268.896 103.343667 
L 269.72928 104.184714 
L 270.5328 105.364533 
L 271.9872 108.522605 
L 272.9088 111.625535 
L 273.9456 116.246989 
L 275.4432 123.390554 
L 276.139008 125.869402 
L 276.738048 127.15778 
L 277.097472 127.660651 
L 277.456896 127.824398 
L 277.81632 127.617851 
L 278.280576 127.043268 
L 279.0144 125.420413 
L 279.798503 123.018737 
L 282.490812 114.305172 
L 283.29984 112.539251 
L 283.605943 112.067107 
L 284.005577 111.722128 
L 284.201143 111.639995 
L 284.494491 111.573736 
L 285.374537 112.315988 
L 285.765669 112.81053 
L 286.349838 113.853878 
L 287.701103 116.887594 
L 288.85933 119.625481 
L 290.017557 121.839895 
L 290.307114 122.189631 
L 290.789708 122.688038 
L 291.272303 122.936861 
L 291.561859 122.983022 
L 292.237492 122.667093 
L 292.913124 121.824782 
L 293.492238 120.727398 
L 294.457427 118.253321 
L 295.905211 113.528805 
L 297.278537 109.746762 
L 297.805714 108.975448 
L 298.332891 108.517059 
L 298.649198 108.45777 
L 299.070939 108.597619 
L 300.125294 110.209074 
L 300.7764 111.774563 
L 302.83635 117.516743 
L 303.69195 119.218747 
L 304.229236 119.875919 
L 304.662109 120.117602 
L 304.990606 120.168803 
L 305.433129 120.030195 
L 305.999148 119.541365 
L 306.67837 118.612551 
L 307.584 116.989155 
L 308.7744 114.393128 
L 309.80608 111.743454 
L 310.930347 108.351906 
L 312.5376 102.794178 
L 315.072 94.592602 
L 316.562824 90.750096 
L 317.430212 89.113503 
L 317.863906 88.606282 
L 318.2976 88.320994 
L 318.8556 88.311572 
L 319.286057 88.548001 
L 319.931743 89.285565 
L 320.577429 90.368526 
L 322.626327 94.226422 
L 323.167418 94.776656 
L 323.492073 94.738612 
L 323.924945 94.310848 
L 324.2496 93.876956 
L 324.790691 92.71088 
L 325.630987 90.178375 
L 327.500749 83.813339 
L 328.067168 82.034116 
L 328.763392 80.20306 
L 329.285908 79.435487 
L 329.560615 79.223399 
L 330.101169 79.347808 
L 330.987323 80.844812 
L 331.607631 82.663192 
L 332.405169 85.998721 
L 333.20736 90.219017 
L 334.18944 96.888521 
L 335.17152 105.342883 
L 337.801846 129.775201 
L 338.5344 133.788504 
L 338.900677 134.914733 
L 339.266954 135.506376 
L 339.633231 135.647235 
L 340.110876 134.939344 
L 340.506292 133.976799 
L 341.801514 129.721889 
L 342.598573 127.05726 
L 343.296 125.29806 
L 344.136282 123.96921 
L 344.766494 123.3244 
L 345.501741 122.960527 
L 346.762165 122.814948 
L 346.9788 122.748577 
L 348.6528 122.545603 
L 349.0992 122.857509 
L 349.3224 122.958599 
L 349.931127 123.701684 
L 350.546618 124.649005 
L 350.979491 125.326338 
L 351.520582 125.844304 
L 351.845236 125.883023 
L 352.061673 125.785237 
L 352.386327 125.484007 
L 352.602764 125.181345 
L 353.143855 123.746404 
L 353.901382 121.122385 
L 355.632873 114.910545 
L 356.715055 112.7375 
L 357.147927 112.416485 
L 357.5808 112.33969 
L 358.554764 112.999122 
L 358.987636 113.467608 
L 360.610909 115.236244 
L 361.368436 115.570884 
L 362.991709 116.027091 
L 363.965673 117.022097 
L 364.7232 118.202425 
L 367.1784 122.537615 
L 368.0712 123.473806 
L 368.77056 123.860175 
L 369.84192 124.036706 
L 371.03232 123.931819 
L 371.8656 123.672083 
L 373.396114 122.738361 
L 374.288914 121.749361 
L 375.181714 120.347559 
L 376.098133 118.519126 
L 377.288533 115.666763 
L 379.135543 110.443497 
L 383.832447 97.029637 
L 385.14392 94.021617 
L 386.1504 92.242941 
L 386.9568 91.312644 
L 387.648 91.031118 
L 387.9936 91.088584 
L 388.551877 91.398299 
L 389.296246 92.282141 
L 389.9448 93.545017 
L 390.8376 95.82132 
L 392.8464 101.10766 
L 393.1812 101.512446 
L 393.516 101.60703 
L 393.8508 101.468515 
L 394.173643 101.111226 
L 394.6041 100.260203 
L 395.220436 98.364825 
L 395.820969 96.079834 
L 396.864 91.78007 
L 397.533783 89.344735 
L 398.188942 87.750158 
L 398.563318 87.301035 
L 398.927842 87.062145 
L 399.193847 87.229582 
L 399.459851 87.559267 
L 399.903191 88.369652 
L 400.4352 89.955243 
L 401.442462 94.507914 
L 402.266585 99.666817 
L 403.273846 107.498204 
L 406.020923 129.849459 
L 406.753477 133.682063 
L 407.394462 135.65371 
L 407.770638 136.299265 
L 408.156714 136.532964 
L 408.349751 136.315757 
L 408.639308 136.241853 
L 408.928865 135.828038 
L 410.183611 132.731753 
L 412.619294 126.099343 
L 413.774682 123.809384 
L 414.404894 122.7002 
L 414.8316 122.026319 
L 414.8316 122.026319 
" clip-path="url(#p34fdf21863)" style="fill: none; stroke: #ff0000; stroke-width: 1.5; stroke-linecap: square"/>
   </g>
   <g id="line2d_25">
    <path d="M 57.6 174.528 
L 57.874708 172.54011 
L 57.938102 182.570798 
L 58.001496 179.754701 
L 58.195726 177.49199 
L 58.332585 176.385593 
L 58.476384 176.711154 
L 58.55124 176.669407 
L 59.457608 175.641395 
L 59.714647 175.838434 
L 59.971686 175.529717 
L 60.143045 175.581311 
L 60.400084 175.490393 
L 60.485763 175.571819 
L 60.742802 175.454586 
L 61.361768 175.709262 
L 61.554947 175.82347 
L 61.941305 175.94776 
L 62.810611 176.702496 
L 63.293558 176.896105 
L 64.066274 177.215503 
L 64.946469 177.110902 
L 65.966811 176.293076 
L 67.089189 174.7201 
L 67.59936 173.749782 
L 69.048847 170.420923 
L 69.468988 169.139072 
L 72.304941 161.147665 
L 73.250259 158.853633 
L 73.880471 157.477304 
L 74.825788 155.649711 
L 75.666071 154.360883 
L 76.506353 153.545132 
L 78.502024 151.91077 
L 79.972518 148.452304 
L 80.917835 146.440108 
L 82.073224 144.935206 
L 82.814836 144.194992 
L 89.110588 136.406454 
L 90.476047 135.0189 
L 91.736471 134.236886 
L 92.366682 134.108246 
L 92.996894 134.17168 
L 93.627106 134.406633 
L 94.677459 135.180933 
L 95.622776 136.280301 
L 96.252988 137.254005 
L 97.198306 139.101577 
L 98.143624 141.434339 
L 99.193976 144.672835 
L 100.244329 148.672085 
L 101.6448 155.229633 
L 102.943418 162.531015 
L 104.3712 171.914695 
L 105.8688 183.330432 
L 107.949815 201.153093 
L 110.045062 218.8356 
L 111.168 226.603145 
L 112.008282 230.952932 
L 112.638494 233.20309 
L 113.163671 234.429236 
L 113.583812 235.001542 
L 114.003953 235.267585 
L 114.529129 235.246454 
L 114.844235 235.052031 
L 115.455911 234.273799 
L 116.046495 233.013028 
L 116.637079 231.14793 
L 117.291353 228.251401 
L 118.032478 224.030863 
L 119.082551 216.625958 
L 121.01293 199.944036 
L 123.039827 183.186886 
L 124.294573 174.853581 
L 125.552 167.751214 
L 127.3376 159.073562 
L 129.534171 150.036265 
L 131.727909 143.659266 
L 132.402469 142.17361 
L 133.488 140.518155 
L 133.8848 140.615229 
L 134.1824 140.527616 
L 134.6784 140.798124 
L 134.8768 140.956247 
L 134.976 140.937041 
L 135.1744 141.200849 
L 135.5712 142.121815 
L 136.376471 144.321003 
L 137.111718 147.049153 
L 138.267106 152.163756 
L 139.527529 158.508601 
L 140.6304 164.19531 
L 144.73728 183.602893 
L 152.777891 217.066696 
L 154.593792 223.268312 
L 155.879424 226.862035 
L 156.87936 229.021367 
L 157.701818 230.291956 
L 158.351701 230.876116 
L 158.863174 231.087918 
L 159.374646 231.060764 
L 159.866447 230.772088 
L 160.456607 230.184157 
L 161.1648 229.042173 
L 162.11712 226.824082 
L 162.83136 224.581223 
L 163.762036 220.754494 
L 164.627782 216.203086 
L 165.6576 209.510827 
L 166.6944 201.345449 
L 167.8464 190.607116 
L 169.2288 175.347713 
L 172.625105 136.332834 
L 173.845566 125.407955 
L 174.70487 119.71447 
L 175.4496 116.377842 
L 176.013474 114.822402 
L 176.483368 114.088654 
L 177.222942 113.616809 
L 177.672406 113.750171 
L 178.211764 114.182228 
L 178.751121 115.006824 
L 179.295508 116.163761 
L 180.028062 118.412981 
L 180.669046 120.951244 
L 181.767877 126.359315 
L 182.779958 132.230404 
L 186.56 155.646602 
L 187.4528 159.75341 
L 188.6432 163.919486 
L 189.536 166.18864 
L 190.816582 168.357048 
L 191.790545 169.553442 
L 192.223418 169.833241 
L 192.980945 170.776943 
L 193.9752 171.855865 
L 195.984 175.656135 
L 196.4304 176.00359 
L 196.9884 175.922859 
L 197.4348 175.428208 
L 197.8812 174.556355 
L 200.6712 167.468259 
L 203.4612 161.366206 
L 207.0504 150.82167 
L 207.915055 149.188309 
L 208.564364 148.510682 
L 209.213673 148.21858 
L 210.512291 148.312715 
L 212.027345 149.103648 
L 212.893091 149.80174 
L 213.975273 151.110574 
L 214.516364 151.972143 
L 215.165673 153.33321 
L 216.139636 155.964912 
L 217.005382 158.853946 
L 218.5344 165.097561 
L 219.9168 171.784425 
L 222.11328 184.124314 
L 223.91134 195.700454 
L 227.854566 221.561505 
L 228.901297 226.811311 
L 229.715421 229.917667 
L 230.405032 231.727414 
L 230.979708 232.644137 
L 231.439448 233.008789 
L 231.784254 233.062486 
L 232.129059 232.94687 
L 232.704 232.322272 
L 233.1648 231.520571 
L 233.837568 229.743663 
L 234.50112 227.280998 
L 235.275264 223.374863 
L 236.16 217.63594 
L 237.242182 208.864146 
L 238.432582 197.166631 
L 244.306286 132.864256 
L 245.462988 123.05755 
L 246.403396 116.447938 
L 247.338274 110.92671 
L 248.160589 107.209396 
L 248.800168 105.013178 
L 249.257011 103.872639 
L 249.713853 103.027376 
L 250.353432 102.330522 
L 250.71264 102.069155 
L 251.24832 102.15518 
L 251.784 102.53219 
L 252.40896 103.446459 
L 252.76608 104.236745 
L 253.30176 105.712469 
L 254.016 108.405971 
L 254.748554 111.89932 
L 255.755815 118.339692 
L 257.037785 128.476896 
L 258.567957 142.710849 
L 260.959135 167.256356 
L 263.330808 193.525323 
L 265.112229 213.228906 
L 266.132571 221.821351 
L 266.897829 226.449076 
L 267.612069 229.482746 
L 268.3008 231.378956 
L 268.896 232.34517 
L 269.37216 232.698136 
L 270.0864 232.642086 
L 271.2024 231.464375 
L 272.3328 229.005608 
L 273.024 226.633919 
L 273.6 223.994275 
L 274.4064 219.359914 
L 275.5584 211.226675 
L 278.49024 188.385928 
L 280.666139 171.556932 
L 282.687634 155.89191 
L 283.707977 149.488347 
L 285.276754 141.091461 
L 287.797622 128.63248 
L 287.990659 128.017724 
L 288.666292 125.585822 
L 289.728 123.119811 
L 290.500151 122.311517 
L 290.982746 122.175499 
L 292.140973 123.112594 
L 292.816605 124.301546 
L 294.360908 128.709762 
L 295.519135 133.307532 
L 297.074469 141.309944 
L 299.28181 154.760102 
L 302.19465 175.258622 
L 303.90585 187.441109 
L 308.7744 221.238821 
L 310.81792 233.823624 
L 311.8464 238.767377 
L 312.6528 241.606902 
L 313.344 243.269339 
L 313.8048 243.964772 
L 314.2656 244.292975 
L 314.7264 244.32818 
L 315.1872 244.0141 
L 315.648 243.432039 
L 316.224 242.262273 
L 316.779671 240.679141 
L 317.430212 238.187481 
L 318.189176 234.09155 
L 318.963214 228.581793 
L 320.039357 218.34144 
L 321.007886 206.71346 
L 322.409891 186.607937 
L 325.44 142.393412 
L 327.028733 123.966946 
L 327.972765 116.318518 
L 328.680789 112.409949 
L 329.194338 110.428336 
L 329.743754 108.946881 
L 330.2784 108.058823 
L 330.810092 107.605396 
L 331.253169 107.494107 
L 331.696246 107.625843 
L 332.227938 108.083798 
L 332.67168 108.640194 
L 333.38592 110.080469 
L 333.9216 111.619258 
L 334.72512 114.748485 
L 335.43936 118.460515 
L 336.06432 122.428388 
L 337.069292 129.895941 
L 338.992246 145.308153 
L 340.307027 154.023779 
L 341.402984 159.548012 
L 342.100411 162.244326 
L 342.797838 164.092033 
L 343.196368 164.878797 
L 343.821176 165.704868 
L 344.556424 166.164605 
L 344.976565 166.22841 
L 345.606776 166.314527 
L 345.711812 166.39857 
L 345.921882 166.372541 
L 346.657129 166.584589 
L 347.202 167.465353 
L 347.6484 168.239585 
L 349.3224 172.51456 
L 349.728218 172.86957 
L 350.032582 172.84125 
L 350.336945 172.523343 
L 350.654836 172.019421 
L 352.494545 167.988396 
L 352.710982 167.808519 
L 353.035636 167.342142 
L 354.334255 166.706973 
L 354.550691 166.684984 
L 357.147927 165.700667 
L 357.905455 164.975151 
L 359.204073 163.318924 
L 359.420509 163.172268 
L 360.069818 162.689074 
L 360.610909 162.841933 
L 361.043782 162.959294 
L 361.801309 163.762587 
L 362.883491 165.716433 
L 363.316364 166.627756 
L 364.8348 170.871972 
L 367.4016 179.463353 
L 368.2944 182.828686 
L 370.08 190.257728 
L 373.268571 204.570391 
L 376.098133 216.871677 
L 377.787077 223.258248 
L 379.263086 227.531616 
L 380.155886 229.392261 
L 380.921143 230.395727 
L 381.431314 230.755496 
L 381.941486 230.837235 
L 382.451657 230.645389 
L 382.961829 230.157829 
L 383.588452 229.13698 
L 384.19844 227.760261 
L 385.032089 225.155361 
L 386.038569 220.948814 
L 386.9568 216.06249 
L 387.9936 209.205057 
L 389.083569 200.420081 
L 390.3912 187.931601 
L 391.3956 176.901963 
L 395.631327 128.164304 
L 396.484716 121.024089 
L 397.250076 116.138009 
L 397.908159 113.225211 
L 398.563318 111.435165 
L 399.01651 110.694701 
L 399.459851 110.406515 
L 399.99186 110.418466 
L 400.526769 110.856972 
L 401.076185 111.569201 
L 401.717169 112.940765 
L 402.449723 115.137915 
L 403.365415 118.808192 
L 404.647385 125.483876 
L 406.661908 137.601466 
L 407.867157 144.998072 
L 409.314941 152.500664 
L 410.28013 156.609151 
L 411.989082 162.168268 
L 413.984753 167.085425 
L 414.194824 167.428842 
L 414.72 168.678154 
L 414.8316 168.94473 
L 414.8316 168.94473 
" clip-path="url(#p34fdf21863)" style="fill: none; stroke-dasharray: 5.55,2.4; stroke-dashoffset: 0; stroke: #008000; stroke-width: 1.5"/>
   </g>
   <g id="line2d_26">
    <path d="M 57.6 164.92517 
L 57.633517 -1 
M 57.93636 -1 
L 58.001496 80.306853 
L 58.195726 99.556345 
L 58.476384 105.038418 
L 58.864442 109.822536 
L 59.200569 112.279432 
L 61.554947 123.767666 
L 62.714021 129.330898 
L 63.873095 134.028135 
L 65.150537 138.029396 
L 66.272914 140.861117 
L 67.395291 143.018975 
L 68.007497 143.906686 
L 68.838776 144.730992 
L 69.363953 144.976828 
L 69.889129 145.036813 
L 70.414306 144.813988 
L 70.834447 144.525542 
L 71.569694 143.457662 
L 72.304941 141.697304 
L 73.040188 139.436314 
L 74.510682 133.212827 
L 75.666071 127.202997 
L 76.926494 120.713425 
L 78.081882 116.138495 
L 79.132235 113.935594 
L 79.972518 113.266065 
L 80.392659 113.387753 
L 80.602729 113.400398 
L 80.8128 113.362953 
L 81.548047 113.792649 
L 81.758118 113.807548 
L 82.178259 113.960115 
L 83.139491 114.000675 
L 84.510255 113.530864 
L 85.339927 112.939777 
L 87.324988 111.722392 
L 88.900518 111.447955 
L 89.425694 111.445861 
L 90.686118 111.194632 
L 91.736471 110.65309 
L 93.101929 109.582116 
L 94.152282 108.893321 
L 95.202635 108.566393 
L 95.937882 108.610304 
L 96.8832 108.928263 
L 98.458729 109.901024 
L 100.995491 111.880098 
L 104.256 115.273888 
L 105.5232 116.5511 
L 106.0992 116.925032 
L 106.6752 117.050668 
L 107.136 116.903344 
L 107.5968 116.492098 
L 108.06475 115.745164 
L 108.639426 114.369236 
L 109.408992 111.705517 
L 110.351318 107.419584 
L 112.428424 97.466905 
L 113.478776 94.405493 
L 114.003953 93.561985 
L 114.424094 93.214379 
L 114.844235 93.140683 
L 115.150073 93.232319 
L 115.455911 93.513282 
L 115.948065 94.38037 
L 116.440218 95.794403 
L 116.920791 97.719956 
L 117.661916 101.605914 
L 118.889514 109.505425 
L 120.626854 120.934479 
L 121.399005 124.836639 
L 121.8816 126.589288 
L 122.364195 127.756361 
L 122.846789 128.392217 
L 123.232865 128.529516 
L 123.715459 128.349647 
L 124.487611 127.421148 
L 125.066724 126.433173 
L 126.7424 123.545152 
L 128.2304 121.402798 
L 128.7264 120.897482 
L 129.330103 120.346801 
L 129.534171 120.197471 
L 129.840274 119.88526 
L 130.350446 119.629442 
L 131.24608 119.469949 
L 131.727909 119.522682 
L 132.402469 119.532178 
L 133.1904 119.626148 
L 133.488 119.559212 
L 133.8848 119.712779 
L 135.3728 119.345537 
L 135.8688 119.210565 
L 136.271435 119.055024 
L 136.586541 118.973095 
L 136.796612 118.89503 
L 137.216753 118.657926 
L 137.531859 118.557412 
L 137.846965 118.538174 
L 138.687247 118.280398 
L 139.422494 118.497301 
L 140.2956 118.913333 
L 141.0768 119.580919 
L 142.416 121.404607 
L 145.33248 125.780102 
L 145.92768 126.184596 
L 146.40384 126.310093 
L 146.88 126.235107 
L 147.372579 125.941234 
L 148.111448 125.08701 
L 149.096607 123.567423 
L 151.948218 118.731077 
L 153.607564 115.765614 
L 154.879488 113.020504 
L 156.307968 109.354766 
L 161.64096 94.731924 
L 162.59328 92.779852 
L 163.42656 91.597389 
L 163.978473 91.205938 
L 164.519564 91.165644 
L 165.0816 91.442432 
L 165.6576 92.011805 
L 166.464 93.29793 
L 167.2704 95.077114 
L 168.192 97.794905 
L 169.8048 102.739 
L 170.2656 103.649315 
L 170.7264 104.135902 
L 170.9568 104.183238 
L 171.3744 103.88078 
L 171.6768 103.424768 
L 172.094836 102.482861 
L 172.625105 100.733737 
L 173.54481 96.899619 
L 175.077235 90.531445 
L 175.825516 88.507658 
L 176.201432 87.99395 
L 176.483368 87.889434 
L 177.222942 88.359409 
L 178.031978 90.412702 
L 178.661228 92.919982 
L 179.478646 97.392014 
L 180.485908 104.572575 
L 182.225723 119.150168 
L 183.343832 127.931225 
L 184.189642 133.009563 
L 184.847495 135.567501 
L 185.411368 136.716052 
L 185.787284 136.993625 
L 185.975242 136.842853 
L 186.1632 136.898142 
L 186.4608 136.624737 
L 186.7584 136.092483 
L 187.056 135.513319 
L 187.4528 134.55165 
L 188.8416 130.513177 
L 189.950836 127.505422 
L 191.141236 124.95351 
L 192.331636 123.043482 
L 193.4172 122.025727 
L 194.0868 121.665843 
L 194.31 121.602836 
L 195.426 121.611012 
L 196.8768 123.296403 
L 197.8812 124.662472 
L 198.216 124.978802 
L 198.774 125.091564 
L 199.4436 124.51802 
L 199.7784 123.939347 
L 202.7916 115.97693 
L 203.238 115.283702 
L 204.1308 114.796779 
L 204.7824 114.997662 
L 205.5384 115.713593 
L 207.3744 117.098244 
L 208.131491 116.983919 
L 208.889018 116.459106 
L 211.269818 114.239851 
L 211.919127 114.129681 
L 212.568436 114.246123 
L 213.325964 114.595797 
L 214.841018 115.158454 
L 216.247855 115.215896 
L 217.438255 115.289941 
L 218.4192 115.694495 
L 219.3408 116.436755 
L 220.3776 117.585216 
L 221.99424 119.343448 
L 222.848606 119.935848 
L 223.557095 120.128533 
L 224.029421 120.082555 
L 224.501748 119.871587 
L 225.092155 119.347439 
L 225.815834 118.310524 
L 226.554703 116.769433 
L 227.389352 114.520009 
L 228.552386 110.757339 
L 230.405032 104.715401 
L 231.439448 102.126206 
L 232.129059 100.888641 
L 232.704 100.179419 
L 233.3952 99.755684 
L 233.726976 99.771844 
L 234.169344 100.018346 
L 234.50112 100.378344 
L 235.05408 101.348282 
L 235.717632 102.973015 
L 236.809309 106.366385 
L 238.324364 111.169721 
L 239.081891 112.838535 
L 239.622982 113.50008 
L 239.947636 113.659048 
L 240.272291 113.636286 
L 240.705164 113.26282 
L 241.246255 112.426593 
L 242.912815 108.319351 
L 243.404434 107.304486 
L 244.010057 106.325815 
L 244.701257 105.700732 
L 245.274906 105.467509 
L 246.309355 105.79841 
L 247.338274 106.816831 
L 248.434695 108.743145 
L 249.622484 111.562904 
L 252.76608 119.150083 
L 254.382277 122.498829 
L 255.389538 124.166941 
L 255.938954 124.759707 
L 256.305231 124.940184 
L 256.763077 124.994706 
L 257.5872 124.126453 
L 258.368692 122.242701 
L 259.265384 118.894418 
L 262.048582 107.603539 
L 262.864544 105.636081 
L 263.797072 104.080571 
L 264.379902 103.430016 
L 265.239771 102.936694 
L 266.387657 102.861013 
L 267.726857 103.162316 
L 268.3008 103.381565 
L 269.01504 103.803961 
L 269.84832 104.61529 
L 270.756 105.981297 
L 271.7604 108.031555 
L 272.448 109.90743 
L 273.1392 112.392136 
L 274.0608 116.440882 
L 275.904 124.724173 
L 276.498432 126.442427 
L 277.097472 127.489494 
L 277.456896 127.727043 
L 277.696512 127.737804 
L 278.49024 126.792718 
L 279.1296 125.365751 
L 280.666139 120.298608 
L 282.396024 114.534345 
L 283.197806 112.512465 
L 283.810011 111.508349 
L 284.396709 111.117174 
L 284.690057 111.196749 
L 285.276754 111.605249 
L 286.832432 114.099032 
L 287.604584 115.77279 
L 288.280216 117.493638 
L 289.341924 119.920852 
L 289.631481 120.43326 
L 290.114076 121.215054 
L 290.886227 122.174912 
L 291.272303 122.358085 
L 291.658378 122.468071 
L 292.140973 122.345332 
L 292.720086 121.836903 
L 293.2992 120.984043 
L 294.071351 119.287531 
L 294.940022 116.798077 
L 297.278537 109.520438 
L 298.016585 108.099935 
L 298.965504 107.516045 
L 299.492681 107.804508 
L 300.125294 108.70616 
L 300.7764 110.112582 
L 303.69195 117.818821 
L 304.445673 118.846815 
L 304.882548 119.14907 
L 305.319926 119.174758 
L 305.77274 118.999611 
L 306.338759 118.460133 
L 307.131185 117.242464 
L 307.82208 115.837824 
L 309.01248 112.834254 
L 310.14336 109.404468 
L 311.8464 103.455052 
L 313.4592 97.98012 
L 314.6112 94.688618 
L 315.7632 92.049331 
L 316.671247 90.462546 
L 317.321788 89.808661 
L 317.863906 89.659387 
L 318.189176 89.752647 
L 318.744 90.178747 
L 319.501286 91.337413 
L 320.039357 92.407832 
L 321.977018 96.47425 
L 322.734545 96.837569 
L 323.275636 96.529882 
L 323.708509 95.803258 
L 324.141382 94.575739 
L 324.682473 92.907082 
L 328.161571 81.768185 
L 328.845994 80.623481 
L 328.928597 80.512948 
L 329.102769 80.560433 
L 329.652185 80.697622 
L 330.012554 81.084855 
L 330.987323 83.314211 
L 331.607631 85.37751 
L 332.316554 88.419553 
L 333.11808 92.631205 
L 334.10016 99.184392 
L 335.17152 108.208481 
L 337.527138 129.275404 
L 338.259692 133.266749 
L 338.809108 134.876284 
L 339.266954 135.234679 
L 339.450092 135.213996 
L 339.7248 134.888566 
L 339.917838 134.545045 
L 343.401035 123.711126 
L 344.346353 122.375762 
L 344.976565 121.937588 
L 345.921882 121.808134 
L 346.447059 121.950537 
L 347.4252 122.272516 
L 347.5368 122.239575 
L 347.76 122.404864 
L 348.318 122.598406 
L 349.2108 123.573164 
L 351.195927 127.075832 
L 351.520582 127.260037 
L 351.953455 127.050434 
L 352.386327 126.430803 
L 353.252073 123.882358 
L 354.658909 118.658734 
L 355.416436 116.295474 
L 356.065745 114.753114 
L 356.715055 113.811206 
L 357.364364 113.476348 
L 357.689018 113.567116 
L 358.013673 113.666439 
L 359.9616 115.595845 
L 360.286255 115.868346 
L 360.719127 116.239868 
L 361.152 116.395605 
L 362.667055 117.1084 
L 363.316364 117.720959 
L 364.073891 118.814782 
L 365.2812 121.013088 
L 366.0624 122.426263 
L 366.9552 123.624058 
L 367.7364 124.25541 
L 368.41344 124.470439 
L 369.12768 124.46548 
L 370.08 124.166744 
L 371.50848 123.488486 
L 372.503314 122.762165 
L 373.268571 122.043452 
L 374.161371 120.898416 
L 375.181714 119.153089 
L 375.965867 117.535892 
L 377.288533 114.416108 
L 379.263086 109.115481 
L 381.6864 102.788227 
L 383.216914 99.352757 
L 384.68643 96.644965 
L 385.703076 95.248704 
L 386.3808 94.651268 
L 387.072 94.346133 
L 387.5328 94.332542 
L 388.1088 94.566667 
L 388.870892 95.31363 
L 389.615262 96.498437 
L 390.5028 98.519816 
L 392.7348 104.124823 
L 393.2928 104.833621 
L 393.6276 104.959104 
L 393.958414 104.823591 
L 394.496486 104.171232 
L 394.912268 103.213267 
L 395.528605 101.315495 
L 398.001753 92.685459 
L 398.37613 92.030575 
L 398.927842 91.606698 
L 399.371183 91.915946 
L 399.903191 92.740198 
L 400.618338 94.83856 
L 401.350892 97.98105 
L 402.083446 102.099683 
L 403.182277 109.807499 
L 405.929354 129.955292 
L 406.753477 133.833625 
L 407.394462 135.553939 
L 407.963676 136.211514 
L 408.253232 136.271731 
L 408.542789 136.134577 
L 408.735827 135.905226 
L 409.314941 135.086164 
L 410.473168 132.10007 
L 412.304188 126.730439 
L 413.669647 123.181954 
L 414.72 121.051095 
L 414.8316 120.889494 
L 414.8316 120.889494 
" clip-path="url(#p34fdf21863)" style="fill: none; stroke-dasharray: 5.55,2.4; stroke-dashoffset: 0; stroke: #000000; stroke-width: 1.5"/>
   </g>
   <g id="patch_3">
    <path d="M 57.6 307.584 
L 57.6 41.472 
" style="fill: none; stroke: #000000; stroke-width: 0.8; stroke-linejoin: miter; stroke-linecap: square"/>
   </g>
   <g id="patch_4">
    <path d="M 414.72 307.584 
L 414.72 41.472 
" style="fill: none; stroke: #000000; stroke-width: 0.8; stroke-linejoin: miter; stroke-linecap: square"/>
   </g>
   <g id="patch_5">
    <path d="M 57.6 307.584 
L 414.72 307.584 
" style="fill: none; stroke: #000000; stroke-width: 0.8; stroke-linejoin: miter; stroke-linecap: square"/>
   </g>
   <g id="patch_6">
    <path d="M 57.6 41.472 
L 414.72 41.472 
" style="fill: none; stroke: #000000; stroke-width: 0.8; stroke-linejoin: miter; stroke-linecap: square"/>
   </g>
   <g id="legend_1">
    <g id="patch_7">
     <path d="M 64.6 302.584 
L 125.7 302.584 
Q 127.7 302.584 127.7 300.584 
L 127.7 242.830875 
Q 127.7 240.830875 125.7 240.830875 
L 64.6 240.830875 
Q 62.6 240.830875 62.6 242.830875 
L 62.6 300.584 
Q 62.6 302.584 64.6 302.584 
z
" style="fill: #ffffff; opacity: 0.8; stroke: #cccccc; stroke-linejoin: miter"/>
    </g>
    <g id="line2d_27">
     <path d="M 66.6 248.929312 
L 76.6 248.929312 
L 86.6 248.929312 
" style="fill: none; stroke: #0000ff; stroke-width: 1.5; stroke-linecap: square"/>
    </g>
    <g id="text_14">
     <!-- $C_{L} bot$ -->
     <g transform="translate(94.6 252.429312) scale(0.1 -0.1)">
      <defs>
       <path id="DejaVuSans-Oblique-62" d="M 3169 2138 
Q 3169 2591 2961 2847 
Q 2753 3103 2388 3103 
Q 2122 3103 1889 2973 
Q 1656 2844 1484 2597 
Q 1303 2338 1198 1995 
Q 1094 1653 1094 1313 
Q 1094 881 1298 636 
Q 1503 391 1863 391 
Q 2134 391 2365 517 
Q 2597 644 2772 891 
Q 2950 1147 3059 1487 
Q 3169 1828 3169 2138 
z
M 1381 2969 
Q 1594 3256 1914 3420 
Q 2234 3584 2584 3584 
Q 3122 3584 3439 3221 
Q 3756 2859 3756 2241 
Q 3756 1734 3570 1259 
Q 3384 784 3041 416 
Q 2816 172 2522 40 
Q 2228 -91 1906 -91 
Q 1566 -91 1316 65 
Q 1066 222 909 531 
L 806 0 
L 231 0 
L 1178 4863 
L 1753 4863 
L 1381 2969 
z
" transform="scale(0.015625)"/>
       <path id="DejaVuSans-Oblique-6f" d="M 1625 -91 
Q 1009 -91 651 289 
Q 294 669 294 1325 
Q 294 1706 417 2101 
Q 541 2497 738 2766 
Q 1047 3184 1428 3384 
Q 1809 3584 2291 3584 
Q 2888 3584 3255 3212 
Q 3622 2841 3622 2241 
Q 3622 1825 3500 1412 
Q 3378 1000 3181 728 
Q 2875 309 2494 109 
Q 2113 -91 1625 -91 
z
M 891 1344 
Q 891 869 1089 633 
Q 1288 397 1691 397 
Q 2269 397 2648 901 
Q 3028 1406 3028 2181 
Q 3028 2634 2825 2865 
Q 2622 3097 2228 3097 
Q 1903 3097 1650 2945 
Q 1397 2794 1197 2484 
Q 1050 2253 970 1956 
Q 891 1659 891 1344 
z
" transform="scale(0.015625)"/>
       <path id="DejaVuSans-Oblique-74" d="M 2706 3500 
L 2619 3053 
L 1472 3053 
L 1100 1153 
Q 1081 1047 1072 975 
Q 1063 903 1063 863 
Q 1063 663 1183 572 
Q 1303 481 1569 481 
L 2150 481 
L 2053 0 
L 1503 0 
Q 991 0 739 200 
Q 488 400 488 806 
Q 488 878 497 964 
Q 506 1050 525 1153 
L 897 3053 
L 409 3053 
L 500 3500 
L 978 3500 
L 1172 4494 
L 1747 4494 
L 1556 3500 
L 2706 3500 
z
" transform="scale(0.015625)"/>
      </defs>
      <use xlink:href="#DejaVuSans-Oblique-43" transform="translate(0 0.015625)"/>
      <use xlink:href="#DejaVuSans-Oblique-4c" transform="translate(69.824219 -16.390625) scale(0.7)"/>
      <use xlink:href="#DejaVuSans-Oblique-62" transform="translate(111.557617 0.015625)"/>
      <use xlink:href="#DejaVuSans-Oblique-6f" transform="translate(175.03418 0.015625)"/>
      <use xlink:href="#DejaVuSans-Oblique-74" transform="translate(236.21582 0.015625)"/>
     </g>
    </g>
    <g id="line2d_28">
     <path d="M 66.6 263.607437 
L 76.6 263.607437 
L 86.6 263.607437 
" style="fill: none; stroke: #ff0000; stroke-width: 1.5; stroke-linecap: square"/>
    </g>
    <g id="text_15">
     <!-- $C_{D} bot$ -->
     <g transform="translate(94.6 267.107437) scale(0.1 -0.1)">
      <use xlink:href="#DejaVuSans-Oblique-43" transform="translate(0 0.015625)"/>
      <use xlink:href="#DejaVuSans-Oblique-44" transform="translate(69.824219 -16.390625) scale(0.7)"/>
      <use xlink:href="#DejaVuSans-Oblique-62" transform="translate(126.459961 0.015625)"/>
      <use xlink:href="#DejaVuSans-Oblique-6f" transform="translate(189.936523 0.015625)"/>
      <use xlink:href="#DejaVuSans-Oblique-74" transform="translate(251.118164 0.015625)"/>
     </g>
    </g>
    <g id="line2d_29">
     <path d="M 66.6 278.285562 
L 76.6 278.285562 
L 86.6 278.285562 
" style="fill: none; stroke-dasharray: 5.55,2.4; stroke-dashoffset: 0; stroke: #008000; stroke-width: 1.5"/>
    </g>
    <g id="text_16">
     <!-- $C_{L} top$ -->
     <g transform="translate(94.6 281.785562) scale(0.1 -0.1)">
      <defs>
       <path id="DejaVuSans-Oblique-70" d="M 3175 2156 
Q 3175 2616 2975 2859 
Q 2775 3103 2400 3103 
Q 2144 3103 1911 2972 
Q 1678 2841 1497 2591 
Q 1319 2344 1212 1994 
Q 1106 1644 1106 1300 
Q 1106 863 1306 627 
Q 1506 391 1875 391 
Q 2147 391 2380 519 
Q 2613 647 2778 891 
Q 2956 1147 3065 1494 
Q 3175 1841 3175 2156 
z
M 1394 2969 
Q 1625 3272 1939 3428 
Q 2253 3584 2638 3584 
Q 3175 3584 3472 3232 
Q 3769 2881 3769 2247 
Q 3769 1728 3584 1258 
Q 3400 788 3053 416 
Q 2822 169 2531 39 
Q 2241 -91 1919 -91 
Q 1547 -91 1294 64 
Q 1041 219 916 525 
L 556 -1331 
L -19 -1331 
L 922 3500 
L 1497 3500 
L 1394 2969 
z
" transform="scale(0.015625)"/>
      </defs>
      <use xlink:href="#DejaVuSans-Oblique-43" transform="translate(0 0.78125)"/>
      <use xlink:href="#DejaVuSans-Oblique-4c" transform="translate(69.824219 -15.625) scale(0.7)"/>
      <use xlink:href="#DejaVuSans-Oblique-74" transform="translate(111.557617 0.78125)"/>
      <use xlink:href="#DejaVuSans-Oblique-6f" transform="translate(150.766602 0.78125)"/>
      <use xlink:href="#DejaVuSans-Oblique-70" transform="translate(211.948242 0.78125)"/>
     </g>
    </g>
    <g id="line2d_30">
     <path d="M 66.6 292.984 
L 76.6 292.984 
L 86.6 292.984 
" style="fill: none; stroke-dasharray: 5.55,2.4; stroke-dashoffset: 0; stroke: #000000; stroke-width: 1.5"/>
    </g>
    <g id="text_17">
     <!-- $C_{D} top$ -->
     <g transform="translate(94.6 296.484) scale(0.1 -0.1)">
      <use xlink:href="#DejaVuSans-Oblique-43" transform="translate(0 0.78125)"/>
      <use xlink:href="#DejaVuSans-Oblique-44" transform="translate(69.824219 -15.625) scale(0.7)"/>
      <use xlink:href="#DejaVuSans-Oblique-74" transform="translate(126.459961 0.78125)"/>
      <use xlink:href="#DejaVuSans-Oblique-6f" transform="translate(165.668945 0.78125)"/>
      <use xlink:href="#DejaVuSans-Oblique-70" transform="translate(226.850586 0.78125)"/>
     </g>
    </g>
   </g>
  </g>
 </g>
 <defs>
  <clipPath id="p34fdf21863">
   <rect x="57.6" y="41.472" width="357.12" height="266.112"/>
  </clipPath>
 </defs>
</svg>
