<?xml version="1.0" encoding="utf-8" standalone="no"?>
<!DOCTYPE svg PUBLIC "-//W3C//DTD SVG 1.1//EN"
  "http://www.w3.org/Graphics/SVG/1.1/DTD/svg11.dtd">
<svg xmlns:xlink="http://www.w3.org/1999/xlink" width="460.8pt" height="345.6pt" viewBox="0 0 460.8 345.6" xmlns="http://www.w3.org/2000/svg" version="1.1">
 <metadata>
  <rdf:RDF xmlns:dc="http://purl.org/dc/elements/1.1/" xmlns:cc="http://creativecommons.org/ns#" xmlns:rdf="http://www.w3.org/1999/02/22-rdf-syntax-ns#">
   <cc:Work>
    <dc:type rdf:resource="http://purl.org/dc/dcmitype/StillImage"/>
    <dc:date>2023-08-06T18:18:39.516644</dc:date>
    <dc:format>image/svg+xml</dc:format>
    <dc:creator>
     <cc:Agent>
      <dc:title>Matplotlib v3.6.3, https://matplotlib.org/</dc:title>
     </cc:Agent>
    </dc:creator>
   </cc:Work>
  </rdf:RDF>
 </metadata>
 <defs>
  <style type="text/css">*{stroke-linejoin: round; stroke-linecap: butt}</style>
 </defs>
 <g id="figure_1">
  <g id="patch_1">
   <path d="M 0 345.6 
L 460.8 345.6 
L 460.8 0 
L 0 0 
z
" style="fill: #ffffff"/>
  </g>
  <g id="axes_1">
   <g id="patch_2">
    <path d="M 57.6 307.584 
L 414.72 307.584 
L 414.72 41.472 
L 57.6 41.472 
z
" style="fill: #ffffff"/>
   </g>
   <g id="matplotlib.axis_1">
    <g id="xtick_1">
     <g id="line2d_1">
      <path d="M 57.6 307.584 
L 57.6 41.472 
" clip-path="url(#p745d5bab7e)" style="fill: none; stroke: #b0b0b0; stroke-width: 0.8; stroke-linecap: square"/>
     </g>
     <g id="line2d_2">
      <defs>
       <path id="m35239a0af0" d="M 0 0 
L 0 3.5 
" style="stroke: #000000; stroke-width: 0.8"/>
      </defs>
      <g>
       <use xlink:href="#m35239a0af0" x="57.6" y="307.584" style="stroke: #000000; stroke-width: 0.8"/>
      </g>
     </g>
     <g id="text_1">
      <!-- 0.00 -->
      <g transform="translate(46.467188 322.182437) scale(0.1 -0.1)">
       <defs>
        <path id="DejaVuSans-30" d="M 2034 4250 
Q 1547 4250 1301 3770 
Q 1056 3291 1056 2328 
Q 1056 1369 1301 889 
Q 1547 409 2034 409 
Q 2525 409 2770 889 
Q 3016 1369 3016 2328 
Q 3016 3291 2770 3770 
Q 2525 4250 2034 4250 
z
M 2034 4750 
Q 2819 4750 3233 4129 
Q 3647 3509 3647 2328 
Q 3647 1150 3233 529 
Q 2819 -91 2034 -91 
Q 1250 -91 836 529 
Q 422 1150 422 2328 
Q 422 3509 836 4129 
Q 1250 4750 2034 4750 
z
" transform="scale(0.015625)"/>
        <path id="DejaVuSans-2e" d="M 684 794 
L 1344 794 
L 1344 0 
L 684 0 
L 684 794 
z
" transform="scale(0.015625)"/>
       </defs>
       <use xlink:href="#DejaVuSans-30"/>
       <use xlink:href="#DejaVuSans-2e" x="63.623047"/>
       <use xlink:href="#DejaVuSans-30" x="95.410156"/>
       <use xlink:href="#DejaVuSans-30" x="159.033203"/>
      </g>
     </g>
    </g>
    <g id="xtick_2">
     <g id="line2d_3">
      <path d="M 129.024 307.584 
L 129.024 41.472 
" clip-path="url(#p745d5bab7e)" style="fill: none; stroke: #b0b0b0; stroke-width: 0.8; stroke-linecap: square"/>
     </g>
     <g id="line2d_4">
      <g>
       <use xlink:href="#m35239a0af0" x="129.024" y="307.584" style="stroke: #000000; stroke-width: 0.8"/>
      </g>
     </g>
     <g id="text_2">
      <!-- 0.01 -->
      <g transform="translate(117.891188 322.182437) scale(0.1 -0.1)">
       <defs>
        <path id="DejaVuSans-31" d="M 794 531 
L 1825 531 
L 1825 4091 
L 703 3866 
L 703 4441 
L 1819 4666 
L 2450 4666 
L 2450 531 
L 3481 531 
L 3481 0 
L 794 0 
L 794 531 
z
" transform="scale(0.015625)"/>
       </defs>
       <use xlink:href="#DejaVuSans-30"/>
       <use xlink:href="#DejaVuSans-2e" x="63.623047"/>
       <use xlink:href="#DejaVuSans-30" x="95.410156"/>
       <use xlink:href="#DejaVuSans-31" x="159.033203"/>
      </g>
     </g>
    </g>
    <g id="xtick_3">
     <g id="line2d_5">
      <path d="M 200.448 307.584 
L 200.448 41.472 
" clip-path="url(#p745d5bab7e)" style="fill: none; stroke: #b0b0b0; stroke-width: 0.8; stroke-linecap: square"/>
     </g>
     <g id="line2d_6">
      <g>
       <use xlink:href="#m35239a0af0" x="200.448" y="307.584" style="stroke: #000000; stroke-width: 0.8"/>
      </g>
     </g>
     <g id="text_3">
      <!-- 0.02 -->
      <g transform="translate(189.315187 322.182437) scale(0.1 -0.1)">
       <defs>
        <path id="DejaVuSans-32" d="M 1228 531 
L 3431 531 
L 3431 0 
L 469 0 
L 469 531 
Q 828 903 1448 1529 
Q 2069 2156 2228 2338 
Q 2531 2678 2651 2914 
Q 2772 3150 2772 3378 
Q 2772 3750 2511 3984 
Q 2250 4219 1831 4219 
Q 1534 4219 1204 4116 
Q 875 4013 500 3803 
L 500 4441 
Q 881 4594 1212 4672 
Q 1544 4750 1819 4750 
Q 2544 4750 2975 4387 
Q 3406 4025 3406 3419 
Q 3406 3131 3298 2873 
Q 3191 2616 2906 2266 
Q 2828 2175 2409 1742 
Q 1991 1309 1228 531 
z
" transform="scale(0.015625)"/>
       </defs>
       <use xlink:href="#DejaVuSans-30"/>
       <use xlink:href="#DejaVuSans-2e" x="63.623047"/>
       <use xlink:href="#DejaVuSans-30" x="95.410156"/>
       <use xlink:href="#DejaVuSans-32" x="159.033203"/>
      </g>
     </g>
    </g>
    <g id="xtick_4">
     <g id="line2d_7">
      <path d="M 271.872 307.584 
L 271.872 41.472 
" clip-path="url(#p745d5bab7e)" style="fill: none; stroke: #b0b0b0; stroke-width: 0.8; stroke-linecap: square"/>
     </g>
     <g id="line2d_8">
      <g>
       <use xlink:href="#m35239a0af0" x="271.872" y="307.584" style="stroke: #000000; stroke-width: 0.8"/>
      </g>
     </g>
     <g id="text_4">
      <!-- 0.03 -->
      <g transform="translate(260.739188 322.182437) scale(0.1 -0.1)">
       <defs>
        <path id="DejaVuSans-33" d="M 2597 2516 
Q 3050 2419 3304 2112 
Q 3559 1806 3559 1356 
Q 3559 666 3084 287 
Q 2609 -91 1734 -91 
Q 1441 -91 1130 -33 
Q 819 25 488 141 
L 488 750 
Q 750 597 1062 519 
Q 1375 441 1716 441 
Q 2309 441 2620 675 
Q 2931 909 2931 1356 
Q 2931 1769 2642 2001 
Q 2353 2234 1838 2234 
L 1294 2234 
L 1294 2753 
L 1863 2753 
Q 2328 2753 2575 2939 
Q 2822 3125 2822 3475 
Q 2822 3834 2567 4026 
Q 2313 4219 1838 4219 
Q 1578 4219 1281 4162 
Q 984 4106 628 3988 
L 628 4550 
Q 988 4650 1302 4700 
Q 1616 4750 1894 4750 
Q 2613 4750 3031 4423 
Q 3450 4097 3450 3541 
Q 3450 3153 3228 2886 
Q 3006 2619 2597 2516 
z
" transform="scale(0.015625)"/>
       </defs>
       <use xlink:href="#DejaVuSans-30"/>
       <use xlink:href="#DejaVuSans-2e" x="63.623047"/>
       <use xlink:href="#DejaVuSans-30" x="95.410156"/>
       <use xlink:href="#DejaVuSans-33" x="159.033203"/>
      </g>
     </g>
    </g>
    <g id="xtick_5">
     <g id="line2d_9">
      <path d="M 343.296 307.584 
L 343.296 41.472 
" clip-path="url(#p745d5bab7e)" style="fill: none; stroke: #b0b0b0; stroke-width: 0.8; stroke-linecap: square"/>
     </g>
     <g id="line2d_10">
      <g>
       <use xlink:href="#m35239a0af0" x="343.296" y="307.584" style="stroke: #000000; stroke-width: 0.8"/>
      </g>
     </g>
     <g id="text_5">
      <!-- 0.04 -->
      <g transform="translate(332.163187 322.182437) scale(0.1 -0.1)">
       <defs>
        <path id="DejaVuSans-34" d="M 2419 4116 
L 825 1625 
L 2419 1625 
L 2419 4116 
z
M 2253 4666 
L 3047 4666 
L 3047 1625 
L 3713 1625 
L 3713 1100 
L 3047 1100 
L 3047 0 
L 2419 0 
L 2419 1100 
L 313 1100 
L 313 1709 
L 2253 4666 
z
" transform="scale(0.015625)"/>
       </defs>
       <use xlink:href="#DejaVuSans-30"/>
       <use xlink:href="#DejaVuSans-2e" x="63.623047"/>
       <use xlink:href="#DejaVuSans-30" x="95.410156"/>
       <use xlink:href="#DejaVuSans-34" x="159.033203"/>
      </g>
     </g>
    </g>
    <g id="xtick_6">
     <g id="line2d_11">
      <path d="M 414.72 307.584 
L 414.72 41.472 
" clip-path="url(#p745d5bab7e)" style="fill: none; stroke: #b0b0b0; stroke-width: 0.8; stroke-linecap: square"/>
     </g>
     <g id="line2d_12">
      <g>
       <use xlink:href="#m35239a0af0" x="414.72" y="307.584" style="stroke: #000000; stroke-width: 0.8"/>
      </g>
     </g>
     <g id="text_6">
      <!-- 0.05 -->
      <g transform="translate(403.587188 322.182437) scale(0.1 -0.1)">
       <defs>
        <path id="DejaVuSans-35" d="M 691 4666 
L 3169 4666 
L 3169 4134 
L 1269 4134 
L 1269 2991 
Q 1406 3038 1543 3061 
Q 1681 3084 1819 3084 
Q 2600 3084 3056 2656 
Q 3513 2228 3513 1497 
Q 3513 744 3044 326 
Q 2575 -91 1722 -91 
Q 1428 -91 1123 -41 
Q 819 9 494 109 
L 494 744 
Q 775 591 1075 516 
Q 1375 441 1709 441 
Q 2250 441 2565 725 
Q 2881 1009 2881 1497 
Q 2881 1984 2565 2268 
Q 2250 2553 1709 2553 
Q 1456 2553 1204 2497 
Q 953 2441 691 2322 
L 691 4666 
z
" transform="scale(0.015625)"/>
       </defs>
       <use xlink:href="#DejaVuSans-30"/>
       <use xlink:href="#DejaVuSans-2e" x="63.623047"/>
       <use xlink:href="#DejaVuSans-30" x="95.410156"/>
       <use xlink:href="#DejaVuSans-35" x="159.033203"/>
      </g>
     </g>
    </g>
    <g id="text_7">
     <!-- Time (s) -->
     <g transform="translate(215.831094 335.860562) scale(0.1 -0.1)">
      <defs>
       <path id="DejaVuSans-54" d="M -19 4666 
L 3928 4666 
L 3928 4134 
L 2272 4134 
L 2272 0 
L 1638 0 
L 1638 4134 
L -19 4134 
L -19 4666 
z
" transform="scale(0.015625)"/>
       <path id="DejaVuSans-69" d="M 603 3500 
L 1178 3500 
L 1178 0 
L 603 0 
L 603 3500 
z
M 603 4863 
L 1178 4863 
L 1178 4134 
L 603 4134 
L 603 4863 
z
" transform="scale(0.015625)"/>
       <path id="DejaVuSans-6d" d="M 3328 2828 
Q 3544 3216 3844 3400 
Q 4144 3584 4550 3584 
Q 5097 3584 5394 3201 
Q 5691 2819 5691 2113 
L 5691 0 
L 5113 0 
L 5113 2094 
Q 5113 2597 4934 2840 
Q 4756 3084 4391 3084 
Q 3944 3084 3684 2787 
Q 3425 2491 3425 1978 
L 3425 0 
L 2847 0 
L 2847 2094 
Q 2847 2600 2669 2842 
Q 2491 3084 2119 3084 
Q 1678 3084 1418 2786 
Q 1159 2488 1159 1978 
L 1159 0 
L 581 0 
L 581 3500 
L 1159 3500 
L 1159 2956 
Q 1356 3278 1631 3431 
Q 1906 3584 2284 3584 
Q 2666 3584 2933 3390 
Q 3200 3197 3328 2828 
z
" transform="scale(0.015625)"/>
       <path id="DejaVuSans-65" d="M 3597 1894 
L 3597 1613 
L 953 1613 
Q 991 1019 1311 708 
Q 1631 397 2203 397 
Q 2534 397 2845 478 
Q 3156 559 3463 722 
L 3463 178 
Q 3153 47 2828 -22 
Q 2503 -91 2169 -91 
Q 1331 -91 842 396 
Q 353 884 353 1716 
Q 353 2575 817 3079 
Q 1281 3584 2069 3584 
Q 2775 3584 3186 3129 
Q 3597 2675 3597 1894 
z
M 3022 2063 
Q 3016 2534 2758 2815 
Q 2500 3097 2075 3097 
Q 1594 3097 1305 2825 
Q 1016 2553 972 2059 
L 3022 2063 
z
" transform="scale(0.015625)"/>
       <path id="DejaVuSans-20" transform="scale(0.015625)"/>
       <path id="DejaVuSans-28" d="M 1984 4856 
Q 1566 4138 1362 3434 
Q 1159 2731 1159 2009 
Q 1159 1288 1364 580 
Q 1569 -128 1984 -844 
L 1484 -844 
Q 1016 -109 783 600 
Q 550 1309 550 2009 
Q 550 2706 781 3412 
Q 1013 4119 1484 4856 
L 1984 4856 
z
" transform="scale(0.015625)"/>
       <path id="DejaVuSans-73" d="M 2834 3397 
L 2834 2853 
Q 2591 2978 2328 3040 
Q 2066 3103 1784 3103 
Q 1356 3103 1142 2972 
Q 928 2841 928 2578 
Q 928 2378 1081 2264 
Q 1234 2150 1697 2047 
L 1894 2003 
Q 2506 1872 2764 1633 
Q 3022 1394 3022 966 
Q 3022 478 2636 193 
Q 2250 -91 1575 -91 
Q 1294 -91 989 -36 
Q 684 19 347 128 
L 347 722 
Q 666 556 975 473 
Q 1284 391 1588 391 
Q 1994 391 2212 530 
Q 2431 669 2431 922 
Q 2431 1156 2273 1281 
Q 2116 1406 1581 1522 
L 1381 1569 
Q 847 1681 609 1914 
Q 372 2147 372 2553 
Q 372 3047 722 3315 
Q 1072 3584 1716 3584 
Q 2034 3584 2315 3537 
Q 2597 3491 2834 3397 
z
" transform="scale(0.015625)"/>
       <path id="DejaVuSans-29" d="M 513 4856 
L 1013 4856 
Q 1481 4119 1714 3412 
Q 1947 2706 1947 2009 
Q 1947 1309 1714 600 
Q 1481 -109 1013 -844 
L 513 -844 
Q 928 -128 1133 580 
Q 1338 1288 1338 2009 
Q 1338 2731 1133 3434 
Q 928 4138 513 4856 
z
" transform="scale(0.015625)"/>
      </defs>
      <use xlink:href="#DejaVuSans-54"/>
      <use xlink:href="#DejaVuSans-69" x="57.958984"/>
      <use xlink:href="#DejaVuSans-6d" x="85.742188"/>
      <use xlink:href="#DejaVuSans-65" x="183.154297"/>
      <use xlink:href="#DejaVuSans-20" x="244.677734"/>
      <use xlink:href="#DejaVuSans-28" x="276.464844"/>
      <use xlink:href="#DejaVuSans-73" x="315.478516"/>
      <use xlink:href="#DejaVuSans-29" x="367.578125"/>
     </g>
    </g>
   </g>
   <g id="matplotlib.axis_2">
    <g id="ytick_1">
     <g id="line2d_13">
      <path d="M 57.6 276.878769 
L 414.72 276.878769 
" clip-path="url(#p745d5bab7e)" style="fill: none; stroke: #b0b0b0; stroke-width: 0.8; stroke-linecap: square"/>
     </g>
     <g id="line2d_14">
      <defs>
       <path id="m7f78b72b26" d="M 0 0 
L -3.5 0 
" style="stroke: #000000; stroke-width: 0.8"/>
      </defs>
      <g>
       <use xlink:href="#m7f78b72b26" x="57.6" y="276.878769" style="stroke: #000000; stroke-width: 0.8"/>
      </g>
     </g>
     <g id="text_8">
      <!-- −1.0 -->
      <g transform="translate(26.317187 280.677988) scale(0.1 -0.1)">
       <defs>
        <path id="DejaVuSans-2212" d="M 678 2272 
L 4684 2272 
L 4684 1741 
L 678 1741 
L 678 2272 
z
" transform="scale(0.015625)"/>
       </defs>
       <use xlink:href="#DejaVuSans-2212"/>
       <use xlink:href="#DejaVuSans-31" x="83.789062"/>
       <use xlink:href="#DejaVuSans-2e" x="147.412109"/>
       <use xlink:href="#DejaVuSans-30" x="179.199219"/>
      </g>
     </g>
    </g>
    <g id="ytick_2">
     <g id="line2d_15">
      <path d="M 57.6 225.703385 
L 414.72 225.703385 
" clip-path="url(#p745d5bab7e)" style="fill: none; stroke: #b0b0b0; stroke-width: 0.8; stroke-linecap: square"/>
     </g>
     <g id="line2d_16">
      <g>
       <use xlink:href="#m7f78b72b26" x="57.6" y="225.703385" style="stroke: #000000; stroke-width: 0.8"/>
      </g>
     </g>
     <g id="text_9">
      <!-- −0.5 -->
      <g transform="translate(26.317187 229.502603) scale(0.1 -0.1)">
       <use xlink:href="#DejaVuSans-2212"/>
       <use xlink:href="#DejaVuSans-30" x="83.789062"/>
       <use xlink:href="#DejaVuSans-2e" x="147.412109"/>
       <use xlink:href="#DejaVuSans-35" x="179.199219"/>
      </g>
     </g>
    </g>
    <g id="ytick_3">
     <g id="line2d_17">
      <path d="M 57.6 174.528 
L 414.72 174.528 
" clip-path="url(#p745d5bab7e)" style="fill: none; stroke: #b0b0b0; stroke-width: 0.8; stroke-linecap: square"/>
     </g>
     <g id="line2d_18">
      <g>
       <use xlink:href="#m7f78b72b26" x="57.6" y="174.528" style="stroke: #000000; stroke-width: 0.8"/>
      </g>
     </g>
     <g id="text_10">
      <!-- 0.0 -->
      <g transform="translate(34.696875 178.327219) scale(0.1 -0.1)">
       <use xlink:href="#DejaVuSans-30"/>
       <use xlink:href="#DejaVuSans-2e" x="63.623047"/>
       <use xlink:href="#DejaVuSans-30" x="95.410156"/>
      </g>
     </g>
    </g>
    <g id="ytick_4">
     <g id="line2d_19">
      <path d="M 57.6 123.352615 
L 414.72 123.352615 
" clip-path="url(#p745d5bab7e)" style="fill: none; stroke: #b0b0b0; stroke-width: 0.8; stroke-linecap: square"/>
     </g>
     <g id="line2d_20">
      <g>
       <use xlink:href="#m7f78b72b26" x="57.6" y="123.352615" style="stroke: #000000; stroke-width: 0.8"/>
      </g>
     </g>
     <g id="text_11">
      <!-- 0.5 -->
      <g transform="translate(34.696875 127.151834) scale(0.1 -0.1)">
       <use xlink:href="#DejaVuSans-30"/>
       <use xlink:href="#DejaVuSans-2e" x="63.623047"/>
       <use xlink:href="#DejaVuSans-35" x="95.410156"/>
      </g>
     </g>
    </g>
    <g id="ytick_5">
     <g id="line2d_21">
      <path d="M 57.6 72.177231 
L 414.72 72.177231 
" clip-path="url(#p745d5bab7e)" style="fill: none; stroke: #b0b0b0; stroke-width: 0.8; stroke-linecap: square"/>
     </g>
     <g id="line2d_22">
      <g>
       <use xlink:href="#m7f78b72b26" x="57.6" y="72.177231" style="stroke: #000000; stroke-width: 0.8"/>
      </g>
     </g>
     <g id="text_12">
      <!-- 1.0 -->
      <g transform="translate(34.696875 75.97645) scale(0.1 -0.1)">
       <use xlink:href="#DejaVuSans-31"/>
       <use xlink:href="#DejaVuSans-2e" x="63.623047"/>
       <use xlink:href="#DejaVuSans-30" x="95.410156"/>
      </g>
     </g>
    </g>
    <g id="text_13">
     <!-- $C_{L}$ $C_{D}$ -->
     <g transform="translate(20.2375 188.028) rotate(-90) scale(0.1 -0.1)">
      <defs>
       <path id="DejaVuSans-Oblique-43" d="M 4447 4306 
L 4319 3641 
Q 4019 3944 3683 4091 
Q 3347 4238 2956 4238 
Q 2422 4238 2017 3981 
Q 1613 3725 1319 3200 
Q 1131 2863 1032 2486 
Q 934 2109 934 1728 
Q 934 1091 1264 756 
Q 1594 422 2222 422 
Q 2656 422 3056 561 
Q 3456 700 3834 978 
L 3688 231 
Q 3316 72 2936 -9 
Q 2556 -91 2175 -91 
Q 1278 -91 773 396 
Q 269 884 269 1753 
Q 269 2309 461 2846 
Q 653 3384 1013 3828 
Q 1394 4300 1883 4525 
Q 2372 4750 3022 4750 
Q 3422 4750 3780 4639 
Q 4138 4528 4447 4306 
z
" transform="scale(0.015625)"/>
       <path id="DejaVuSans-Oblique-4c" d="M 1075 4666 
L 1709 4666 
L 909 525 
L 3181 525 
L 3078 0 
L 172 0 
L 1075 4666 
z
" transform="scale(0.015625)"/>
       <path id="DejaVuSans-Oblique-44" d="M 1081 4666 
L 2438 4666 
Q 3519 4666 4070 4208 
Q 4622 3750 4622 2847 
Q 4622 2250 4412 1698 
Q 4203 1147 3834 769 
Q 3463 381 2891 190 
Q 2319 0 1538 0 
L 172 0 
L 1081 4666 
z
M 1613 4147 
L 909 519 
L 1734 519 
Q 2794 519 3375 1128 
Q 3956 1738 3956 2847 
Q 3956 3519 3581 3833 
Q 3206 4147 2406 4147 
L 1613 4147 
z
" transform="scale(0.015625)"/>
      </defs>
      <use xlink:href="#DejaVuSans-Oblique-43" transform="translate(0 0.78125)"/>
      <use xlink:href="#DejaVuSans-Oblique-4c" transform="translate(69.824219 -15.625) scale(0.7)"/>
      <use xlink:href="#DejaVuSans-20" transform="translate(111.557617 0.78125)"/>
      <use xlink:href="#DejaVuSans-Oblique-43" transform="translate(143.344727 0.78125)"/>
      <use xlink:href="#DejaVuSans-Oblique-44" transform="translate(213.168945 -15.625) scale(0.7)"/>
     </g>
    </g>
   </g>
   <g id="line2d_23">
    <path d="M 57.6 174.528 
L 57.874708 185.328021 
L 57.917519 193.767038 
L 57.999891 189.41995 
L 58.168021 186.13283 
L 58.211545 186.327445 
L 58.255719 186.044546 
L 58.300573 185.950905 
L 58.487472 184.944248 
L 58.892851 182.740891 
L 58.945836 182.462031 
L 58.998821 182.688236 
L 59.157776 182.439654 
L 59.266609 182.83829 
L 59.321026 182.774014 
L 59.375443 182.618371 
L 59.42986 182.796845 
L 59.593111 182.727293 
L 59.649471 182.4665 
L 59.705831 182.525514 
L 60.043993 182.327545 
L 60.100354 182.46348 
L 60.156714 182.353818 
L 60.325795 182.400075 
L 60.551236 182.525101 
L 60.607597 182.471231 
L 60.663957 182.653082 
L 60.720317 182.618716 
L 60.945759 182.141766 
L 61.002119 182.281464 
L 61.1712 181.977959 
L 61.231729 182.009596 
L 61.473844 181.712193 
L 61.776488 181.528859 
L 61.837017 181.523054 
L 62.139661 180.965612 
L 62.68442 180.754525 
L 63.047593 180.999121 
L 63.168651 180.717202 
L 63.22918 180.797477 
L 63.652881 181.006807 
L 64.076583 181.386823 
L 64.197641 181.593968 
L 64.258169 181.512972 
L 64.318698 181.565398 
L 66.029693 183.945149 
L 66.355965 184.558961 
L 67.073765 185.878811 
L 67.530546 186.781548 
L 67.922073 187.616585 
L 68.052582 187.649528 
L 68.515743 188.683296 
L 68.987411 189.166952 
L 69.054792 189.197574 
L 69.256936 189.534428 
L 69.998128 190.034434 
L 70.065509 189.964604 
L 70.402415 190.339628 
L 71.143608 190.655601 
L 71.345751 190.988853 
L 71.480513 191.224635 
L 71.8848 192.122742 
L 72.234918 192.979935 
L 72.796949 194.737459 
L 74.593605 204.084246 
L 75.096669 207.338699 
L 75.915516 212.043707 
L 76.849021 215.862781 
L 77.54915 217.399299 
L 77.626942 217.521473 
L 77.704734 217.315861 
L 77.782526 217.418473 
L 77.938111 217.740625 
L 78.093695 217.795295 
L 78.249279 218.027182 
L 78.482655 217.756451 
L 78.793824 217.486126 
L 79.193302 216.939773 
L 79.359405 216.488875 
L 80.106865 214.490625 
L 80.854326 212.003667 
L 81.933991 209.429674 
L 82.349247 209.144399 
L 82.772605 209.118146 
L 83.036332 209.360214 
L 83.931551 209.423054 
L 84.379161 208.841084 
L 84.647727 208.290477 
L 85.005815 207.212004 
L 85.632468 204.757766 
L 86.787321 198.801765 
L 87.989561 191.203099 
L 88.906877 184.438676 
L 91.286156 164.521872 
L 96.70295 115.341571 
L 98.182522 104.141677 
L 99.149833 98.132564 
L 100.023326 94.03119 
L 100.729108 91.713299 
L 101.331351 90.513487 
L 101.762431 90.174932 
L 102.139626 90.321545 
L 102.516821 90.845272 
L 102.947901 91.9349 
L 103.432865 93.764911 
L 104.188786 97.960242 
L 104.90337 103.376878 
L 105.787569 111.911971 
L 106.805261 123.863952 
L 108.20159 143.063321 
L 111.036355 186.355269 
L 112.979259 214.664133 
L 114.179219 229.271892 
L 115.08761 237.972734 
L 115.80185 243.070009 
L 116.428987 246.128327 
L 116.89934 247.466902 
L 117.275623 248.020568 
L 117.557835 248.094127 
L 117.840047 247.897752 
L 118.216329 247.279255 
L 118.7072 245.818666 
L 119.3024 243.24104 
L 120.066607 238.869792 
L 121.117393 231.488882 
L 122.074638 223.847419 
L 123.50386 210.522602 
L 125.694403 185.730927 
L 130.613844 125.740537 
L 131.862061 114.586672 
L 133.054971 105.771894 
L 133.733829 101.525251 
L 134.945691 94.004511 
L 137.23243 81.878663 
L 137.807406 80.074896 
L 138.276912 79.221716 
L 138.642084 78.940997 
L 138.955089 78.977814 
L 139.841113 80.84327 
L 140.255165 82.549251 
L 141.08327 87.151787 
L 141.756104 91.920863 
L 143.15353 103.520349 
L 144.864786 119.726515 
L 146.015631 132.749239 
L 147.372579 150.924711 
L 152.363179 219.402849 
L 153.606555 233.015427 
L 154.4688 240.095574 
L 155.102688 243.751942 
L 155.656224 245.738387 
L 156.025248 246.43647 
L 156.302016 246.613264 
L 156.578784 246.507001 
L 156.855552 246.156047 
L 157.224576 245.272497 
L 157.776738 243.201047 
L 158.417723 239.811533 
L 159.406671 233.098472 
L 160.549455 223.834228 
L 162.276548 207.798399 
L 163.576174 193.609417 
L 166.076324 161.92705 
L 167.814347 139.997244 
L 169.181794 125.37522 
L 170.375635 114.865418 
L 171.46225 106.984355 
L 174.408588 89.542886 
L 175.716107 83.109914 
L 176.402481 80.892424 
L 176.821412 80.172143 
L 177.13561 79.925981 
L 177.502175 79.944506 
L 177.816373 80.439425 
L 178.182938 81.236674 
L 178.601869 82.650639 
L 179.545976 87.647929 
L 180.438776 94.05847 
L 182.987174 115.968445 
L 184.136829 127.815267 
L 185.263739 141.611664 
L 187.53331 173.267807 
L 190.119496 207.830379 
L 191.584205 224.951655 
L 192.530972 233.763449 
L 193.3056 239.045328 
L 193.946585 241.830507 
L 194.404431 242.859378 
L 194.763664 243.171574 
L 195.027806 243.059462 
L 195.291948 242.74726 
L 195.644137 241.948944 
L 196.172421 240.03576 
L 196.8768 236.365435 
L 197.922029 229.167049 
L 199.402771 216.835762 
L 201.175167 199.424671 
L 202.850777 180.107152 
L 207.005923 130.043065 
L 208.50353 116.783605 
L 209.441673 110.040946 
L 211.001073 100.569909 
L 213.719674 85.105985 
L 214.572833 81.61493 
L 215.051763 80.352509 
L 215.418951 79.832054 
L 215.786139 79.68726 
L 216.153327 80.04443 
L 216.625426 81.063937 
L 217.04507 82.576344 
L 217.884357 87.202011 
L 218.776659 94.213705 
L 220.058814 106.728273 
L 222.443127 133.052914 
L 223.72623 149.93025 
L 229.326597 228.027787 
L 230.452834 240.10366 
L 231.356512 247.691702 
L 232.095885 252.123428 
L 232.669964 254.41504 
L 233.156945 255.509413 
L 233.562764 255.842373 
L 233.801182 255.812688 
L 234.194318 255.354004 
L 234.508827 254.732058 
L 234.901964 253.599538 
L 235.766864 249.847653 
L 236.5568 245.36715 
L 237.58848 238.466729 
L 239.7312 221.629804 
L 241.34339 206.656605 
L 243.230478 186.377452 
L 244.717599 169.180908 
L 246.414452 149.434824 
L 247.919512 134.74098 
L 249.569438 121.076463 
L 251.458602 106.977882 
L 253.208967 95.492589 
L 254.394764 89.063786 
L 255.145144 86.073929 
L 255.729114 84.62755 
L 256.313084 83.748277 
L 256.787755 83.534922 
L 257.037581 83.602173 
L 257.437304 84.001024 
L 257.849788 84.822362 
L 258.269929 86.159562 
L 258.952659 89.36055 
L 259.582871 93.421222 
L 260.528188 101.80422 
L 261.4374 112.334343 
L 262.634886 129.054263 
L 264.126954 152.984472 
L 266.227408 190.506954 
L 268.179161 224.38507 
L 269.144902 237.519783 
L 270.053935 245.857043 
L 270.573382 248.575314 
L 270.962967 249.596024 
L 271.222691 249.784049 
L 271.417484 249.714288 
L 271.612276 249.433818 
L 271.938133 248.549744 
L 272.334933 246.845012 
L 272.874287 243.641337 
L 273.624913 238.007086 
L 274.953661 226.306779 
L 278.788096 189.343687 
L 280.178922 173.043291 
L 282.72702 143.095132 
L 284.022874 131.175507 
L 285.1786 122.645681 
L 287.301364 109.379575 
L 288.924502 100.35078 
L 290.175418 94.647836 
L 291.395645 89.951407 
L 292.265842 87.398421 
L 292.972876 86.200531 
L 293.244813 86.083506 
L 293.515636 86.179424 
L 293.840291 86.582236 
L 294.110836 87.217436 
L 294.484189 88.554018 
L 295.279593 93.250314 
L 295.915916 98.858804 
L 296.8704 110.836555 
L 297.563319 122.265181 
L 298.416143 139.360061 
L 301.93123 214.187097 
L 303.001639 230.480039 
L 303.949602 241.933773 
L 304.706946 248.921199 
L 305.448165 254.051627 
L 306.032183 256.935852 
L 306.537139 258.556247 
L 306.968199 259.347311 
L 307.2761 259.57717 
L 307.52242 259.537257 
L 307.83029 259.264589 
L 308.193007 258.618565 
L 308.67663 257.296866 
L 309.288272 254.887569 
L 310.159505 250.32279 
L 311.3536 242.550231 
L 313.342687 227.890104 
L 314.172915 221.727034 
L 317.000369 199.208937 
L 318.581808 185.115648 
L 320.843365 162.791722 
L 322.772294 139.40648 
L 324.045729 124.026072 
L 325.105375 113.643665 
L 326.150384 106.046576 
L 326.852094 102.526646 
L 327.380798 100.734404 
L 328.117109 99.356175 
L 328.590451 99.177967 
L 329.0112 99.377045 
L 329.536376 100.30918 
L 330.061553 101.741575 
L 330.691765 104.101125 
L 331.269459 106.829587 
L 331.847153 110.071882 
L 332.857108 117.046537 
L 334.042323 127.128727 
L 335.683275 143.60212 
L 339.7248 185.432795 
L 341.255529 198.117519 
L 342.354244 205.207464 
L 343.139041 209.05507 
L 343.93088 211.702057 
L 344.475378 212.808989 
L 344.938311 213.268042 
L 345.311744 213.357278 
L 345.608021 213.188015 
L 345.978368 212.68679 
L 346.798828 210.821582 
L 347.499813 208.176456 
L 348.339409 203.976282 
L 349.388904 197.45967 
L 350.648471 188.303536 
L 352.355531 174.235955 
L 360.632258 103.072413 
L 361.764785 95.901054 
L 362.805709 91.727362 
L 363.238691 90.79257 
L 363.662836 90.531372 
L 363.874909 90.613135 
L 364.14 90.873824 
L 364.405091 91.407927 
L 364.831418 92.713708 
L 365.3184 94.970584 
L 365.967709 99.084711 
L 366.671127 104.922839 
L 367.590982 114.190268 
L 369.050531 131.461741 
L 371.934277 167.841465 
L 373.910155 188.583893 
L 374.826142 196.166361 
L 375.862228 202.948033 
L 376.646849 207.17173 
L 377.7837 211.799403 
L 378.8331 215.066538 
L 380.107586 218.390199 
L 380.740799 219.893166 
L 381.315717 221.223136 
L 382.5792 223.628071 
L 382.838924 224.066602 
L 383.224534 224.679339 
L 383.669774 225.154425 
L 384.305832 225.681624 
L 384.801049 225.841456 
L 385.659727 225.609271 
L 385.966398 225.296272 
L 386.335117 224.876758 
L 387.012414 223.761042 
L 387.566566 222.379505 
L 388.243862 220.202799 
L 389.167448 216.053171 
L 390.234374 209.592061 
L 391.222455 201.901085 
L 392.320406 191.375571 
L 393.491472 177.862657 
L 397.526182 128.669436 
L 398.591308 119.670102 
L 399.736058 111.99159 
L 400.77 106.788072 
L 401.601306 103.717639 
L 402.311902 101.994998 
L 402.858514 101.341316 
L 403.241143 101.274419 
L 403.623771 101.470622 
L 404.060509 102.166605 
L 404.6016 103.896952 
L 405.034473 105.982656 
L 405.683782 110.432458 
L 406.441309 117.540406 
L 407.252945 127.180328 
L 408.33953 143.178843 
L 410.066543 172.558272 
L 411.856816 201.106663 
L 412.787351 212.478033 
L 413.574726 219.257341 
L 414.075784 221.900792 
L 414.505261 223.133445 
L 414.72 223.432178 
L 414.72 223.432178 
" clip-path="url(#p745d5bab7e)" style="fill: none; stroke: #0000ff; stroke-width: 1.5; stroke-linecap: square"/>
   </g>
   <g id="line2d_24">
    <path d="M 57.6 171.305893 
L 57.629407 -1 
M 57.917469 -1 
L 57.999891 92.269474 
L 58.168021 96.896965 
L 58.439548 99.435005 
L 58.487472 99.166862 
L 58.736252 102.084291 
L 58.945836 103.808306 
L 58.998821 103.637988 
L 59.051806 103.836249 
L 60.325795 110.125875 
L 61.1712 114.872302 
L 63.834468 125.470514 
L 64.076583 126.268824 
L 65.964439 133.491112 
L 66.551729 135.679402 
L 67.661055 139.696042 
L 69.189555 144.524614 
L 70.132891 146.273823 
L 70.200272 146.31349 
L 70.402415 146.592624 
L 70.604558 146.58206 
L 70.874083 146.411513 
L 71.547894 144.863781 
L 71.954824 143.297215 
L 72.304941 141.392688 
L 73.012547 136.643037 
L 73.946809 128.17855 
L 75.683949 111.587122 
L 76.304477 107.939139 
L 76.849021 106.118614 
L 77.004605 105.818458 
L 77.393566 105.336154 
L 77.54915 105.307154 
L 77.626942 105.44578 
L 77.782526 105.263663 
L 78.015903 105.401269 
L 78.093695 105.418579 
L 78.327071 105.746793 
L 78.482655 105.799192 
L 78.793824 106.166361 
L 79.0272 106.282011 
L 79.193302 106.666676 
L 79.276353 106.546517 
L 79.525507 107.059067 
L 79.857712 107.590798 
L 79.940763 107.564792 
L 80.771274 109.10862 
L 82.772605 114.021861 
L 83.215376 115.129566 
L 83.931551 116.565381 
L 84.468683 116.994263 
L 84.737249 117.028442 
L 85.184859 116.746458 
L 85.901034 115.876346 
L 86.787321 114.631777 
L 87.482257 113.89591 
L 88.823484 113.183339 
L 89.361744 113.006288 
L 90.05824 112.833288 
L 90.60384 112.682089 
L 91.586281 112.488451 
L 92.59295 112.206712 
L 93.380677 111.80018 
L 94.127356 111.148191 
L 94.720534 110.388749 
L 95.487932 109.012595 
L 96.222284 107.241616 
L 97.362121 103.809683 
L 102.193511 88.511587 
L 102.947901 86.667841 
L 104.133818 84.575575 
L 104.958338 83.777549 
L 105.453049 83.664455 
L 105.844107 83.816971 
L 106.239877 84.201685 
L 106.692184 84.960629 
L 107.257569 86.405074 
L 107.836968 88.480729 
L 108.448791 91.268421 
L 109.522432 97.595808 
L 110.904709 106.983769 
L 112.277744 115.616819 
L 113.139254 119.518632 
L 113.699235 121.128347 
L 114.019224 121.800517 
L 114.579205 122.246901 
L 114.913405 122.185613 
L 115.353894 121.759562 
L 116.070623 120.496342 
L 118.3104 115.766253 
L 119.2032 114.573637 
L 122.267676 111.021907 
L 123.50386 108.998529 
L 124.038603 107.914435 
L 124.718506 106.778433 
L 126.920479 101.931839 
L 128.833201 95.351777 
L 130.613844 87.365442 
L 131.456719 84.066423 
L 132.482409 81.423735 
L 132.8256 80.953941 
L 133.054971 80.560217 
L 133.111543 80.635324 
L 133.281257 80.57633 
L 133.8444 80.279821 
L 133.954971 80.33564 
L 134.120829 80.262108 
L 134.2314 80.247225 
L 134.507829 80.191082 
L 135.05184 80.175841 
L 135.264137 80.171904 
L 135.529509 80.191293 
L 135.741806 80.171215 
L 137.650903 80.52867 
L 137.807406 80.50811 
L 138.798586 80.45456 
L 139.268093 80.171823 
L 139.685433 79.815309 
L 140.979756 78.369063 
L 141.549078 77.994855 
L 142.066644 78.059104 
L 142.532452 78.469553 
L 143.3088 80.139237 
L 144.249026 83.739615 
L 144.920764 87.063057 
L 147.498237 100.585122 
L 148.912076 109.110025 
L 150.669845 119.148546 
L 151.116852 121.051128 
L 151.731095 122.964541 
L 152.284169 124.024324 
L 152.774866 124.34973 
L 153.107541 124.285343 
L 153.523386 123.914132 
L 154.0224 123.075699 
L 154.918176 120.701987 
L 157.316832 113.681462 
L 158.051446 112.160161 
L 159.230858 110.224279 
L 162.45873 106.073667 
L 163.576174 104.898837 
L 164.139518 104.246532 
L 164.363199 104.001487 
L 165.860432 101.603518 
L 166.426857 100.212306 
L 167.439573 97.064976 
L 168.245593 93.856908 
L 170.202239 85.225389 
L 170.780226 83.333732 
L 171.46225 81.785956 
L 172.048457 81.22685 
L 173.268432 80.863405 
L 173.595607 80.867139 
L 173.868253 80.867283 
L 174.140899 80.88207 
L 174.56474 80.879575 
L 175.662806 81.009303 
L 175.982615 80.987924 
L 176.297748 80.934156 
L 176.821412 80.815523 
L 177.502175 80.438331 
L 177.764007 80.09876 
L 178.706602 78.856379 
L 179.651012 77.587161 
L 180.176188 77.252351 
L 180.543812 77.316435 
L 181.028909 77.799297 
L 181.675705 79.280332 
L 182.268602 81.464723 
L 183.157318 85.759586 
L 186.80612 106.003921 
L 189.458401 122.152592 
L 190.197205 124.919704 
L 190.753444 126.276389 
L 191.412065 126.922314 
L 191.670275 126.920523 
L 192.014554 126.704148 
L 192.530972 125.959164 
L 193.13346 124.578549 
L 194.763664 119.490976 
L 195.732185 116.627906 
L 196.612658 114.511369 
L 197.486517 112.838893 
L 198.967259 110.635733 
L 202.039753 107.033739 
L 203.542094 104.46259 
L 205.166582 99.477864 
L 206.497428 93.738952 
L 207.775117 87.990654 
L 208.562599 85.230692 
L 209.153281 83.770001 
L 209.728327 82.863741 
L 209.785658 82.930573 
L 209.842989 82.847025 
L 210.358967 82.38826 
L 210.465985 82.409188 
L 210.68002 82.30055 
L 211.4406 82.235474 
L 211.5522 82.262521 
L 211.718604 82.232586 
L 212.211836 82.233438 
L 212.866516 82.431426 
L 213.506385 82.776422 
L 214.039609 83.202794 
L 215.943505 84.814729 
L 216.730337 84.539526 
L 217.202436 84.125681 
L 218.199089 83.143622 
L 218.724141 82.729422 
L 219.31089 82.576526 
L 219.791698 82.845052 
L 220.219083 83.475844 
L 220.753314 84.814911 
L 221.234123 86.483687 
L 222.045257 90.045151 
L 227.441529 114.94494 
L 228.332352 117.887811 
L 228.812026 118.844193 
L 229.248926 119.283776 
L 229.561603 119.299485 
L 229.880256 119.124321 
L 230.288529 118.598667 
L 230.781444 117.610129 
L 231.60297 115.430298 
L 232.994618 111.48672 
L 233.238109 110.922819 
L 234.037064 109.207083 
L 235.137845 107.250621 
L 236.63616 104.485299 
L 237.42976 102.770699 
L 238.38208 100.446933 
L 239.57248 97.507864 
L 240.42802 95.774751 
L 241.425016 94.234423 
L 241.822012 93.802066 
L 242.133673 93.479421 
L 243.014713 93.269168 
L 244.023118 93.521583 
L 245.121849 94.427686 
L 245.582245 94.771164 
L 246.098787 95.052376 
L 246.816206 94.681718 
L 247.493165 93.186818 
L 248.039764 91.290961 
L 248.57736 89.030629 
L 250.501486 80.702186 
L 251.73658 77.268913 
L 257.237443 65.107928 
L 257.387339 64.940159 
L 258.742588 63.670035 
L 259.267765 63.64479 
L 260.108047 64.236427 
L 260.790776 65.396242 
L 261.4374 67.175774 
L 262.115267 69.808051 
L 262.693072 72.814491 
L 263.524308 78.28873 
L 264.548806 86.605174 
L 265.946209 100.044974 
L 267.996703 120.142315 
L 268.690385 124.76477 
L 269.209833 126.977479 
L 269.274764 127.008919 
L 269.72928 127.989762 
L 269.989004 128.076188 
L 270.248727 127.899882 
L 270.703244 127.118755 
L 271.287622 125.436807 
L 273.279905 119.184444 
L 274.464123 116.261049 
L 275.303332 113.851324 
L 276.136092 110.688045 
L 277.57171 103.771776 
L 280.567096 86.597213 
L 281.55047 81.886125 
L 282.119791 79.844502 
L 282.867011 78.074866 
L 283.622763 77.063271 
L 283.889504 76.92535 
L 284.220778 76.819569 
L 284.866119 76.809122 
L 285.789975 77.282996 
L 287.478923 79.191895 
L 288.46536 81.376381 
L 289.09668 83.433493 
L 289.895564 86.745392 
L 290.789018 91.107445 
L 293.8944 106.830552 
L 294.431162 108.355133 
L 295.173539 109.346323 
L 295.544727 109.417396 
L 295.915916 109.256162 
L 296.658292 107.905885 
L 297.296812 105.708314 
L 297.776525 103.320181 
L 298.469445 98.949049 
L 299.855284 90.127556 
L 300.334997 88.437447 
L 300.672993 87.872198 
L 300.965959 87.785225 
L 301.203847 87.922571 
L 301.563894 88.474634 
L 302.243268 90.128809 
L 305.708887 100.07084 
L 306.475559 103.708856 
L 307.39926 109.409909 
L 310.159505 126.965671 
L 310.906276 129.980207 
L 311.623424 131.941019 
L 312.097346 132.740097 
L 312.512459 133.043569 
L 313.13513 132.904584 
L 313.61943 132.316816 
L 314.449657 130.315798 
L 315.0984 128.078828 
L 317.224523 118.015107 
L 318.2976 112.517023 
L 319.675509 106.570459 
L 320.394737 104.42129 
L 321.031361 102.765544 
L 321.210813 102.564124 
L 321.509898 101.93738 
L 322.052437 101.207356 
L 322.653729 100.684838 
L 323.473561 100.497885 
L 323.704907 100.490227 
L 323.989958 100.500741 
L 324.324583 100.684094 
L 324.603437 100.767479 
L 324.882291 100.767665 
L 325.049604 100.770871 
L 326.096407 100.182988 
L 326.906072 98.829589 
L 327.485985 97.28908 
L 328.169702 94.995567 
L 328.695638 93.036053 
L 330.324141 86.917907 
L 331.059388 84.841247 
L 331.742118 83.52905 
L 332.267294 82.992422 
L 332.692283 82.859017 
L 333.024726 82.908115 
L 333.359962 83.14154 
L 333.814077 83.71823 
L 334.272299 84.612801 
L 334.860205 86.216366 
L 335.742065 89.52411 
L 336.65964 94.014605 
L 337.902654 101.439184 
L 340.63 118.057724 
L 341.804887 123.756665 
L 342.982081 128.12804 
L 343.77216 130.194376 
L 344.321067 131.204171 
L 345.015467 131.939444 
L 345.459883 132.16443 
L 345.978368 132.043472 
L 347.219947 131.036278 
L 348.269443 129.415653 
L 351.492538 124.058053 
L 352.858943 122.473551 
L 355.428821 119.609525 
L 357.950234 116.144831 
L 359.086445 114.864592 
L 360.180082 113.984973 
L 361.431 113.240999 
L 362.641353 111.705846 
L 363.450764 109.830316 
L 364.246036 107.223428 
L 365.805382 100.564645 
L 367.104 95.363258 
L 367.6992 93.740867 
L 368.240291 92.788443 
L 368.64 92.451094 
L 368.991884 92.391563 
L 369.167825 92.431086 
L 369.827281 93.210982 
L 370.259652 94.128931 
L 371.556764 98.834283 
L 372.213189 102.056109 
L 373.452161 109.484882 
L 375.692186 123.478882 
L 376.559399 127.6875 
L 377.171549 129.62268 
L 377.69625 130.583709 
L 378.04605 130.867979 
L 378.39585 130.851956 
L 378.74565 130.5725 
L 379.182205 129.859171 
L 379.778038 128.404459 
L 380.510999 126.041864 
L 382.447587 118.393612 
L 384.305832 111.237923 
L 386.273545 104.890182 
L 388.059145 99.77217 
L 389.352166 96.621936 
L 390.429593 94.627204 
L 391.222455 93.60197 
L 391.973122 93.008215 
L 393.2928 92.329361 
L 393.82729 91.982421 
L 394.484059 91.214579 
L 394.934318 90.407055 
L 395.501311 88.882687 
L 396.182656 86.297412 
L 397.042759 81.718052 
L 399.570876 67.442168 
L 400.38142 64.766671 
L 401.1048 63.374039 
L 401.328 63.060166 
L 401.437322 63.078275 
L 402.093257 62.800848 
L 402.366563 62.775713 
L 402.967837 63.079506 
L 403.241143 63.353751 
L 404.276945 65.221498 
L 405.1968 67.974335 
L 406.333091 72.86968 
L 407.809953 81.886574 
L 408.819236 90.015813 
L 409.875557 100.368637 
L 412.214714 123.947052 
L 412.787351 127.899744 
L 413.646306 131.70744 
L 414.004204 132.351493 
L 414.290522 132.491995 
L 414.505261 132.393226 
L 414.72 132.118077 
L 414.72 132.118077 
" clip-path="url(#p745d5bab7e)" style="fill: none; stroke: #ff0000; stroke-width: 1.5; stroke-linecap: square"/>
   </g>
   <g id="line2d_25">
    <path d="M 57.6 174.528 
L 57.874708 162.71583 
L 57.917519 155.501919 
L 57.999891 159.616587 
L 58.168021 162.907162 
L 58.211545 162.72319 
L 58.255719 163.012678 
L 58.300573 163.12334 
L 58.487472 164.125734 
L 58.788059 165.61059 
L 58.945836 166.598109 
L 58.998821 166.370851 
L 59.051806 166.469886 
L 59.104791 166.4614 
L 59.157776 166.620082 
L 59.266609 166.225888 
L 59.321026 166.287127 
L 59.375443 166.441542 
L 59.42986 166.263163 
L 59.593111 166.334097 
L 59.649471 166.597775 
L 59.705831 166.534162 
L 60.043993 166.732701 
L 60.100354 166.596712 
L 60.156714 166.709873 
L 60.325795 166.658552 
L 60.551236 166.535819 
L 60.607597 166.585141 
L 60.663957 166.4075 
L 60.720317 166.444362 
L 60.945759 166.919223 
L 61.002119 166.777306 
L 61.1712 167.088211 
L 61.231729 167.059143 
L 61.473844 167.354793 
L 61.776488 167.540315 
L 61.837017 167.544932 
L 62.139661 168.105599 
L 62.68442 168.324237 
L 63.047593 168.080149 
L 63.168651 168.363097 
L 63.22918 168.286169 
L 63.652881 168.076761 
L 64.076583 167.699628 
L 64.197641 167.489087 
L 64.318698 167.519413 
L 66.029693 165.149976 
L 66.355965 164.537672 
L 67.073765 163.221761 
L 67.530546 162.324977 
L 67.922073 161.493912 
L 68.052582 161.462733 
L 68.515743 160.436452 
L 68.987411 159.964654 
L 69.054792 159.929604 
L 69.256936 159.593978 
L 71.210989 158.271994 
L 71.480513 157.906265 
L 71.8848 157.006965 
L 72.164894 156.341939 
L 72.796949 154.384043 
L 74.593605 145.037548 
L 75.096669 141.774745 
L 76.0711 136.213276 
L 77.004605 132.743621 
L 77.16019 132.472458 
L 77.393566 131.925455 
L 77.626942 131.569566 
L 77.704734 131.768591 
L 77.782526 131.669241 
L 77.938111 131.349567 
L 78.093695 131.288567 
L 78.249279 131.049885 
L 78.482655 131.317321 
L 78.793824 131.585346 
L 79.193302 132.125399 
L 79.359405 132.571523 
L 80.106865 134.564092 
L 80.854326 137.04028 
L 82.017042 139.67047 
L 82.266195 139.859193 
L 82.772605 139.891392 
L 83.036332 139.646286 
L 83.752507 139.505123 
L 84.200117 139.784207 
L 84.647727 140.664386 
L 85.095337 142.03244 
L 85.901034 145.411677 
L 86.874188 150.583045 
L 88.072953 158.179441 
L 89.7408 170.914059 
L 91.136093 182.85515 
L 93.791277 207.094838 
L 96.642867 232.787787 
L 98.124268 244.157431 
L 99.319994 251.638118 
L 100.619225 256.942399 
L 101.16864 258.240602 
L 101.546891 258.727495 
L 101.924086 258.862479 
L 102.193511 258.725701 
L 102.516821 258.286375 
L 102.947901 257.247214 
L 103.325095 255.919375 
L 103.863945 253.33499 
L 104.573562 248.689294 
L 105.343113 242.101989 
L 106.352953 231.365679 
L 107.5968 215.431241 
L 109.456609 188.237943 
L 113.299248 131.395659 
L 114.419211 118.224282 
L 115.353894 109.730295 
L 116.070623 105.046366 
L 116.617129 102.676328 
L 117.087482 101.492411 
L 117.463764 101.080424 
L 117.745976 101.099526 
L 118.028188 101.375603 
L 118.4096 102.133743 
L 118.9056 103.718708 
L 119.493452 106.36186 
L 120.353185 111.405067 
L 121.499496 119.636608 
L 122.364195 126.640274 
L 123.596667 138.148994 
L 125.126447 154.744164 
L 127.983277 191.267703 
L 129.864485 214.213851 
L 131.217039 228.115608 
L 132.482409 238.76874 
L 133.677257 246.985928 
L 135.688731 259.268449 
L 136.699415 264.675887 
L 137.442234 267.70472 
L 138.016075 269.18669 
L 138.381247 269.671934 
L 138.746419 269.818627 
L 139.007256 269.720282 
L 139.685433 268.38116 
L 140.203409 266.468196 
L 140.720974 263.898433 
L 141.290296 260.415305 
L 143.205287 245.313264 
L 144.528917 233.146124 
L 145.669884 220.828864 
L 146.822375 206.092791 
L 152.858035 123.903619 
L 153.856062 113.860465 
L 154.64736 107.949462 
L 155.2872 104.776687 
L 155.74848 103.420533 
L 156.117504 102.925761 
L 156.394272 102.906232 
L 156.763296 103.271585 
L 157.13232 104.129052 
L 157.5936 105.808394 
L 158.143015 108.525891 
L 158.967138 113.825994 
L 160.285735 124.388292 
L 161.905678 139.380821 
L 163.907553 161.830877 
L 168.748876 221.342335 
L 169.905273 231.719211 
L 171.069219 240.210576 
L 172.439589 248.491483 
L 175.345499 264.838506 
L 176.140649 267.946479 
L 176.507214 268.802044 
L 176.926145 269.386302 
L 177.187977 269.486928 
L 177.502175 269.351189 
L 178.287671 267.611599 
L 178.706602 265.870969 
L 179.440941 261.645328 
L 180.491294 253.289848 
L 182.7036 232.279292 
L 183.96314 218.77421 
L 185.143811 203.838359 
L 187.33321 172.227264 
L 189.596401 140.98571 
L 191.165082 121.862389 
L 192.186693 111.682413 
L 192.961321 105.852821 
L 193.580308 102.613116 
L 194.129723 100.867856 
L 194.496 100.284207 
L 194.763664 100.176028 
L 195.027806 100.319815 
L 195.291948 100.680132 
L 195.732185 101.78725 
L 196.260469 103.807899 
L 196.963902 107.575163 
L 198.096234 115.396876 
L 199.228566 124.699332 
L 200.814277 139.402505 
L 202.039753 152.69711 
L 204.168 179.094305 
L 206.626013 209.767653 
L 207.775117 221.620437 
L 208.917008 231.572373 
L 210.014982 239.506311 
L 211.1616 246.505504 
L 212.43105 254.066821 
L 213.772997 261.570925 
L 214.7328 265.91592 
L 215.523862 268.070511 
L 215.943505 268.531823 
L 216.258238 268.540315 
L 216.46806 268.424853 
L 217.04507 267.421355 
L 217.72699 265.194416 
L 218.619106 260.614326 
L 219.578006 254.404514 
L 221.073853 243.540658 
L 222.500882 231.202473 
L 223.429649 221.30618 
L 226.157697 186.06173 
L 229.959919 137.08066 
L 231.274359 123.51227 
L 232.095885 117.393501 
L 232.751127 114.178463 
L 233.238109 112.893681 
L 233.643927 112.513112 
L 233.879809 112.530782 
L 234.272945 113.11734 
L 234.666082 114.185212 
L 235.216473 116.554463 
L 235.845491 120.212217 
L 236.63616 125.908122 
L 237.7472 135.336376 
L 239.49312 151.694863 
L 243.158557 189.909315 
L 244.852349 207.675679 
L 246.227923 220.205129 
L 247.308688 228.269954 
L 248.752433 237.053167 
L 252.236941 255.990359 
L 253.208967 260.094032 
L 254.070109 262.924408 
L 254.557091 263.985105 
L 254.98588 264.465111 
L 255.410585 264.35418 
L 255.676026 264.008042 
L 256.313084 262.309667 
L 256.83772 259.814895 
L 257.387339 256.091138 
L 257.954824 251.105424 
L 259.110212 236.735444 
L 260.108047 220.463774 
L 261.887933 187.721365 
L 264.247483 145.883549 
L 265.807703 121.537961 
L 267.106526 104.498254 
L 268.118342 94.065048 
L 268.885178 88.379402 
L 269.599418 84.882361 
L 270.053935 83.552446 
L 270.44352 82.968559 
L 270.703244 82.794037 
L 271.027898 82.803411 
L 271.287622 83.011369 
L 271.742138 83.72125 
L 272.202667 84.946891 
L 272.94189 87.415498 
L 274.324254 93.295718 
L 276.213885 102.692478 
L 277.331262 109.306249 
L 278.335487 116.43349 
L 279.402574 125.53856 
L 280.64473 138.262172 
L 281.846221 152.491465 
L 283.487637 173.849139 
L 284.995187 192.67197 
L 286.218372 205.681849 
L 287.656481 218.886226 
L 288.981895 228.713762 
L 291.885131 247.951497 
L 293.081651 254.827121 
L 294.002618 259.021337 
L 294.590243 260.868983 
L 295.173539 261.986057 
L 295.703808 262.303342 
L 295.915916 262.274332 
L 296.393158 261.827645 
L 297.030304 260.207639 
L 297.510018 258.15878 
L 298.043033 254.951816 
L 298.682651 249.761654 
L 299.482173 241.146401 
L 300.4416 228.020701 
L 301.808785 206.167329 
L 305.967524 138.447538 
L 307.15294 122.771717 
L 307.951195 114.946929 
L 308.495272 111.400148 
L 308.857989 109.747449 
L 309.226041 108.901319 
L 309.537195 108.758876 
L 309.786119 108.968921 
L 310.035043 109.476021 
L 310.346198 110.535685 
L 310.906276 113.384171 
L 311.623424 118.441899 
L 312.927573 129.997545 
L 317.796831 179.347284 
L 322.772294 238.165121 
L 324.045729 249.615216 
L 325.328458 259.184079 
L 326.312317 265.12628 
L 327.275611 269.507405 
L 327.906734 271.449659 
L 328.380077 272.254853 
L 328.695638 272.444276 
L 328.906013 272.42072 
L 329.116235 272.22963 
L 329.483859 271.503794 
L 329.851482 270.357235 
L 330.429176 267.522813 
L 331.006871 263.520143 
L 331.742118 256.797213 
L 332.637342 246.476094 
L 333.871139 229.57779 
L 335.624484 202.12694 
L 339.589826 138.804464 
L 340.784651 123.314594 
L 341.804887 112.43294 
L 342.746642 104.822598 
L 343.45472 100.830462 
L 343.93088 99.042459 
L 344.398222 97.964963 
L 344.784 97.528037 
L 345.089536 97.542298 
L 345.459883 97.885196 
L 345.830229 98.602668 
L 346.320226 100.058164 
L 347.010048 103.022113 
L 347.989577 108.888937 
L 349.039073 116.950681 
L 350.298467 128.738664 
L 351.348706 140.216669 
L 352.930859 160.017704 
L 355.966816 200.658401 
L 356.929826 211.472476 
L 357.950234 221.381317 
L 358.968413 229.892637 
L 359.951396 236.516015 
L 360.788181 241.008931 
L 362.093498 246.471351 
L 362.641353 248.177776 
L 363.185673 249.3038 
L 363.609818 249.654294 
L 363.874909 249.628586 
L 364.193018 249.293923 
L 364.7232 247.978495 
L 365.3184 245.249711 
L 365.859491 241.598675 
L 366.5088 235.736227 
L 367.320436 226.312891 
L 368.240291 212.915731 
L 369.527529 190.666875 
L 373.225796 125.06656 
L 374.139151 113.794347 
L 374.826142 107.760761 
L 375.360468 104.653578 
L 375.862228 103.133385 
L 376.209599 102.712333 
L 376.471949 102.757839 
L 376.734299 103.139486 
L 377.171549 104.310642 
L 377.608799 106.033856 
L 378.57075 111.36639 
L 381.245524 127.238895 
L 383.542563 138.818067 
L 384.494378 145.451191 
L 385.598393 154.586262 
L 388.428579 180.218279 
L 389.660028 189.920301 
L 390.888528 197.871136 
L 394.805673 216.843581 
L 395.811013 220.300084 
L 396.492358 221.96674 
L 397.285076 223.206349 
L 397.704285 223.588047 
L 398.297962 223.756317 
L 398.706552 223.636546 
L 399.398011 222.94012 
L 399.897398 222.135601 
L 400.6584 220.518553 
L 401.382661 218.648653 
L 402.147918 216.21762 
L 402.967837 212.826354 
L 403.678433 209.006723 
L 404.439273 203.77194 
L 405.359127 194.851864 
L 406.3872 181.34362 
L 407.6928 159.487903 
L 410.25753 116.598152 
L 411.021476 107.918985 
L 411.713656 102.574265 
L 412.286293 99.900354 
L 412.715771 98.840195 
L 413.145249 98.55163 
L 413.431567 98.786614 
L 413.717885 99.375304 
L 414.147363 100.896654 
L 414.72 103.987545 
L 414.72 103.987545 
" clip-path="url(#p745d5bab7e)" style="fill: none; stroke-dasharray: 5.55,2.4; stroke-dashoffset: 0; stroke: #008000; stroke-width: 1.5"/>
   </g>
   <g id="line2d_26">
    <path d="M 57.6 171.305893 
L 57.629412 -1 
M 57.917473 -1 
L 57.999891 92.266584 
L 58.168021 96.901926 
L 58.439548 99.443856 
L 58.487472 99.168506 
L 58.839867 103.073566 
L 58.945836 103.803624 
L 58.998821 103.633515 
L 59.051806 103.829962 
L 60.325795 110.125202 
L 61.1712 114.86991 
L 64.016054 126.058749 
L 65.252571 130.71354 
L 66.943256 137.150252 
L 67.922073 140.583604 
L 68.650506 142.94775 
L 69.863366 145.987335 
L 70.537177 146.645017 
L 70.604558 146.571598 
L 70.874083 146.394087 
L 71.480513 145.074598 
L 72.094871 142.598892 
L 72.655059 139.154291 
L 73.15628 135.453629 
L 74.090541 126.754847 
L 75.759932 111.056058 
L 76.460061 107.392677 
L 76.693437 106.418273 
L 77.54915 105.327315 
L 77.626942 105.466541 
L 77.782526 105.285038 
L 78.015903 105.419797 
L 78.093695 105.439767 
L 78.327071 105.762996 
L 78.482655 105.82089 
L 78.793824 106.183626 
L 79.0272 106.301994 
L 79.193302 106.683422 
L 79.276353 106.567893 
L 79.525507 107.076629 
L 79.857712 107.601921 
L 79.940763 107.581975 
L 80.771274 109.132712 
L 84.110595 116.775738 
L 84.379161 116.942625 
L 84.647727 117.057332 
L 84.916293 116.975621 
L 85.363902 116.597717 
L 85.990556 115.762482 
L 87.569124 113.89159 
L 88.823484 113.27477 
L 89.361744 113.112596 
L 89.97888 113.004279 
L 91.801996 112.714276 
L 92.794284 112.477447 
L 93.586708 112.067892 
L 94.127356 111.624478 
L 94.78607 110.823226 
L 95.424511 109.740658 
L 96.222284 107.895766 
L 97.540522 103.962129 
L 102.301281 88.513119 
L 103.48675 85.52496 
L 104.35369 83.969204 
L 104.958338 83.274061 
L 105.398081 83.02644 
L 105.787569 83.049722 
L 106.183338 83.304696 
L 106.635646 83.913999 
L 107.144492 85.028106 
L 107.71584 86.852768 
L 108.38699 89.709244 
L 109.20307 94.24206 
L 110.378127 102.072868 
L 112.508505 116.136443 
L 113.299248 119.763821 
L 113.939227 121.641555 
L 114.259216 122.174381 
L 114.7392 122.532436 
L 115.000507 122.49865 
L 115.443485 122.113387 
L 115.981032 121.248966 
L 116.993411 118.949856 
L 118.028188 116.640926 
L 119.104 114.900074 
L 120.066607 113.768314 
L 122.460714 110.746551 
L 123.685054 108.723214 
L 124.215378 107.725642 
L 126.397725 103.639963 
L 127.983277 99.418817 
L 128.833201 96.402864 
L 130.118505 90.827611 
L 131.74927 83.970579 
L 132.426014 82.086865 
L 132.9984 81.036636 
L 133.507543 80.599366 
L 134.341971 80.26392 
L 134.6184 80.241376 
L 134.784257 80.196997 
L 135.211063 80.160442 
L 135.370286 80.13185 
L 136.432907 80.062502 
L 136.806018 80.116129 
L 137.072525 80.110516 
L 139.007256 79.627743 
L 139.320261 79.360058 
L 139.7376 78.971146 
L 140.410435 78.182646 
L 141.393809 77.386541 
L 141.807861 77.411646 
L 142.377183 77.870501 
L 142.998261 79.083858 
L 143.748332 81.558402 
L 144.640873 85.606525 
L 146.88 97.349891 
L 148.26024 105.333642 
L 150.4512 118.370451 
L 151.422699 122.393295 
L 151.968127 123.71915 
L 152.44219 124.331924 
L 152.774866 124.462236 
L 153.107541 124.34185 
L 153.440217 124.038651 
L 153.939231 123.191765 
L 154.55808 121.632387 
L 157.5936 113.052535 
L 158.875569 110.980262 
L 160.725268 108.487092 
L 160.988987 108.191328 
L 161.531077 107.485259 
L 162.000022 106.926463 
L 164.66144 103.362462 
L 166.076324 99.921695 
L 166.566142 98.221546 
L 167.17261 95.953472 
L 170.317836 82.63573 
L 170.953621 81.222854 
L 171.618306 80.492376 
L 172.105143 80.305744 
L 173.868253 80.245083 
L 175.189347 80.772977 
L 176.035916 81.329559 
L 176.402481 81.510478 
L 176.769046 81.736783 
L 177.502175 81.844726 
L 177.816373 81.648607 
L 178.025839 81.5526 
L 179.283388 80.282229 
L 179.598494 79.967692 
L 180.176188 79.635739 
L 180.543812 79.641509 
L 181.190608 80.207816 
L 181.891304 81.898209 
L 182.484201 84.139748 
L 183.442073 88.930817 
L 184.664099 95.462266 
L 186.871193 107.090147 
L 189.044403 118.900904 
L 189.7344 121.470577 
L 190.434425 123.039373 
L 190.835772 123.402215 
L 191.165082 123.446695 
L 191.498135 123.239527 
L 191.928484 122.649976 
L 192.530972 121.304327 
L 193.397169 118.726128 
L 195.203901 113.378205 
L 195.996327 111.656829 
L 196.963902 110.002096 
L 198.705951 107.448814 
L 200.997415 104.499936 
L 204.240817 101.240455 
L 205.711941 98.315508 
L 206.433135 96.138328 
L 207.181266 93.208746 
L 209.153281 84.72519 
L 209.785658 82.829394 
L 210.573003 81.323838 
L 210.626512 81.304773 
L 210.68002 81.163497 
L 210.733529 81.214502 
L 210.787038 81.274147 
L 210.840547 81.225161 
L 211.329 80.899518 
L 211.773407 80.82353 
L 212.047425 80.810793 
L 212.321443 80.76632 
L 212.540657 80.704745 
L 213.026483 80.612909 
L 213.453063 80.517601 
L 213.772997 80.432991 
L 214.51951 80.188709 
L 215.051763 79.885027 
L 216.730337 77.583378 
L 217.622079 76.071038 
L 217.989267 75.436436 
L 218.566588 74.786238 
L 219.043774 74.584442 
L 219.31089 74.665287 
L 219.738275 75.142577 
L 220.112237 75.860953 
L 220.753314 77.781141 
L 221.554661 81.195349 
L 223.020679 88.550589 
L 225.031187 99.799171 
L 226.157697 107.636934 
L 228.332352 122.677215 
L 229.326597 127.486774 
L 229.959919 129.468813 
L 230.452834 130.416571 
L 230.781444 130.798144 
L 231.110054 130.941961 
L 231.356512 130.905696 
L 231.767275 130.559588 
L 232.178037 129.931372 
L 232.913455 128.188134 
L 233.879809 125.141124 
L 235.924118 118.861109 
L 237.11232 116.171815 
L 239.3344 111.375055 
L 240.253815 108.616828 
L 241.098514 105.512845 
L 242.43934 99.569 
L 244.580744 89.329529 
L 245.323975 86.501162 
L 246.227923 84.127536 
L 246.816206 83.125576 
L 247.247195 82.687487 
L 247.919512 82.251474 
L 249.160935 82.297831 
L 250.011287 82.673285 
L 250.784914 83.455753 
L 251.291815 84.397481 
L 251.680985 85.377676 
L 252.670945 88.852677 
L 255.410585 99.705378 
L 256.100731 101.126693 
L 256.472349 101.495127 
L 256.737789 101.644195 
L 256.83772 101.632425 
L 257.087547 101.704199 
L 257.287408 101.579418 
L 258.059859 100.516333 
L 258.374965 99.828298 
L 258.742588 98.826048 
L 259.740424 95.381131 
L 260.528188 92.92055 
L 260.895812 92.132416 
L 261.3258 91.658618 
L 261.717433 91.693199 
L 262.115267 92.103978 
L 262.460326 92.768155 
L 263.28325 95.001623 
L 264.609071 99.423761 
L 267.106526 107.891945 
L 268.118342 110.12231 
L 270.962967 115.002811 
L 272.536273 117.836617 
L 273.077096 118.450528 
L 273.834716 118.73906 
L 274.324254 118.509837 
L 274.743859 118.106079 
L 275.09353 117.632058 
L 276.136092 115.366932 
L 276.770216 113.467625 
L 277.732009 109.863295 
L 279.092035 103.220197 
L 281.254718 90.546144 
L 281.920159 87.327733 
L 282.519056 85.1084 
L 284.089559 80.100918 
L 284.349846 79.269835 
L 285.1786 76.446601 
L 285.6677 74.996287 
L 286.704355 72.62657 
L 288.063611 70.970319 
L 288.46536 70.815843 
L 288.981895 70.554178 
L 289.432837 70.316023 
L 289.629612 70.121897 
L 289.952291 69.843349 
L 290.454327 69.151384 
L 290.677455 68.851271 
L 292.70094 64.358372 
L 295.014458 58.379161 
L 296.128023 56.011838 
L 296.234077 55.922296 
L 296.977003 54.920517 
L 297.403415 54.519551 
L 298.149636 54.119465 
L 298.522746 54.150781 
L 298.949158 54.352362 
L 299.428872 54.853534 
L 299.908585 55.728484 
L 300.4416 57.242556 
L 301.144082 60.33825 
L 301.686339 63.700408 
L 302.559256 70.845642 
L 303.507219 80.715626 
L 304.91245 98.01667 
L 306.845039 121.780711 
L 307.52242 127.752764 
L 308.072101 130.801713 
L 308.434819 131.945308 
L 308.495272 131.895334 
L 308.67663 132.2052 
L 308.857989 132.342771 
L 309.101579 132.175959 
L 309.350503 131.749143 
L 310.097274 129.53677 
L 311.287467 125.342492 
L 312.097346 123.271834 
L 312.927573 121.903677 
L 314.8752 118.597828 
L 315.779446 116.043973 
L 317.000369 111.737736 
L 321.150996 96.899624 
L 322.052437 95.073412 
L 322.831577 94.256084 
L 323.300052 94.068388 
L 323.989958 94.074043 
L 324.15727 94.239849 
L 324.826521 94.682285 
L 327.275611 96.803421 
L 327.748953 96.954487 
L 328.643045 96.709125 
L 329.641412 95.930251 
L 330.954353 94.123129 
L 332.692283 91.416475 
L 333.136471 90.999678 
L 333.528769 90.902073 
L 333.814077 90.94701 
L 334.213508 91.239062 
L 335.036577 92.534019 
L 335.683275 94.150113 
L 336.531925 96.93178 
L 337.371195 100.234377 
L 339.8736 110.569193 
L 340.706171 112.740937 
L 341.334009 113.612839 
L 341.804887 113.862671 
L 342.197285 113.758215 
L 342.746642 113.258879 
L 343.45472 112.121273 
L 344.475378 110.049138 
L 345.459883 108.211079 
L 346.320226 106.976873 
L 347.289913 106.089837 
L 349.039073 104.890805 
L 350.088568 103.809527 
L 350.648471 103.042838 
L 351.278682 102.032496 
L 352.499363 99.61211 
L 353.290439 97.681061 
L 354.228245 94.888135 
L 355.014817 91.918668 
L 355.697818 88.720017 
L 356.676969 83.206801 
L 358.313749 74.240235 
L 358.968413 71.517441 
L 359.608366 69.559416 
L 359.779881 69.131436 
L 360.465941 67.992758 
L 360.632258 67.708699 
L 361.100026 67.31302 
L 361.431 67.14517 
L 361.764785 67.00664 
L 361.983927 66.895556 
L 362.750924 66.888133 
L 363.503782 67.436283 
L 364.246036 68.774109 
L 364.831418 70.3505 
L 365.643055 73.005214 
L 366.292364 75.513844 
L 367.158109 79.341796 
L 368.698647 88.643968 
L 370.07435 99.107595 
L 371.556764 109.550443 
L 372.213189 112.497041 
L 372.930996 114.125502 
L 373.225796 114.279227 
L 373.528493 114.172904 
L 373.910155 113.69525 
L 374.368148 112.705434 
L 375.360468 109.783221 
L 376.034699 107.756315 
L 376.996649 105.565 
L 378.04605 103.769551 
L 378.39585 103.107487 
L 379.008 101.601477 
L 379.52603 99.787482 
L 380.510999 94.638559 
L 382.118555 83.649257 
L 382.903855 78.572157 
L 384.617046 69.804322 
L 385.966398 65.153602 
L 387.073986 62.931026 
L 387.443421 62.495746 
L 387.751283 62.288575 
L 388.367007 62.171368 
L 388.921159 62.390635 
L 389.290593 62.757005 
L 389.536883 63.019087 
L 389.849143 63.462877 
L 390.754957 65.373751 
L 391.489596 67.514004 
L 392.320406 70.420287 
L 393.119158 73.612251 
L 394.548382 80.797904 
L 395.934894 89.297636 
L 399.167524 111.931683 
L 400.4352 120.444841 
L 401.1048 123.70929 
L 401.601306 125.2427 
L 402.038596 125.781044 
L 402.257241 125.744991 
L 402.585208 125.343101 
L 402.913176 124.426455 
L 403.405127 122.309959 
L 404.439273 115.364103 
L 407.252945 93.411309 
L 407.751376 90.930246 
L 408.219986 89.503963 
L 408.69816 88.698323 
L 409.003149 88.551725 
L 409.248366 88.683741 
L 409.557246 88.976996 
L 410.066543 89.933001 
L 410.830489 92.136145 
L 412.071555 96.895234 
L 413.216828 102.124242 
L 414.147363 107.292329 
L 414.72 110.929129 
L 414.72 110.929129 
" clip-path="url(#p745d5bab7e)" style="fill: none; stroke-dasharray: 5.55,2.4; stroke-dashoffset: 0; stroke: #000000; stroke-width: 1.5"/>
   </g>
   <g id="patch_3">
    <path d="M 57.6 307.584 
L 57.6 41.472 
" style="fill: none; stroke: #000000; stroke-width: 0.8; stroke-linejoin: miter; stroke-linecap: square"/>
   </g>
   <g id="patch_4">
    <path d="M 414.72 307.584 
L 414.72 41.472 
" style="fill: none; stroke: #000000; stroke-width: 0.8; stroke-linejoin: miter; stroke-linecap: square"/>
   </g>
   <g id="patch_5">
    <path d="M 57.6 307.584 
L 414.72 307.584 
" style="fill: none; stroke: #000000; stroke-width: 0.8; stroke-linejoin: miter; stroke-linecap: square"/>
   </g>
   <g id="patch_6">
    <path d="M 57.6 41.472 
L 414.72 41.472 
" style="fill: none; stroke: #000000; stroke-width: 0.8; stroke-linejoin: miter; stroke-linecap: square"/>
   </g>
   <g id="legend_1">
    <g id="patch_7">
     <path d="M 64.6 302.584 
L 125.7 302.584 
Q 127.7 302.584 127.7 300.584 
L 127.7 242.830875 
Q 127.7 240.830875 125.7 240.830875 
L 64.6 240.830875 
Q 62.6 240.830875 62.6 242.830875 
L 62.6 300.584 
Q 62.6 302.584 64.6 302.584 
z
" style="fill: #ffffff; opacity: 0.8; stroke: #cccccc; stroke-linejoin: miter"/>
    </g>
    <g id="line2d_27">
     <path d="M 66.6 248.929312 
L 76.6 248.929312 
L 86.6 248.929312 
" style="fill: none; stroke: #0000ff; stroke-width: 1.5; stroke-linecap: square"/>
    </g>
    <g id="text_14">
     <!-- $C_{L} bot$ -->
     <g transform="translate(94.6 252.429312) scale(0.1 -0.1)">
      <defs>
       <path id="DejaVuSans-Oblique-62" d="M 3169 2138 
Q 3169 2591 2961 2847 
Q 2753 3103 2388 3103 
Q 2122 3103 1889 2973 
Q 1656 2844 1484 2597 
Q 1303 2338 1198 1995 
Q 1094 1653 1094 1313 
Q 1094 881 1298 636 
Q 1503 391 1863 391 
Q 2134 391 2365 517 
Q 2597 644 2772 891 
Q 2950 1147 3059 1487 
Q 3169 1828 3169 2138 
z
M 1381 2969 
Q 1594 3256 1914 3420 
Q 2234 3584 2584 3584 
Q 3122 3584 3439 3221 
Q 3756 2859 3756 2241 
Q 3756 1734 3570 1259 
Q 3384 784 3041 416 
Q 2816 172 2522 40 
Q 2228 -91 1906 -91 
Q 1566 -91 1316 65 
Q 1066 222 909 531 
L 806 0 
L 231 0 
L 1178 4863 
L 1753 4863 
L 1381 2969 
z
" transform="scale(0.015625)"/>
       <path id="DejaVuSans-Oblique-6f" d="M 1625 -91 
Q 1009 -91 651 289 
Q 294 669 294 1325 
Q 294 1706 417 2101 
Q 541 2497 738 2766 
Q 1047 3184 1428 3384 
Q 1809 3584 2291 3584 
Q 2888 3584 3255 3212 
Q 3622 2841 3622 2241 
Q 3622 1825 3500 1412 
Q 3378 1000 3181 728 
Q 2875 309 2494 109 
Q 2113 -91 1625 -91 
z
M 891 1344 
Q 891 869 1089 633 
Q 1288 397 1691 397 
Q 2269 397 2648 901 
Q 3028 1406 3028 2181 
Q 3028 2634 2825 2865 
Q 2622 3097 2228 3097 
Q 1903 3097 1650 2945 
Q 1397 2794 1197 2484 
Q 1050 2253 970 1956 
Q 891 1659 891 1344 
z
" transform="scale(0.015625)"/>
       <path id="DejaVuSans-Oblique-74" d="M 2706 3500 
L 2619 3053 
L 1472 3053 
L 1100 1153 
Q 1081 1047 1072 975 
Q 1063 903 1063 863 
Q 1063 663 1183 572 
Q 1303 481 1569 481 
L 2150 481 
L 2053 0 
L 1503 0 
Q 991 0 739 200 
Q 488 400 488 806 
Q 488 878 497 964 
Q 506 1050 525 1153 
L 897 3053 
L 409 3053 
L 500 3500 
L 978 3500 
L 1172 4494 
L 1747 4494 
L 1556 3500 
L 2706 3500 
z
" transform="scale(0.015625)"/>
      </defs>
      <use xlink:href="#DejaVuSans-Oblique-43" transform="translate(0 0.015625)"/>
      <use xlink:href="#DejaVuSans-Oblique-4c" transform="translate(69.824219 -16.390625) scale(0.7)"/>
      <use xlink:href="#DejaVuSans-Oblique-62" transform="translate(111.557617 0.015625)"/>
      <use xlink:href="#DejaVuSans-Oblique-6f" transform="translate(175.03418 0.015625)"/>
      <use xlink:href="#DejaVuSans-Oblique-74" transform="translate(236.21582 0.015625)"/>
     </g>
    </g>
    <g id="line2d_28">
     <path d="M 66.6 263.607437 
L 76.6 263.607437 
L 86.6 263.607437 
" style="fill: none; stroke: #ff0000; stroke-width: 1.5; stroke-linecap: square"/>
    </g>
    <g id="text_15">
     <!-- $C_{D} bot$ -->
     <g transform="translate(94.6 267.107437) scale(0.1 -0.1)">
      <use xlink:href="#DejaVuSans-Oblique-43" transform="translate(0 0.015625)"/>
      <use xlink:href="#DejaVuSans-Oblique-44" transform="translate(69.824219 -16.390625) scale(0.7)"/>
      <use xlink:href="#DejaVuSans-Oblique-62" transform="translate(126.459961 0.015625)"/>
      <use xlink:href="#DejaVuSans-Oblique-6f" transform="translate(189.936523 0.015625)"/>
      <use xlink:href="#DejaVuSans-Oblique-74" transform="translate(251.118164 0.015625)"/>
     </g>
    </g>
    <g id="line2d_29">
     <path d="M 66.6 278.285562 
L 76.6 278.285562 
L 86.6 278.285562 
" style="fill: none; stroke-dasharray: 5.55,2.4; stroke-dashoffset: 0; stroke: #008000; stroke-width: 1.5"/>
    </g>
    <g id="text_16">
     <!-- $C_{L} top$ -->
     <g transform="translate(94.6 281.785562) scale(0.1 -0.1)">
      <defs>
       <path id="DejaVuSans-Oblique-70" d="M 3175 2156 
Q 3175 2616 2975 2859 
Q 2775 3103 2400 3103 
Q 2144 3103 1911 2972 
Q 1678 2841 1497 2591 
Q 1319 2344 1212 1994 
Q 1106 1644 1106 1300 
Q 1106 863 1306 627 
Q 1506 391 1875 391 
Q 2147 391 2380 519 
Q 2613 647 2778 891 
Q 2956 1147 3065 1494 
Q 3175 1841 3175 2156 
z
M 1394 2969 
Q 1625 3272 1939 3428 
Q 2253 3584 2638 3584 
Q 3175 3584 3472 3232 
Q 3769 2881 3769 2247 
Q 3769 1728 3584 1258 
Q 3400 788 3053 416 
Q 2822 169 2531 39 
Q 2241 -91 1919 -91 
Q 1547 -91 1294 64 
Q 1041 219 916 525 
L 556 -1331 
L -19 -1331 
L 922 3500 
L 1497 3500 
L 1394 2969 
z
" transform="scale(0.015625)"/>
      </defs>
      <use xlink:href="#DejaVuSans-Oblique-43" transform="translate(0 0.78125)"/>
      <use xlink:href="#DejaVuSans-Oblique-4c" transform="translate(69.824219 -15.625) scale(0.7)"/>
      <use xlink:href="#DejaVuSans-Oblique-74" transform="translate(111.557617 0.78125)"/>
      <use xlink:href="#DejaVuSans-Oblique-6f" transform="translate(150.766602 0.78125)"/>
      <use xlink:href="#DejaVuSans-Oblique-70" transform="translate(211.948242 0.78125)"/>
     </g>
    </g>
    <g id="line2d_30">
     <path d="M 66.6 292.984 
L 76.6 292.984 
L 86.6 292.984 
" style="fill: none; stroke-dasharray: 5.55,2.4; stroke-dashoffset: 0; stroke: #000000; stroke-width: 1.5"/>
    </g>
    <g id="text_17">
     <!-- $C_{D} top$ -->
     <g transform="translate(94.6 296.484) scale(0.1 -0.1)">
      <use xlink:href="#DejaVuSans-Oblique-43" transform="translate(0 0.78125)"/>
      <use xlink:href="#DejaVuSans-Oblique-44" transform="translate(69.824219 -15.625) scale(0.7)"/>
      <use xlink:href="#DejaVuSans-Oblique-74" transform="translate(126.459961 0.78125)"/>
      <use xlink:href="#DejaVuSans-Oblique-6f" transform="translate(165.668945 0.78125)"/>
      <use xlink:href="#DejaVuSans-Oblique-70" transform="translate(226.850586 0.78125)"/>
     </g>
    </g>
   </g>
  </g>
 </g>
 <defs>
  <clipPath id="p745d5bab7e">
   <rect x="57.6" y="41.472" width="357.12" height="266.112"/>
  </clipPath>
 </defs>
</svg>
