<?xml version="1.0" encoding="utf-8" standalone="no"?>
<!DOCTYPE svg PUBLIC "-//W3C//DTD SVG 1.1//EN"
  "http://www.w3.org/Graphics/SVG/1.1/DTD/svg11.dtd">
<svg xmlns:xlink="http://www.w3.org/1999/xlink" width="460.8pt" height="345.6pt" viewBox="0 0 460.8 345.6" xmlns="http://www.w3.org/2000/svg" version="1.1">
 <metadata>
  <rdf:RDF xmlns:dc="http://purl.org/dc/elements/1.1/" xmlns:cc="http://creativecommons.org/ns#" xmlns:rdf="http://www.w3.org/1999/02/22-rdf-syntax-ns#">
   <cc:Work>
    <dc:type rdf:resource="http://purl.org/dc/dcmitype/StillImage"/>
    <dc:date>2023-08-06T18:18:45.204346</dc:date>
    <dc:format>image/svg+xml</dc:format>
    <dc:creator>
     <cc:Agent>
      <dc:title>Matplotlib v3.6.3, https://matplotlib.org/</dc:title>
     </cc:Agent>
    </dc:creator>
   </cc:Work>
  </rdf:RDF>
 </metadata>
 <defs>
  <style type="text/css">*{stroke-linejoin: round; stroke-linecap: butt}</style>
 </defs>
 <g id="figure_1">
  <g id="patch_1">
   <path d="M 0 345.6 
L 460.8 345.6 
L 460.8 0 
L 0 0 
z
" style="fill: #ffffff"/>
  </g>
  <g id="axes_1">
   <g id="patch_2">
    <path d="M 57.6 307.584 
L 414.72 307.584 
L 414.72 41.472 
L 57.6 41.472 
z
" style="fill: #ffffff"/>
   </g>
   <g id="matplotlib.axis_1">
    <g id="xtick_1">
     <g id="line2d_1">
      <path d="M 57.6 307.584 
L 57.6 41.472 
" clip-path="url(#p47031f31f9)" style="fill: none; stroke: #b0b0b0; stroke-width: 0.8; stroke-linecap: square"/>
     </g>
     <g id="line2d_2">
      <defs>
       <path id="m648d158a7f" d="M 0 0 
L 0 3.5 
" style="stroke: #000000; stroke-width: 0.8"/>
      </defs>
      <g>
       <use xlink:href="#m648d158a7f" x="57.6" y="307.584" style="stroke: #000000; stroke-width: 0.8"/>
      </g>
     </g>
     <g id="text_1">
      <!-- 0.00 -->
      <g transform="translate(46.467188 322.182437) scale(0.1 -0.1)">
       <defs>
        <path id="DejaVuSans-30" d="M 2034 4250 
Q 1547 4250 1301 3770 
Q 1056 3291 1056 2328 
Q 1056 1369 1301 889 
Q 1547 409 2034 409 
Q 2525 409 2770 889 
Q 3016 1369 3016 2328 
Q 3016 3291 2770 3770 
Q 2525 4250 2034 4250 
z
M 2034 4750 
Q 2819 4750 3233 4129 
Q 3647 3509 3647 2328 
Q 3647 1150 3233 529 
Q 2819 -91 2034 -91 
Q 1250 -91 836 529 
Q 422 1150 422 2328 
Q 422 3509 836 4129 
Q 1250 4750 2034 4750 
z
" transform="scale(0.015625)"/>
        <path id="DejaVuSans-2e" d="M 684 794 
L 1344 794 
L 1344 0 
L 684 0 
L 684 794 
z
" transform="scale(0.015625)"/>
       </defs>
       <use xlink:href="#DejaVuSans-30"/>
       <use xlink:href="#DejaVuSans-2e" x="63.623047"/>
       <use xlink:href="#DejaVuSans-30" x="95.410156"/>
       <use xlink:href="#DejaVuSans-30" x="159.033203"/>
      </g>
     </g>
    </g>
    <g id="xtick_2">
     <g id="line2d_3">
      <path d="M 129.024 307.584 
L 129.024 41.472 
" clip-path="url(#p47031f31f9)" style="fill: none; stroke: #b0b0b0; stroke-width: 0.8; stroke-linecap: square"/>
     </g>
     <g id="line2d_4">
      <g>
       <use xlink:href="#m648d158a7f" x="129.024" y="307.584" style="stroke: #000000; stroke-width: 0.8"/>
      </g>
     </g>
     <g id="text_2">
      <!-- 0.01 -->
      <g transform="translate(117.891188 322.182437) scale(0.1 -0.1)">
       <defs>
        <path id="DejaVuSans-31" d="M 794 531 
L 1825 531 
L 1825 4091 
L 703 3866 
L 703 4441 
L 1819 4666 
L 2450 4666 
L 2450 531 
L 3481 531 
L 3481 0 
L 794 0 
L 794 531 
z
" transform="scale(0.015625)"/>
       </defs>
       <use xlink:href="#DejaVuSans-30"/>
       <use xlink:href="#DejaVuSans-2e" x="63.623047"/>
       <use xlink:href="#DejaVuSans-30" x="95.410156"/>
       <use xlink:href="#DejaVuSans-31" x="159.033203"/>
      </g>
     </g>
    </g>
    <g id="xtick_3">
     <g id="line2d_5">
      <path d="M 200.448 307.584 
L 200.448 41.472 
" clip-path="url(#p47031f31f9)" style="fill: none; stroke: #b0b0b0; stroke-width: 0.8; stroke-linecap: square"/>
     </g>
     <g id="line2d_6">
      <g>
       <use xlink:href="#m648d158a7f" x="200.448" y="307.584" style="stroke: #000000; stroke-width: 0.8"/>
      </g>
     </g>
     <g id="text_3">
      <!-- 0.02 -->
      <g transform="translate(189.315187 322.182437) scale(0.1 -0.1)">
       <defs>
        <path id="DejaVuSans-32" d="M 1228 531 
L 3431 531 
L 3431 0 
L 469 0 
L 469 531 
Q 828 903 1448 1529 
Q 2069 2156 2228 2338 
Q 2531 2678 2651 2914 
Q 2772 3150 2772 3378 
Q 2772 3750 2511 3984 
Q 2250 4219 1831 4219 
Q 1534 4219 1204 4116 
Q 875 4013 500 3803 
L 500 4441 
Q 881 4594 1212 4672 
Q 1544 4750 1819 4750 
Q 2544 4750 2975 4387 
Q 3406 4025 3406 3419 
Q 3406 3131 3298 2873 
Q 3191 2616 2906 2266 
Q 2828 2175 2409 1742 
Q 1991 1309 1228 531 
z
" transform="scale(0.015625)"/>
       </defs>
       <use xlink:href="#DejaVuSans-30"/>
       <use xlink:href="#DejaVuSans-2e" x="63.623047"/>
       <use xlink:href="#DejaVuSans-30" x="95.410156"/>
       <use xlink:href="#DejaVuSans-32" x="159.033203"/>
      </g>
     </g>
    </g>
    <g id="xtick_4">
     <g id="line2d_7">
      <path d="M 271.872 307.584 
L 271.872 41.472 
" clip-path="url(#p47031f31f9)" style="fill: none; stroke: #b0b0b0; stroke-width: 0.8; stroke-linecap: square"/>
     </g>
     <g id="line2d_8">
      <g>
       <use xlink:href="#m648d158a7f" x="271.872" y="307.584" style="stroke: #000000; stroke-width: 0.8"/>
      </g>
     </g>
     <g id="text_4">
      <!-- 0.03 -->
      <g transform="translate(260.739188 322.182437) scale(0.1 -0.1)">
       <defs>
        <path id="DejaVuSans-33" d="M 2597 2516 
Q 3050 2419 3304 2112 
Q 3559 1806 3559 1356 
Q 3559 666 3084 287 
Q 2609 -91 1734 -91 
Q 1441 -91 1130 -33 
Q 819 25 488 141 
L 488 750 
Q 750 597 1062 519 
Q 1375 441 1716 441 
Q 2309 441 2620 675 
Q 2931 909 2931 1356 
Q 2931 1769 2642 2001 
Q 2353 2234 1838 2234 
L 1294 2234 
L 1294 2753 
L 1863 2753 
Q 2328 2753 2575 2939 
Q 2822 3125 2822 3475 
Q 2822 3834 2567 4026 
Q 2313 4219 1838 4219 
Q 1578 4219 1281 4162 
Q 984 4106 628 3988 
L 628 4550 
Q 988 4650 1302 4700 
Q 1616 4750 1894 4750 
Q 2613 4750 3031 4423 
Q 3450 4097 3450 3541 
Q 3450 3153 3228 2886 
Q 3006 2619 2597 2516 
z
" transform="scale(0.015625)"/>
       </defs>
       <use xlink:href="#DejaVuSans-30"/>
       <use xlink:href="#DejaVuSans-2e" x="63.623047"/>
       <use xlink:href="#DejaVuSans-30" x="95.410156"/>
       <use xlink:href="#DejaVuSans-33" x="159.033203"/>
      </g>
     </g>
    </g>
    <g id="xtick_5">
     <g id="line2d_9">
      <path d="M 343.296 307.584 
L 343.296 41.472 
" clip-path="url(#p47031f31f9)" style="fill: none; stroke: #b0b0b0; stroke-width: 0.8; stroke-linecap: square"/>
     </g>
     <g id="line2d_10">
      <g>
       <use xlink:href="#m648d158a7f" x="343.296" y="307.584" style="stroke: #000000; stroke-width: 0.8"/>
      </g>
     </g>
     <g id="text_5">
      <!-- 0.04 -->
      <g transform="translate(332.163187 322.182437) scale(0.1 -0.1)">
       <defs>
        <path id="DejaVuSans-34" d="M 2419 4116 
L 825 1625 
L 2419 1625 
L 2419 4116 
z
M 2253 4666 
L 3047 4666 
L 3047 1625 
L 3713 1625 
L 3713 1100 
L 3047 1100 
L 3047 0 
L 2419 0 
L 2419 1100 
L 313 1100 
L 313 1709 
L 2253 4666 
z
" transform="scale(0.015625)"/>
       </defs>
       <use xlink:href="#DejaVuSans-30"/>
       <use xlink:href="#DejaVuSans-2e" x="63.623047"/>
       <use xlink:href="#DejaVuSans-30" x="95.410156"/>
       <use xlink:href="#DejaVuSans-34" x="159.033203"/>
      </g>
     </g>
    </g>
    <g id="xtick_6">
     <g id="line2d_11">
      <path d="M 414.72 307.584 
L 414.72 41.472 
" clip-path="url(#p47031f31f9)" style="fill: none; stroke: #b0b0b0; stroke-width: 0.8; stroke-linecap: square"/>
     </g>
     <g id="line2d_12">
      <g>
       <use xlink:href="#m648d158a7f" x="414.72" y="307.584" style="stroke: #000000; stroke-width: 0.8"/>
      </g>
     </g>
     <g id="text_6">
      <!-- 0.05 -->
      <g transform="translate(403.587188 322.182437) scale(0.1 -0.1)">
       <defs>
        <path id="DejaVuSans-35" d="M 691 4666 
L 3169 4666 
L 3169 4134 
L 1269 4134 
L 1269 2991 
Q 1406 3038 1543 3061 
Q 1681 3084 1819 3084 
Q 2600 3084 3056 2656 
Q 3513 2228 3513 1497 
Q 3513 744 3044 326 
Q 2575 -91 1722 -91 
Q 1428 -91 1123 -41 
Q 819 9 494 109 
L 494 744 
Q 775 591 1075 516 
Q 1375 441 1709 441 
Q 2250 441 2565 725 
Q 2881 1009 2881 1497 
Q 2881 1984 2565 2268 
Q 2250 2553 1709 2553 
Q 1456 2553 1204 2497 
Q 953 2441 691 2322 
L 691 4666 
z
" transform="scale(0.015625)"/>
       </defs>
       <use xlink:href="#DejaVuSans-30"/>
       <use xlink:href="#DejaVuSans-2e" x="63.623047"/>
       <use xlink:href="#DejaVuSans-30" x="95.410156"/>
       <use xlink:href="#DejaVuSans-35" x="159.033203"/>
      </g>
     </g>
    </g>
    <g id="text_7">
     <!-- Time (s) -->
     <g transform="translate(215.831094 335.860562) scale(0.1 -0.1)">
      <defs>
       <path id="DejaVuSans-54" d="M -19 4666 
L 3928 4666 
L 3928 4134 
L 2272 4134 
L 2272 0 
L 1638 0 
L 1638 4134 
L -19 4134 
L -19 4666 
z
" transform="scale(0.015625)"/>
       <path id="DejaVuSans-69" d="M 603 3500 
L 1178 3500 
L 1178 0 
L 603 0 
L 603 3500 
z
M 603 4863 
L 1178 4863 
L 1178 4134 
L 603 4134 
L 603 4863 
z
" transform="scale(0.015625)"/>
       <path id="DejaVuSans-6d" d="M 3328 2828 
Q 3544 3216 3844 3400 
Q 4144 3584 4550 3584 
Q 5097 3584 5394 3201 
Q 5691 2819 5691 2113 
L 5691 0 
L 5113 0 
L 5113 2094 
Q 5113 2597 4934 2840 
Q 4756 3084 4391 3084 
Q 3944 3084 3684 2787 
Q 3425 2491 3425 1978 
L 3425 0 
L 2847 0 
L 2847 2094 
Q 2847 2600 2669 2842 
Q 2491 3084 2119 3084 
Q 1678 3084 1418 2786 
Q 1159 2488 1159 1978 
L 1159 0 
L 581 0 
L 581 3500 
L 1159 3500 
L 1159 2956 
Q 1356 3278 1631 3431 
Q 1906 3584 2284 3584 
Q 2666 3584 2933 3390 
Q 3200 3197 3328 2828 
z
" transform="scale(0.015625)"/>
       <path id="DejaVuSans-65" d="M 3597 1894 
L 3597 1613 
L 953 1613 
Q 991 1019 1311 708 
Q 1631 397 2203 397 
Q 2534 397 2845 478 
Q 3156 559 3463 722 
L 3463 178 
Q 3153 47 2828 -22 
Q 2503 -91 2169 -91 
Q 1331 -91 842 396 
Q 353 884 353 1716 
Q 353 2575 817 3079 
Q 1281 3584 2069 3584 
Q 2775 3584 3186 3129 
Q 3597 2675 3597 1894 
z
M 3022 2063 
Q 3016 2534 2758 2815 
Q 2500 3097 2075 3097 
Q 1594 3097 1305 2825 
Q 1016 2553 972 2059 
L 3022 2063 
z
" transform="scale(0.015625)"/>
       <path id="DejaVuSans-20" transform="scale(0.015625)"/>
       <path id="DejaVuSans-28" d="M 1984 4856 
Q 1566 4138 1362 3434 
Q 1159 2731 1159 2009 
Q 1159 1288 1364 580 
Q 1569 -128 1984 -844 
L 1484 -844 
Q 1016 -109 783 600 
Q 550 1309 550 2009 
Q 550 2706 781 3412 
Q 1013 4119 1484 4856 
L 1984 4856 
z
" transform="scale(0.015625)"/>
       <path id="DejaVuSans-73" d="M 2834 3397 
L 2834 2853 
Q 2591 2978 2328 3040 
Q 2066 3103 1784 3103 
Q 1356 3103 1142 2972 
Q 928 2841 928 2578 
Q 928 2378 1081 2264 
Q 1234 2150 1697 2047 
L 1894 2003 
Q 2506 1872 2764 1633 
Q 3022 1394 3022 966 
Q 3022 478 2636 193 
Q 2250 -91 1575 -91 
Q 1294 -91 989 -36 
Q 684 19 347 128 
L 347 722 
Q 666 556 975 473 
Q 1284 391 1588 391 
Q 1994 391 2212 530 
Q 2431 669 2431 922 
Q 2431 1156 2273 1281 
Q 2116 1406 1581 1522 
L 1381 1569 
Q 847 1681 609 1914 
Q 372 2147 372 2553 
Q 372 3047 722 3315 
Q 1072 3584 1716 3584 
Q 2034 3584 2315 3537 
Q 2597 3491 2834 3397 
z
" transform="scale(0.015625)"/>
       <path id="DejaVuSans-29" d="M 513 4856 
L 1013 4856 
Q 1481 4119 1714 3412 
Q 1947 2706 1947 2009 
Q 1947 1309 1714 600 
Q 1481 -109 1013 -844 
L 513 -844 
Q 928 -128 1133 580 
Q 1338 1288 1338 2009 
Q 1338 2731 1133 3434 
Q 928 4138 513 4856 
z
" transform="scale(0.015625)"/>
      </defs>
      <use xlink:href="#DejaVuSans-54"/>
      <use xlink:href="#DejaVuSans-69" x="57.958984"/>
      <use xlink:href="#DejaVuSans-6d" x="85.742188"/>
      <use xlink:href="#DejaVuSans-65" x="183.154297"/>
      <use xlink:href="#DejaVuSans-20" x="244.677734"/>
      <use xlink:href="#DejaVuSans-28" x="276.464844"/>
      <use xlink:href="#DejaVuSans-73" x="315.478516"/>
      <use xlink:href="#DejaVuSans-29" x="367.578125"/>
     </g>
    </g>
   </g>
   <g id="matplotlib.axis_2">
    <g id="ytick_1">
     <g id="line2d_13">
      <path d="M 57.6 276.878769 
L 414.72 276.878769 
" clip-path="url(#p47031f31f9)" style="fill: none; stroke: #b0b0b0; stroke-width: 0.8; stroke-linecap: square"/>
     </g>
     <g id="line2d_14">
      <defs>
       <path id="m5846ce31e4" d="M 0 0 
L -3.5 0 
" style="stroke: #000000; stroke-width: 0.8"/>
      </defs>
      <g>
       <use xlink:href="#m5846ce31e4" x="57.6" y="276.878769" style="stroke: #000000; stroke-width: 0.8"/>
      </g>
     </g>
     <g id="text_8">
      <!-- −1.0 -->
      <g transform="translate(26.317187 280.677988) scale(0.1 -0.1)">
       <defs>
        <path id="DejaVuSans-2212" d="M 678 2272 
L 4684 2272 
L 4684 1741 
L 678 1741 
L 678 2272 
z
" transform="scale(0.015625)"/>
       </defs>
       <use xlink:href="#DejaVuSans-2212"/>
       <use xlink:href="#DejaVuSans-31" x="83.789062"/>
       <use xlink:href="#DejaVuSans-2e" x="147.412109"/>
       <use xlink:href="#DejaVuSans-30" x="179.199219"/>
      </g>
     </g>
    </g>
    <g id="ytick_2">
     <g id="line2d_15">
      <path d="M 57.6 225.703385 
L 414.72 225.703385 
" clip-path="url(#p47031f31f9)" style="fill: none; stroke: #b0b0b0; stroke-width: 0.8; stroke-linecap: square"/>
     </g>
     <g id="line2d_16">
      <g>
       <use xlink:href="#m5846ce31e4" x="57.6" y="225.703385" style="stroke: #000000; stroke-width: 0.8"/>
      </g>
     </g>
     <g id="text_9">
      <!-- −0.5 -->
      <g transform="translate(26.317187 229.502603) scale(0.1 -0.1)">
       <use xlink:href="#DejaVuSans-2212"/>
       <use xlink:href="#DejaVuSans-30" x="83.789062"/>
       <use xlink:href="#DejaVuSans-2e" x="147.412109"/>
       <use xlink:href="#DejaVuSans-35" x="179.199219"/>
      </g>
     </g>
    </g>
    <g id="ytick_3">
     <g id="line2d_17">
      <path d="M 57.6 174.528 
L 414.72 174.528 
" clip-path="url(#p47031f31f9)" style="fill: none; stroke: #b0b0b0; stroke-width: 0.8; stroke-linecap: square"/>
     </g>
     <g id="line2d_18">
      <g>
       <use xlink:href="#m5846ce31e4" x="57.6" y="174.528" style="stroke: #000000; stroke-width: 0.8"/>
      </g>
     </g>
     <g id="text_10">
      <!-- 0.0 -->
      <g transform="translate(34.696875 178.327219) scale(0.1 -0.1)">
       <use xlink:href="#DejaVuSans-30"/>
       <use xlink:href="#DejaVuSans-2e" x="63.623047"/>
       <use xlink:href="#DejaVuSans-30" x="95.410156"/>
      </g>
     </g>
    </g>
    <g id="ytick_4">
     <g id="line2d_19">
      <path d="M 57.6 123.352615 
L 414.72 123.352615 
" clip-path="url(#p47031f31f9)" style="fill: none; stroke: #b0b0b0; stroke-width: 0.8; stroke-linecap: square"/>
     </g>
     <g id="line2d_20">
      <g>
       <use xlink:href="#m5846ce31e4" x="57.6" y="123.352615" style="stroke: #000000; stroke-width: 0.8"/>
      </g>
     </g>
     <g id="text_11">
      <!-- 0.5 -->
      <g transform="translate(34.696875 127.151834) scale(0.1 -0.1)">
       <use xlink:href="#DejaVuSans-30"/>
       <use xlink:href="#DejaVuSans-2e" x="63.623047"/>
       <use xlink:href="#DejaVuSans-35" x="95.410156"/>
      </g>
     </g>
    </g>
    <g id="ytick_5">
     <g id="line2d_21">
      <path d="M 57.6 72.177231 
L 414.72 72.177231 
" clip-path="url(#p47031f31f9)" style="fill: none; stroke: #b0b0b0; stroke-width: 0.8; stroke-linecap: square"/>
     </g>
     <g id="line2d_22">
      <g>
       <use xlink:href="#m5846ce31e4" x="57.6" y="72.177231" style="stroke: #000000; stroke-width: 0.8"/>
      </g>
     </g>
     <g id="text_12">
      <!-- 1.0 -->
      <g transform="translate(34.696875 75.97645) scale(0.1 -0.1)">
       <use xlink:href="#DejaVuSans-31"/>
       <use xlink:href="#DejaVuSans-2e" x="63.623047"/>
       <use xlink:href="#DejaVuSans-30" x="95.410156"/>
      </g>
     </g>
    </g>
    <g id="text_13">
     <!-- $C_{L}$ $C_{D}$ -->
     <g transform="translate(20.2375 188.028) rotate(-90) scale(0.1 -0.1)">
      <defs>
       <path id="DejaVuSans-Oblique-43" d="M 4447 4306 
L 4319 3641 
Q 4019 3944 3683 4091 
Q 3347 4238 2956 4238 
Q 2422 4238 2017 3981 
Q 1613 3725 1319 3200 
Q 1131 2863 1032 2486 
Q 934 2109 934 1728 
Q 934 1091 1264 756 
Q 1594 422 2222 422 
Q 2656 422 3056 561 
Q 3456 700 3834 978 
L 3688 231 
Q 3316 72 2936 -9 
Q 2556 -91 2175 -91 
Q 1278 -91 773 396 
Q 269 884 269 1753 
Q 269 2309 461 2846 
Q 653 3384 1013 3828 
Q 1394 4300 1883 4525 
Q 2372 4750 3022 4750 
Q 3422 4750 3780 4639 
Q 4138 4528 4447 4306 
z
" transform="scale(0.015625)"/>
       <path id="DejaVuSans-Oblique-4c" d="M 1075 4666 
L 1709 4666 
L 909 525 
L 3181 525 
L 3078 0 
L 172 0 
L 1075 4666 
z
" transform="scale(0.015625)"/>
       <path id="DejaVuSans-Oblique-44" d="M 1081 4666 
L 2438 4666 
Q 3519 4666 4070 4208 
Q 4622 3750 4622 2847 
Q 4622 2250 4412 1698 
Q 4203 1147 3834 769 
Q 3463 381 2891 190 
Q 2319 0 1538 0 
L 172 0 
L 1081 4666 
z
M 1613 4147 
L 909 519 
L 1734 519 
Q 2794 519 3375 1128 
Q 3956 1738 3956 2847 
Q 3956 3519 3581 3833 
Q 3206 4147 2406 4147 
L 1613 4147 
z
" transform="scale(0.015625)"/>
      </defs>
      <use xlink:href="#DejaVuSans-Oblique-43" transform="translate(0 0.78125)"/>
      <use xlink:href="#DejaVuSans-Oblique-4c" transform="translate(69.824219 -15.625) scale(0.7)"/>
      <use xlink:href="#DejaVuSans-20" transform="translate(111.557617 0.78125)"/>
      <use xlink:href="#DejaVuSans-Oblique-43" transform="translate(143.344727 0.78125)"/>
      <use xlink:href="#DejaVuSans-Oblique-44" transform="translate(213.168945 -15.625) scale(0.7)"/>
     </g>
    </g>
   </g>
   <g id="line2d_23">
    <path d="M 57.6 174.528 
L 57.874708 176.294653 
L 57.936906 166.792064 
L 57.999104 169.755175 
L 58.323644 173.374594 
L 58.393096 173.041876 
L 58.533829 172.858433 
L 58.760276 173.047062 
L 58.998955 173.734124 
L 59.246752 174.025562 
L 59.414095 174.017592 
L 59.581438 173.688291 
L 59.916125 173.998724 
L 60.083468 173.894514 
L 60.250812 174.066103 
L 60.501827 173.7943 
L 60.752842 173.863969 
L 61.1712 173.389611 
L 61.641795 173.129106 
L 61.932477 172.882581 
L 62.707628 172.126795 
L 62.804522 172.118268 
L 62.99831 171.940861 
L 63.288992 171.836424 
L 63.870355 171.611156 
L 64.064143 171.430174 
L 64.548612 171.492619 
L 64.946469 171.548903 
L 65.354606 171.683507 
L 66.272914 172.161338 
L 66.579017 172.496905 
L 67.59936 173.754053 
L 68.3136 175.080629 
L 68.943812 176.578603 
L 70.939482 183.196366 
L 73.250259 191.397321 
L 73.565365 192.509685 
L 75.350965 197.736779 
L 76.191247 199.491332 
L 76.611388 200.119599 
L 77.136565 200.564184 
L 77.451671 200.951533 
L 77.556706 200.982413 
L 77.766776 201.40205 
L 77.871812 201.352801 
L 78.502024 202.486926 
L 79.237271 204.755243 
L 79.972518 207.677268 
L 80.077553 207.810285 
L 80.707765 209.640967 
L 81.127906 210.233587 
L 81.337976 210.235373 
L 81.443012 210.074028 
L 81.653082 210.40042 
L 81.863153 210.272947 
L 82.283294 209.906213 
L 82.703435 209.47363 
L 83.123576 209.180701 
L 83.438682 209.107409 
L 83.648753 208.995313 
L 83.858824 208.997756 
L 84.804141 210.11898 
L 85.389338 211.059784 
L 85.779469 211.630264 
L 86.373669 212.414485 
L 86.88384 212.961889 
L 87.291977 213.213515 
L 87.700114 213.492175 
L 88.210286 213.687006 
L 89.02656 213.806999 
L 89.7408 213.744203 
L 90.45504 213.549863 
L 91.271314 213.09559 
L 92.087589 212.373449 
L 92.801829 211.541061 
L 93.732141 210.042066 
L 94.887529 207.406021 
L 95.832847 204.560094 
L 96.673129 201.52844 
L 97.965382 195.986493 
L 99.372218 188.930829 
L 100.904786 180.024188 
L 102.4074 169.968701 
L 104.518179 154.110873 
L 107.473655 131.947218 
L 108.705103 124.288831 
L 109.690262 119.483448 
L 110.429131 116.869084 
L 111.044855 115.435433 
L 111.660579 114.548962 
L 112.252622 114.221362 
L 112.720024 114.271019 
L 113.056553 114.444143 
L 113.505259 114.957284 
L 113.953965 115.731345 
L 114.627024 117.431894 
L 115.4088 120.172806 
L 116.29602 124.249725 
L 117.56826 132.056958 
L 118.8684 141.643588 
L 121.6584 165.462872 
L 122.777376 175.382528 
L 125.4528 198.205984 
L 126.859416 208.839047 
L 129.024 223.603542 
L 130.542564 231.489985 
L 131.195676 233.996055 
L 132.03539 236.234801 
L 132.689179 237.22234 
L 133.159074 237.511648 
L 134.004884 237.270778 
L 134.474779 236.655006 
L 135.132632 235.434492 
L 135.602526 234.201933 
L 136.730274 229.925837 
L 137.764042 224.405895 
L 138.797811 217.224871 
L 140.043703 206.535067 
L 141.472183 192.147705 
L 143.993793 163.158278 
L 146.071862 139.959544 
L 147.35616 127.721025 
L 148.30848 120.569358 
L 149.02272 116.592858 
L 149.61792 114.272739 
L 150.1536 112.906227 
L 151.006255 112.077447 
L 151.448623 112.081273 
L 151.877585 112.218381 
L 152.52103 112.733406 
L 152.941056 113.372842 
L 153.432576 114.385646 
L 154.127435 116.444097 
L 154.967718 120.135807 
L 156.179663 127.253399 
L 157.088623 133.817158 
L 158.118776 142.167099 
L 161.2764 168.15152 
L 162.4792 176.111262 
L 163.532373 182.279684 
L 165.552274 192.729327 
L 169.696 211.256518 
L 171.026182 216.342703 
L 172.360995 219.274786 
L 172.940108 219.976527 
L 173.422703 220.035721 
L 173.615741 219.915939 
L 174.773968 218.347034 
L 175.7472 215.918007 
L 176.9376 212.061647 
L 179.440941 201.837618 
L 180.596329 195.990133 
L 186.28224 164.916866 
L 189.02016 152.685505 
L 192.793318 136.698851 
L 194.404431 130.802745 
L 195.503262 127.524555 
L 196.327385 125.660137 
L 197.019648 124.56787 
L 197.568184 124.061346 
L 198.09713 123.87045 
L 198.488942 123.922593 
L 198.9927 124.281228 
L 199.4778 124.894556 
L 200.084175 126.027444 
L 200.808942 127.933346 
L 201.522332 130.374483 
L 202.354622 134.027993 
L 203.305809 139.312771 
L 204.37632 146.658021 
L 205.56672 156.537423 
L 206.87616 169.367728 
L 208.754347 190.366114 
L 211.365669 219.44742 
L 212.554076 230.211906 
L 213.501347 236.900133 
L 214.227589 240.685113 
L 214.915938 243.134911 
L 215.373785 244.167125 
L 215.916885 244.955696 
L 216.535767 245.368165 
L 217.066237 245.339772 
L 217.861942 244.63962 
L 218.39328 243.761231 
L 219.10752 241.994188 
L 219.82176 239.57663 
L 220.71456 235.539357 
L 221.51808 231.058968 
L 223.157169 220.447811 
L 225.354831 206.190446 
L 227.1328 196.603275 
L 228.4224 190.629997 
L 231.181964 179.029819 
L 231.614836 177.228404 
L 233.3952 169.435371 
L 236.27904 155.644634 
L 237.11232 153.282741 
L 237.70752 152.205574 
L 238.30272 151.630863 
L 238.65984 151.584921 
L 239.25504 151.576665 
L 239.96928 151.914465 
L 241.87392 153.781379 
L 243.65952 156.813043 
L 245.32608 160.068235 
L 247.4688 164.674695 
L 250.4448 170.844083 
L 252.46848 174.966846 
L 254.3616 179.488071 
L 261.4932 198.856399 
L 263.128383 202.467776 
L 264.516104 205.020748 
L 265.703564 206.766619 
L 266.785745 207.954245 
L 267.651491 208.597309 
L 268.517236 208.947456 
L 269.274764 208.981406 
L 269.924073 208.796291 
L 270.573382 208.442354 
L 271.547345 207.408927 
L 272.304873 206.294728 
L 273.170618 204.586583 
L 274.144582 202.12333 
L 275.118545 199.036063 
L 276.200727 194.901938 
L 277.391127 189.467424 
L 278.906182 181.342259 
L 280.7424 170.073495 
L 284.925352 143.474486 
L 286.1568 137.149705 
L 287.214933 132.867143 
L 288.008533 130.47066 
L 288.669867 129.052462 
L 289.3312 128.139731 
L 290.063644 127.828256 
L 290.810311 128.137075 
L 291.407644 128.773834 
L 291.998756 129.750404 
L 292.708089 131.368173 
L 293.53728 133.924664 
L 294.484189 137.77378 
L 295.393222 142.306438 
L 296.529513 149.084862 
L 298.29888 161.924258 
L 303.912498 207.759955 
L 305.416651 217.011149 
L 306.40181 221.549306 
L 307.189937 224.188215 
L 307.970076 225.923995 
L 308.45267 226.486373 
L 308.935265 226.711598 
L 309.417859 226.672527 
L 309.996973 226.00493 
L 310.672605 224.81229 
L 311.1552 223.573831 
L 311.734314 221.691395 
L 312.506465 218.522696 
L 313.471654 213.521773 
L 314.629881 205.851902 
L 315.848777 196.366932 
L 317.481326 181.48764 
L 322.361379 135.719247 
L 323.592828 126.817738 
L 324.454841 121.990512 
L 325.19371 118.913003 
L 325.809434 117.120522 
L 326.28377 116.236164 
L 326.87669 115.611513 
L 327.438403 115.47293 
L 327.887773 115.653038 
L 328.337144 116.005838 
L 328.786515 116.584571 
L 329.4576 117.866007 
L 330.0156 119.391924 
L 330.6852 121.859951 
L 331.578 126.054018 
L 332.5824 132.079015 
L 333.81 140.676826 
L 335.5956 155.062503 
L 339.113354 184.731325 
L 340.449882 195.624144 
L 341.952 206.954863 
L 344.261189 223.232008 
L 345.21259 228.462388 
L 346.131818 232.389692 
L 346.961179 234.65805 
L 347.525053 235.674636 
L 347.900968 236.007296 
L 348.276884 236.074575 
L 348.746779 236.000918 
L 349.122695 235.706144 
L 349.780547 234.732003 
L 350.4384 233.213818 
L 351.002274 231.432377 
L 351.848084 227.914855 
L 352.411958 225.014787 
L 353.445726 218.376637 
L 354.6048 209.086349 
L 356.1424 194.253298 
L 357.5808 178.260786 
L 361.4976 134.532225 
L 362.6496 124.231238 
L 363.5712 117.918614 
L 364.2624 114.511906 
L 364.925012 112.378629 
L 365.254463 111.745288 
L 365.797309 111.166677 
L 366.329815 111.085016 
L 366.95021 111.350255 
L 367.570606 112.000755 
L 368.087602 112.925202 
L 368.600503 114.235501 
L 369.212709 116.359874 
L 370.233051 121.382949 
L 371.15136 127.203004 
L 372.285741 135.731375 
L 376.950857 173.21199 
L 378.596571 183.395451 
L 380.608883 194.427032 
L 382.382168 203.179616 
L 385.007616 215.735347 
L 385.959936 219.015217 
L 387.01907 221.661532 
L 387.212108 221.887564 
L 387.598184 222.559633 
L 387.791222 222.567831 
L 388.273816 222.645242 
L 388.563373 222.456702 
L 389.432043 221.452609 
L 390.2176 219.820818 
L 390.912 217.987413 
L 391.5072 216.153732 
L 392.9952 210.613115 
L 394.00704 206.14764 
L 395.43552 199.069284 
L 397.080436 189.420902 
L 400.218764 170.929811 
L 403.776 152.608763 
L 407.842133 133.115516 
L 409.199607 127.594884 
L 410.313432 123.943075 
L 411.1488 121.930802 
L 411.824123 120.864368 
L 412.350646 120.410388 
L 412.849458 120.294428 
L 413.223566 120.439024 
L 413.722377 120.904322 
L 414.304324 121.825638 
L 414.72 122.739998 
L 414.72 122.739998 
" clip-path="url(#p47031f31f9)" style="fill: none; stroke: #0000ff; stroke-width: 1.5; stroke-linecap: square"/>
   </g>
   <g id="line2d_24">
    <path d="M 57.6 172.03208 
L 57.635125 -1 
M 57.934992 -1 
L 57.999104 85.875116 
L 58.124769 103.831197 
L 58.393096 107.783683 
L 58.998955 112.30627 
L 59.079408 112.23757 
L 59.16308 112.200931 
L 60.16714 115.758276 
L 60.334483 116.594114 
L 62.416947 127.663962 
L 64.548612 135.60718 
L 65.45664 138.178331 
L 66.681051 141.16504 
L 67.701394 143.052124 
L 68.943812 144.725237 
L 69.889129 145.438926 
L 70.414306 145.565171 
L 71.044518 145.440506 
L 71.359624 145.204683 
L 71.779765 144.763842 
L 72.830118 142.683374 
L 73.880471 139.116584 
L 74.510682 136.425903 
L 76.821459 124.521505 
L 77.661741 119.924863 
L 79.762447 111.526395 
L 80.707765 110.230542 
L 81.443012 109.827155 
L 81.758118 110.147708 
L 82.703435 110.319666 
L 83.648753 110.633581 
L 83.963859 110.707443 
L 84.804141 110.990292 
L 85.194272 111.255175 
L 86.373669 111.368614 
L 86.88384 111.07872 
L 90.148937 107.618183 
L 91.16928 106.890647 
L 92.393691 106.305932 
L 93.732141 106.071972 
L 94.992565 106.495371 
L 95.937882 107.134295 
L 97.207855 108.389402 
L 98.939345 110.414248 
L 101.367129 113.749436 
L 103.100914 115.96539 
L 103.910014 116.659938 
L 104.518179 116.925434 
L 105.010759 116.945917 
L 105.503338 116.765763 
L 106.119062 116.204695 
L 106.611641 115.473539 
L 107.35051 113.967258 
L 108.212524 111.68196 
L 110.798566 104.344557 
L 112.015805 102.542519 
L 112.489439 102.213095 
L 112.944377 102.115422 
L 113.393082 102.280162 
L 113.841788 102.680155 
L 114.290494 103.265548 
L 115.1856 105.180694 
L 115.8552 107.146155 
L 117.2502 112.138892 
L 118.8684 117.979243 
L 119.7612 120.493307 
L 120.3192 121.617592 
L 120.8772 122.268168 
L 121.3236 122.451865 
L 121.6584 122.405904 
L 122.6659 121.237062 
L 123.218213 120.065573 
L 124.7907 115.816713 
L 125.962971 113.000107 
L 126.761025 111.771026 
L 127.744927 111.21016 
L 128.849084 111.41877 
L 129.506595 111.76982 
L 132.03539 113.621931 
L 132.783158 113.750697 
L 132.971116 113.713709 
L 133.159074 113.787385 
L 133.347032 113.796354 
L 134.286821 113.27565 
L 134.662737 112.850198 
L 136.542316 110.266719 
L 138.045979 108.077339 
L 138.891789 107.122133 
L 139.7376 106.398332 
L 140.349806 106.127889 
L 140.655909 106.039603 
L 141.472183 106.149064 
L 142.084389 106.267218 
L 142.900663 106.422398 
L 143.206766 106.488691 
L 143.532 106.528614 
L 144.340138 106.32739 
L 144.917379 105.949602 
L 145.610069 105.235594 
L 146.418207 103.916307 
L 147.35616 101.666211 
L 149.73696 95.335423 
L 150.352 94.537017 
L 150.894545 94.204314 
L 151.341382 94.186593 
L 152.092067 94.538214 
L 152.52103 94.989596 
L 153.03936 95.898719 
L 153.629184 97.463044 
L 154.337506 100.206323 
L 155.3717 105.58602 
L 158.748988 124.224875 
L 159.274165 125.881344 
L 159.799341 126.969575 
L 160.219482 127.371388 
L 160.639624 127.413794 
L 160.849694 127.270667 
L 161.388 126.57989 
L 161.941867 125.504444 
L 164.635698 118.750985 
L 165.552274 117.419696 
L 166.250189 116.899886 
L 167.229718 116.818538 
L 168.209247 117.628728 
L 168.8032 118.358784 
L 172.071438 123.092805 
L 172.264476 123.243086 
L 172.650551 123.580392 
L 172.74707 123.552829 
L 173.133146 123.769392 
L 173.712259 123.874508 
L 174.484411 123.503644 
L 174.870486 123.106354 
L 175.4496 122.27787 
L 176.144 120.997549 
L 177.136 118.685224 
L 177.8304 116.87078 
L 179.0208 114.304734 
L 179.545976 113.595233 
L 180.281224 112.915356 
L 180.911435 112.629457 
L 181.226541 112.631783 
L 181.541647 112.710069 
L 182.171859 113.121735 
L 183.0384 114.16755 
L 184.0428 115.986987 
L 186.63936 120.843341 
L 187.3536 121.680291 
L 188.06784 122.185424 
L 188.544 122.294395 
L 189.25824 122.246933 
L 189.857545 121.887843 
L 190.616117 121.207701 
L 191.640682 119.855743 
L 192.409106 118.567815 
L 193.580308 116.235999 
L 195.0912 112.643929 
L 198.488942 104.291249 
L 199.841625 101.628048 
L 201.165637 99.494182 
L 202.116825 98.406106 
L 202.711317 98.009952 
L 203.543606 97.816999 
L 204.13824 97.950237 
L 204.73344 98.359569 
L 205.44768 99.17498 
L 206.28096 100.56012 
L 207.70944 103.576719 
L 208.525084 105.235911 
L 209.305668 106.331556 
L 209.85153 106.729628 
L 210.160852 106.747159 
L 210.561151 106.61865 
L 210.96145 106.228201 
L 211.668583 105.030605 
L 213.217166 101.339979 
L 214.059185 99.632556 
L 214.480194 99.089997 
L 214.915938 98.822353 
L 215.282215 98.783001 
L 215.556923 99.099122 
L 215.828473 99.39135 
L 216.801002 101.250699 
L 217.77353 104.334525 
L 218.83968 108.949839 
L 219.91104 114.60705 
L 222.058338 126.328327 
L 222.882462 129.717023 
L 223.523446 131.567493 
L 223.889723 132.260873 
L 224.439138 132.873337 
L 224.805415 132.901186 
L 225.263262 132.65544 
L 226.0416 131.475763 
L 226.8352 129.635905 
L 229.991564 122.028228 
L 230.965527 120.544522 
L 231.723055 119.847101 
L 232.264145 119.651025 
L 232.480582 119.720138 
L 233.1648 119.858879 
L 234.6624 121.100778 
L 235.6992 122.492302 
L 236.7552 124.330896 
L 237.9456 126.092523 
L 238.5408 126.591455 
L 239.49312 126.7351 
L 240.56448 125.639701 
L 241.39776 124.016065 
L 243.06432 120.469948 
L 244.25472 118.518716 
L 245.088 117.562453 
L 245.44512 117.306063 
L 245.80224 117.137189 
L 246.04032 117.083901 
L 246.2784 117.023487 
L 247.4688 117.575181 
L 247.82592 117.887504 
L 249.37344 119.870601 
L 251.27808 122.557394 
L 251.99232 123.32241 
L 252.8256 123.914043 
L 253.65888 124.20503 
L 254.4768 124.282533 
L 255.8592 124.125423 
L 257.8176 123.875947 
L 259.7184 123.865722 
L 261.4932 123.836693 
L 263.128383 123.592456 
L 264.837818 123.006913 
L 266.244655 122.277542 
L 267.867927 121.214523 
L 272.954182 117.722824 
L 274.469236 117.164023 
L 275.226764 117.053049 
L 276.200727 117.114103 
L 277.282909 117.439463 
L 278.797964 118.263341 
L 281.088 119.578946 
L 281.8944 119.780025 
L 282.5856 119.733904 
L 283.324469 119.417349 
L 284.802207 117.917164 
L 286.1568 115.773247 
L 288.1408 112.559247 
L 289.066667 111.523274 
L 289.463467 111.266706 
L 290.810311 110.842076 
L 291.525867 110.975549 
L 292.116978 111.240891 
L 292.826311 111.788981 
L 293.77536 112.851653 
L 297.4656 118.358341 
L 297.94176 118.706672 
L 298.41792 118.898287 
L 299.123003 118.881942 
L 299.782302 118.522419 
L 300.4416 117.762743 
L 301.326133 116.598671 
L 303.11008 114.142852 
L 304.318903 113.05175 
L 304.522971 112.919087 
L 305.318135 112.5468 
L 305.90923 112.449669 
L 307.288452 112.242859 
L 308.066595 112.085529 
L 308.838746 111.915673 
L 310.576086 111.181884 
L 310.865643 110.887317 
L 311.058681 110.786057 
L 312.892541 109.549657 
L 313.761211 109.2235 
L 314.533362 109.183265 
L 315.236571 109.426666 
L 315.950811 109.849736 
L 318.4092 111.666227 
L 319.1904 111.987227 
L 319.768691 111.963395 
L 320.468727 111.651027 
L 321.168764 110.991661 
L 322.361379 109.144344 
L 325.316855 103.798301 
L 325.928018 103.352049 
L 326.28377 103.292942 
L 326.758106 103.388169 
L 327.213718 103.672161 
L 328.000116 104.469578 
L 328.786515 105.57569 
L 329.346 106.648013 
L 330.1272 108.606052 
L 331.3548 112.620121 
L 333.81 121.127924 
L 334.4796 122.784783 
L 335.0376 123.727684 
L 335.5956 124.258409 
L 335.9304 124.309386 
L 336.2688 124.200167 
L 336.6144 123.923727 
L 337.6272 121.966683 
L 338.2896 120.123274 
L 340.246588 113.907003 
L 340.754824 112.633233 
L 342.144 110.644596 
L 342.624 110.423751 
L 343.392519 110.414456 
L 343.682076 110.472676 
L 344.454227 110.885759 
L 347.149137 113.013648 
L 347.713011 113.127837 
L 347.806989 113.055911 
L 348.182905 113.232917 
L 348.746779 113.048847 
L 349.310653 112.668127 
L 349.780547 112.178475 
L 350.344421 111.436089 
L 351.096253 110.438037 
L 352.130021 108.879983 
L 354.208 106.477056 
L 354.806743 106.068578 
L 355.628686 105.832698 
L 356.1424 105.921821 
L 357.6924 106.439574 
L 358.8084 106.583984 
L 359.62866 106.268376 
L 360.21456 105.771918 
L 361.152 104.470516 
L 362.0736 102.566744 
L 364.6368 96.192666 
L 365.145894 95.478939 
L 365.471602 95.333184 
L 366.014448 95.17237 
L 366.536614 95.320513 
L 367.05361 95.707488 
L 367.570606 96.335403 
L 368.087602 97.370669 
L 368.702537 99.136545 
L 369.518811 102.535276 
L 370.743223 109.180049 
L 372.495812 119.11306 
L 373.441129 123.485144 
L 374.281412 125.966631 
L 374.701553 126.689393 
L 375.331765 127.015696 
L 375.768 126.758041 
L 376.632 125.313511 
L 377.568 123.047022 
L 378.390857 120.759331 
L 379.820756 117.626704 
L 380.608883 116.588083 
L 381.101462 116.28472 
L 381.39701 116.118921 
L 381.791073 116.057294 
L 382.283652 116.259718 
L 383.5712 117.494726 
L 386.729514 122.075167 
L 387.115589 122.40945 
L 387.501665 122.624257 
L 388.563373 122.802365 
L 389.045968 122.567557 
L 389.7216 121.871849 
L 390.3168 120.932352 
L 391.2096 119.090473 
L 394.00704 112.29798 
L 394.619246 111.452685 
L 395.231451 110.877186 
L 395.843657 110.587058 
L 396.455863 110.641775 
L 397.296873 111.280913 
L 398.0544 112.256875 
L 399.136582 114.299503 
L 401.2416 118.706869 
L 402.048 120.002332 
L 402.8544 120.90323 
L 403.4304 121.264006 
L 404.129545 121.385801 
L 404.622124 121.272917 
L 405.237848 120.853839 
L 405.976717 120.053466 
L 406.838731 118.695252 
L 407.709867 116.943631 
L 408.642695 114.726117 
L 410.034975 110.907492 
L 412.600052 103.912829 
L 413.971783 100.91242 
L 414.72 99.516668 
L 414.72 99.516668 
" clip-path="url(#p47031f31f9)" style="fill: none; stroke: #ff0000; stroke-width: 1.5; stroke-linecap: square"/>
   </g>
   <g id="line2d_25">
    <path d="M 57.6 174.528 
L 57.874708 172.343867 
L 57.936906 182.352194 
L 57.999104 179.345891 
L 58.323644 175.676798 
L 58.393096 176.013411 
L 58.533829 176.197792 
L 58.760276 176.020011 
L 58.998955 175.341509 
L 59.246752 175.050073 
L 59.414095 175.05662 
L 59.581438 175.389668 
L 59.916125 175.079502 
L 60.083468 175.182585 
L 60.250812 175.012984 
L 60.501827 175.278325 
L 60.752842 175.210363 
L 61.1712 175.678594 
L 61.641795 175.935637 
L 61.932477 176.184762 
L 62.707628 176.938135 
L 62.804522 176.945556 
L 62.99831 177.125262 
L 63.385885 177.264311 
L 64.451718 177.584806 
L 65.048503 177.456413 
L 66.374949 176.740783 
L 67.191223 175.897123 
L 68.109531 174.360204 
L 68.628706 173.335303 
L 69.153882 171.885573 
L 69.258918 171.735887 
L 69.679059 170.35461 
L 70.834447 166.334961 
L 71.674729 163.154614 
L 73.6704 156.235673 
L 75.771106 150.357764 
L 76.611388 148.937758 
L 77.136565 148.491186 
L 77.451671 148.102299 
L 77.556706 148.072076 
L 77.766776 147.652653 
L 77.871812 147.69824 
L 78.502024 146.560146 
L 79.237271 144.284786 
L 79.867482 141.784924 
L 80.392659 140.072241 
L 80.707765 139.395452 
L 81.127906 138.797827 
L 81.443012 138.953064 
L 81.653082 138.637285 
L 81.863153 138.758148 
L 82.283294 139.128163 
L 83.648753 140.032539 
L 83.858824 140.030578 
L 84.804141 138.913828 
L 85.486871 137.870683 
L 86.373669 136.616877 
L 86.88384 136.065422 
L 87.291977 135.809055 
L 87.802149 135.467 
L 88.822491 135.196595 
L 89.944869 135.292384 
L 90.965211 135.700181 
L 91.985554 136.524489 
L 92.801829 137.45615 
L 93.837176 139.177419 
L 94.572424 140.783713 
L 95.517741 143.428152 
L 96.778165 147.886986 
L 98.506473 155.626294 
L 100.021527 163.695513 
L 101.5983 173.473485 
L 103.332086 185.833819 
L 108.212524 221.90936 
L 109.197683 227.37577 
L 110.059697 231.019229 
L 110.798566 233.171484 
L 111.537434 234.403213 
L 112.015805 234.763881 
L 112.489439 234.864275 
L 112.944377 234.726011 
L 113.393082 234.285189 
L 113.953965 233.352902 
L 114.627024 231.656676 
L 115.4088 228.910864 
L 116.29602 224.829663 
L 117.35622 218.44132 
L 118.5336 210.082773 
L 120.3192 195.345885 
L 125.758903 148.565053 
L 128.138488 131.363755 
L 129.603114 122.256205 
L 130.449263 118.140565 
L 131.195676 115.202046 
L 131.942089 113.157013 
L 132.501898 112.118786 
L 133.065095 111.670858 
L 133.534989 111.674846 
L 134.004884 111.876657 
L 134.474779 112.475637 
L 135.226611 113.909169 
L 135.696505 115.24966 
L 136.354358 117.548197 
L 137.106189 120.92719 
L 137.858021 125.256803 
L 138.797811 131.804931 
L 139.941669 141.496839 
L 141.472183 156.776644 
L 143.3088 177.702286 
L 146.418207 212.334865 
L 147.4752 222.081901 
L 148.42752 229.045989 
L 149.14176 232.864575 
L 149.73696 235.06429 
L 150.2528 236.263395 
L 150.894545 236.955327 
L 151.341382 237.062889 
L 152.413789 236.515327 
L 152.842752 235.99629 
L 153.825792 233.770491 
L 154.442541 231.575902 
L 155.068713 228.637121 
L 155.977672 223.452268 
L 157.088623 215.625291 
L 158.223812 206.437378 
L 161.6112 178.901873 
L 162.909067 170.639623 
L 163.933582 164.789591 
L 165.348206 157.451464 
L 167.425624 147.728142 
L 170.647418 133.852234 
L 171.215564 132.06219 
L 171.499636 131.433367 
L 171.974919 130.10081 
L 172.360995 129.50368 
L 172.650551 129.17583 
L 172.843589 128.751318 
L 173.615741 128.740465 
L 174.387892 129.555694 
L 174.773968 130.232657 
L 175.8464 132.872406 
L 177.0368 136.759234 
L 179.440941 146.561067 
L 181.016471 154.742265 
L 185.2704 178.778018 
L 186.87744 186.584127 
L 190.488046 202.692058 
L 192.921388 213.010204 
L 194.541785 218.97457 
L 195.640615 222.230733 
L 196.464738 224.053985 
L 197.156782 225.090066 
L 197.705318 225.551267 
L 198.09713 225.677164 
L 198.619546 225.578925 
L 199.113975 225.175712 
L 199.599075 224.49812 
L 200.326725 222.984328 
L 201.046739 220.918965 
L 201.879028 217.747787 
L 202.711317 213.664561 
L 203.662505 207.886658 
L 204.73344 199.954938 
L 205.92384 189.429381 
L 207.35232 174.629085 
L 210.060777 143.347996 
L 211.767429 125.412804 
L 212.838257 116.335231 
L 213.690801 110.784109 
L 214.480194 107.135891 
L 215.190646 104.975588 
L 216.358943 103.720774 
L 216.624178 103.630758 
L 216.889413 103.633293 
L 217.24306 103.780714 
L 217.950353 104.53975 
L 218.48256 105.499822 
L 219.1968 107.393008 
L 219.82176 109.578801 
L 220.80384 114.107926 
L 221.69664 119.263474 
L 226.1408 147.447238 
L 227.8272 155.688183 
L 229.883345 164.288805 
L 233.28 178.291829 
L 236.0448 191.661875 
L 236.63616 193.573885 
L 237.3504 195.250954 
L 237.82656 195.919631 
L 238.30272 196.305982 
L 239.01696 196.334866 
L 239.7312 196.103813 
L 240.20736 195.684345 
L 240.44544 195.483343 
L 242.46912 192.893615 
L 245.20704 187.827092 
L 249.01632 179.865272 
L 251.6352 175.082435 
L 253.06368 172.155352 
L 254.592 168.617915 
L 257.0112 162.398257 
L 260.604554 153.225693 
L 262.381148 149.367187 
L 264.195861 146.134729 
L 265.487127 144.337478 
L 266.677527 143.100958 
L 267.543273 142.495076 
L 268.409018 142.158671 
L 269.166545 142.107004 
L 269.924073 142.296742 
L 270.6816 142.749342 
L 271.439127 143.449247 
L 272.954182 145.79176 
L 273.928145 147.961104 
L 274.902109 150.66132 
L 275.984291 154.305546 
L 277.174691 159.099921 
L 278.581527 165.748407 
L 280.1664 174.308134 
L 282.955034 190.932472 
L 285.048497 202.935253 
L 286.421333 209.578002 
L 287.479467 213.673651 
L 288.273067 216.02944 
L 289.198933 217.884621 
L 289.8272 218.611308 
L 290.312533 218.818256 
L 290.685867 218.819611 
L 291.1712 218.611031 
L 291.644089 218.152281 
L 292.2352 217.279246 
L 292.944533 215.773447 
L 293.65632 213.732921 
L 294.37056 211.098966 
L 295.393222 206.490077 
L 296.756771 198.420498 
L 297.94176 189.964558 
L 299.452652 177.631611 
L 302.909476 148.355282 
L 304.318903 138.161238 
L 305.416651 131.737565 
L 306.303294 127.601749 
L 307.091421 124.889299 
L 307.970076 122.89025 
L 308.356151 122.399144 
L 308.838746 122.109211 
L 309.417859 122.106189 
L 309.900454 122.627546 
L 310.383049 123.390321 
L 310.769124 124.141123 
L 311.348238 125.696409 
L 312.02387 128.061871 
L 313.085578 133.023157 
L 314.050768 138.737801 
L 315.338606 148.168512 
L 316.563017 158.536786 
L 318.4092 176.187426 
L 321.168764 202.503346 
L 322.607669 214.382183 
L 323.839117 222.563197 
L 324.701131 226.833574 
L 325.44 229.457235 
L 326.046602 230.912904 
L 326.520938 231.601453 
L 326.989032 231.959596 
L 327.438403 232.005548 
L 327.775431 231.873851 
L 328.337144 231.405745 
L 328.786515 230.830601 
L 329.4576 229.554222 
L 329.904 228.350493 
L 330.6852 225.632426 
L 331.4664 222.050547 
L 332.5824 215.615634 
L 333.9216 206.299425 
L 335.484 193.904075 
L 337.296 178.375848 
L 339.317169 160.574466 
L 342.048 138.591121 
L 343.585557 127.373108 
L 344.454227 122.169908 
L 345.396435 117.695941 
L 345.947972 115.763709 
L 347.055158 113.343131 
L 347.337095 113.224845 
L 347.900968 113.060404 
L 348.276884 113.150246 
L 348.6528 113.506131 
L 349.310653 114.51049 
L 349.686568 115.359977 
L 350.250442 116.965402 
L 351.190232 120.729341 
L 351.942063 124.708317 
L 353.069811 132.537279 
L 354.208 142.409453 
L 355.834171 159.105641 
L 357.169829 174.459685 
L 359.86302 205.51949 
L 361.152 218.589043 
L 362.1888 227.065971 
L 362.9952 231.952044 
L 363.5712 234.412819 
L 364.1472 236.051122 
L 364.3776 236.457072 
L 364.464 236.467049 
L 364.819719 236.953065 
L 365.145894 237.12472 
L 365.68874 237.065438 
L 366.123017 236.771269 
L 366.95021 235.780002 
L 367.570606 234.438843 
L 368.087602 232.84199 
L 368.702537 230.305203 
L 369.518811 226.014251 
L 370.539154 219.314518 
L 371.763566 209.792869 
L 375.121694 181.852003 
L 376.416 173.222359 
L 378.390857 162.018576 
L 381.101462 148.853854 
L 384.24576 134.820997 
L 385.007616 132.440052 
L 385.959936 130.231517 
L 386.1504 130.037929 
L 386.536476 129.414601 
L 386.922551 129.3196 
L 387.308627 129.487759 
L 387.791222 129.85903 
L 388.370335 130.809652 
L 389.142486 132.539398 
L 390.5152 136.727525 
L 392.6976 145.286532 
L 393.496869 148.852286 
L 396.047726 162.681381 
L 399.136582 179.234121 
L 401.472 190.032515 
L 406.099862 209.967998 
L 407.842133 216.570117 
L 409.060379 220.383754 
L 410.034975 222.691079 
L 410.731116 223.834788 
L 411.423508 224.478988 
L 411.824123 224.615897 
L 412.219015 224.580667 
L 412.600052 224.374571 
L 413.098863 223.85711 
L 413.722377 222.794238 
L 414.304324 221.410255 
L 414.72 220.217235 
L 414.72 220.217235 
" clip-path="url(#p47031f31f9)" style="fill: none; stroke-dasharray: 5.55,2.4; stroke-dashoffset: 0; stroke: #008000; stroke-width: 1.5"/>
   </g>
   <g id="line2d_26">
    <path d="M 57.6 172.03208 
L 57.635131 -1 
M 57.934998 -1 
L 57.999104 85.964015 
L 58.124769 103.83878 
L 58.393096 107.769841 
L 58.998955 112.29037 
L 59.079408 112.236992 
L 59.16308 112.191156 
L 60.16714 115.761447 
L 60.334483 116.595528 
L 62.126265 126.26292 
L 64.064143 134.098907 
L 65.150537 137.381109 
L 66.374949 140.45396 
L 67.701394 143.049896 
L 68.838776 144.58113 
L 69.363953 145.093369 
L 70.624376 145.597623 
L 71.254588 145.271761 
L 71.674729 144.872957 
L 71.8848 144.565054 
L 72.935153 142.359706 
L 74.405647 136.883286 
L 75.456 131.849068 
L 76.611388 125.598267 
L 77.136565 122.707816 
L 78.712094 115.288036 
L 79.762447 111.543738 
L 80.602729 110.331127 
L 81.232941 109.925086 
L 81.548047 109.997267 
L 81.758118 110.159466 
L 83.123576 110.403324 
L 84.901674 111.081676 
L 85.389338 111.294633 
L 86.1696 111.381128 
L 86.88384 111.064858 
L 89.7408 107.955538 
L 90.965211 106.993385 
L 92.087589 106.407218 
L 93.005897 106.093097 
L 94.257318 106.159916 
L 95.0976 106.51713 
L 96.358024 107.445345 
L 98.506473 109.83846 
L 100.566 112.573893 
L 102.985329 115.818686 
L 103.910014 116.640923 
L 104.518179 116.908027 
L 105.010759 116.930299 
L 105.503338 116.752274 
L 105.995917 116.335972 
L 106.611641 115.456685 
L 107.35051 113.947601 
L 108.212524 111.65492 
L 110.798566 104.305011 
L 111.897396 102.633044 
L 112.489439 102.183357 
L 112.944377 102.093797 
L 113.280906 102.199845 
L 113.729612 102.543467 
L 114.290494 103.255585 
L 115.074 104.888774 
L 115.9668 107.522716 
L 117.46224 112.97279 
L 118.98 118.376251 
L 119.9844 121.056871 
L 120.7656 122.251279 
L 121.3236 122.50757 
L 121.6584 122.470879 
L 122.6659 121.300043 
L 123.218213 120.127835 
L 124.49512 116.686913 
L 125.758903 113.444334 
L 126.761025 111.838949 
L 127.351367 111.42909 
L 127.941708 111.272381 
L 128.58671 111.344899 
L 129.889453 112.089341 
L 131.102374 113.079416 
L 132.03539 113.643142 
L 132.783158 113.798812 
L 133.065095 113.783105 
L 133.347032 113.836785 
L 134.662737 112.907327 
L 135.320589 112.025626 
L 135.978442 111.125514 
L 136.824253 109.788656 
L 137.952 108.159826 
L 138.609853 107.311498 
L 140.45184 105.994269 
L 141.064046 106.027915 
L 141.676251 106.142082 
L 143.993793 106.513396 
L 144.571034 106.315426 
L 144.917379 106.085616 
L 145.725517 105.242518 
L 146.418207 104.112106 
L 147.23712 102.216398 
L 150.0544 94.930127 
L 150.2528 94.71716 
L 151.229673 94.224146 
L 151.770345 94.3677 
L 152.628271 95.158416 
L 153.235968 96.327954 
L 153.727488 97.726154 
L 154.547576 101.076419 
L 155.674686 107.152432 
L 158.538918 123.183836 
L 159.169129 125.466978 
L 159.694306 126.70542 
L 160.114447 127.281326 
L 160.429553 127.446465 
L 160.744659 127.391993 
L 161.2764 126.835036 
L 162.049333 125.344284 
L 164.535396 119.018909 
L 165.348206 117.661304 
L 165.95633 117.000808 
L 166.446095 116.797037 
L 166.837906 116.756137 
L 167.131765 116.686594 
L 167.523577 116.882936 
L 167.915388 117.202927 
L 168.6048 117.939009 
L 168.8032 118.208233 
L 172.167957 123.01818 
L 172.940108 123.615699 
L 173.422703 123.7456 
L 174.387892 123.539128 
L 175.063524 122.86098 
L 175.648 121.95481 
L 176.8384 119.423186 
L 179.0208 114.229445 
L 179.756047 113.232242 
L 181.016471 112.396778 
L 181.436612 112.415776 
L 182.171859 112.860722 
L 182.7036 113.383873 
L 183.4848 114.573111 
L 184.9356 117.454358 
L 185.94 119.465252 
L 187.11552 121.223476 
L 187.82976 121.886042 
L 188.42496 122.173447 
L 189.1392 122.203272 
L 189.61536 122.042286 
L 190.231905 121.570377 
L 190.872258 120.913575 
L 191.896823 119.481913 
L 193.177529 117.093218 
L 194.404431 114.299205 
L 196.602092 108.634723 
L 198.227734 104.664663 
L 199.841625 101.383074 
L 201.284536 99.072201 
L 202.116825 98.145451 
L 202.711317 97.735043 
L 203.305809 97.593935 
L 203.900302 97.617079 
L 204.6144 97.99253 
L 205.32864 98.785412 
L 206.16192 100.09438 
L 207.11424 102.028679 
L 208.868978 105.48864 
L 209.41484 106.114919 
L 209.85153 106.400753 
L 210.361002 106.340309 
L 210.761301 106.062882 
L 211.1616 105.524268 
L 212.162811 103.514876 
L 213.974983 99.358614 
L 214.564396 98.640056 
L 215.007508 98.437831 
L 215.190646 98.355893 
L 215.556923 98.796575 
L 215.828473 99.155558 
L 216.270532 99.820788 
L 216.889413 101.288875 
L 217.685118 103.867077 
L 218.66112 108.021489 
L 220.00032 115.178568 
L 222.241477 127.392182 
L 223.0656 130.55997 
L 223.706585 132.185701 
L 224.622277 133.085063 
L 224.988554 132.998612 
L 225.5456 132.457965 
L 226.3392 130.915292 
L 228.1248 126.345921 
L 229.0176 124.144734 
L 230.424436 121.475103 
L 231.506618 120.142603 
L 232.264145 119.845467 
L 232.480582 119.921864 
L 233.1648 120.024339 
L 233.5104 120.239949 
L 234.432 121.005451 
L 235.6992 122.657893 
L 236.63616 124.29097 
L 237.9456 126.249633 
L 238.42176 126.662117 
L 239.136 126.919716 
L 239.37408 126.94633 
L 240.3264 126.133615 
L 241.15968 124.66872 
L 242.94528 120.870014 
L 244.13568 118.932152 
L 244.96896 118.002848 
L 245.32608 117.748957 
L 245.6832 117.583911 
L 245.92128 117.54152 
L 246.15936 117.497305 
L 247.23072 117.978724 
L 248.064 118.772307 
L 250.08768 121.610677 
L 251.04 122.884214 
L 252.11136 123.953436 
L 252.94464 124.439404 
L 253.53984 124.609158 
L 254.4768 124.650369 
L 255.9744 124.412709 
L 258.048 124.126484 
L 260.604554 124.112012 
L 262.381148 124.000696 
L 264.622852 123.444007 
L 266.028218 122.847558 
L 267.976145 121.787944 
L 271.980218 119.524342 
L 273.711709 118.830183 
L 274.793891 118.611481 
L 275.767855 118.603337 
L 276.958255 118.819217 
L 278.256873 119.325028 
L 281.5488 120.876382 
L 282.4704 121.000939 
L 283.324469 120.861687 
L 284.432772 120.163292 
L 285.294786 119.264091 
L 286.421333 117.691694 
L 289.066667 113.719425 
L 289.9392 112.822349 
L 290.934756 112.164154 
L 291.525867 111.957349 
L 292.471644 111.896272 
L 293.180978 112.078077 
L 293.8944 112.461954 
L 294.711447 113.143892 
L 297.10848 115.89212 
L 298.0608 116.697163 
L 298.89408 117.068644 
L 299.232886 117.069124 
L 299.892185 116.964329 
L 300.331717 116.816654 
L 300.888 116.528867 
L 301.4336 116.143243 
L 302.0784 115.642452 
L 304.522971 113.841749 
L 305.613683 113.333219 
L 309.321341 112.033219 
L 309.514378 111.946972 
L 309.996973 111.833592 
L 313.568173 110.25072 
L 314.436843 110.209588 
L 315.950811 110.713278 
L 317.787429 111.826974 
L 318.744 112.20193 
L 319.652018 112.245173 
L 320.352055 111.944894 
L 320.935418 111.490113 
L 321.752127 110.534506 
L 322.977103 108.606357 
L 324.331697 106.363476 
L 325.070566 105.476085 
L 325.68629 105.041907 
L 326.28377 104.926246 
L 327.663088 105.932809 
L 328.337144 106.807863 
L 329.346 108.477754 
L 329.904 109.668868 
L 331.02 112.768617 
L 332.2476 116.618301 
L 333.6984 120.806313 
L 334.4796 122.381027 
L 335.1492 123.22114 
L 335.8188 123.400289 
L 336.042 123.335894 
L 337.0752 122.007291 
L 337.7376 120.403765 
L 339.113354 116.161445 
L 340.348235 112.555401 
L 340.856471 111.447276 
L 341.856 110.178513 
L 342.432 109.850105 
L 343.392519 109.741503 
L 344.068151 109.996797 
L 346.039895 111.324311 
L 346.407586 111.514933 
L 347.713011 111.906535 
L 348.746779 111.615312 
L 349.310653 111.036597 
L 349.780547 110.599617 
L 352.411958 107.877352 
L 353.069811 107.441899 
L 353.633684 107.185074 
L 354.704 106.916605 
L 356.8616 106.944848 
L 357.5808 106.646248 
L 358.4736 105.99619 
L 359.27712 104.99823 
L 359.9802 103.82879 
L 360.91764 101.883752 
L 363.6864 95.565631 
L 364.2624 94.891021 
L 364.464 94.900547 
L 364.7232 94.813543 
L 365.145894 94.918729 
L 365.68874 95.232778 
L 366.433214 96.06896 
L 366.95021 96.920638 
L 367.467206 98.174511 
L 367.984202 99.862287 
L 368.906606 104.007405 
L 370.028983 110.267526 
L 372.180706 121.95412 
L 373.020988 125.103844 
L 373.6512 126.523076 
L 374.071341 127.013197 
L 374.386447 127.110079 
L 374.596518 127.023772 
L 375.016659 126.643328 
L 375.5484 125.78511 
L 375.984 124.836997 
L 376.74 122.91094 
L 377.773714 120.16957 
L 378.699429 118.170143 
L 379.72224 116.888302 
L 380.214819 116.667017 
L 380.510367 116.544888 
L 380.805914 116.446615 
L 381.199978 116.576847 
L 381.594041 116.874135 
L 382.7776 118.062662 
L 384.340992 120.281989 
L 384.626688 120.683998 
L 385.293312 121.709587 
L 386.1504 122.673728 
L 386.632995 122.905418 
L 386.922551 123.022364 
L 387.694703 123.108878 
L 388.756411 122.233816 
L 389.528562 121.09309 
L 391.1104 117.645714 
L 391.7056 116.26843 
L 392.4992 114.613133 
L 393.0944 113.746984 
L 393.802971 113.034066 
L 394.415177 112.677331 
L 394.925349 112.612891 
L 395.639589 112.939891 
L 396.864 114.364476 
L 397.621527 115.666677 
L 400.002327 120.174127 
L 400.896 121.321338 
L 401.5872 121.880962 
L 402.1632 122.086109 
L 402.9696 122.085734 
L 403.6608 121.724791 
L 404.375834 121.129657 
L 405.114703 120.275424 
L 405.853572 119.223463 
L 406.961876 117.290355 
L 408.238933 114.577791 
L 410.45266 109.187668 
L 412.219015 105.124443 
L 413.597674 102.452968 
L 414.72 100.630235 
L 414.72 100.630235 
" clip-path="url(#p47031f31f9)" style="fill: none; stroke-dasharray: 5.55,2.4; stroke-dashoffset: 0; stroke: #000000; stroke-width: 1.5"/>
   </g>
   <g id="patch_3">
    <path d="M 57.6 307.584 
L 57.6 41.472 
" style="fill: none; stroke: #000000; stroke-width: 0.8; stroke-linejoin: miter; stroke-linecap: square"/>
   </g>
   <g id="patch_4">
    <path d="M 414.72 307.584 
L 414.72 41.472 
" style="fill: none; stroke: #000000; stroke-width: 0.8; stroke-linejoin: miter; stroke-linecap: square"/>
   </g>
   <g id="patch_5">
    <path d="M 57.6 307.584 
L 414.72 307.584 
" style="fill: none; stroke: #000000; stroke-width: 0.8; stroke-linejoin: miter; stroke-linecap: square"/>
   </g>
   <g id="patch_6">
    <path d="M 57.6 41.472 
L 414.72 41.472 
" style="fill: none; stroke: #000000; stroke-width: 0.8; stroke-linejoin: miter; stroke-linecap: square"/>
   </g>
   <g id="legend_1">
    <g id="patch_7">
     <path d="M 64.6 302.584 
L 125.7 302.584 
Q 127.7 302.584 127.7 300.584 
L 127.7 242.830875 
Q 127.7 240.830875 125.7 240.830875 
L 64.6 240.830875 
Q 62.6 240.830875 62.6 242.830875 
L 62.6 300.584 
Q 62.6 302.584 64.6 302.584 
z
" style="fill: #ffffff; opacity: 0.8; stroke: #cccccc; stroke-linejoin: miter"/>
    </g>
    <g id="line2d_27">
     <path d="M 66.6 248.929312 
L 76.6 248.929312 
L 86.6 248.929312 
" style="fill: none; stroke: #0000ff; stroke-width: 1.5; stroke-linecap: square"/>
    </g>
    <g id="text_14">
     <!-- $C_{L} bot$ -->
     <g transform="translate(94.6 252.429312) scale(0.1 -0.1)">
      <defs>
       <path id="DejaVuSans-Oblique-62" d="M 3169 2138 
Q 3169 2591 2961 2847 
Q 2753 3103 2388 3103 
Q 2122 3103 1889 2973 
Q 1656 2844 1484 2597 
Q 1303 2338 1198 1995 
Q 1094 1653 1094 1313 
Q 1094 881 1298 636 
Q 1503 391 1863 391 
Q 2134 391 2365 517 
Q 2597 644 2772 891 
Q 2950 1147 3059 1487 
Q 3169 1828 3169 2138 
z
M 1381 2969 
Q 1594 3256 1914 3420 
Q 2234 3584 2584 3584 
Q 3122 3584 3439 3221 
Q 3756 2859 3756 2241 
Q 3756 1734 3570 1259 
Q 3384 784 3041 416 
Q 2816 172 2522 40 
Q 2228 -91 1906 -91 
Q 1566 -91 1316 65 
Q 1066 222 909 531 
L 806 0 
L 231 0 
L 1178 4863 
L 1753 4863 
L 1381 2969 
z
" transform="scale(0.015625)"/>
       <path id="DejaVuSans-Oblique-6f" d="M 1625 -91 
Q 1009 -91 651 289 
Q 294 669 294 1325 
Q 294 1706 417 2101 
Q 541 2497 738 2766 
Q 1047 3184 1428 3384 
Q 1809 3584 2291 3584 
Q 2888 3584 3255 3212 
Q 3622 2841 3622 2241 
Q 3622 1825 3500 1412 
Q 3378 1000 3181 728 
Q 2875 309 2494 109 
Q 2113 -91 1625 -91 
z
M 891 1344 
Q 891 869 1089 633 
Q 1288 397 1691 397 
Q 2269 397 2648 901 
Q 3028 1406 3028 2181 
Q 3028 2634 2825 2865 
Q 2622 3097 2228 3097 
Q 1903 3097 1650 2945 
Q 1397 2794 1197 2484 
Q 1050 2253 970 1956 
Q 891 1659 891 1344 
z
" transform="scale(0.015625)"/>
       <path id="DejaVuSans-Oblique-74" d="M 2706 3500 
L 2619 3053 
L 1472 3053 
L 1100 1153 
Q 1081 1047 1072 975 
Q 1063 903 1063 863 
Q 1063 663 1183 572 
Q 1303 481 1569 481 
L 2150 481 
L 2053 0 
L 1503 0 
Q 991 0 739 200 
Q 488 400 488 806 
Q 488 878 497 964 
Q 506 1050 525 1153 
L 897 3053 
L 409 3053 
L 500 3500 
L 978 3500 
L 1172 4494 
L 1747 4494 
L 1556 3500 
L 2706 3500 
z
" transform="scale(0.015625)"/>
      </defs>
      <use xlink:href="#DejaVuSans-Oblique-43" transform="translate(0 0.015625)"/>
      <use xlink:href="#DejaVuSans-Oblique-4c" transform="translate(69.824219 -16.390625) scale(0.7)"/>
      <use xlink:href="#DejaVuSans-Oblique-62" transform="translate(111.557617 0.015625)"/>
      <use xlink:href="#DejaVuSans-Oblique-6f" transform="translate(175.03418 0.015625)"/>
      <use xlink:href="#DejaVuSans-Oblique-74" transform="translate(236.21582 0.015625)"/>
     </g>
    </g>
    <g id="line2d_28">
     <path d="M 66.6 263.607437 
L 76.6 263.607437 
L 86.6 263.607437 
" style="fill: none; stroke: #ff0000; stroke-width: 1.5; stroke-linecap: square"/>
    </g>
    <g id="text_15">
     <!-- $C_{D} bot$ -->
     <g transform="translate(94.6 267.107437) scale(0.1 -0.1)">
      <use xlink:href="#DejaVuSans-Oblique-43" transform="translate(0 0.015625)"/>
      <use xlink:href="#DejaVuSans-Oblique-44" transform="translate(69.824219 -16.390625) scale(0.7)"/>
      <use xlink:href="#DejaVuSans-Oblique-62" transform="translate(126.459961 0.015625)"/>
      <use xlink:href="#DejaVuSans-Oblique-6f" transform="translate(189.936523 0.015625)"/>
      <use xlink:href="#DejaVuSans-Oblique-74" transform="translate(251.118164 0.015625)"/>
     </g>
    </g>
    <g id="line2d_29">
     <path d="M 66.6 278.285562 
L 76.6 278.285562 
L 86.6 278.285562 
" style="fill: none; stroke-dasharray: 5.55,2.4; stroke-dashoffset: 0; stroke: #008000; stroke-width: 1.5"/>
    </g>
    <g id="text_16">
     <!-- $C_{L} top$ -->
     <g transform="translate(94.6 281.785562) scale(0.1 -0.1)">
      <defs>
       <path id="DejaVuSans-Oblique-70" d="M 3175 2156 
Q 3175 2616 2975 2859 
Q 2775 3103 2400 3103 
Q 2144 3103 1911 2972 
Q 1678 2841 1497 2591 
Q 1319 2344 1212 1994 
Q 1106 1644 1106 1300 
Q 1106 863 1306 627 
Q 1506 391 1875 391 
Q 2147 391 2380 519 
Q 2613 647 2778 891 
Q 2956 1147 3065 1494 
Q 3175 1841 3175 2156 
z
M 1394 2969 
Q 1625 3272 1939 3428 
Q 2253 3584 2638 3584 
Q 3175 3584 3472 3232 
Q 3769 2881 3769 2247 
Q 3769 1728 3584 1258 
Q 3400 788 3053 416 
Q 2822 169 2531 39 
Q 2241 -91 1919 -91 
Q 1547 -91 1294 64 
Q 1041 219 916 525 
L 556 -1331 
L -19 -1331 
L 922 3500 
L 1497 3500 
L 1394 2969 
z
" transform="scale(0.015625)"/>
      </defs>
      <use xlink:href="#DejaVuSans-Oblique-43" transform="translate(0 0.78125)"/>
      <use xlink:href="#DejaVuSans-Oblique-4c" transform="translate(69.824219 -15.625) scale(0.7)"/>
      <use xlink:href="#DejaVuSans-Oblique-74" transform="translate(111.557617 0.78125)"/>
      <use xlink:href="#DejaVuSans-Oblique-6f" transform="translate(150.766602 0.78125)"/>
      <use xlink:href="#DejaVuSans-Oblique-70" transform="translate(211.948242 0.78125)"/>
     </g>
    </g>
    <g id="line2d_30">
     <path d="M 66.6 292.984 
L 76.6 292.984 
L 86.6 292.984 
" style="fill: none; stroke-dasharray: 5.55,2.4; stroke-dashoffset: 0; stroke: #000000; stroke-width: 1.5"/>
    </g>
    <g id="text_17">
     <!-- $C_{D} top$ -->
     <g transform="translate(94.6 296.484) scale(0.1 -0.1)">
      <use xlink:href="#DejaVuSans-Oblique-43" transform="translate(0 0.78125)"/>
      <use xlink:href="#DejaVuSans-Oblique-44" transform="translate(69.824219 -15.625) scale(0.7)"/>
      <use xlink:href="#DejaVuSans-Oblique-74" transform="translate(126.459961 0.78125)"/>
      <use xlink:href="#DejaVuSans-Oblique-6f" transform="translate(165.668945 0.78125)"/>
      <use xlink:href="#DejaVuSans-Oblique-70" transform="translate(226.850586 0.78125)"/>
     </g>
    </g>
   </g>
  </g>
 </g>
 <defs>
  <clipPath id="p47031f31f9">
   <rect x="57.6" y="41.472" width="357.12" height="266.112"/>
  </clipPath>
 </defs>
</svg>
