<?xml version="1.0" encoding="UTF-8" standalone="no"?>
<!-- Created with Inkscape (http://www.inkscape.org/) -->

<svg
   version="1.1"
   id="svg48"
   width="550"
   height="663"
   viewBox="0 0 550 663"
   sodipodi:docname="strouhal_number_nakamura.png"
   inkscape:version="1.2.2 (1:1.2.2+202212051552+b0a8486541)"
   xmlns:inkscape="http://www.inkscape.org/namespaces/inkscape"
   xmlns:sodipodi="http://sodipodi.sourceforge.net/DTD/sodipodi-0.dtd"
   xmlns="http://www.w3.org/2000/svg"
   xmlns:svg="http://www.w3.org/2000/svg">
  <defs
     id="defs52" />
  <sodipodi:namedview
     id="namedview50"
     pagecolor="#505050"
     bordercolor="#ffffff"
     borderopacity="1"
     inkscape:showpageshadow="0"
     inkscape:pageopacity="0"
     inkscape:pagecheckerboard="1"
     inkscape:deskcolor="#505050"
     showgrid="false"
     inkscape:zoom="1.188537"
     inkscape:cx="275.54886"
     inkscape:cy="331.92069"
     inkscape:window-width="1846"
     inkscape:window-height="1016"
     inkscape:window-x="0"
     inkscape:window-y="0"
     inkscape:window-maximized="1"
     inkscape:current-layer="g54" />
  <g
     inkscape:groupmode="layer"
     inkscape:label="Image"
     id="g54">
    <path
       style="fill:#000000"
       d="m 42.654976,661.75 c 0.639806,-1.03627 3.108107,-0.94236 3.77939,0.1438 0.303819,0.49159 -0.526441,0.82909 -1.845024,0.75 -1.318583,-0.0791 -2.189048,-0.4813 -1.934366,-0.8938 z M 161,662 c 0,-0.55 0.45,-1 1,-1 0.55,0 1,0.45 1,1 0,0.55 -0.45,1 -1,1 -0.55,0 -1,-0.45 -1,-1 z m 94.5,0 c -0.33992,-0.55 0.0835,-1 0.94098,-1 0.85746,0 1.55902,0.45 1.55902,1 0,0.55 -0.42344,1 -0.94098,1 -0.51754,0 -1.2191,-0.45 -1.55902,-1 z m 19,0 c -0.35191,-0.5694 0.50929,-1 2,-1 1.49071,0 2.35191,0.4306 2,1 -0.33992,0.55 -1.23992,1 -2,1 -0.76008,0 -1.66008,-0.45 -2,-1 z m 10,0 c -0.35191,-0.5694 0.50929,-1 2,-1 1.49071,0 2.35191,0.4306 2,1 -0.33992,0.55 -1.23992,1 -2,1 -0.76008,0 -1.66008,-0.45 -2,-1 z m 50.5,0 c 0,-0.55 0.47656,-1 1.05902,-1 0.58246,0 0.7809,0.45 0.44098,1 -0.33992,0.55 -0.81648,1 -1.05902,1 C 335.19844,663 335,662.55 335,662 Z m 61.5,0 c -0.33992,-0.55 0.0835,-1 0.94098,-1 0.85746,0 1.55902,0.45 1.55902,1 0,0.55 -0.42344,1 -0.94098,1 -0.51754,0 -1.2191,-0.45 -1.55902,-1 z m 6.5,0 c 0,-0.55 0.45,-1 1,-1 0.55,0 1,0.45 1,1 0,0.55 -0.45,1 -1,1 -0.55,0 -1,-0.45 -1,-1 z m 23.5,0 c -0.33992,-0.55 0.0835,-1 0.94098,-1 0.85746,0 1.55902,0.45 1.55902,1 0,0.55 -0.42344,1 -0.94098,1 -0.51754,0 -1.2191,-0.45 -1.55902,-1 z m 54.1587,-0.25 c 0.58997,-0.9633 6.48163,-0.94821 8.00421,0.0205 0.63961,0.40693 -1.00303,0.73754 -3.65031,0.73469 -2.64728,-0.003 -4.60653,-0.3427 -4.3539,-0.7552 z M 260,656.02378 c 1.91032,-1.20426 4.15784,-13.76408 2.58006,-14.41815 -0.59403,-0.24625 0.49494,-0.47637 2.41994,-0.51137 1.95388,-0.0355 2.97241,0.27178 2.30568,0.69566 -1.24418,0.79099 -3.23888,8.06165 -3.28123,11.96008 -0.0199,1.82638 0.52658,2.25 2.90223,2.25 1.94642,0 3.07985,-0.58614 3.38399,-1.75 0.34415,-1.31691 0.48604,-1.19317 0.57333,0.5 0.10864,2.10723 -0.28059,2.24903 -6.134,2.23469 -4.3226,-0.0106 -5.78742,-0.30692 -4.75,-0.96091 z M 276,649 c 2.21228,-4.4 4.24732,-8 4.52232,-8 0.275,0 -1.31004,3.6 -3.52232,8 -2.21228,4.4 -4.24732,8 -4.52232,8 -0.275,0 1.31004,-3.6 3.52232,-8 z m 4,7.02378 c 1.91949,-1.21004 4.14884,-13.73362 2.58006,-14.4937 -0.59403,-0.28781 1.48016,-0.37756 4.60932,-0.19944 6.79981,0.38706 8.81062,1.80435 8.81062,6.21002 0,4.67095 -0.84315,6.32687 -4.07152,7.99633 -3.15694,1.63251 -14.47888,2.09455 -11.92848,0.48679 z m 11.92742,-2.65864 c 2.75524,-3.50271 2.68925,-7.8198 -0.14993,-9.80844 -4.00246,-2.80343 -5.51344,-2.01517 -6.69463,3.49252 -1.714,7.99214 -1.51645,8.95078 1.84456,8.95078 1.97147,0 3.60422,-0.86041 5,-2.63486 z M 165.97525,617.4349 C 163.68455,611.40991 165.90437,604 170,604 c 4.09421,0 6.64656,9.05485 3.96482,14.06574 -1.61389,3.01558 -6.75762,2.60944 -7.98957,-0.63084 z m 6.41776,-0.0167 C 172.72686,616.54823 173,614.11003 173,612 c 0,-5.0667 -0.82856,-7 -3,-7 -2.17144,0 -3,1.9333 -3,7 0,5.0667 0.82856,7 3,7 0.98231,0 2.05917,-0.7118 2.39301,-1.58179 z m 13.19109,0.94035 c -0.51732,-1.34811 -0.36757,-1.42375 0.83797,-0.42324 0.80731,0.67001 2.50511,1.07116 3.77289,0.89144 1.82187,-0.25827 2.30504,-0.9556 2.30504,-3.32676 0,-2.65367 -0.37519,-3.03618 -3.25,-3.31336 -3.06322,-0.29535 -3.25,-0.5396 -3.25,-4.25 0,-3.92608 0.0107,-3.93664 4,-3.93664 2.2,0 4,0.45 4,1 0,0.55 -1.575,1 -3.5,1 -3.06667,0 -3.5,0.30952 -3.5,2.5 0,2.07143 0.48,2.5 2.8,2.5 3.3311,0 5.2,1.61732 5.2,4.5 0,2.97626 -1.89385,4.5 -5.59301,4.5 -2.03803,0 -3.42085,-0.59375 -3.82289,-1.64144 z m 78.6659,0.95211 c 1.41483,-0.36973 1.75,-1.57646 1.75,-6.30066 0,-3.21384 -0.45444,-5.99482 -1.00987,-6.17997 -0.55543,-0.18514 -0.10543,-0.90145 1,-1.5918 1.94549,-1.21498 2.00987,-1.01703 2.00987,6.17996 0,6.24021 0.28125,7.50865 1.75,7.89247 0.9625,0.25153 -0.275,0.45733 -2.75,0.45733 -2.475,0 -3.7125,-0.2058 -2.75,-0.45733 z m 18.72525,-1.87577 C 280.68455,611.40991 282.90437,604 287,604 c 4.09421,0 6.64656,9.05485 3.96482,14.06574 -1.61389,3.01558 -6.75762,2.60944 -7.98957,-0.63084 z m 6.41776,-0.0167 C 289.72686,616.54823 290,614.11003 290,612 c 0,-5.0667 -0.82856,-7 -3,-7 -2.17144,0 -3,1.9333 -3,7 0,5.0667 0.82856,7 3,7 0.98231,0 2.05917,-0.7118 2.39301,-1.58179 z m 72.85699,1.89246 c 1.41483,-0.36973 1.75,-1.57646 1.75,-6.30066 0,-3.77913 -0.44063,-5.99022 -1.24734,-6.25912 -0.76874,-0.25625 -0.38505,-0.87726 1,-1.61852 2.23646,-1.19691 2.24734,-1.16661 2.24734,6.25912 0,6.26565 0.28054,7.53518 1.75,7.91918 0.9625,0.25153 -0.275,0.45733 -2.75,0.45733 -2.475,0 -3.7125,-0.2058 -2.75,-0.45733 z m 18.3341,-0.95211 c -0.51732,-1.34811 -0.36757,-1.42375 0.83797,-0.42324 0.80731,0.67001 2.50511,1.07116 3.77289,0.89144 1.82187,-0.25827 2.30504,-0.9556 2.30504,-3.32676 0,-2.65367 -0.37519,-3.03618 -3.25,-3.31336 -3.06322,-0.29535 -3.25,-0.5396 -3.25,-4.25 0,-3.92608 0.0107,-3.93664 4,-3.93664 2.2,0 4,0.45 4,1 0,0.55 -1.575,1 -3.5,1 -3.06667,0 -3.5,0.30952 -3.5,2.5 0,2.07143 0.48,2.5 2.8,2.5 3.3311,0 5.2,1.61732 5.2,4.5 0,2.97626 -1.89385,4.5 -5.59301,4.5 -2.03803,0 -3.42085,-0.59375 -3.82289,-1.64144 z M 458,619.3712 c 0,-0.34584 1.575,-2.37214 3.5,-4.50288 3.80628,-4.21309 4.3815,-6.89185 1.9188,-8.93571 -1.28205,-1.064 -1.96482,-1.07271 -3.60881,-0.046 -1.65887,1.03598 -1.94811,1.02504 -1.59047,-0.0602 0.58139,-1.76414 4.1759,-2.22036 6.7289,-0.85404 3.1732,1.69825 2.528,5.33677 -1.66926,9.41356 L 459.55832,618 h 3.72084 c 2.04646,0 3.72084,0.45 3.72084,1 0,0.55 -2.025,1 -4.5,1 -2.475,0 -4.5,-0.28296 -4.5,-0.6288 z m 21.03518,-1.30546 c -1.45467,-2.71808 -1.2892,-10.33609 0.27085,-12.46958 1.79523,-2.45512 5.82863,-1.69592 7.45811,1.40384 1.48415,2.82328 1.03474,9.33248 -0.79669,11.53922 -1.72659,2.08042 -5.71111,1.80827 -6.93227,-0.47348 z m 6.32402,-2.82261 c 1.27797,-4.456 -0.2939,-9.74313 -2.89663,-9.74313 -1.66893,0 -2.00847,0.80509 -2.26937,5.3808 -0.16873,2.95944 -0.0576,6.0302 0.24698,6.82391 0.94118,2.45267 3.94003,0.95199 4.91902,-2.46158 z m -424.324016,1.82261 c -1.454672,-2.71808 -1.289206,-10.33609 0.270844,-12.46958 1.795229,-2.45512 5.828628,-1.69592 7.458112,1.40384 1.484149,2.82328 1.034742,9.33248 -0.796689,11.53922 -1.726595,2.08042 -5.71111,1.80827 -6.932267,-0.47348 z m 6.324018,-2.82261 c 1.277964,-4.456 -0.293899,-9.74313 -2.896629,-9.74313 -1.668929,0 -2.008476,0.80509 -2.269369,5.3808 -0.168738,2.95944 -0.0576,6.0302 0.246976,6.82391 0.941178,2.45267 3.940025,0.95199 4.919022,-2.46158 z M 179,612 c 0,-0.55 0.45,-1 1,-1 0.55,0 1,0.45 1,1 0,0.55 -0.45,1 -1,1 -0.55,0 -1,-0.45 -1,-1 z m 97,0 c 0,-0.55 0.45,-1 1,-1 0.55,0 1,0.45 1,1 0,0.55 -0.45,1 -1,1 -0.55,0 -1,-0.45 -1,-1 z m 98,0 c 0,-0.55 0.45,-1 1,-1 0.55,0 1,0.45 1,1 0,0.55 -0.45,1 -1,1 -0.55,0 -1,-0.45 -1,-1 z m 97,0 c 0,-0.55 0.675,-1 1.5,-1 0.825,0 1.5,0.45 1.5,1 0,0.55 -0.675,1 -1.5,1 -0.825,0 -1.5,-0.45 -1.5,-1 z m -42,-17.71209 c -10.725,-0.15898 -93.525,-0.4013 -184,-0.53848 L 80.5,593.5 l 0.205644,-49 C 80.818748,517.55 81.212914,389.525 81.581567,260 L 82.251846,24.5 H 276.15029 470.04874 l -0.68769,180.62741 -0.68769,180.62741 2.1404,1.14551 c 3.41582,1.82809 4.55576,4.79335 3.14866,8.1904 -0.66278,1.6001 -1.60047,2.90927 -2.08374,2.90927 -1.17785,0 -1.11756,3.68513 0.0974,5.95536 0.77237,1.44319 0.56365,1.93173 -1,2.34064 -1.85097,0.48404 -1.97611,1.41492 -1.97611,14.70009 0,12.72335 0.19693,14.35423 1.9131,15.84362 3.30088,2.86468 3.51572,5.82238 0.63235,8.70574 -1.90607,1.90608 -3.16133,2.4002 -4.8121,1.89426 C 463.08658,446.32203 462,444.94339 462,441.43409 c 0,-2.56296 0.62771,-3.69134 2.75,-4.94337 l 2.75,-1.62236 -0.30138,-14.43418 c -0.21453,-10.27455 -0.64679,-14.47807 -1.5,-14.58649 -0.65924,-0.0838 -1.64862,-0.25687 -2.19862,-0.38465 -0.55,-0.12779 -2.9125,-0.28425 -5.25,-0.34769 C 455.9125,405.05191 454,404.55 454,404 c 0,-0.55 1.9125,-1.04024 4.25,-1.08942 l 4.25,-0.0894 -4.66463,-1.2852 C 453.6464,400.38183 436.62322,398.38138 434.75,398.82313 434.3375,398.92041 434,398.325 434,397.5 c 0,-1.74158 1.59958,-1.84401 9.06634,-0.58059 2.98851,0.50567 8.47116,1.1932 12.18366,1.52785 6.5367,0.58921 6.74986,0.53646 6.74572,-1.66941 -0.004,-2.04847 -0.53253,-2.30311 -5.25,-2.5287 C 448.45942,393.85291 438,391.9186 438,390.78242 c 0,-0.66567 1.87952,-0.8071 5.25,-0.39505 16.58077,2.02705 18.49196,2.001 19.21013,-0.26176 0.37143,-1.17025 1.54484,-2.59309 2.60759,-3.16186 C 466.92377,385.97043 467,384.47557 467,349.07181 467,307.28417 467.89215,311 457.8592,311 c -3.73018,0 -5.74489,-0.37594 -5.3592,-1 0.33992,-0.55 3.70308,-1 7.47369,-1 h 6.85566 l 0.37033,-6.75 c 0.20368,-3.7125 0.4964,-24.6375 0.65048,-46.5 l 0.28015,-39.75 -5.81515,-0.0997 c -9.79921,-0.16797 -11.96331,-1.68709 -2.56516,-1.80064 L 468,214 v -45.95794 -45.95793 l -7.75,-0.34082 -7.75,-0.34082 7.75,-0.20125 L 468,121 V 74.144605 27.28921 l -6.75,-0.637496 c -3.7125,-0.350623 -25.3125,-0.640695 -48,-0.644605 L 372,26 v 7.440983 c 0,4.092541 -0.45,7.719098 -1,8.059017 -0.63511,0.392518 -1,-2.326245 -1,-7.450871 V 25.980223 L 323.25,26.240112 276.5,26.5 276.20555,33.781548 C 275.83004,43.067874 274,42.370422 274,32.940983 V 26 h -47 -47 v 7.559017 c 0,4.784701 -0.36702,7.332186 -1,6.940983 -0.55,-0.339919 -1,-3.812432 -1,-7.716697 V 25.68464 l -46.59639,0.587406 c -25.62802,0.323074 -46.722728,0.73153 -46.877133,0.907681 -0.747755,0.853065 -1.570659,70.737542 -0.959308,81.468563 l 0.699319,12.27513 8.116756,0.33475 8.116756,0.33474 -8.25,0.20354 L 84,122 v 46 46 h 7.940983 c 4.367541,0 8.219097,0.45 8.559017,1 0.39366,0.63695 -2.492945,1 -7.95097,1 h -8.569004 l 0.259987,46.25 0.259987,46.25 7.25,0.29381 C 95.7375,308.9554 99,309.49819 99,310 c 0,0.50181 -3.2625,1.0446 -7.25,1.20619 L 84.5,311.5 84.239912,357.25 83.979825,403 h 7.010087 C 94.996637,403 98,403.42843 98,404 c 0,0.57582 -3.112796,1 -7.338389,1 h -7.338389 l -0.659934,32.25 c -0.362964,17.7375 -0.660689,38.6625 -0.661611,46.5 L 82,498 h 7.5 c 4.125,0 7.5,0.35601 7.5,0.79113 0,0.43512 -3.2625,0.77262 -7.25,0.75 L 82.5,499.5 l -0.259956,46.20216 -0.259955,46.20216 16.259955,0.29784 C 107.18302,592.36597 128.9,592.5 146.5,592.5 h 32 l 0.54537,-7.5 0.54536,-7.5 0.45464,7.5 0.45463,7.5 46.75,0.25989 46.75,0.25989 v -7.95087 c 0,-4.37298 0.45,-8.22899 1,-8.56891 0.63695,-0.39366 1,2.49291 1,7.95087 v 8.56891 l 46.75,-0.25989 46.75,-0.25989 0.29381,-7.25 C 370.1819,575.6736 372,575.8877 372,585.50979 v 7.50979 l 47.25,-0.25979 47.25,-0.25979 0.26006,-45.7028 0.26005,-45.7028 -3.26005,-0.54788 C 461.96703,500.24518 458.025,499.85718 455,499.6843 c -3.68467,-0.21059 -2.61198,-0.37539 3.25,-0.49932 L 467,499 l 0.0997,-22.25 c 0.0548,-12.2375 0.45995,-23.375 0.9003,-24.75 1.19482,-3.73081 1.28322,15.47855 0.53844,117 l -0.18707,25.5 -9.92569,0.0385 C 452.96656,594.55965 439.725,594.4469 429,594.28791 Z m 41.42857,-149.85934 c 2.24568,-2.24568 1.94684,-4.13648 -0.95419,-6.03732 -2.36506,-1.54964 -2.65114,-1.54126 -4.5,0.13194 -2.56596,2.32216 -2.49571,3.99825 0.24813,5.92011 2.76806,1.93883 3.25388,1.93745 5.20606,-0.0147 z M 441,434.1067 c -18.39146,-6.44692 -28.55826,-10.43068 -50.2957,-19.70788 -11.26364,-4.80715 -15.32191,-6.11638 -17,-5.48435 -4.48201,1.6881 -9.56021,-2.64239 -8.18386,-6.97888 0.89343,-2.81495 4.95742,-5.23609 7.45724,-4.44267 2.55036,0.80945 5.43092,4.9999 4.71659,6.86141 -1.18004,3.07513 47.70273,23.77319 78.55573,33.26225 2.6125,0.8035 4.75,1.66847 4.75,1.92216 0,1.20118 -4.78314,-0.0979 -20,-5.43204 z m -66.98375,-27.91877 c 1.61651,-1.30898 2.04953,-2.40533 1.55963,-3.94885 -0.94773,-2.98603 -4.27268,-3.82344 -6.64754,-1.67423 -2.35963,2.13544 -2.41356,3.24151 -0.27335,5.60641 2.05674,2.27267 2.57323,2.27428 5.36126,0.0167 z m -330.981066,3.87781 c -1.454672,-2.71808 -1.289206,-10.33609 0.270844,-12.46958 1.795229,-2.45512 5.828628,-1.69592 7.458112,1.40384 1.484149,2.82328 1.034742,9.33248 -0.796689,11.53922 -1.726595,2.08042 -5.71111,1.80827 -6.932267,-0.47348 z m 6.324018,-2.82261 c 1.277964,-4.456 -0.293899,-9.74313 -2.896629,-9.74313 -1.668929,0 -2.008476,0.80509 -2.269369,5.3808 -0.168738,2.95944 -0.0576,6.0302 0.246976,6.82391 0.941178,2.45267 3.940025,0.95199 4.919022,-2.46158 z M 64.25,411.31067 c 1.414833,-0.36973 1.75,-1.57646 1.75,-6.30066 0,-3.21384 -0.454441,-5.99482 -1.009869,-6.17997 -0.555428,-0.18514 -0.105428,-0.90145 1,-1.5918 C 67.935622,396.02326 68,396.22121 68,403.4182 c 0,6.24021 0.281251,7.50865 1.75,7.89247 0.9625,0.25153 -0.275,0.45733 -2.75,0.45733 -2.475,0 -3.7125,-0.2058 -2.75,-0.45733 z M 55,404 c 0,-0.55 0.675,-1 1.5,-1 0.825,0 1.5,0.45 1.5,1 0,0.55 -0.675,1 -1.5,1 -0.825,0 -1.5,-0.45 -1.5,-1 z m 370.54881,-4.40848 c 0.45773,-2.43989 0.3672,-3.65764 -0.24384,-3.28 -0.53452,0.33035 -5.20931,-0.29706 -10.38841,-1.39424 -5.17911,-1.09718 -10.88999,-2.26307 -12.69084,-2.59086 -3.11434,-0.56687 -4.96043,-1.92504 -3.96698,-2.9185 0.25246,-0.25245 5.05907,0.70385 10.68135,2.12512 5.62228,1.42127 11.33478,2.44527 12.69445,2.27555 2.16624,-0.27041 2.31085,-0.52256 1.16878,-2.03792 -1.28106,-1.6998 -18.65176,-5.93804 -25.27831,-6.16761 -3.49637,-0.12112 -4.59924,2.55245 -2.16325,5.24418 0.9175,1.01383 1.21145,2.22529 0.72926,3.00549 -0.60445,0.97802 -1.30557,0.62374 -2.78513,-1.40736 l -1.97732,-2.71443 -2.15372,2.31176 c -2.50226,2.68585 -3.85093,2.08909 -2.20963,-0.97772 1.45237,-2.71377 0.56875,-4.06498 -2.65828,-4.06498 -3.18706,0 -22.30481,-6.72427 -24.17209,-8.50202 -1.12024,-1.06654 -1.93887,-1.05998 -4.56317,0.0365 -3.6952,1.54395 -7.31277,0.32336 -9.05197,-3.05421 -0.79678,-1.54735 -2.00351,-1.96583 -5.51971,-1.91413 -7.58917,0.11158 -20.40723,-1.61812 -21.3121,-2.87591 -0.50628,-0.70374 -0.62772,0.13817 -0.29709,2.05975 0.66725,3.87805 -0.53771,4.20094 -2.79885,0.75 -1.97866,-3.01981 -3.68673,-3.17915 -5.35989,-0.5 -1.82824,2.92748 -3.27011,2.44021 -2.60594,-0.88066 0.52737,-2.63686 0.36599,-2.84049 -1.9068,-2.40602 -1.85647,0.35489 -2.35718,0.95555 -1.9845,2.38066 0.62269,2.38117 0.90062,2.40858 -6.79522,-0.6702 -3.67035,-1.46836 -8.34767,-2.55753 -10.8766,-2.53275 -2.44035,0.0239 -5.02252,-0.44247 -5.73817,-1.0364 -1.71306,-1.42171 -3.08348,1.78673 -1.45762,3.41259 0.62303,0.62303 1.1166,1.83028 1.09682,2.68278 -0.0243,1.04867 -0.787,0.63198 -2.35797,-1.28829 l -2.32201,-2.8383 -2.03595,2.5883 c -2.5805,3.28057 -3.54018,3.32343 -2.06801,0.0923 0.94092,-2.0651 0.82153,-2.84477 -0.69165,-4.51683 -1.19074,-1.31574 -1.92295,-3.89304 -2.09845,-7.38631 -0.22992,-4.57623 0.0857,-5.69923 2.14603,-7.63477 2.05306,-1.92875 2.90701,-2.12909 5.68979,-1.33489 2.65638,0.75814 3.44897,1.63584 4.20055,4.6516 0.74675,2.99645 1.39053,3.71714 3.3204,3.71714 3.68784,0 19.63404,3.1982 20.70323,4.15228 1.49048,1.33001 -2.07005,1.00678 -12.79668,-1.16169 -12.08736,-2.44356 -11.96546,-2.44235 -10.7156,-0.10696 1.15665,2.16122 5.94671,3.35645 14.58079,3.63823 3.31018,0.10803 7.02268,0.51513 8.25,0.90467 1.95764,0.62133 2.23149,0.35321 2.23149,-2.18483 0,-3.54669 3.65305,-7.2417 7.15946,-7.2417 2.9792,0 5.84054,2.80315 5.84054,5.72175 0,2.5047 0.38748,2.66163 14.35871,5.81545 10.59945,2.39268 11.19434,2.42795 12.44484,0.7378 0.7223,-0.97625 1.12098,-2.80534 0.88596,-4.06463 -0.23503,-1.2593 -0.14881,-2.14486 0.19159,-1.96792 5.92045,3.0776 6.07693,3.1055 7.94358,1.41621 2.47362,-2.23859 3.47781,-2.09238 2.18754,0.3185 -1.65477,3.09198 1.12444,8.78918 4.67188,9.57706 1.54875,0.34397 4.1659,0.99709 5.8159,1.45138 1.65,0.45429 4.8,1.11287 7,1.46351 2.2,0.35064 4.75121,0.85734 5.66935,1.126 1.04104,0.30462 1.89513,-0.2229 2.26922,-1.40156 0.8467,-2.66772 4.50867,-4.12724 7.54087,-3.0055 3.41481,1.26329 6.02056,3.78731 6.02056,5.83173 0,1.87659 9.48211,4.65844 19.35008,5.6769 4.85853,0.50145 5.3946,0.34194 6.97939,-2.07676 C 424.6168,382.6552 425.88501,382 428.40061,382 c 5.82793,0 8.4263,5.88046 5.5007,12.44884 -1.28834,2.89249 -1.48872,4.45357 -0.74906,5.83565 1.33844,2.5009 0.0375,3.6955 -1.59425,1.46394 -1.60087,-2.18931 -2.41105,-2.19139 -4.81886,-0.0123 -1.86772,1.69026 -1.89913,1.63367 -1.19033,-2.14456 z M 382,383 c 0,-0.55 -0.39375,-1 -0.875,-1 -0.48125,0 -2.39375,-0.24592 -4.25,-0.54648 l -3.375,-0.54648 3,1.46526 c 3.6093,1.76286 5.5,1.97864 5.5,0.6277 z M 278.02292,365.97708 c 2.73694,-2.73694 1.07636,-6.24505 -2.73932,-5.78701 -3.81503,0.45796 -5.1597,3.18437 -2.83657,5.75139 2.32036,2.56398 3.04291,2.5686 5.57589,0.0356 z M 360,399.84509 c -5.92181,-3.63335 -34.08623,-17.45417 -41.73768,-20.48149 -3.98072,-1.57498 -7.24322,-3.42043 -7.25,-4.10099 -0.008,-0.82577 1.90045,-0.38055 5.73768,1.33837 3.1625,1.41666 6.74401,2.96782 7.95891,3.44702 1.21491,0.47919 5.71491,2.60958 10,4.73419 22.15095,10.98277 30.27825,15.42957 29.75313,16.27923 -0.73571,1.1904 -0.38249,1.28669 -4.46204,-1.21633 z M 253,371.97321 c 0,-0.60758 0.48766,-2.0159 1.08369,-3.12959 0.87459,-1.63418 0.50076,-3.18255 -1.93741,-8.02458 -2.54033,-5.04491 -2.84464,-6.38696 -1.91225,-8.43334 2.18743,-4.80088 10.19352,-4.36255 12.09005,0.66192 0.61395,1.62655 1.9172,3.21157 2.8961,3.52226 C 267.85225,357.40527 267.37964,359 264.5,359 c -3.71122,0 -3.34956,3.50819 0.5,4.85016 4.24389,1.47943 3.72269,2.44773 -0.89737,1.66718 -4.707,-0.79524 -5.81592,0.4644 -3.50873,3.98562 2.12423,3.24199 0.85393,4.7422 -1.44018,1.70084 l -1.70949,-2.26632 -2.22211,2.07021 C 253.99995,372.14631 253,372.5808 253,371.97321 Z m -9.94278,-3.40426 c -0.94089,-1.1337 -1.63991,-1.222 -2.99157,-0.37788 -2.56478,1.60174 -6.95556,0.14466 -8.27224,-2.74514 -0.9011,-1.9777 -0.81432,-3.17886 0.41605,-5.75898 1.42557,-2.98945 1.41305,-3.43491 -0.15079,-5.36617 -2.65473,-3.27845 -5.29693,-3.30735 -7.30867,-0.0799 -2.58397,4.14543 -2.25026,5.75916 1.19098,5.75916 1.61754,0 3.2191,0.45 3.55902,1 0.34845,0.56381 -0.46184,1 -1.85765,1 -1.36163,0 -2.67244,0.5625 -2.91292,1.25 -0.32014,0.91525 -0.96849,0.77918 -2.42102,-0.5081 -1.89871,-1.6827 -2.06172,-1.67197 -3.80108,0.25 -3.312,3.65972 -8.75046,1.87188 -10.04944,-3.30367 -0.77128,-3.07303 -4.43602,-3.83861 -4.49116,-0.93823 -0.0285,1.49634 -0.30534,1.42386 -1.91029,-0.5 C 199.7399,355.47315 198.3881,355.40632 197,358 c -1.23562,2.30878 -3.5159,2.74612 -2.60699,0.5 0.33385,-0.825 0.90846,-2.24882 1.27693,-3.16404 0.42012,-1.04353 0.2765,-1.42089 -0.38513,-1.01198 C 194.01847,355.10662 188,353.15774 188,351.96505 c 0,-0.46162 1.62667,-0.57534 3.61483,-0.2527 3.45499,0.56066 3.58069,0.4805 2.84282,-1.81287 -0.4246,-1.31972 -0.77628,-2.91646 -0.7815,-3.54832 -0.0102,-1.23873 -7.54051,-2.82141 -8.55965,-1.79904 -0.33908,0.34015 -0.54609,2.89718 -0.46004,5.68228 l 0.15646,5.06382 -2.30739,-2.89375 c -2.21415,-2.7768 -2.38531,-2.82324 -4.23521,-1.14911 -2.45003,2.21725 -5.09923,2.44834 -3.30667,0.28844 1.6547,-1.9938 0.38539,-3.66928 -2.27494,-3.00288 -1.21229,0.30367 -3.08094,-0.12662 -4.18871,-0.96452 -1.92207,-1.45385 -1.87673,-1.51403 1.16352,-1.5446 2.94213,-0.0296 3.11311,-0.22028 2.44323,-2.72503 -0.46476,-1.73783 -1.64221,-2.9398 -3.31913,-3.38828 -2.43298,-0.65068 -2.63861,-0.43091 -3.22172,3.44323 -0.34257,2.27606 -0.62574,5.48828 -0.62927,7.13828 l -0.006,3 -1.71511,-2.21067 c -1.82172,-2.34809 -4.0505,-2.50075 -6.52519,-0.44694 -0.93946,0.77968 -1.74104,0.8839 -2.11719,0.27527 -0.33294,-0.53871 -0.14679,-1.26287 0.41367,-1.60925 0.68497,-0.42333 0.69031,-1.24398 0.0163,-2.50336 -0.55148,-1.03046 -1.0027,-3.46232 -1.0027,-5.40412 0,-2.51577 -0.57913,-3.8405 -2.01484,-4.60887 -1.61039,-0.86186 -2.14323,-0.7437 -2.65449,0.58861 -0.39366,1.02586 -0.003,2.02299 1.01484,2.59281 2.06449,1.15535 2.19814,3.26049 0.15449,2.43351 -0.825,-0.33385 -2.175,-0.88013 -3,-1.21398 -1.11926,-0.45292 -1.51331,0.1182 -1.55245,2.25 l -0.0524,2.85699 -1.56952,-2.25 c -1.96219,-2.81291 -3.46889,-2.85143 -5.16714,-0.1321 -1.7345,2.77737 -3.84846,1.03993 -2.28626,-1.87906 C 138.1344,339.88035 137.46036,339 134.39235,339 c -1.25087,0 -2.57335,-0.48384 -2.93883,-1.07521 -0.4272,-0.69122 -1.48246,-0.30678 -2.95487,1.07648 -3.16855,2.97669 -7.35515,2.347 -9.98139,-1.50127 -1.12604,-1.65 -2.94057,-3.15011 -4.0323,-3.33357 -1.09173,-0.18347 -2.43496,-0.80055 -2.98496,-1.3713 -0.68773,-0.71367 0.11868,-0.83937 2.58245,-0.40254 2.84146,0.50379 3.95942,0.21862 5.40499,-1.37871 2.33197,-2.5768 6.68708,-2.5835 9.01256,-0.0139 0.99549,1.1 2.61787,2 3.6053,2 0.98742,0 2.23604,0.7875 2.77469,1.75 0.87168,1.55757 1.0918,1.4543 2.00182,-0.9392 2.05433,-5.40318 6.90105,-6.18178 11.27204,-1.8108 1.65,1.65 3.23792,3 3.52872,3 0.29079,0 1.8657,-1.125 3.4998,-2.5 1.63409,-1.375 4.06155,-2.5 5.39436,-2.5 2.64457,0 6.42327,3.17261 6.42327,5.39301 0,2.11812 2.74196,2.7355 9.00315,2.02712 5.29512,-0.59907 5.8151,-0.46665 7.73082,1.9688 1.12963,1.43609 2.80619,2.61107 3.72569,2.61107 0.9195,0 2.52261,0.45533 3.56245,1.01183 1.41631,0.75799 2.6612,0.54323 4.96206,-0.85601 3.74194,-2.27561 7.5945,-1.72849 9.62243,1.36652 1.6487,2.51624 1.06307,6.677 -1.20471,8.55909 -2.14013,1.77614 -1.69559,2.64846 1.59581,3.13154 4.04696,0.59397 7.26149,-2.33209 6.38751,-5.81429 -0.83916,-3.34348 2.88193,-7.39868 6.7891,-7.39868 2.99763,0 6.82569,3.04345 6.82569,5.42668 0,2.56957 3.43994,2.21237 6.15121,-0.63873 1.48995,-1.5668 3.72162,-2.78795 5.09501,-2.78795 4.47708,0 7.87476,6.13508 5.29027,9.55246 -2.1568,2.85186 -1.89946,4.35522 0.63218,3.69318 1.8248,-0.4772 2.04466,-0.26415 1.38655,1.34362 -1.67527,4.0927 -1.77569,5.63027 -0.52086,7.97494 1.50491,2.81195 0.83443,4.18755 -0.97714,2.00475 z m -3.23645,-2.85299 c 2.69326,-3.24518 -1.06896,-7.72387 -4.80752,-5.72305 -1.92846,1.03208 -2.75642,4.93058 -1.34658,6.34042 1.12903,1.12903 5.02945,0.73775 6.1541,-0.61737 z m -22.02021,-5.80156 c 0.36041,-3.10052 -1.95625,-5.31715 -4.66019,-4.45895 -2.48751,0.7895 -3.10522,2.43204 -2.01636,5.36169 1.26533,3.40443 6.25428,2.72987 6.67655,-0.90274 z m -54.41964,-15.14564 c 0.83532,-1.33262 0.69466,-2.12175 -0.61093,-3.42734 -1.39977,-1.39977 -2.13936,-1.49415 -4.23305,-0.5402 -2.66539,1.21443 -3.46035,4.64584 -1.28694,5.555 2.20385,0.92189 5.01412,0.19424 6.13092,-1.58746 z M 245,363 c 0,-0.55 1.35,-1 3,-1 1.65,0 3,0.45 3,1 0,0.55 -1.35,1 -3,1 -1.65,0 -3,-0.45 -3,-1 z m 0.75,-7.75739 c -0.9625,-0.21409 -1.75,-0.80626 -1.75,-1.31593 0,-1.2774 2.73189,-1.16951 3.54112,0.13985 0.84335,1.36458 0.39117,1.66149 -1.79112,1.17608 z M 208,347 c 0,-0.55 0.675,-1 1.5,-1 0.825,0 1.5,0.45 1.5,1 0,0.55 -0.675,1 -1.5,1 -0.825,0 -1.5,-0.45 -1.5,-1 z M 99,336 c -4.90138,-4.90138 0.743839,-11.95421 7.49482,-9.36362 3.71887,1.42707 3.78569,8.14096 0.10548,10.59831 C 104.56655,338.59265 101.01583,338.01583 99,336 Z m 6.95432,-1.44496 c 1.82073,-2.19384 0.89583,-6.00501 -1.54183,-6.3533 -2.82999,-0.40434 -4.785446,2.17615 -4.00511,5.28527 0.70753,2.81903 3.62719,3.38119 5.54694,1.06803 z m -92.583544,-4.0312 c -0.339819,-0.88555 -0.337261,-1.89069 0.0057,-2.23363 C 13.719408,327.94726 14,328.19167 14,328.83333 c 0,2.64 3.618941,0.93841 5.5,-2.58603 2.248295,-4.21252 5.346651,-5.25779 7.929358,-2.67508 2.354535,2.35453 1.736354,7.8132 -0.929358,8.20642 -1.828482,0.26972 -1.849922,0.20184 -0.25,-0.7915 2.181628,-1.3545 2.292636,-5.56493 0.168213,-6.38015 -2.760311,-1.05923 -3.362226,-0.69276 -5.162228,3.14301 -1.315891,2.80414 -2.454347,3.82995 -4.513555,4.06697 -1.82197,0.20972 -2.96287,-0.22785 -3.371654,-1.29313 z M 91.5,328.78678 c -3.423643,-1.20435 -5.772568,-2.84754 -5.071995,-3.54812 0.65501,-0.65501 9.563591,3.07978 9.568247,4.01134 0.0047,0.93768 -0.728648,0.86213 -4.496252,-0.46322 z M 13,324.66667 c 0,-0.92647 0.777208,-1.65987 1.75,-1.65136 0.998683,0.009 1.320676,0.33573 0.75,0.76164 -0.55,0.41047 -1.3375,1.15358 -1.75,1.65135 -0.4125,0.49777 -0.75,0.15503 -0.75,-0.76163 z m 3.738583,-6.82592 c -0.694251,-0.43058 -0.4864,-1.23579 0.599238,-2.32143 C 18.252019,314.60512 19,314.33929 19,314.92857 c 0,1.52944 8.715777,1.36277 9.337719,-0.17857 0.277413,-0.6875 0.539913,-0.27915 0.583334,0.90745 0.0704,1.92381 -0.527428,2.19455 -5.520291,2.5 -3.079581,0.1884 -6.077561,0.0459 -6.662179,-0.3167 z M 18,305.34427 c -2.124515,-0.85723 -5,-3.48582 -5,-4.57069 0,-0.50404 0.689466,-0.22697 1.532146,0.61571 3.242435,3.24243 13.693273,3.24243 16.935708,0 C 32.310534,300.54661 33,300.26954 33,300.77358 c 0,3.28573 -10.360504,6.4427 -15,4.57069 z m 10.160037,-6.98104 C 27.972612,297.03192 15.635701,294.48908 14.067203,295.45847 13.36465,295.89267 13,294.38943 13,291.05902 13,285.1213 15.365395,282 19.865141,282 c 6.14308,0 9.863923,5.89973 8.87189,14.06718 -0.229326,1.88805 -0.488974,2.92127 -0.576994,2.29605 z m -0.781675,-8.53956 c -0.707772,-2.46785 -1.837034,-3.60541 -4.637024,-4.6711 -3.298036,-1.25524 -3.98259,-1.22452 -6.281747,0.28195 -1.907289,1.2497 -2.499391,2.39169 -2.269971,4.3781 0.281659,2.4387 0.865599,2.78797 6.31038,3.77438 3.3,0.59784 6.408147,0.7297 6.906994,0.293 0.542077,-0.47454 0.530557,-2.10655 -0.02863,-4.05633 z M 13,280.22642 c 0,-0.50405 0.947244,-1.77369 2.104988,-2.82143 C 16.664795,275.99338 18.709561,275.5 23,275.5 c 4.290439,0 6.335205,0.49338 7.895012,1.90499 C 32.052756,278.45273 33,279.72237 33,280.22642 c 0,0.50404 -0.689466,0.22697 -1.532146,-0.61571 -3.242435,-3.24243 -13.693273,-3.24243 -16.935708,0 C 13.689466,280.45339 13,280.73046 13,280.22642 Z m 30.035184,-58.16068 c -1.454672,-2.71808 -1.289206,-10.33609 0.270844,-12.46958 1.795229,-2.45512 5.828628,-1.69592 7.458112,1.40384 1.484149,2.82328 1.034742,9.33248 -0.796689,11.53922 -1.726595,2.08042 -5.71111,1.80827 -6.932267,-0.47348 z m 6.324018,-2.82261 c 1.277964,-4.456 -0.293899,-9.74313 -2.896629,-9.74313 -1.668929,0 -2.008476,0.80509 -2.269369,5.3808 -0.168738,2.95944 -0.0576,6.0302 0.246976,6.82391 0.941178,2.45267 3.940025,0.95199 4.919022,-2.46158 z M 62,223.19617 c 0,-0.44211 1.595449,-2.35021 3.545443,-4.24021 2.762919,-2.67793 3.480235,-4.09887 3.25,-6.43798 -0.322125,-3.27268 -3.396896,-4.75447 -4.910303,-2.36637 -0.660966,1.04298 -0.857983,1.05815 -0.869827,0.067 -0.02302,-1.92593 2.800075,-2.62376 5.548457,-1.37152 3.591849,1.63656 3.201399,5.58773 -0.96377,9.7529 l -3.4,3.4 h 3.9 c 2.145,0 3.9,0.45 3.9,1 0,0.55 -2.25,1 -5,1 -2.75,0 -5,-0.36172 -5,-0.80383 z M 55,216 c 0,-0.55 0.675,-1 1.5,-1 0.825,0 1.5,0.45 1.5,1 0,0.55 -0.675,1 -1.5,1 -0.825,0 -1.5,-0.45 -1.5,-1 z M 43.035184,35.065741 C 41.580512,32.347663 41.745978,24.729655 43.306028,22.59616 45.101257,20.141038 49.134656,20.900245 50.76414,24 c 1.484149,2.823283 1.034742,9.33248 -0.796689,11.539219 -1.726595,2.08042 -5.71111,1.808275 -6.932267,-0.473478 z m 6.324018,-2.822607 C 50.637166,27.787134 49.065303,22.5 46.462573,22.5 c -1.668929,0 -2.008476,0.805087 -2.269369,5.380801 -0.168738,2.95944 -0.0576,6.030198 0.246976,6.823906 0.941178,2.45267 3.940025,0.951989 4.919022,-2.461573 z M 62.015313,35.25 c 0.01169,-1.336311 0.214638,-1.435578 0.858506,-0.419924 0.478924,0.755466 2.092356,1.187479 3.734688,1 4.039358,-0.46111 4.602585,-4.321143 0.878119,-6.018123 -2.594613,-1.182185 -2.605009,-1.224015 -0.497921,-2.003478 1.495217,-0.553117 2.054245,-1.481564 1.831658,-3.042064 -0.365799,-2.564517 -3.651959,-3.639748 -4.935223,-1.614804 -0.655377,1.034162 -0.858083,0.926503 -0.869827,-0.461972 -0.01254,-1.482558 0.66371,-1.754167 3.734687,-1.5 3.041505,0.251727 3.811736,0.745861 4.076764,2.615407 0.17972,1.267773 -0.163329,2.895568 -0.762331,3.617321 -0.80425,0.969062 -0.693555,1.640549 0.423236,2.567403 C 74.127519,33.010573 71.459832,37 65.8,37 62.841786,37 62.003392,36.612336 62.015313,35.25 Z M 55,29 c 0,-0.55 0.675,-1 1.5,-1 0.825,0 1.5,0.45 1.5,1 0,0.55 -0.675,1 -1.5,1 C 55.675,30 55,29.55 55,29 Z"
       id="path216" />
  </g>
</svg>
