\relax 
\providecommand\hyper@newdestlabel[2]{}
\providecommand\HyperFirstAtBeginDocument{\AtBeginDocument}
\HyperFirstAtBeginDocument{\ifx\hyper@anchor\@undefined
\global\let\oldcontentsline\contentsline
\gdef\contentsline#1#2#3#4{\oldcontentsline{#1}{#2}{#3}}
\global\let\oldnewlabel\newlabel
\gdef\newlabel#1#2{\newlabelxx{#1}#2}
\gdef\newlabelxx#1#2#3#4#5#6{\oldnewlabel{#1}{{#2}{#3}}}
\AtEndDocument{\ifx\hyper@anchor\@undefined
\let\contentsline\oldcontentsline
\let\newlabel\oldnewlabel
\fi}
\fi}
\global\let\hyper@last\relax 
\gdef\HyperFirstAtBeginDocument#1{#1}
\providecommand*\HyPL@Entry[1]{}
\providecommand\babel@aux[2]{}
\@nameuse{bbl@beforestart}
\abx@aux@refcontext{nty/global//global/global}
\HyPL@Entry{0<</P(\376\377\0000)>>}
\babel@aux{english}{}
\@writefile{nav}{\headcommand {\slideentry {0}{0}{1}{1/1}{}{0}}}
\@writefile{nav}{\headcommand {\beamer@framepages {1}{1}}}
\HyPL@Entry{1<</P(\376\377\0001)>>}
\@writefile{nav}{\headcommand {\slideentry {0}{0}{2}{2/2}{}{0}}}
\@writefile{nav}{\headcommand {\beamer@framepages {2}{2}}}
\@writefile{toc}{\beamer@sectionintoc {1}{Introduction}{3}{0}{1}}
\@writefile{nav}{\headcommand {\beamer@sectionpages {1}{2}}}
\@writefile{nav}{\headcommand {\beamer@subsectionpages {1}{2}}}
\@writefile{nav}{\headcommand {\sectionentry {1}{Introduction}{3}{Introduction}{0}}}
\@writefile{nav}{\headcommand {\slideentry {1}{0}{1}{3/3}{}{0}}}
\@writefile{nav}{\headcommand {\beamer@framepages {3}{3}}}
\HyPL@Entry{3<</P(\376\377\0002)>>}
\@writefile{toc}{\beamer@subsectionintoc {1}{1}{Background}{4}{0}{1}}
\@writefile{nav}{\headcommand {\beamer@subsectionpages {3}{3}}}
\@writefile{nav}{\headcommand {\beamer@subsectionentry {0}{1}{1}{4}{Background}}}
\@writefile{nav}{\headcommand {\slideentry {1}{1}{1}{4/4}{Background}{0}}}
\@writefile{nav}{\headcommand {\beamer@framepages {4}{4}}}
\HyPL@Entry{4<</P(\376\377\0003)>>}
\@writefile{nav}{\headcommand {\slideentry {1}{1}{2}{5/5}{Background}{0}}}
\@writefile{nav}{\headcommand {\beamer@framepages {5}{5}}}
\HyPL@Entry{5<</P(\376\377\0004)>>}
\@writefile{toc}{\beamer@subsectionintoc {1}{2}{Problem Statement}{6}{0}{1}}
\@writefile{nav}{\headcommand {\beamer@subsectionpages {4}{5}}}
\@writefile{nav}{\headcommand {\beamer@subsectionentry {0}{1}{2}{6}{Problem Statement}}}
\@writefile{nav}{\headcommand {\slideentry {1}{2}{1}{6/6}{Problem Statement}{0}}}
\@writefile{nav}{\headcommand {\beamer@framepages {6}{6}}}
\HyPL@Entry{6<</P(\376\377\0005)>>}
\@writefile{nav}{\headcommand {\slideentry {1}{2}{2}{7/7}{Problem Statement}{0}}}
\@writefile{nav}{\headcommand {\beamer@framepages {7}{7}}}
\HyPL@Entry{7<</P(\376\377\0006)>>}
\@writefile{toc}{\beamer@subsectionintoc {1}{3}{Research Objectives}{8}{0}{1}}
\@writefile{nav}{\headcommand {\beamer@subsectionpages {6}{7}}}
\@writefile{nav}{\headcommand {\beamer@subsectionentry {0}{1}{3}{8}{Research Objectives}}}
\@writefile{nav}{\headcommand {\slideentry {1}{3}{1}{8/8}{Research Objectives}{0}}}
\@writefile{nav}{\headcommand {\beamer@framepages {8}{8}}}
\HyPL@Entry{8<</P(\376\377\0007)>>}
\@writefile{toc}{\beamer@subsectionintoc {1}{4}{Research Scope}{9}{0}{1}}
\@writefile{nav}{\headcommand {\beamer@subsectionpages {8}{8}}}
\@writefile{nav}{\headcommand {\beamer@subsectionentry {0}{1}{4}{9}{Research Scope}}}
\@writefile{nav}{\headcommand {\slideentry {1}{4}{1}{9/9}{Research Scope}{0}}}
\@writefile{nav}{\headcommand {\beamer@framepages {9}{9}}}
\@writefile{toc}{\beamer@sectionintoc {2}{Research Methodology}{10}{0}{2}}
\@writefile{nav}{\headcommand {\beamer@sectionpages {3}{9}}}
\@writefile{nav}{\headcommand {\beamer@subsectionpages {9}{9}}}
\@writefile{nav}{\headcommand {\sectionentry {2}{Research Methodology}{10}{Research Methodology}{0}}}
\@writefile{nav}{\headcommand {\slideentry {2}{0}{1}{10/10}{}{0}}}
\@writefile{nav}{\headcommand {\beamer@framepages {10}{10}}}
\HyPL@Entry{10<</P(\376\377\0008)>>}
\newlabel{research_workflow}{{11}{11}{Research Methodology}{Doc-Start}{}}
\@writefile{snm}{\beamer@slide {research_workflow}{11}}
\@writefile{nav}{\headcommand {\slideentry {2}{0}{2}{11/11}{}{0}}}
\@writefile{nav}{\headcommand {\beamer@framepages {11}{11}}}
\HyPL@Entry{11<</P(\376\377\0009)>>}
\@writefile{nav}{\headcommand {\slideentry {2}{0}{3}{12/12}{}{0}}}
\@writefile{nav}{\headcommand {\beamer@framepages {12}{12}}}
\HyPL@Entry{12<</P(\376\377\0001\0000)>>}
\@writefile{nav}{\headcommand {\slideentry {2}{0}{4}{13/13}{}{0}}}
\@writefile{nav}{\headcommand {\beamer@framepages {13}{13}}}
\HyPL@Entry{13<</P(\376\377\0001\0001)>>}
\@writefile{nav}{\headcommand {\slideentry {2}{0}{5}{14/14}{}{0}}}
\@writefile{nav}{\headcommand {\beamer@framepages {14}{14}}}
\HyPL@Entry{14<</P(\376\377\0001\0002)>>}
\@writefile{snm}{\beamer@slide {eq_k}{15}}
\newlabel{eq_k}{{1}{15}{Research Methodology}{Doc-Start}{}}
\@writefile{nav}{\headcommand {\slideentry {2}{0}{6}{15/15}{}{0}}}
\@writefile{nav}{\headcommand {\beamer@framepages {15}{15}}}
\HyPL@Entry{15<</P(\376\377\0001\0003)>>}
\@writefile{snm}{\beamer@slide {eq_omega}{16}}
\newlabel{eq_omega}{{2}{16}{Research Methodology}{Doc-Start}{}}
\@writefile{snm}{\beamer@slide {eq_nu}{16}}
\newlabel{eq_nu}{{3}{16}{Research Methodology}{Doc-Start}{}}
\@writefile{nav}{\headcommand {\slideentry {2}{0}{7}{16/16}{}{0}}}
\@writefile{nav}{\headcommand {\beamer@framepages {16}{16}}}
\HyPL@Entry{16<</P(\376\377\0001\0004)>>}
\@writefile{nav}{\headcommand {\slideentry {2}{0}{8}{17/17}{}{0}}}
\@writefile{nav}{\headcommand {\beamer@framepages {17}{17}}}
\HyPL@Entry{17<</P(\376\377\0001\0005)>>}
\@writefile{nav}{\headcommand {\slideentry {2}{0}{9}{18/18}{}{0}}}
\@writefile{nav}{\headcommand {\beamer@framepages {18}{18}}}
\@writefile{toc}{\beamer@sectionintoc {3}{Results and Discussion}{19}{0}{3}}
\@writefile{nav}{\headcommand {\beamer@sectionpages {10}{18}}}
\@writefile{nav}{\headcommand {\beamer@subsectionpages {10}{18}}}
\@writefile{nav}{\headcommand {\sectionentry {3}{Results and Discussion}{19}{Results and Discussion}{0}}}
\@writefile{nav}{\headcommand {\slideentry {3}{0}{1}{19/19}{}{0}}}
\@writefile{nav}{\headcommand {\beamer@framepages {19}{19}}}
\HyPL@Entry{19<</P(\376\377\0001\0006)>>}
\@writefile{nav}{\headcommand {\slideentry {3}{0}{2}{20/20}{}{0}}}
\@writefile{nav}{\headcommand {\beamer@framepages {20}{20}}}
\HyPL@Entry{20<</P(\376\377\0001\0007)>>}
\@writefile{nav}{\headcommand {\slideentry {3}{0}{3}{21/21}{}{0}}}
\@writefile{nav}{\headcommand {\beamer@framepages {21}{21}}}
\HyPL@Entry{21<</P(\376\377\0001\0008)>>}
\@writefile{nav}{\headcommand {\slideentry {3}{0}{4}{22/22}{}{0}}}
\@writefile{nav}{\headcommand {\beamer@framepages {22}{22}}}
\HyPL@Entry{22<</P(\376\377\0001\0009)>>}
\@writefile{nav}{\headcommand {\slideentry {3}{0}{5}{23/23}{}{0}}}
\@writefile{nav}{\headcommand {\beamer@framepages {23}{23}}}
\HyPL@Entry{23<</P(\376\377\0002\0000)>>}
\@writefile{nav}{\headcommand {\slideentry {3}{0}{6}{24/24}{}{0}}}
\@writefile{nav}{\headcommand {\beamer@framepages {24}{24}}}
\HyPL@Entry{24<</P(\376\377\0002\0001)>>}
\@writefile{nav}{\headcommand {\slideentry {3}{0}{7}{25/25}{}{0}}}
\@writefile{nav}{\headcommand {\beamer@framepages {25}{25}}}
\HyPL@Entry{25<</P(\376\377\0002\0002)>>}
\@writefile{nav}{\headcommand {\slideentry {3}{0}{8}{26/26}{}{0}}}
\@writefile{nav}{\headcommand {\beamer@framepages {26}{26}}}
\HyPL@Entry{26<</P(\376\377\0002\0003)>>}
\@writefile{nav}{\headcommand {\slideentry {3}{0}{9}{27/27}{}{0}}}
\@writefile{nav}{\headcommand {\beamer@framepages {27}{27}}}
\HyPL@Entry{27<</P(\376\377\0002\0004)>>}
\@writefile{nav}{\headcommand {\slideentry {3}{0}{10}{28/28}{}{0}}}
\@writefile{nav}{\headcommand {\beamer@framepages {28}{28}}}
\HyPL@Entry{28<</P(\376\377\0002\0005)>>}
\@writefile{nav}{\headcommand {\slideentry {3}{0}{11}{29/29}{}{0}}}
\@writefile{nav}{\headcommand {\beamer@framepages {29}{29}}}
\HyPL@Entry{29<</P(\376\377\0002\0006)>>}
\@writefile{nav}{\headcommand {\slideentry {3}{0}{12}{30/30}{}{0}}}
\@writefile{nav}{\headcommand {\beamer@framepages {30}{30}}}
\HyPL@Entry{30<</P(\376\377\0002\0007)>>}
\@writefile{nav}{\headcommand {\slideentry {3}{0}{13}{31/31}{}{0}}}
\@writefile{nav}{\headcommand {\beamer@framepages {31}{31}}}
\HyPL@Entry{31<</P(\376\377\0002\0008)>>}
\@writefile{nav}{\headcommand {\slideentry {3}{0}{14}{32/32}{}{0}}}
\@writefile{nav}{\headcommand {\beamer@framepages {32}{32}}}
\HyPL@Entry{32<</P(\376\377\0002\0009)>>}
\@writefile{nav}{\headcommand {\slideentry {3}{0}{15}{33/33}{}{0}}}
\@writefile{nav}{\headcommand {\beamer@framepages {33}{33}}}
\HyPL@Entry{33<</P(\376\377\0003\0000)>>}
\@writefile{nav}{\headcommand {\slideentry {3}{0}{16}{34/34}{}{0}}}
\@writefile{nav}{\headcommand {\beamer@framepages {34}{34}}}
\HyPL@Entry{34<</P(\376\377\0003\0001)>>}
\@writefile{nav}{\headcommand {\slideentry {3}{0}{17}{35/35}{}{0}}}
\@writefile{nav}{\headcommand {\beamer@framepages {35}{35}}}
\HyPL@Entry{35<</P(\376\377\0003\0002)>>}
\@writefile{nav}{\headcommand {\slideentry {3}{0}{18}{36/36}{}{0}}}
\@writefile{nav}{\headcommand {\beamer@framepages {36}{36}}}
\HyPL@Entry{36<</P(\376\377\0003\0003)>>}
\@writefile{nav}{\headcommand {\slideentry {3}{0}{19}{37/37}{}{0}}}
\@writefile{nav}{\headcommand {\beamer@framepages {37}{37}}}
\HyPL@Entry{37<</P(\376\377\0003\0004)>>}
\@writefile{nav}{\headcommand {\slideentry {3}{0}{20}{38/38}{}{0}}}
\@writefile{nav}{\headcommand {\beamer@framepages {38}{38}}}
\HyPL@Entry{38<</P(\376\377\0003\0005)>>}
\@writefile{nav}{\headcommand {\slideentry {3}{0}{21}{39/39}{}{0}}}
\@writefile{nav}{\headcommand {\beamer@framepages {39}{39}}}
\HyPL@Entry{39<</P(\376\377\0003\0006)>>}
\@writefile{nav}{\headcommand {\slideentry {3}{0}{22}{40/40}{}{0}}}
\@writefile{nav}{\headcommand {\beamer@framepages {40}{40}}}
\HyPL@Entry{40<</P(\376\377\0003\0007)>>}
\@writefile{nav}{\headcommand {\slideentry {3}{0}{23}{41/41}{}{0}}}
\@writefile{nav}{\headcommand {\beamer@framepages {41}{41}}}
\HyPL@Entry{41<</P(\376\377\0003\0008)>>}
\@writefile{nav}{\headcommand {\slideentry {3}{0}{24}{42/42}{}{0}}}
\@writefile{nav}{\headcommand {\beamer@framepages {42}{42}}}
\HyPL@Entry{42<</P(\376\377\0003\0009)>>}
\@writefile{nav}{\headcommand {\slideentry {3}{0}{25}{43/43}{}{0}}}
\@writefile{nav}{\headcommand {\beamer@framepages {43}{43}}}
\HyPL@Entry{43<</P(\376\377\0004\0000)>>}
\@writefile{nav}{\headcommand {\slideentry {3}{0}{26}{44/44}{}{0}}}
\@writefile{nav}{\headcommand {\beamer@framepages {44}{44}}}
\HyPL@Entry{44<</P(\376\377\0004\0001)>>}
\@writefile{nav}{\headcommand {\slideentry {3}{0}{27}{45/45}{}{0}}}
\@writefile{nav}{\headcommand {\beamer@framepages {45}{45}}}
\HyPL@Entry{45<</P(\376\377\0004\0002)>>}
\@writefile{nav}{\headcommand {\slideentry {3}{0}{28}{46/46}{}{0}}}
\@writefile{nav}{\headcommand {\beamer@framepages {46}{46}}}
\HyPL@Entry{46<</P(\376\377\0004\0003)>>}
\@writefile{nav}{\headcommand {\slideentry {3}{0}{29}{47/47}{}{0}}}
\@writefile{nav}{\headcommand {\beamer@framepages {47}{47}}}
\HyPL@Entry{47<</P(\376\377\0004\0004)>>}
\@writefile{nav}{\headcommand {\slideentry {3}{0}{30}{48/48}{}{0}}}
\@writefile{nav}{\headcommand {\beamer@framepages {48}{48}}}
\HyPL@Entry{48<</P(\376\377\0004\0005)>>}
\@writefile{nav}{\headcommand {\slideentry {3}{0}{31}{49/49}{}{0}}}
\@writefile{nav}{\headcommand {\beamer@framepages {49}{49}}}
\HyPL@Entry{49<</P(\376\377\0004\0006)>>}
\@writefile{nav}{\headcommand {\slideentry {3}{0}{32}{50/50}{}{0}}}
\@writefile{nav}{\headcommand {\beamer@framepages {50}{50}}}
\HyPL@Entry{50<</P(\376\377\0004\0007)>>}
\@writefile{nav}{\headcommand {\slideentry {3}{0}{33}{51/51}{}{0}}}
\@writefile{nav}{\headcommand {\beamer@framepages {51}{51}}}
\HyPL@Entry{51<</P(\376\377\0004\0008)>>}
\@writefile{nav}{\headcommand {\slideentry {3}{0}{34}{52/52}{}{0}}}
\@writefile{nav}{\headcommand {\beamer@framepages {52}{52}}}
\HyPL@Entry{52<</P(\376\377\0004\0009)>>}
\@writefile{nav}{\headcommand {\slideentry {3}{0}{35}{53/53}{}{0}}}
\@writefile{nav}{\headcommand {\beamer@framepages {53}{53}}}
\HyPL@Entry{53<</P(\376\377\0005\0000)>>}
\@writefile{nav}{\headcommand {\slideentry {3}{0}{36}{54/54}{}{0}}}
\@writefile{nav}{\headcommand {\beamer@framepages {54}{54}}}
\HyPL@Entry{54<</P(\376\377\0005\0001)>>}
\@writefile{nav}{\headcommand {\slideentry {3}{0}{37}{55/55}{}{0}}}
\@writefile{nav}{\headcommand {\beamer@framepages {55}{55}}}
\HyPL@Entry{55<</P(\376\377\0005\0002)>>}
\@writefile{nav}{\headcommand {\slideentry {3}{0}{38}{56/56}{}{0}}}
\@writefile{nav}{\headcommand {\beamer@framepages {56}{56}}}
\HyPL@Entry{56<</P(\376\377\0005\0003)>>}
\@writefile{nav}{\headcommand {\slideentry {3}{0}{39}{57/57}{}{0}}}
\@writefile{nav}{\headcommand {\beamer@framepages {57}{57}}}
\HyPL@Entry{57<</P(\376\377\0005\0004)>>}
\@writefile{nav}{\headcommand {\slideentry {3}{0}{40}{58/58}{}{0}}}
\@writefile{nav}{\headcommand {\beamer@framepages {58}{58}}}
\HyPL@Entry{58<</P(\376\377\0005\0005)>>}
\@writefile{nav}{\headcommand {\slideentry {3}{0}{41}{59/59}{}{0}}}
\@writefile{nav}{\headcommand {\beamer@framepages {59}{59}}}
\HyPL@Entry{59<</P(\376\377\0005\0006)>>}
\@writefile{nav}{\headcommand {\slideentry {3}{0}{42}{60/60}{}{0}}}
\@writefile{nav}{\headcommand {\beamer@framepages {60}{60}}}
\HyPL@Entry{60<</P(\376\377\0005\0007)>>}
\@writefile{nav}{\headcommand {\slideentry {3}{0}{43}{61/61}{}{0}}}
\@writefile{nav}{\headcommand {\beamer@framepages {61}{61}}}
\HyPL@Entry{61<</P(\376\377\0005\0008)>>}
\@writefile{nav}{\headcommand {\slideentry {3}{0}{44}{62/62}{}{0}}}
\@writefile{nav}{\headcommand {\beamer@framepages {62}{62}}}
\HyPL@Entry{62<</P(\376\377\0005\0009)>>}
\@writefile{nav}{\headcommand {\slideentry {3}{0}{45}{63/63}{}{0}}}
\@writefile{nav}{\headcommand {\beamer@framepages {63}{63}}}
\HyPL@Entry{63<</P(\376\377\0006\0000)>>}
\@writefile{nav}{\headcommand {\slideentry {3}{0}{46}{64/64}{}{0}}}
\@writefile{nav}{\headcommand {\beamer@framepages {64}{64}}}
\HyPL@Entry{64<</P(\376\377\0006\0001)>>}
\@writefile{nav}{\headcommand {\slideentry {3}{0}{47}{65/65}{}{0}}}
\@writefile{nav}{\headcommand {\beamer@framepages {65}{65}}}
\HyPL@Entry{65<</P(\376\377\0006\0002)>>}
\@writefile{nav}{\headcommand {\slideentry {3}{0}{48}{66/66}{}{0}}}
\@writefile{nav}{\headcommand {\beamer@framepages {66}{66}}}
\HyPL@Entry{66<</P(\376\377\0006\0003)>>}
\@writefile{nav}{\headcommand {\slideentry {3}{0}{49}{67/67}{}{0}}}
\@writefile{nav}{\headcommand {\beamer@framepages {67}{67}}}
\HyPL@Entry{67<</P(\376\377\0006\0004)>>}
\@writefile{nav}{\headcommand {\slideentry {3}{0}{50}{68/68}{}{0}}}
\@writefile{nav}{\headcommand {\beamer@framepages {68}{68}}}
\HyPL@Entry{68<</P(\376\377\0006\0005)>>}
\@writefile{nav}{\headcommand {\slideentry {3}{0}{51}{69/69}{}{0}}}
\@writefile{nav}{\headcommand {\beamer@framepages {69}{69}}}
\HyPL@Entry{69<</P(\376\377\0006\0006)>>}
\@writefile{nav}{\headcommand {\slideentry {3}{0}{52}{70/70}{}{0}}}
\@writefile{nav}{\headcommand {\beamer@framepages {70}{70}}}
\HyPL@Entry{70<</P(\376\377\0006\0007)>>}
\@writefile{nav}{\headcommand {\slideentry {3}{0}{53}{71/71}{}{0}}}
\@writefile{nav}{\headcommand {\beamer@framepages {71}{71}}}
\HyPL@Entry{71<</P(\376\377\0006\0008)>>}
\@writefile{nav}{\headcommand {\slideentry {3}{0}{54}{72/72}{}{0}}}
\@writefile{nav}{\headcommand {\beamer@framepages {72}{72}}}
\@writefile{toc}{\beamer@sectionintoc {4}{Conclusions and Recommendations}{73}{0}{4}}
\@writefile{nav}{\headcommand {\beamer@sectionpages {19}{72}}}
\@writefile{nav}{\headcommand {\beamer@subsectionpages {19}{72}}}
\@writefile{nav}{\headcommand {\sectionentry {4}{Conclusions and Recommendations}{73}{Conclusions and Recommendations}{0}}}
\@writefile{nav}{\headcommand {\slideentry {4}{0}{1}{73/73}{}{0}}}
\@writefile{nav}{\headcommand {\beamer@framepages {73}{73}}}
\HyPL@Entry{73<</P(\376\377\0006\0009)>>}
\@writefile{nav}{\headcommand {\slideentry {4}{0}{2}{74/74}{}{0}}}
\@writefile{nav}{\headcommand {\beamer@framepages {74}{74}}}
\HyPL@Entry{74<</P(\376\377\0007\0000)>>}
\@writefile{nav}{\headcommand {\slideentry {4}{0}{3}{75/75}{}{0}}}
\@writefile{nav}{\headcommand {\beamer@framepages {75}{75}}}
\@writefile{nav}{\headcommand {\slideentry {4}{0}{4}{76/76}{}{0}}}
\@writefile{nav}{\headcommand {\beamer@framepages {76}{76}}}
\HyPL@Entry{76<</P(\376\377\0007\0001)>>}
\@writefile{nav}{\headcommand {\slideentry {4}{0}{5}{77/77}{}{0}}}
\@writefile{nav}{\headcommand {\beamer@framepages {77}{77}}}
\@writefile{nav}{\headcommand {\beamer@partpages {1}{77}}}
\@writefile{nav}{\headcommand {\beamer@subsectionpages {73}{77}}}
\@writefile{nav}{\headcommand {\beamer@sectionpages {73}{77}}}
\@writefile{nav}{\headcommand {\beamer@documentpages {77}}}
\@writefile{nav}{\headcommand {\gdef \inserttotalframenumber {71}}}
\gdef\svg@ink@ver@settings{{\m@ne }{inkscape}{1}}
\abx@aux@read@bbl@mdfivesum{D41D8CD98F00B204E9800998ECF8427E}
\gdef \@abspage@last{77}
